0.15388744743670035
0.21856380972903086
0.1677693171888653
0.15149313008061382
0.17054629585910572
0.11694300411944336
0.17520467083782348
0.14768848286340047
0.16950655296374512
0.12534818941504178
0.12446195816914217
0.18297237891759788
0.16888995639642304
0.16416915451726036
0.20968435680254102
0.21228300103128223
0.18493304406373906
0.17664756446991403
0.16832322595888793
0.13998830181321895
0.22811166669884356
0.16699622804539638
0.22828059730157968
0.21925609138484048
0.22816672681342476
0.23662813981428876
0.2554741746863199
0.22554860783388392
0.26172474287090225
0.17411947286740143
0.24225328627407386
0.20029617625281157
0.20569308905257
0.21488475749222918
0.2449004599184727
0.1890881913303438
0.2142980852496873
0.1668933854786601
0.19958055127546653
0.1758020493086939
0.1634402206240199
0.19203193938231344
0.18920312016769184
0.16717312575448529
0.16616772188180742
0.18231558378114313
0.15695554844899265
0.18129253038587106
0.19247555865921787
0.14445972592752157
0.2124681644533382
0.1705659085959618
0.19223501116646624
0.17256951703951495
0.1784221748400853
0.19282132750831554
0.23990498812351543
0.20833066734915862
0.18919322337487873
0.20095535245879007
0.21659943637066917
0.3165006481922638
0.2991257574455994
0.24825092514995434
0.2142252009714404
0.3398097238524742
0.31991514619942685
0.3665030905275535
0.25277353784296935
0.27339569811266984
0.2832488882005443
0.24030232198564788
0.269349681579156
0.2181332127467149
0.2894235249269346
0.22413461538461538
0.3478156176178753
0.383729347640947
0.30555333550556685
0.23768681086480464
0.3376764139300401
0.2841934737329322