0.22265151460841812
0.21930257484029486
0.22162404577104788
0.21936560474126154
0.18602926224374905
0.21225154072025404
0.20980764563835416
0.18273806775783766
0.18220328209989892
0.19720519005695095
0.20069737498703488
0.20438950754328358
0.207114579474968
0.20271346461454015
0.19757898233117496
0.19978430175915038
0.1996922223131903
0.1993259342345298
0.19573269796598936
0.1644561416462746
0.1798166405484549
0.1971125627373613
0.20416286308428186
0.20045400427666762
0.19989748670959093
0.20724160884046858
0.20281804016035554
0.19753910751302117
0.1989851304049548
0.18210501701193244
0.1816679881409579
0.1914268471372403
0.23428362857157076
0.2434113370364459
0.22277350485371222
0.2019505229563848
0.20275874124521037
0.2027698637567075
0.21412603960613427
0.21315564324282035
0.21005893599635958
0.23007941278117897
0.23029490824457916
0.2271731081832272
0.22013418205584206
0.24105932444146264
0.25711699612010175
0.259567451995963
0.23034966397100368
0.23258511410673915
0.22874226102988554
0.2311760805372236
0.24761225015855506
0.23725040731879013
0.2488622948627346
0.2709788567905835
0.2645916846616007
0.2619280716754703
0.2448278045344126
0.2637231674115842
0.2388135290886424
0.22544691426629207
0.22068022958830508
0.21623106127238437
0.22097951502186405
0.20666498143899995
0.21271406366571818
0.2270918045656458
0.2441794247183434
0.2445884174795797
0.2420109483624723
0.23789777772411153
0.23662756592911843
0.2378253295052752
0.20036452572425625
0.19484412229721357
0.19654112435500012
0.2154768425361373
0.21607161095901783
0.2196291257463409
0.22013707048950948
0.21244261659448643
0.2021402674351108
0.19375827019857192
0.17866259531593437
0.1896132813508028
0.20870161756810474
0.19000233017277382
0.2041391636666811
0.20110417576397424
0.20703337007229855
0.21678405901514747
0.21576122600556963
0.21320032999616206
0.20911428731031267
0.19431018851313298
0.20442990641782424
0.1830628014692143
0.17987531610818575
0.18434945251975177
0.17204656743316032
0.20730706271971006
0.22291347527175653
0.23011820905868624
0.23213731758326814
0.2291328415106494
0.16550371715207265
0.20612627299637054
0.19737022663385093
0.21537402700487537
0.19548461264979866
0.20869589325560825
0.2174132273251685
0.23752117160320912
0.23734375321976994
0.22234605726013718
0.22824344550201048
0.25734713273999044
0.25160377273472856
0.19281821927237952
0.19634847749324366
0.20207610979823548
0.2070697323414213
0.22466620495496112
0.1949360770799072
0.172836988188584
0.17416308770312552
0.22335025155422586