0.2596167959086574
0.25693499167983214
0.2582546861020175
0.25602481636802993
0.2727336272523247
0.27913258081286874
0.2783443985323078
0.2626745411625039
0.2628489682421542
0.2661626610044286
0.2680525098424341
0.2728043857812485
0.26928517743868674
0.2647117374890939
0.26231201822165034
0.26717219212974713
0.27197089853692324
0.26968775267769246
0.2592484385316749
0.25683702946094833
0.25503441991559966
0.2561948950665657
0.26178718586596056
0.2590220755067842
0.2583636787831938
0.26451317240139505
0.2657818534159086
0.2622724589336732
0.2698151079040753
0.26242622199066773
0.2621649838798856
0.2574161057417283
0.2705218180807007
0.27332068328597486
0.2706598418266991
0.2708469317281613
0.26983699220195834
0.26175892723281563
0.2630085490080255
0.264383592732035
0.26576625350041344
0.2778657120516273
0.2680175921380582
0.2740442874869956
0.2809582468424111
0.28902087553151073
0.2964632357829587
0.2983268839907567
0.2955236975516181
0.28475194440009133
0.27942850321064766
0.2795692292020271
0.2908662943403695
0.2906417505638031
0.29719568654911027
0.30161770665548115
0.3036574360461362
0.29704089156376995
0.29183462707674335
0.291793676133424
0.2998026492292999
0.28848240888972326
0.2777046733214964
0.2743104509142177
0.2574865665686368
0.26939033761508796
0.28058817152721405
0.27876485429051523
0.2858377816513218
0.28779042421362305
0.2844158037561132
0.28881336980746986
0.27662693800065785
0.27161766593207
0.2697996599013087
0.2703055199468027
0.2711530433468581
0.27670697624291357
0.2823537393800868
0.28204792859873223
0.274691575932312
0.27652598970988435
0.27275876607502986
0.26826793410069016
0.2624317192605724
0.26503771820508637
0.26313432845226886
0.25441037738585265
0.2637087751869235
0.2614663836599505
0.2657528296796471
0.2771982083683138
0.2793985259608672
0.2731933822614164
0.2684686962147818
0.26548122852584943
0.2593984997197951
0.2512997527271556
0.25139005007007764
0.2559563735337548
0.2644073806678255
0.27226895673194473
0.28517480770438963
0.2820243804259293
0.28132173172399216
0.2801718680946288
0.2627024488884328
0.25769105178151647
0.26015258755113124
0.26363794735434987
0.2605832574594483
0.2690862223103692
0.27721928680146407
0.27388446918506537
0.2904311215362115
0.29549279800959993
0.297593587458019
0.28974869541280496
0.2919199409612687
0.2825693430437983
0.28275916610330587
0.28361752065797674
0.28398337962658177
0.28016826985474597
0.26967351329069367
0.25706927331383517
0.27202654746420235
0.2823887763011403