102.23748616932886
101.40064503886536
100.08627695277289
102.65279782872761
45.80442889309082
27.42883218510274
28.355715363238332
27.613129196090554
27.88741506538567
27.242337847424636
35.97331662607992
33.9077057332615
26.703093659114348
29.810406390419146
24.922016438566903
38.59491152167504
40.39807372988034
40.075011123491386
139.90354279783423
142.39100116204972
22.68961592639748
23.811836487775306
23.79050437936055
20.935327111567588
23.995874261406158
57.38843937629858
45.50056585027333
51.75573042342515
43.69851488329212
47.46910881480549
48.1176593785484
49.98903235595715
131.44927268479296
135.7056793939526
174.6965097222635
0.
48.69287376764521
48.50685412366939
45.54797681436075
48.06645366229466
47.438064703786985
98.7459110867127
94.20748727257484
72.38916327439583
78.51365312203097
180.94790921941546
135.619741130871
130.87467193512816
110.21628909807906
135.82022426537637
133.05716151299174
77.24270168856691
80.300308274999
84.81744554853998
122.81054753848866
132.00954351851354
183.47145555724626
226.98662118368767
124.1043845485899
118.05138893888362
124.72721216004146
55.90159823331754
50.785149350498465
52.37993401514248
94.58410361024428
57.99214192362629
39.72649255628366
52.70654799587111
132.60634277171172
121.39861259429375
126.38141949458432
131.123391384181
129.97565250013665
93.62442197751528
49.908001172564695
41.60301924514016
37.91363685387748
50.336707683170886
78.68852640329088
164.99557794966614
104.71055553302179
78.7165549172775
40.51745656447659
39.920447379779205
39.039829472397074
43.5629813822259
58.76101558776474
50.625467422058655
37.703274133012705
38.131809235928024
42.21875930086087
85.41781484414996
95.33405826274696
122.74798025297748
110.94833580095897
0.
100.46626306977653
69.89382844925957
42.41837116139649
44.61819912645851
43.45996156800564
39.98560064179598
207.22492570486224
136.91851358007236
168.8661649516837
122.68079718521224
99.49206983287469
52.287417670657
56.894099055627436
122.65347637584165
124.4446580583478
142.3760631648455
107.80829148247713
109.82858537571809
83.08348356749823
148.89738442208792
117.18814200228651
181.60971968014914
176.742809484415
146.0179100340824
118.93844576806278
104.25854019025226
98.58000944371969
96.27670467724629
54.776536076530356
53.70702815310471
129.57163349044671
117.5488900310458