0.37033016473152186
0.3148200454903593
0.3403869073894235
0.32116143777269895
0.3258884512862137
0.2699547329818932
0.34584817277496094
0.380140306122449
0.34806269319736144
0.3341930235896454
0.40424388933655653
0.36732428573461534
0.20379900065591955
0.37609930917407397
0.2795907287533932
0.3272710656187169
0.4073422773705321
0.32211543254803043
0.2898828896492253
0.3380174756247003
0.3854295078023994
0.3070288823957507
0.36809009443263735
0.35945402298850576
0.3533069878605741
0.3240819871947546
0.32763407146123197
0.34103711651677937
0.3099992855101458
0.3334779439060061
0.3440591784850063
0.3463220202861477
0.33294014480719536
0.26773733674758626
0.3617880072683222
0.41167669050375527
0.3891633634399898
0.33975242026588365
0.36966854923206666
0.3493755899050935
0.3751155995328259
0.28318733904240817
0.32417977212440774
0.31708827304991316
0.36035613657364207
0.30601225800175114
0.30645700903312145
0.3880514797936802
0.29399279682695667
0.3115631867680183
0.36262004801920766
0.3276695238140314
0.3327575858925078
0.3731562541603353
0.3285645792412268
0.273473747454855
0.2667741380119888
0.3599087178132359
0.3248031189892318
0.3371796361505312
0.3714421879317733
0.3131204950360397
0.34790827966367494
0.34200013822655334
0.3515133982521382
0.31078433202082595
0.3153486847496517
0.29066367446618924
0.2908516272315709
0.35827400060976705
0.3202424747750742
0.31368695182173306
0.3400173466515793
0.3418930242301515
0.35088480077388795
0.30558153543743954
0.27400714311140645
0.2662955511519204
0.3195006011658051
0.3276237554503696
0.3617498515286415
0.33404567491707066
0.3145206147065523
0.3480673705611903
0.29659807693277335