0.3252701516869052
0.33162429878112293
0.3306797918194003
0.331260915962923
0.3453671103815986
0.35310943893701685
0.3522452981646773
0.3528863913217635
0.35245172479736553
0.35345381909397067
0.3513209229539275
0.35333071640078384
0.3548103799573368
0.35566750485504645
0.3546983131596749
0.34778716146646604
0.34663921776528384
0.35220060742407816
0.3435913468805162
0.3399551240765898
0.38278424383997994
0.38290464629281146
0.3841358703653212
0.38270575104458315
0.38205634285517387
0.35249604994654915
0.3659031973822226
0.36959820491735773
0.369946355060998
0.3645601185728076
0.3607433182213032
0.36402818710553925
0.3477070988190444
0.3197281458601605
0.34648610243004446
0.
0.35155747065987447
0.34847502558157684
0.35170181818211166
0.34627519876925117
0.345732975883926
0.3486402948553552
0.3505330850245527
0.333827467850272
0.33373668349372415
0.33674531928255513
0.33875704257824046
0.3411610621377791
0.3402739329274047
0.35057292568392795
0.3336824958821746
0.34507618374421334
0.3438050585837417
0.34262325682303263
0.36023548167150093
0.3504440361414651
0.34979913503023735
0.33403829718880995
0.3374248102669099
0.33631700170033735
0.333133211607878
0.3527872136935833
0.35056059992062
0.3502956013112447
0.33223165714724096
0.3413158732194248
0.34576381441380594
0.34556098677798675
0.3503636286414582
0.33362405516189003
0.33453921531672925
0.33731596289295346
0.33893120629301204
0.33669185096695564
0.3502427078425298
0.3475948734798479
0.34928741705524824
0.35178998853372606
0.3403172141897734
0.33212081466201976
0.3316450635318948
0.34077578747546566
0.3531940346700734
0.35843098315649463
0.36441265705915593
0.3517630676834723
0.34191734324858536
0.35387810288875865
0.36071513762371304
0.3563653073358688
0.34594990705127504
0.33477717886423325
0.334414204975531
0.3339425931847608
0.33928046218794
0.
0.33970034733807253
0.340142918418758
0.3621744925642576
0.3628367549994686
0.35791506641845605
0.3646841839841697
0.34850685254892105
0.35058339417253775
0.3313649355327223
0.3441445552732063
0.3691622549595711
0.349432661488742
0.34487935494140864
0.33302764494968917
0.32753928945222965
0.3247186637675949
0.3187146059649831
0.338912240913162
0.34969160719455844
0.3610579160093105
0.3586278063002878
0.34298715754263975
0.3489307863821626
0.3465002390858494
0.3424516720234892
0.3456271621819153
0.3434659230414504
0.34590031842455293
0.3456137301908315
0.34282933644852254
0.33834334944471867
0.3417748648875605