0.20440596195601818
0.2634889492419722
0.2921525615907913
0.25623555435242096
0.2895380315412776
0.16177276704416618
0.26072458467083764
0.2066701515320549
0.24579191946750242
0.2894896281605578
0.2320345076351353
0.2718439672212885
0.3125020305978419
0.3035431760305006
0.2928817387930296
0.31236624078169256
0.21532517586816008
0.27159184231800165
0.27546761007095044
0.3368467169515315
0.2546052246275605
0.37288819726797484
0.3606252255259177
0.1995583407398016
0.2535709250446479
0.2856772227564685
0.26648990728778993
0.3121293158644372
0.3252147166731767
0.17430475658758582
0.31863738582763546
0.26069603744377357
0.3382981502117631
0.27689506544766157
0.2890900761076667
0.24241947548168438
0.3068430283231265
0.24441648494535329
0.29430982566993485
0.36130708518014615
0.3080618762109017
0.26013861516202297
0.31761666620485424
0.2631150273291811
0.31372560824426804
0.3014097085636651
0.3233082843769511
0.2623947125067547
0.26438130613498384
0.28932294174089535
0.35711234585092894
0.18905238368281546
0.3084731905110012
0.2608448493464359
0.35433349821651056
0.2530842149828618
0.30843531058611723
0.3417633591302716
0.29849244280594167
0.33666349420922465
0.32160749807119565
0.3227868763744022
0.3380192754694403
0.30846324837814015
0.2653835578407878
0.33019993519303825
0.2774330235735725
0.32426960803589244
0.34114027702271293
0.3512703253652243
0.3121953154350579
0.2647642484707953
0.35433504237493096
0.2590713585689393
0.295775489233149
0.31777817842547806
0.22384222078625055
0.2850938081778759
0.3508003642880916
0.2985699166560434
0.2959118888594514
0.34206360517413814
0.26813203680475883
0.27091522815884383
0.32908369321701103
0.3595202312202331
0.31009479547572255
0.29125866633626696
0.30458144913169355
0.19024662708233184
0.2848049949961274
0.32175595559940673
0.3674000091445863
0.28856851547862744
0.3017641667387442
0.2926885901267658
0.27290902378396376
0.27118790189794406
0.2724472186390447
0.30434057442715656
0.28897225947534466
0.3010854612783777
0.33663531994253815
0.31021880222922105
0.3152562475924361