%!PS-Adobe-3.0 EPSF-3.0
%%Creator: (MATLAB, The Mathworks, Inc. Version 9.2.0.556344 \(R2017a\). Operating System: Windows 8)
%%Title: D:/home/Faculta/fbnc/Matlab/Plots/metrics_v1/pearson/gcc_pearson_R.eps
%%CreationDate: 2017-07-02T15:16:00
%%Pages: (atend)
%%BoundingBox: 0 0 1440 730
%%LanguageLevel: 3
%%EndComments
%%BeginProlog
%%BeginResource: procset (Apache XML Graphics Std ProcSet) 1.2 0
%%Version: 1.2 0
%%Copyright: (Copyright 2001-2003,2010 The Apache Software Foundation. License terms: http://www.apache.org/licenses/LICENSE-2.0)
/bd{bind def}bind def
/ld{load def}bd
/GR/grestore ld
/M/moveto ld
/LJ/setlinejoin ld
/C/curveto ld
/f/fill ld
/LW/setlinewidth ld
/GC/setgray ld
/t/show ld
/N/newpath ld
/CT/concat ld
/cp/closepath ld
/S/stroke ld
/L/lineto ld
/CC/setcmykcolor ld
/A/ashow ld
/GS/gsave ld
/RC/setrgbcolor ld
/RM/rmoveto ld
/ML/setmiterlimit ld
/re {4 2 roll M
1 index 0 rlineto
0 exch rlineto
neg 0 rlineto
cp } bd
/_ctm matrix def
/_tm matrix def
/BT { _ctm currentmatrix pop matrix _tm copy pop 0 0 moveto } bd
/ET { _ctm setmatrix } bd
/iTm { _ctm setmatrix _tm concat } bd
/Tm { _tm astore pop iTm 0 0 moveto } bd
/ux 0.0 def
/uy 0.0 def
/F {
  /Tp exch def
  /Tf exch def
  Tf findfont Tp scalefont setfont
  /cf Tf def  /cs Tp def
} bd
/ULS {currentpoint /uy exch def /ux exch def} bd
/ULE {
  /Tcx currentpoint pop def
  gsave
  newpath
  cf findfont cs scalefont dup
  /FontMatrix get 0 get /Ts exch def /FontInfo get dup
  /UnderlinePosition get Ts mul /To exch def
  /UnderlineThickness get Ts mul /Tt exch def
  ux uy To add moveto  Tcx uy To add lineto
  Tt setlinewidth stroke
  grestore
} bd
/OLE {
  /Tcx currentpoint pop def
  gsave
  newpath
  cf findfont cs scalefont dup
  /FontMatrix get 0 get /Ts exch def /FontInfo get dup
  /UnderlinePosition get Ts mul /To exch def
  /UnderlineThickness get Ts mul /Tt exch def
  ux uy To add cs add moveto Tcx uy To add cs add lineto
  Tt setlinewidth stroke
  grestore
} bd
/SOE {
  /Tcx currentpoint pop def
  gsave
  newpath
  cf findfont cs scalefont dup
  /FontMatrix get 0 get /Ts exch def /FontInfo get dup
  /UnderlinePosition get Ts mul /To exch def
  /UnderlineThickness get Ts mul /Tt exch def
  ux uy To add cs 10 mul 26 idiv add moveto Tcx uy To add cs 10 mul 26 idiv add lineto
  Tt setlinewidth stroke
  grestore
} bd
/QT {
/Y22 exch store
/X22 exch store
/Y21 exch store
/X21 exch store
currentpoint
/Y21 load 2 mul add 3 div exch
/X21 load 2 mul add 3 div exch
/X21 load 2 mul /X22 load add 3 div
/Y21 load 2 mul /Y22 load add 3 div
/X22 load /Y22 load curveto
} bd
/SSPD {
dup length /d exch dict def
{
/v exch def
/k exch def
currentpagedevice k known {
/cpdv currentpagedevice k get def
v cpdv ne {
/upd false def
/nullv v type /nulltype eq def
/nullcpdv cpdv type /nulltype eq def
nullv nullcpdv or
{
/upd true def
} {
/sametype v type cpdv type eq def
sametype {
v type /arraytype eq {
/vlen v length def
/cpdvlen cpdv length def
vlen cpdvlen eq {
0 1 vlen 1 sub {
/i exch def
/obj v i get def
/cpdobj cpdv i get def
obj cpdobj ne {
/upd true def
exit
} if
} for
} {
/upd true def
} ifelse
} {
v type /dicttype eq {
v {
/dv exch def
/dk exch def
/cpddv cpdv dk get def
dv cpddv ne {
/upd true def
exit
} if
} forall
} {
/upd true def
} ifelse
} ifelse
} if
} ifelse
upd true eq {
d k v put
} if
} if
} if
} forall
d length 0 gt {
d setpagedevice
} if
} bd
/RE { % /NewFontName [NewEncodingArray] /FontName RE -
  findfont dup length dict begin
  {
    1 index /FID ne
    {def} {pop pop} ifelse
  } forall
  /Encoding exch def
  /FontName 1 index def
  currentdict definefont pop
  end
} bind def
%%EndResource
%%BeginResource: procset (Apache XML Graphics EPS ProcSet) 1.0 0
%%Version: 1.0 0
%%Copyright: (Copyright 2002-2003 The Apache Software Foundation. License terms: http://www.apache.org/licenses/LICENSE-2.0)
/BeginEPSF { %def
/b4_Inc_state save def         % Save state for cleanup
/dict_count countdictstack def % Count objects on dict stack
/op_count count 1 sub def      % Count objects on operand stack
userdict begin                 % Push userdict on dict stack
/showpage { } def              % Redefine showpage, { } = null proc
0 setgray 0 setlinecap         % Prepare graphics state
1 setlinewidth 0 setlinejoin
10 setmiterlimit [ ] 0 setdash newpath
/languagelevel where           % If level not equal to 1 then
{pop languagelevel             % set strokeadjust and
1 ne                           % overprint to their defaults.
{false setstrokeadjust false setoverprint
} if
} if
} bd
/EndEPSF { %def
count op_count sub {pop} repeat            % Clean up stacks
countdictstack dict_count sub {end} repeat
b4_Inc_state restore
} bd
%%EndResource
%FOPBeginFontDict
%%IncludeResource: font Courier-Bold
%%IncludeResource: font Helvetica
%%IncludeResource: font Courier-BoldOblique
%%IncludeResource: font Courier-Oblique
%%IncludeResource: font Times-Roman
%%IncludeResource: font Helvetica-BoldOblique
%%IncludeResource: font Helvetica-Bold
%%IncludeResource: font Helvetica-Oblique
%%IncludeResource: font Times-BoldItalic
%%IncludeResource: font Courier
%%IncludeResource: font Times-Italic
%%IncludeResource: font Times-Bold
%%IncludeResource: font Symbol
%%IncludeResource: font ZapfDingbats
%FOPEndFontDict
%%BeginResource: encoding WinAnsiEncoding
/WinAnsiEncoding [
/.notdef /.notdef /.notdef /.notdef /.notdef
/.notdef /.notdef /.notdef /.notdef /.notdef
/.notdef /.notdef /.notdef /.notdef /.notdef
/.notdef /.notdef /.notdef /.notdef /.notdef
/.notdef /.notdef /.notdef /.notdef /.notdef
/.notdef /.notdef /.notdef /.notdef /.notdef
/.notdef /.notdef /space /exclam /quotedbl
/numbersign /dollar /percent /ampersand /quotesingle
/parenleft /parenright /asterisk /plus /comma
/hyphen /period /slash /zero /one
/two /three /four /five /six
/seven /eight /nine /colon /semicolon
/less /equal /greater /question /at
/A /B /C /D /E
/F /G /H /I /J
/K /L /M /N /O
/P /Q /R /S /T
/U /V /W /X /Y
/Z /bracketleft /backslash /bracketright /asciicircum
/underscore /quoteleft /a /b /c
/d /e /f /g /h
/i /j /k /l /m
/n /o /p /q /r
/s /t /u /v /w
/x /y /z /braceleft /bar
/braceright /asciitilde /bullet /Euro /bullet
/quotesinglbase /florin /quotedblbase /ellipsis /dagger
/daggerdbl /circumflex /perthousand /Scaron /guilsinglleft
/OE /bullet /Zcaron /bullet /bullet
/quoteleft /quoteright /quotedblleft /quotedblright /bullet
/endash /emdash /asciitilde /trademark /scaron
/guilsinglright /oe /bullet /zcaron /Ydieresis
/space /exclamdown /cent /sterling /currency
/yen /brokenbar /section /dieresis /copyright
/ordfeminine /guillemotleft /logicalnot /sfthyphen /registered
/macron /degree /plusminus /twosuperior /threesuperior
/acute /mu /paragraph /middot /cedilla
/onesuperior /ordmasculine /guillemotright /onequarter /onehalf
/threequarters /questiondown /Agrave /Aacute /Acircumflex
/Atilde /Adieresis /Aring /AE /Ccedilla
/Egrave /Eacute /Ecircumflex /Edieresis /Igrave
/Iacute /Icircumflex /Idieresis /Eth /Ntilde
/Ograve /Oacute /Ocircumflex /Otilde /Odieresis
/multiply /Oslash /Ugrave /Uacute /Ucircumflex
/Udieresis /Yacute /Thorn /germandbls /agrave
/aacute /acircumflex /atilde /adieresis /aring
/ae /ccedilla /egrave /eacute /ecircumflex
/edieresis /igrave /iacute /icircumflex /idieresis
/eth /ntilde /ograve /oacute /ocircumflex
/otilde /odieresis /divide /oslash /ugrave
/uacute /ucircumflex /udieresis /yacute /thorn
/ydieresis
] def
%%EndResource
%FOPBeginFontReencode
/Courier-Bold findfont
dup length dict begin
  {1 index /FID ne {def} {pop pop} ifelse} forall
  /Encoding WinAnsiEncoding def
  currentdict
end
/Courier-Bold exch definefont pop
/Helvetica findfont
dup length dict begin
  {1 index /FID ne {def} {pop pop} ifelse} forall
  /Encoding WinAnsiEncoding def
  currentdict
end
/Helvetica exch definefont pop
/Courier-BoldOblique findfont
dup length dict begin
  {1 index /FID ne {def} {pop pop} ifelse} forall
  /Encoding WinAnsiEncoding def
  currentdict
end
/Courier-BoldOblique exch definefont pop
/Courier-Oblique findfont
dup length dict begin
  {1 index /FID ne {def} {pop pop} ifelse} forall
  /Encoding WinAnsiEncoding def
  currentdict
end
/Courier-Oblique exch definefont pop
/Times-Roman findfont
dup length dict begin
  {1 index /FID ne {def} {pop pop} ifelse} forall
  /Encoding WinAnsiEncoding def
  currentdict
end
/Times-Roman exch definefont pop
/Helvetica-BoldOblique findfont
dup length dict begin
  {1 index /FID ne {def} {pop pop} ifelse} forall
  /Encoding WinAnsiEncoding def
  currentdict
end
/Helvetica-BoldOblique exch definefont pop
/Helvetica-Bold findfont
dup length dict begin
  {1 index /FID ne {def} {pop pop} ifelse} forall
  /Encoding WinAnsiEncoding def
  currentdict
end
/Helvetica-Bold exch definefont pop
/Helvetica-Oblique findfont
dup length dict begin
  {1 index /FID ne {def} {pop pop} ifelse} forall
  /Encoding WinAnsiEncoding def
  currentdict
end
/Helvetica-Oblique exch definefont pop
/Times-BoldItalic findfont
dup length dict begin
  {1 index /FID ne {def} {pop pop} ifelse} forall
  /Encoding WinAnsiEncoding def
  currentdict
end
/Times-BoldItalic exch definefont pop
/Courier findfont
dup length dict begin
  {1 index /FID ne {def} {pop pop} ifelse} forall
  /Encoding WinAnsiEncoding def
  currentdict
end
/Courier exch definefont pop
/Times-Italic findfont
dup length dict begin
  {1 index /FID ne {def} {pop pop} ifelse} forall
  /Encoding WinAnsiEncoding def
  currentdict
end
/Times-Italic exch definefont pop
/Times-Bold findfont
dup length dict begin
  {1 index /FID ne {def} {pop pop} ifelse} forall
  /Encoding WinAnsiEncoding def
  currentdict
end
/Times-Bold exch definefont pop
%FOPEndFontReencode
%%EndProlog
%%Page: 1 1
%%PageBoundingBox: 0 0 1440 730
%%BeginPageSetup
[1 0 0 -1 0 730] CT
%%EndPageSetup
GS
[0.75 0 0 0.75 0 0.25] CT
N
0 0 M
1920 0 L
1920 973 L
0 973 L
0 0 L
cp
clip
1 GC
N
0 0 1920 973 re
f
GR
GS
[0.75 0 0 0.75 0 0.25] CT
1 GC
N
0 0 1920 973 re
f
GR
GS
[0.75 0 0 0.75 0 0.25] CT
1 GC
N
250 276 M
659 276 L
659 139 L
250 139 L
cp
f
GR
GS
[0.75 0 0 0.75 0 0.25] CT
0.149 GC
2 setlinecap
1 LJ
0.667 LW
N
250 276 M
659 276 L
S
GR
GS
[0.75 0 0 0.75 0 0.25] CT
0.149 GC
2 setlinecap
1 LJ
0.667 LW
N
250 139 M
659 139 L
S
GR
GS
[0.75 0 0 0.75 0 0.25] CT
0.149 GC
2 setlinecap
1 LJ
0.667 LW
N
250 276 M
250 271.91 L
S
GR
GS
[0.75 0 0 0.75 0 0.25] CT
0.149 GC
2 setlinecap
1 LJ
0.667 LW
N
308.429 276 M
308.429 271.91 L
S
GR
GS
[0.75 0 0 0.75 0 0.25] CT
0.149 GC
2 setlinecap
1 LJ
0.667 LW
N
366.857 276 M
366.857 271.91 L
S
GR
GS
[0.75 0 0 0.75 0 0.25] CT
0.149 GC
2 setlinecap
1 LJ
0.667 LW
N
425.286 276 M
425.286 271.91 L
S
GR
GS
[0.75 0 0 0.75 0 0.25] CT
0.149 GC
2 setlinecap
1 LJ
0.667 LW
N
483.714 276 M
483.714 271.91 L
S
GR
GS
[0.75 0 0 0.75 0 0.25] CT
0.149 GC
2 setlinecap
1 LJ
0.667 LW
N
542.143 276 M
542.143 271.91 L
S
GR
GS
[0.75 0 0 0.75 0 0.25] CT
0.149 GC
2 setlinecap
1 LJ
0.667 LW
N
600.571 276 M
600.571 271.91 L
S
GR
GS
[0.75 0 0 0.75 0 0.25] CT
0.149 GC
2 setlinecap
1 LJ
0.667 LW
N
659 276 M
659 271.91 L
S
GR
GS
[0.75 0 0 0.75 0 0.25] CT
0.149 GC
2 setlinecap
1 LJ
0.667 LW
N
250 139 M
250 143.09 L
S
GR
GS
[0.75 0 0 0.75 0 0.25] CT
0.149 GC
2 setlinecap
1 LJ
0.667 LW
N
308.429 139 M
308.429 143.09 L
S
GR
GS
[0.75 0 0 0.75 0 0.25] CT
0.149 GC
2 setlinecap
1 LJ
0.667 LW
N
366.857 139 M
366.857 143.09 L
S
GR
GS
[0.75 0 0 0.75 0 0.25] CT
0.149 GC
2 setlinecap
1 LJ
0.667 LW
N
425.286 139 M
425.286 143.09 L
S
GR
GS
[0.75 0 0 0.75 0 0.25] CT
0.149 GC
2 setlinecap
1 LJ
0.667 LW
N
483.714 139 M
483.714 143.09 L
S
GR
GS
[0.75 0 0 0.75 0 0.25] CT
0.149 GC
2 setlinecap
1 LJ
0.667 LW
N
542.143 139 M
542.143 143.09 L
S
GR
GS
[0.75 0 0 0.75 0 0.25] CT
0.149 GC
2 setlinecap
1 LJ
0.667 LW
N
600.571 139 M
600.571 143.09 L
S
GR
GS
[0.75 0 0 0.75 0 0.25] CT
0.149 GC
2 setlinecap
1 LJ
0.667 LW
N
659 139 M
659 143.09 L
S
GR
GS
[0.75 0 0 0.75 187.5 211.24998] CT
0.149 GC
/Helvetica 13.333 F
GS
[1 0 0 1 0 0] CT
-4 14 moveto 
1 -1 scale
(0) t 
GR
GR
GS
[0.75 0 0 0.75 231.32142 211.24998] CT
0.149 GC
/Helvetica 13.333 F
GS
[1 0 0 1 0 0] CT
-7.5 14 moveto 
1 -1 scale
(10) t 
GR
GR
GS
[0.75 0 0 0.75 275.14286 211.24998] CT
0.149 GC
/Helvetica 13.333 F
GS
[1 0 0 1 0 0] CT
-7.5 14 moveto 
1 -1 scale
(20) t 
GR
GR
GS
[0.75 0 0 0.75 318.96428 211.24998] CT
0.149 GC
/Helvetica 13.333 F
GS
[1 0 0 1 0 0] CT
-7.5 14 moveto 
1 -1 scale
(30) t 
GR
GR
GS
[0.75 0 0 0.75 362.78572 211.24998] CT
0.149 GC
/Helvetica 13.333 F
GS
[1 0 0 1 0 0] CT
-7.5 14 moveto 
1 -1 scale
(40) t 
GR
GR
GS
[0.75 0 0 0.75 406.60716 211.24998] CT
0.149 GC
/Helvetica 13.333 F
GS
[1 0 0 1 0 0] CT
-7.5 14 moveto 
1 -1 scale
(50) t 
GR
GR
GS
[0.75 0 0 0.75 450.42856 211.24998] CT
0.149 GC
/Helvetica 13.333 F
GS
[1 0 0 1 0 0] CT
-7.5 14 moveto 
1 -1 scale
(60) t 
GR
GR
GS
[0.75 0 0 0.75 494.25 211.24998] CT
0.149 GC
/Helvetica 13.333 F
GS
[1 0 0 1 0 0] CT
-7.5 14 moveto 
1 -1 scale
(70) t 
GR
GR
GS
[0.75 0 0 0.75 340.87516 224.99999] CT
0.149 GC
/Helvetica 14.667 F
GS
[1 0 0 1 0 0] CT
-30.5 16 moveto 
1 -1 scale
(channels) t 
GR
GR
GS
[0.75 0 0 0.75 0 0.25] CT
0.149 GC
2 setlinecap
1 LJ
0.667 LW
N
250 276 M
250 139 L
S
GR
GS
[0.75 0 0 0.75 0 0.25] CT
0.149 GC
2 setlinecap
1 LJ
0.667 LW
N
659 276 M
659 139 L
S
GR
GS
[0.75 0 0 0.75 0 0.25] CT
0.149 GC
2 setlinecap
1 LJ
0.667 LW
N
250 276 M
254.09 276 L
S
GR
GS
[0.75 0 0 0.75 0 0.25] CT
0.149 GC
2 setlinecap
1 LJ
0.667 LW
N
250 230.333 M
254.09 230.333 L
S
GR
GS
[0.75 0 0 0.75 0 0.25] CT
0.149 GC
2 setlinecap
1 LJ
0.667 LW
N
250 184.667 M
254.09 184.667 L
S
GR
GS
[0.75 0 0 0.75 0 0.25] CT
0.149 GC
2 setlinecap
1 LJ
0.667 LW
N
250 139 M
254.09 139 L
S
GR
GS
[0.75 0 0 0.75 0 0.25] CT
0.149 GC
2 setlinecap
1 LJ
0.667 LW
N
659 276 M
654.91 276 L
S
GR
GS
[0.75 0 0 0.75 0 0.25] CT
0.149 GC
2 setlinecap
1 LJ
0.667 LW
N
659 230.333 M
654.91 230.333 L
S
GR
GS
[0.75 0 0 0.75 0 0.25] CT
0.149 GC
2 setlinecap
1 LJ
0.667 LW
N
659 184.667 M
654.91 184.667 L
S
GR
GS
[0.75 0 0 0.75 0 0.25] CT
0.149 GC
2 setlinecap
1 LJ
0.667 LW
N
659 139 M
654.91 139 L
S
GR
GS
[0.75 0 0 0.75 183.5 207.25] CT
0.149 GC
/Helvetica 13.333 F
GS
[1 0 0 1 0 0] CT
-19 5.5 moveto 
1 -1 scale
(0.6) t 
GR
GR
GS
[0.75 0 0 0.75 183.5 173.00001] CT
0.149 GC
/Helvetica 13.333 F
GS
[1 0 0 1 0 0] CT
-19 5.5 moveto 
1 -1 scale
(0.7) t 
GR
GR
GS
[0.75 0 0 0.75 183.5 138.74999] CT
0.149 GC
/Helvetica 13.333 F
GS
[1 0 0 1 0 0] CT
-19 5.5 moveto 
1 -1 scale
(0.8) t 
GR
GR
GS
[0.75 0 0 0.75 183.5 104.50001] CT
0.149 GC
/Helvetica 13.333 F
GS
[1 0 0 1 0 0] CT
-19 5.5 moveto 
1 -1 scale
(0.9) t 
GR
GR
GS
[0 -0.75 0.75 0 166.25 155.87495] CT
0.149 GC
/Helvetica 14.667 F
GS
[1 0 0 1 0 0] CT
-10.5 -4 moveto 
1 -1 scale
(BC) t 
GR
GR
GS
[0.75 0 0 0.75 304.5 99.25] CT
/Helvetica-Bold 14.667 F
GS
[1 0 0 1 0 0] CT
0 0 moveto 
1 -1 scale
(SEEN \(129_1\)) t 
GR
GR
GS
[0.75 0 0 0.75 0 0.25] CT
0 0.447 0.741 RC
1 LJ
0.667 LW
N
255.843 203.675 M
261.686 199.062 L
267.529 224.075 L
273.371 197.754 L
279.214 200.363 L
285.057 262.377 L
290.9 201.938 L
296.743 179.792 L
302.586 241.439 L
308.429 188.598 L
314.271 195.063 L
320.114 239.219 L
325.957 199.255 L
331.8 197.41 L
337.643 209.924 L
343.486 206.634 L
349.329 210.296 L
355.171 229.922 L
361.014 235.651 L
366.857 229.176 L
372.7 201.028 L
378.543 208.578 L
384.386 210.284 L
390.229 197.783 L
396.071 213.983 L
401.914 223.001 L
407.757 184.212 L
413.6 232.762 L
419.443 216.671 L
425.286 215.021 L
431.129 239.804 L
436.971 183.37 L
442.814 200.675 L
448.657 226.072 L
454.5 240.245 L
460.343 212.563 L
466.186 219.951 L
472.029 172.927 L
477.871 213.13 L
483.714 223.138 L
489.557 235.436 L
495.4 237.077 L
501.243 223.854 L
507.086 227.389 L
512.929 251.804 L
518.771 245.549 L
524.614 182.962 L
530.457 216.202 L
536.3 203.923 L
542.143 220.862 L
547.986 205.235 L
553.829 246.628 L
559.671 252.221 L
565.514 206.001 L
571.357 194.1 L
577.2 200.287 L
583.043 241.67 L
588.886 189.795 L
594.729 212.137 L
600.571 216.419 L
606.414 234.942 L
612.257 222.507 L
618.1 228.275 L
S
GR
GS
[0.75 0 0 0.75 0 0.25] CT
0.851 0.325 0.098 RC
1 LJ
0.667 LW
N
255.843 233.133 M
261.686 219.371 L
267.529 171.641 L
273.371 222.775 L
279.214 207.896 L
285.057 232.763 L
290.9 233.826 L
296.743 228.309 L
302.586 252.375 L
308.429 196.684 L
314.271 216.299 L
320.114 213.353 L
325.957 190.597 L
331.8 241.432 L
337.643 244.961 L
343.486 208.404 L
349.329 187.505 L
355.171 213.289 L
361.014 211.416 L
366.857 224.353 L
372.7 246.739 L
378.543 236.153 L
384.386 210.921 L
390.229 217.549 L
396.071 250.521 L
401.914 221.949 L
407.757 204.579 L
413.6 248.151 L
419.443 217.04 L
425.286 236.287 L
431.129 246.454 L
436.971 218.967 L
442.814 237.535 L
448.657 222.117 L
454.5 190.831 L
460.343 206.393 L
466.186 205.715 L
472.029 206.836 L
477.871 224.727 L
483.714 215.693 L
489.557 239.918 L
495.4 197.948 L
501.243 238.108 L
507.086 212.533 L
512.929 239.989 L
518.771 218.285 L
524.614 200.961 L
530.457 242.813 L
536.3 229.127 L
542.143 236.861 L
547.986 191.316 L
553.829 237.58 L
559.671 216.389 L
565.514 237.495 L
571.357 194.729 L
577.2 228.769 L
583.043 208.306 L
588.886 253.299 L
594.729 226.643 L
600.571 249.227 L
606.414 208.586 L
612.257 192.837 L
618.1 192.519 L
S
GR
GS
[0.75 0 0 0.75 0 0.25] CT
1 GC
N
789 276 M
1198 276 L
1198 139 L
789 139 L
cp
f
GR
GS
[0.75 0 0 0.75 0 0.25] CT
0.149 GC
2 setlinecap
1 LJ
0.667 LW
N
789 276 M
1198 276 L
S
GR
GS
[0.75 0 0 0.75 0 0.25] CT
0.149 GC
2 setlinecap
1 LJ
0.667 LW
N
789 139 M
1198 139 L
S
GR
GS
[0.75 0 0 0.75 0 0.25] CT
0.149 GC
2 setlinecap
1 LJ
0.667 LW
N
789 276 M
789 271.91 L
S
GR
GS
[0.75 0 0 0.75 0 0.25] CT
0.149 GC
2 setlinecap
1 LJ
0.667 LW
N
857.167 276 M
857.167 271.91 L
S
GR
GS
[0.75 0 0 0.75 0 0.25] CT
0.149 GC
2 setlinecap
1 LJ
0.667 LW
N
925.333 276 M
925.333 271.91 L
S
GR
GS
[0.75 0 0 0.75 0 0.25] CT
0.149 GC
2 setlinecap
1 LJ
0.667 LW
N
993.5 276 M
993.5 271.91 L
S
GR
GS
[0.75 0 0 0.75 0 0.25] CT
0.149 GC
2 setlinecap
1 LJ
0.667 LW
N
1061.667 276 M
1061.667 271.91 L
S
GR
GS
[0.75 0 0 0.75 0 0.25] CT
0.149 GC
2 setlinecap
1 LJ
0.667 LW
N
1129.833 276 M
1129.833 271.91 L
S
GR
GS
[0.75 0 0 0.75 0 0.25] CT
0.149 GC
2 setlinecap
1 LJ
0.667 LW
N
1198 276 M
1198 271.91 L
S
GR
GS
[0.75 0 0 0.75 0 0.25] CT
0.149 GC
2 setlinecap
1 LJ
0.667 LW
N
789 139 M
789 143.09 L
S
GR
GS
[0.75 0 0 0.75 0 0.25] CT
0.149 GC
2 setlinecap
1 LJ
0.667 LW
N
857.167 139 M
857.167 143.09 L
S
GR
GS
[0.75 0 0 0.75 0 0.25] CT
0.149 GC
2 setlinecap
1 LJ
0.667 LW
N
925.333 139 M
925.333 143.09 L
S
GR
GS
[0.75 0 0 0.75 0 0.25] CT
0.149 GC
2 setlinecap
1 LJ
0.667 LW
N
993.5 139 M
993.5 143.09 L
S
GR
GS
[0.75 0 0 0.75 0 0.25] CT
0.149 GC
2 setlinecap
1 LJ
0.667 LW
N
1061.667 139 M
1061.667 143.09 L
S
GR
GS
[0.75 0 0 0.75 0 0.25] CT
0.149 GC
2 setlinecap
1 LJ
0.667 LW
N
1129.833 139 M
1129.833 143.09 L
S
GR
GS
[0.75 0 0 0.75 0 0.25] CT
0.149 GC
2 setlinecap
1 LJ
0.667 LW
N
1198 139 M
1198 143.09 L
S
GR
GS
[0.75 0 0 0.75 591.75 211.25003] CT
0.149 GC
/Helvetica 13.333 F
GS
[1 0 0 1 0 0] CT
-4 14 moveto 
1 -1 scale
(0) t 
GR
GR
GS
[0.75 0 0 0.75 642.87502 211.25003] CT
0.149 GC
/Helvetica 13.333 F
GS
[1 0 0 1 0 0] CT
-7.5 14 moveto 
1 -1 scale
(10) t 
GR
GR
GS
[0.75 0 0 0.75 693.99998 211.25003] CT
0.149 GC
/Helvetica 13.333 F
GS
[1 0 0 1 0 0] CT
-7.5 14 moveto 
1 -1 scale
(20) t 
GR
GR
GS
[0.75 0 0 0.75 745.125 211.25003] CT
0.149 GC
/Helvetica 13.333 F
GS
[1 0 0 1 0 0] CT
-7.5 14 moveto 
1 -1 scale
(30) t 
GR
GR
GS
[0.75 0 0 0.75 796.24997 211.25003] CT
0.149 GC
/Helvetica 13.333 F
GS
[1 0 0 1 0 0] CT
-7.5 14 moveto 
1 -1 scale
(40) t 
GR
GR
GS
[0.75 0 0 0.75 847.37503 211.25003] CT
0.149 GC
/Helvetica 13.333 F
GS
[1 0 0 1 0 0] CT
-7.5 14 moveto 
1 -1 scale
(50) t 
GR
GR
GS
[0.75 0 0 0.75 898.5 211.25003] CT
0.149 GC
/Helvetica 13.333 F
GS
[1 0 0 1 0 0] CT
-7.5 14 moveto 
1 -1 scale
(60) t 
GR
GR
GS
[0.75 0 0 0.75 745.12514 225.00002] CT
0.149 GC
/Helvetica 14.667 F
GS
[1 0 0 1 0 0] CT
-30.5 16 moveto 
1 -1 scale
(channels) t 
GR
GR
GS
[0.75 0 0 0.75 0 0.25] CT
0.149 GC
2 setlinecap
1 LJ
0.667 LW
N
789 276 M
789 139 L
S
GR
GS
[0.75 0 0 0.75 0 0.25] CT
0.149 GC
2 setlinecap
1 LJ
0.667 LW
N
1198 276 M
1198 139 L
S
GR
GS
[0.75 0 0 0.75 0 0.25] CT
0.149 GC
2 setlinecap
1 LJ
0.667 LW
N
789 276 M
793.09 276 L
S
GR
GS
[0.75 0 0 0.75 0 0.25] CT
0.149 GC
2 setlinecap
1 LJ
0.667 LW
N
789 241.75 M
793.09 241.75 L
S
GR
GS
[0.75 0 0 0.75 0 0.25] CT
0.149 GC
2 setlinecap
1 LJ
0.667 LW
N
789 207.5 M
793.09 207.5 L
S
GR
GS
[0.75 0 0 0.75 0 0.25] CT
0.149 GC
2 setlinecap
1 LJ
0.667 LW
N
789 173.25 M
793.09 173.25 L
S
GR
GS
[0.75 0 0 0.75 0 0.25] CT
0.149 GC
2 setlinecap
1 LJ
0.667 LW
N
789 139 M
793.09 139 L
S
GR
GS
[0.75 0 0 0.75 0 0.25] CT
0.149 GC
2 setlinecap
1 LJ
0.667 LW
N
1198 276 M
1193.91 276 L
S
GR
GS
[0.75 0 0 0.75 0 0.25] CT
0.149 GC
2 setlinecap
1 LJ
0.667 LW
N
1198 241.75 M
1193.91 241.75 L
S
GR
GS
[0.75 0 0 0.75 0 0.25] CT
0.149 GC
2 setlinecap
1 LJ
0.667 LW
N
1198 207.5 M
1193.91 207.5 L
S
GR
GS
[0.75 0 0 0.75 0 0.25] CT
0.149 GC
2 setlinecap
1 LJ
0.667 LW
N
1198 173.25 M
1193.91 173.25 L
S
GR
GS
[0.75 0 0 0.75 0 0.25] CT
0.149 GC
2 setlinecap
1 LJ
0.667 LW
N
1198 139 M
1193.91 139 L
S
GR
GS
[0.75 0 0 0.75 587.75002 207.25002] CT
0.149 GC
/Helvetica 13.333 F
GS
[1 0 0 1 0 0] CT
-26 5.5 moveto 
1 -1 scale
(0.65) t 
GR
GR
GS
[0.75 0 0 0.75 587.75002 181.56251] CT
0.149 GC
/Helvetica 13.333 F
GS
[1 0 0 1 0 0] CT
-19 5.5 moveto 
1 -1 scale
(0.7) t 
GR
GR
GS
[0.75 0 0 0.75 587.75002 155.875] CT
0.149 GC
/Helvetica 13.333 F
GS
[1 0 0 1 0 0] CT
-26 5.5 moveto 
1 -1 scale
(0.75) t 
GR
GR
GS
[0.75 0 0 0.75 587.75002 130.18749] CT
0.149 GC
/Helvetica 13.333 F
GS
[1 0 0 1 0 0] CT
-19 5.5 moveto 
1 -1 scale
(0.8) t 
GR
GR
GS
[0.75 0 0 0.75 587.75002 104.49999] CT
0.149 GC
/Helvetica 13.333 F
GS
[1 0 0 1 0 0] CT
-26 5.5 moveto 
1 -1 scale
(0.85) t 
GR
GR
GS
[0 -0.75 0.75 0 565.25002 155.87494] CT
0.149 GC
/Helvetica 14.667 F
GS
[1 0 0 1 0 0] CT
-10.5 -4 moveto 
1 -1 scale
(BC) t 
GR
GR
GS
[0.75 0 0 0.75 690 99.25] CT
/Helvetica-Bold 14.667 F
GS
[1 0 0 1 0 0] CT
0 0 moveto 
1 -1 scale
(SOMETHING \(129_2\)) t 
GR
GR
GS
[0.75 0 0 0.75 0 0.25] CT
0 0.447 0.741 RC
1 LJ
0.667 LW
N
795.817 192.385 M
802.633 234.467 L
809.45 170.624 L
816.267 241.256 L
823.083 176.6 L
829.9 164.929 L
836.717 222.238 L
843.533 207.328 L
850.35 169.512 L
857.167 200.873 L
863.983 221.315 L
870.8 182.276 L
877.617 207.136 L
884.433 252.42 L
891.25 217.372 L
898.067 170.969 L
904.883 186.377 L
911.7 185.675 L
918.517 188.207 L
925.333 200.924 L
932.15 237.08 L
938.967 219.885 L
945.783 272.095 L
952.6 201.269 L
959.417 202.162 L
966.233 210.712 L
973.05 191.297 L
979.867 159.505 L
986.683 199.983 L
993.5 169.213 L
1000.317 233.874 L
1007.133 233.962 L
1013.95 209.79 L
1020.767 204.065 L
1027.583 186.05 L
1034.4 213.266 L
1041.217 196.334 L
1048.033 230.528 L
1054.85 216.678 L
1061.667 261.813 L
1068.483 237.666 L
1075.3 217.442 L
1082.117 182.195 L
1088.933 201.769 L
1095.75 221.1 L
1102.567 178.964 L
1109.383 196.667 L
1116.2 242.706 L
1123.017 172.345 L
1129.833 256.982 L
1136.65 218.198 L
1143.467 202.871 L
S
GR
GS
[0.75 0 0 0.75 0 0.25] CT
0.851 0.325 0.098 RC
1 LJ
0.667 LW
N
795.817 230.284 M
802.633 241.632 L
809.45 200.363 L
816.267 255.658 L
823.083 239.954 L
829.9 184.627 L
836.717 234.053 L
843.533 268.894 L
850.35 222.919 L
857.167 176.869 L
863.983 168.558 L
870.8 241.481 L
877.617 215.749 L
884.433 233.627 L
891.25 175.015 L
898.067 169.394 L
904.883 209.294 L
911.7 233.997 L
918.517 210.987 L
925.333 187.721 L
932.15 215.586 L
938.967 219.157 L
945.783 195.597 L
952.6 244.689 L
959.417 248.8 L
966.233 257.635 L
973.05 265.608 L
979.867 228.298 L
986.683 172.597 L
993.5 231.138 L
1000.317 199.479 L
1007.133 262.742 L
1013.95 229.937 L
1020.767 274.588 L
1027.583 155.503 L
1034.4 248.251 L
1041.217 238.843 L
1048.033 257.768 L
1054.85 236.539 L
1061.667 255.028 L
1068.483 243.325 L
1075.3 209.629 L
1082.117 200.534 L
1088.933 240.74 L
1095.75 213.931 L
1102.567 147.171 L
1109.383 198.494 L
1116.2 199.532 L
1123.017 170.818 L
1129.833 250.874 L
1136.65 237.915 L
1143.467 267.366 L
S
GR
GS
[0.75 0 0 0.75 0 0.25] CT
1 GC
N
1328 276 M
1738 276 L
1738 139 L
1328 139 L
cp
f
GR
GS
[0.75 0 0 0.75 0 0.25] CT
0.149 GC
2 setlinecap
1 LJ
0.667 LW
N
1328 276 M
1738 276 L
S
GR
GS
[0.75 0 0 0.75 0 0.25] CT
0.149 GC
2 setlinecap
1 LJ
0.667 LW
N
1328 139 M
1738 139 L
S
GR
GS
[0.75 0 0 0.75 0 0.25] CT
0.149 GC
2 setlinecap
1 LJ
0.667 LW
N
1328 276 M
1328 271.9 L
S
GR
GS
[0.75 0 0 0.75 0 0.25] CT
0.149 GC
2 setlinecap
1 LJ
0.667 LW
N
1410 276 M
1410 271.9 L
S
GR
GS
[0.75 0 0 0.75 0 0.25] CT
0.149 GC
2 setlinecap
1 LJ
0.667 LW
N
1492 276 M
1492 271.9 L
S
GR
GS
[0.75 0 0 0.75 0 0.25] CT
0.149 GC
2 setlinecap
1 LJ
0.667 LW
N
1574 276 M
1574 271.9 L
S
GR
GS
[0.75 0 0 0.75 0 0.25] CT
0.149 GC
2 setlinecap
1 LJ
0.667 LW
N
1656 276 M
1656 271.9 L
S
GR
GS
[0.75 0 0 0.75 0 0.25] CT
0.149 GC
2 setlinecap
1 LJ
0.667 LW
N
1738 276 M
1738 271.9 L
S
GR
GS
[0.75 0 0 0.75 0 0.25] CT
0.149 GC
2 setlinecap
1 LJ
0.667 LW
N
1328 139 M
1328 143.1 L
S
GR
GS
[0.75 0 0 0.75 0 0.25] CT
0.149 GC
2 setlinecap
1 LJ
0.667 LW
N
1410 139 M
1410 143.1 L
S
GR
GS
[0.75 0 0 0.75 0 0.25] CT
0.149 GC
2 setlinecap
1 LJ
0.667 LW
N
1492 139 M
1492 143.1 L
S
GR
GS
[0.75 0 0 0.75 0 0.25] CT
0.149 GC
2 setlinecap
1 LJ
0.667 LW
N
1574 139 M
1574 143.1 L
S
GR
GS
[0.75 0 0 0.75 0 0.25] CT
0.149 GC
2 setlinecap
1 LJ
0.667 LW
N
1656 139 M
1656 143.1 L
S
GR
GS
[0.75 0 0 0.75 0 0.25] CT
0.149 GC
2 setlinecap
1 LJ
0.667 LW
N
1738 139 M
1738 143.1 L
S
GR
GS
[0.75 0 0 0.75 996 211.24998] CT
0.149 GC
/Helvetica 13.333 F
GS
[1 0 0 1 0 0] CT
-4 14 moveto 
1 -1 scale
(0) t 
GR
GR
GS
[0.75 0 0 0.75 1057.5 211.24998] CT
0.149 GC
/Helvetica 13.333 F
GS
[1 0 0 1 0 0] CT
-7.5 14 moveto 
1 -1 scale
(20) t 
GR
GR
GS
[0.75 0 0 0.75 1119 211.24998] CT
0.149 GC
/Helvetica 13.333 F
GS
[1 0 0 1 0 0] CT
-7.5 14 moveto 
1 -1 scale
(40) t 
GR
GR
GS
[0.75 0 0 0.75 1180.5 211.24998] CT
0.149 GC
/Helvetica 13.333 F
GS
[1 0 0 1 0 0] CT
-7.5 14 moveto 
1 -1 scale
(60) t 
GR
GR
GS
[0.75 0 0 0.75 1242 211.24998] CT
0.149 GC
/Helvetica 13.333 F
GS
[1 0 0 1 0 0] CT
-7.5 14 moveto 
1 -1 scale
(80) t 
GR
GR
GS
[0.75 0 0 0.75 1303.5 211.24998] CT
0.149 GC
/Helvetica 13.333 F
GS
[1 0 0 1 0 0] CT
-11 14 moveto 
1 -1 scale
(100) t 
GR
GR
GS
[0.75 0 0 0.75 1149.75018 224.99999] CT
0.149 GC
/Helvetica 14.667 F
GS
[1 0 0 1 0 0] CT
-30.5 16 moveto 
1 -1 scale
(channels) t 
GR
GR
GS
[0.75 0 0 0.75 0 0.25] CT
0.149 GC
2 setlinecap
1 LJ
0.667 LW
N
1328 276 M
1328 139 L
S
GR
GS
[0.75 0 0 0.75 0 0.25] CT
0.149 GC
2 setlinecap
1 LJ
0.667 LW
N
1738 276 M
1738 139 L
S
GR
GS
[0.75 0 0 0.75 0 0.25] CT
0.149 GC
2 setlinecap
1 LJ
0.667 LW
N
1328 276 M
1332.1 276 L
S
GR
GS
[0.75 0 0 0.75 0 0.25] CT
0.149 GC
2 setlinecap
1 LJ
0.667 LW
N
1328 230.333 M
1332.1 230.333 L
S
GR
GS
[0.75 0 0 0.75 0 0.25] CT
0.149 GC
2 setlinecap
1 LJ
0.667 LW
N
1328 184.667 M
1332.1 184.667 L
S
GR
GS
[0.75 0 0 0.75 0 0.25] CT
0.149 GC
2 setlinecap
1 LJ
0.667 LW
N
1328 139 M
1332.1 139 L
S
GR
GS
[0.75 0 0 0.75 0 0.25] CT
0.149 GC
2 setlinecap
1 LJ
0.667 LW
N
1738 276 M
1733.9 276 L
S
GR
GS
[0.75 0 0 0.75 0 0.25] CT
0.149 GC
2 setlinecap
1 LJ
0.667 LW
N
1738 230.333 M
1733.9 230.333 L
S
GR
GS
[0.75 0 0 0.75 0 0.25] CT
0.149 GC
2 setlinecap
1 LJ
0.667 LW
N
1738 184.667 M
1733.9 184.667 L
S
GR
GS
[0.75 0 0 0.75 0 0.25] CT
0.149 GC
2 setlinecap
1 LJ
0.667 LW
N
1738 139 M
1733.9 139 L
S
GR
GS
[0.75 0 0 0.75 991.99997 207.25] CT
0.149 GC
/Helvetica 13.333 F
GS
[1 0 0 1 0 0] CT
-19 5.5 moveto 
1 -1 scale
(0.6) t 
GR
GR
GS
[0.75 0 0 0.75 991.99997 173.00001] CT
0.149 GC
/Helvetica 13.333 F
GS
[1 0 0 1 0 0] CT
-19 5.5 moveto 
1 -1 scale
(0.7) t 
GR
GR
GS
[0.75 0 0 0.75 991.99997 138.74999] CT
0.149 GC
/Helvetica 13.333 F
GS
[1 0 0 1 0 0] CT
-19 5.5 moveto 
1 -1 scale
(0.8) t 
GR
GR
GS
[0.75 0 0 0.75 991.99997 104.50001] CT
0.149 GC
/Helvetica 13.333 F
GS
[1 0 0 1 0 0] CT
-19 5.5 moveto 
1 -1 scale
(0.9) t 
GR
GR
GS
[0 -0.75 0.75 0 974.74997 155.87495] CT
0.149 GC
/Helvetica 14.667 F
GS
[1 0 0 1 0 0] CT
-10.5 -4 moveto 
1 -1 scale
(BC) t 
GR
GR
GS
[0.75 0 0 0.75 1102.5 99.25] CT
/Helvetica-Bold 14.667 F
GS
[1 0 0 1 0 0] CT
0 0 moveto 
1 -1 scale
(NOTHING \(129_3\)) t 
GR
GR
GS
[0.75 0 0 0.75 0 0.25] CT
0 0.447 0.741 RC
1 LJ
0.667 LW
N
1332.1 232.188 M
1336.2 213.252 L
1340.3 210.562 L
1344.4 220.66 L
1348.5 200.289 L
1352.6 183.801 L
1356.7 213.778 L
1360.8 227.351 L
1364.9 208.213 L
1369 214.449 L
1373.1 226.466 L
1377.2 230.871 L
1381.3 243.933 L
1385.4 234.698 L
1389.5 193.257 L
1393.6 163.7 L
1397.7 232.938 L
1401.8 189.722 L
1405.9 193.014 L
1410 249.458 L
1414.1 239.923 L
1418.2 198.312 L
1422.3 207.057 L
1426.4 225.721 L
1430.5 239.937 L
1434.6 212.104 L
1438.7 209.042 L
1442.8 213.468 L
1446.9 221.071 L
1451 239.883 L
1455.1 217.653 L
1459.2 184.558 L
1463.3 205.868 L
1467.4 197.714 L
1471.5 228.752 L
1475.6 206.943 L
1479.7 230.891 L
1483.8 245.461 L
1487.9 220.629 L
1492 241.017 L
1496.1 222.922 L
1500.2 182.688 L
1504.3 224.818 L
1508.4 197.725 L
1512.5 217.665 L
1516.6 225.605 L
1520.7 205.43 L
1524.8 222.723 L
1528.9 214.236 L
1533 210.804 L
1537.1 204.688 L
1541.2 209.487 L
1545.3 226.142 L
1549.4 227.112 L
1553.5 207.684 L
1557.6 176.854 L
1561.7 178.003 L
1565.8 231.36 L
1569.9 201.972 L
1574 239.616 L
1578.1 216.313 L
1582.2 192.787 L
1586.3 210.088 L
1590.4 210.919 L
1594.5 225.545 L
1598.6 209.161 L
1602.7 220.76 L
1606.8 214.284 L
1610.9 193.177 L
1615 219.35 L
1619.1 211.957 L
1623.2 180.919 L
1627.3 207.354 L
1631.4 209.108 L
1635.5 204.311 L
1639.6 207.612 L
1643.7 217.03 L
1647.8 190.57 L
1651.9 210.475 L
1656 198.811 L
1660.1 197.084 L
1664.2 205.277 L
1668.3 201.082 L
1672.4 181.906 L
1676.5 205.72 L
1680.6 233.009 L
1684.7 217.867 L
1688.8 189.505 L
1692.9 207.998 L
1697 210.885 L
1701.1 212.061 L
1705.2 222.342 L
1709.3 180.188 L
1713.4 206.431 L
1717.5 201.139 L
S
GR
GS
[0.75 0 0 0.75 0 0.25] CT
0.851 0.325 0.098 RC
1 LJ
0.667 LW
N
1332.1 234.975 M
1336.2 238.584 L
1340.3 221.31 L
1344.4 247.013 L
1348.5 234.456 L
1352.6 206.983 L
1356.7 227.275 L
1360.8 253.902 L
1364.9 224.891 L
1369 219.105 L
1373.1 234.14 L
1377.2 240.638 L
1381.3 190.562 L
1385.4 241.056 L
1389.5 254.192 L
1393.6 192.87 L
1397.7 232.147 L
1401.8 245.731 L
1405.9 212.378 L
1410 167.947 L
1414.1 229.039 L
1418.2 231.32 L
1422.3 172.914 L
1426.4 217.692 L
1430.5 246.109 L
1434.6 210.793 L
1438.7 175.161 L
1442.8 207.696 L
1446.9 251.862 L
1451 238.634 L
1455.1 236.77 L
1459.2 225.653 L
1463.3 244.641 L
1467.4 203.691 L
1471.5 214.629 L
1475.6 233.429 L
1479.7 240.613 L
1483.8 208.764 L
1487.9 216.52 L
1492 241.084 L
1496.1 240.426 L
1500.2 193.692 L
1504.3 243.095 L
1508.4 236.365 L
1512.5 247.576 L
1516.6 217.536 L
1520.7 215.354 L
1524.8 227.293 L
1528.9 198.562 L
1533 212.784 L
1537.1 243.319 L
1541.2 240.452 L
1545.3 221.376 L
1549.4 234.781 L
1553.5 184.535 L
1557.6 226.098 L
1561.7 202.707 L
1565.8 198.064 L
1569.9 234.065 L
1574 197.474 L
1578.1 228.353 L
1582.2 186.813 L
1586.3 226.455 L
1590.4 190.253 L
1594.5 220.405 L
1598.6 203.445 L
1602.7 212.87 L
1606.8 211.543 L
1610.9 228.528 L
1615 196.973 L
1619.1 177.763 L
1623.2 193.776 L
1627.3 212.04 L
1631.4 231.543 L
1635.5 250.034 L
1639.6 156.174 L
1643.7 218.352 L
1647.8 247.678 L
1651.9 241.416 L
1656 171.87 L
1660.1 220.811 L
1664.2 243.797 L
1668.3 232.693 L
1672.4 251.714 L
1676.5 178.17 L
1680.6 220.164 L
1684.7 225.209 L
1688.8 227.038 L
1692.9 236.553 L
1697 173.316 L
1701.1 232.968 L
1705.2 241.782 L
1709.3 188.317 L
1713.4 240.08 L
1717.5 225.543 L
S
GR
GS
[0.75 0 0 0.75 0 0.25] CT
1 GC
N
1762 176 M
1762 139 L
1858 139 L
1858 176 L
cp
f
GR
GS
[0.75 0 0 0.75 1356.75 112.10275] CT
/Helvetica 12 F
GS
[1 0 0 1 0 0] CT
0 5 moveto 
1 -1 scale
(stimulus) t 
GR
GR
GS
[0.75 0 0 0.75 0 0.25] CT
0 0.447 0.741 RC
1 LJ
0.667 LW
N
1766 149.137 M
1806 149.137 L
S
GR
GS
[0.75 0 0 0.75 1356.75 124.64725] CT
/Helvetica 12 F
GS
[1 0 0 1 0 0] CT
0 5 moveto 
1 -1 scale
(baseline) t 
GR
GR
GS
[0.75 0 0 0.75 0 0.25] CT
0.851 0.325 0.098 RC
1 LJ
0.667 LW
N
1766 165.863 M
1806 165.863 L
S
GR
GS
[0.75 0 0 0.75 0 0.25] CT
0.149 GC
10.0 ML
0.667 LW
N
1762 176 M
1762 139 L
1858 139 L
1858 176 L
cp
S
GR
GS
[0.75 0 0 0.75 0 0.25] CT
1 GC
N
250 475 M
659 475 L
659 337 L
250 337 L
cp
f
GR
GS
[0.75 0 0 0.75 0 0.25] CT
0.149 GC
2 setlinecap
1 LJ
0.667 LW
N
250 475 M
659 475 L
S
GR
GS
[0.75 0 0 0.75 0 0.25] CT
0.149 GC
2 setlinecap
1 LJ
0.667 LW
N
250 337 M
659 337 L
S
GR
GS
[0.75 0 0 0.75 0 0.25] CT
0.149 GC
2 setlinecap
1 LJ
0.667 LW
N
250 475 M
250 470.91 L
S
GR
GS
[0.75 0 0 0.75 0 0.25] CT
0.149 GC
2 setlinecap
1 LJ
0.667 LW
N
318.167 475 M
318.167 470.91 L
S
GR
GS
[0.75 0 0 0.75 0 0.25] CT
0.149 GC
2 setlinecap
1 LJ
0.667 LW
N
386.333 475 M
386.333 470.91 L
S
GR
GS
[0.75 0 0 0.75 0 0.25] CT
0.149 GC
2 setlinecap
1 LJ
0.667 LW
N
454.5 475 M
454.5 470.91 L
S
GR
GS
[0.75 0 0 0.75 0 0.25] CT
0.149 GC
2 setlinecap
1 LJ
0.667 LW
N
522.667 475 M
522.667 470.91 L
S
GR
GS
[0.75 0 0 0.75 0 0.25] CT
0.149 GC
2 setlinecap
1 LJ
0.667 LW
N
590.833 475 M
590.833 470.91 L
S
GR
GS
[0.75 0 0 0.75 0 0.25] CT
0.149 GC
2 setlinecap
1 LJ
0.667 LW
N
659 475 M
659 470.91 L
S
GR
GS
[0.75 0 0 0.75 0 0.25] CT
0.149 GC
2 setlinecap
1 LJ
0.667 LW
N
250 337 M
250 341.09 L
S
GR
GS
[0.75 0 0 0.75 0 0.25] CT
0.149 GC
2 setlinecap
1 LJ
0.667 LW
N
318.167 337 M
318.167 341.09 L
S
GR
GS
[0.75 0 0 0.75 0 0.25] CT
0.149 GC
2 setlinecap
1 LJ
0.667 LW
N
386.333 337 M
386.333 341.09 L
S
GR
GS
[0.75 0 0 0.75 0 0.25] CT
0.149 GC
2 setlinecap
1 LJ
0.667 LW
N
454.5 337 M
454.5 341.09 L
S
GR
GS
[0.75 0 0 0.75 0 0.25] CT
0.149 GC
2 setlinecap
1 LJ
0.667 LW
N
522.667 337 M
522.667 341.09 L
S
GR
GS
[0.75 0 0 0.75 0 0.25] CT
0.149 GC
2 setlinecap
1 LJ
0.667 LW
N
590.833 337 M
590.833 341.09 L
S
GR
GS
[0.75 0 0 0.75 0 0.25] CT
0.149 GC
2 setlinecap
1 LJ
0.667 LW
N
659 337 M
659 341.09 L
S
GR
GS
[0.75 0 0 0.75 187.5 360.49998] CT
0.149 GC
/Helvetica 13.333 F
GS
[1 0 0 1 0 0] CT
-4 14 moveto 
1 -1 scale
(0) t 
GR
GR
GS
[0.75 0 0 0.75 238.62499 360.49998] CT
0.149 GC
/Helvetica 13.333 F
GS
[1 0 0 1 0 0] CT
-7.5 14 moveto 
1 -1 scale
(20) t 
GR
GR
GS
[0.75 0 0 0.75 289.75001 360.49998] CT
0.149 GC
/Helvetica 13.333 F
GS
[1 0 0 1 0 0] CT
-7.5 14 moveto 
1 -1 scale
(40) t 
GR
GR
GS
[0.75 0 0 0.75 340.875 360.49998] CT
0.149 GC
/Helvetica 13.333 F
GS
[1 0 0 1 0 0] CT
-7.5 14 moveto 
1 -1 scale
(60) t 
GR
GR
GS
[0.75 0 0 0.75 392.00002 360.49998] CT
0.149 GC
/Helvetica 13.333 F
GS
[1 0 0 1 0 0] CT
-7.5 14 moveto 
1 -1 scale
(80) t 
GR
GR
GS
[0.75 0 0 0.75 443.12498 360.49998] CT
0.149 GC
/Helvetica 13.333 F
GS
[1 0 0 1 0 0] CT
-11 14 moveto 
1 -1 scale
(100) t 
GR
GR
GS
[0.75 0 0 0.75 494.25 360.49998] CT
0.149 GC
/Helvetica 13.333 F
GS
[1 0 0 1 0 0] CT
-11 14 moveto 
1 -1 scale
(120) t 
GR
GR
GS
[0.75 0 0 0.75 340.87514 374.24999] CT
0.149 GC
/Helvetica 14.667 F
GS
[1 0 0 1 0 0] CT
-30.5 16 moveto 
1 -1 scale
(channels) t 
GR
GR
GS
[0.75 0 0 0.75 0 0.25] CT
0.149 GC
2 setlinecap
1 LJ
0.667 LW
N
250 475 M
250 337 L
S
GR
GS
[0.75 0 0 0.75 0 0.25] CT
0.149 GC
2 setlinecap
1 LJ
0.667 LW
N
659 475 M
659 337 L
S
GR
GS
[0.75 0 0 0.75 0 0.25] CT
0.149 GC
2 setlinecap
1 LJ
0.667 LW
N
250 475 M
254.09 475 L
S
GR
GS
[0.75 0 0 0.75 0 0.25] CT
0.149 GC
2 setlinecap
1 LJ
0.667 LW
N
250 429 M
254.09 429 L
S
GR
GS
[0.75 0 0 0.75 0 0.25] CT
0.149 GC
2 setlinecap
1 LJ
0.667 LW
N
250 383 M
254.09 383 L
S
GR
GS
[0.75 0 0 0.75 0 0.25] CT
0.149 GC
2 setlinecap
1 LJ
0.667 LW
N
250 337 M
254.09 337 L
S
GR
GS
[0.75 0 0 0.75 0 0.25] CT
0.149 GC
2 setlinecap
1 LJ
0.667 LW
N
659 475 M
654.91 475 L
S
GR
GS
[0.75 0 0 0.75 0 0.25] CT
0.149 GC
2 setlinecap
1 LJ
0.667 LW
N
659 429 M
654.91 429 L
S
GR
GS
[0.75 0 0 0.75 0 0.25] CT
0.149 GC
2 setlinecap
1 LJ
0.667 LW
N
659 383 M
654.91 383 L
S
GR
GS
[0.75 0 0 0.75 0 0.25] CT
0.149 GC
2 setlinecap
1 LJ
0.667 LW
N
659 337 M
654.91 337 L
S
GR
GS
[0.75 0 0 0.75 183.5 356.5] CT
0.149 GC
/Helvetica 13.333 F
GS
[1 0 0 1 0 0] CT
-19 5.5 moveto 
1 -1 scale
(0.6) t 
GR
GR
GS
[0.75 0 0 0.75 183.5 322] CT
0.149 GC
/Helvetica 13.333 F
GS
[1 0 0 1 0 0] CT
-19 5.5 moveto 
1 -1 scale
(0.7) t 
GR
GR
GS
[0.75 0 0 0.75 183.5 287.5] CT
0.149 GC
/Helvetica 13.333 F
GS
[1 0 0 1 0 0] CT
-19 5.5 moveto 
1 -1 scale
(0.8) t 
GR
GR
GS
[0.75 0 0 0.75 183.5 253] CT
0.149 GC
/Helvetica 13.333 F
GS
[1 0 0 1 0 0] CT
-19 5.5 moveto 
1 -1 scale
(0.9) t 
GR
GR
GS
[0 -0.75 0.75 0 166.25 304.74995] CT
0.149 GC
/Helvetica 14.667 F
GS
[1 0 0 1 0 0] CT
-10.5 -4 moveto 
1 -1 scale
(BC) t 
GR
GR
GS
[0.75 0 0 0.75 0 0.25] CT
0 0.447 0.741 RC
1 LJ
0.667 LW
N
253.408 385.564 M
256.817 401.681 L
260.225 396.209 L
263.633 377.97 L
267.042 402.641 L
270.45 411.437 L
273.858 381.1 L
277.267 391.111 L
280.675 423.209 L
284.083 384.709 L
287.492 399.317 L
290.9 422.157 L
294.308 391.547 L
297.717 420.035 L
301.125 407.28 L
304.533 418.392 L
307.942 409.408 L
311.35 412.145 L
314.758 385.641 L
318.167 388.829 L
321.575 385.554 L
324.983 390.365 L
328.392 395.823 L
331.8 378.192 L
335.208 397.075 L
338.617 421.762 L
342.025 424.556 L
345.433 399.09 L
348.842 401.714 L
352.25 392.9 L
355.658 424.45 L
359.067 385.347 L
362.475 404.147 L
365.883 369.192 L
369.292 405.065 L
372.7 379.419 L
376.108 389.782 L
379.517 410.746 L
382.925 409.209 L
386.333 393.948 L
389.742 370.808 L
393.15 383.626 L
396.558 432.829 L
399.967 371.213 L
403.375 420.91 L
406.783 405.821 L
410.192 381.809 L
413.6 381.415 L
417.008 393.213 L
420.417 381.031 L
423.825 427.71 L
427.233 413.258 L
430.642 429.057 L
434.05 397.216 L
437.458 415.613 L
440.867 386.215 L
444.275 398.356 L
447.683 402.838 L
451.092 382.389 L
454.5 373.618 L
457.908 415.365 L
461.317 416.248 L
464.725 426.064 L
468.133 414.31 L
471.542 398.384 L
474.95 418.761 L
478.358 426.293 L
481.767 427.529 L
485.175 391.332 L
488.583 448.842 L
491.992 368.077 L
495.4 378.475 L
498.808 411.601 L
502.217 417.758 L
505.625 406.205 L
509.033 425.875 L
512.442 372.706 L
515.85 430.525 L
519.258 432.738 L
522.667 393.581 L
526.075 398.586 L
529.483 401.171 L
532.892 437.535 L
536.3 407.816 L
539.708 393.422 L
543.117 358.513 L
546.525 389.501 L
549.933 419.892 L
553.342 367.966 L
556.75 424.742 L
560.158 438.805 L
563.567 431.476 L
566.975 407.315 L
570.383 417.525 L
573.792 425.025 L
577.2 406.126 L
580.608 366.762 L
584.017 409.714 L
587.425 400.342 L
590.833 397.865 L
594.242 404.028 L
597.65 400.214 L
601.058 413.719 L
604.467 437.624 L
607.875 402.764 L
S
GR
GS
[0.75 0 0 0.75 0 0.25] CT
0.851 0.325 0.098 RC
1 LJ
0.667 LW
N
253.408 430.029 M
256.817 393.083 L
260.225 369.881 L
263.633 370.421 L
267.042 436.145 L
270.45 428.9 L
273.858 411.707 L
277.267 454.259 L
280.675 430.522 L
284.083 396.125 L
287.492 425.697 L
290.9 425.392 L
294.308 417.792 L
297.717 413.306 L
301.125 390.913 L
304.533 422.841 L
307.942 434.586 L
311.35 409.412 L
314.758 441.923 L
318.167 414.461 L
321.575 353.769 L
324.983 392.816 L
328.392 417.379 L
331.8 419.834 L
335.208 393.599 L
338.617 385.154 L
342.025 379.539 L
345.433 440.615 L
348.842 429.726 L
352.25 434.296 L
355.658 393.266 L
359.067 429.759 L
362.475 437.451 L
365.883 396.083 L
369.292 418.498 L
372.7 418.16 L
376.108 391.988 L
379.517 410.5 L
382.925 400.259 L
386.333 379.254 L
389.742 391.769 L
393.15 435.509 L
396.558 405.076 L
399.967 417.867 L
403.375 392.236 L
406.783 423.668 L
410.192 382.072 L
413.6 440.834 L
417.008 374.022 L
420.417 411.113 L
423.825 430.529 L
427.233 427.066 L
430.642 424.665 L
434.05 422.313 L
437.458 390.099 L
440.867 443.49 L
444.275 365.267 L
447.683 438.042 L
451.092 426.98 L
454.5 422.975 L
457.908 399.263 L
461.317 428.055 L
464.725 417.005 L
468.133 415.413 L
471.542 416.446 L
474.95 416.408 L
478.358 409.542 L
481.767 442.945 L
485.175 423.781 L
488.583 376.288 L
491.992 424.916 L
495.4 410.24 L
498.808 426.924 L
502.217 428.556 L
505.625 422.751 L
509.033 427.225 L
512.442 430.905 L
515.85 363.377 L
519.258 423.493 L
522.667 435.843 L
526.075 412.492 L
529.483 406.032 L
532.892 433.252 L
536.3 401.056 L
539.708 437.499 L
543.117 408.757 L
546.525 421.731 L
549.933 452.024 L
553.342 422.682 L
556.75 440.082 L
560.158 433.359 L
563.567 407.556 L
566.975 444.495 L
570.383 430.209 L
573.792 368.561 L
577.2 402.988 L
580.608 410.986 L
584.017 405.834 L
587.425 341.25 L
590.833 422.364 L
594.242 430.762 L
597.65 420.988 L
601.058 443.111 L
604.467 395.316 L
607.875 423.143 L
S
GR
GS
[0.75 0 0 0.75 0 0.25] CT
1 GC
N
789 475 M
1198 475 L
1198 337 L
789 337 L
cp
f
GR
GS
[0.75 0 0 0.75 0 0.25] CT
0.149 GC
2 setlinecap
1 LJ
0.667 LW
N
789 475 M
1198 475 L
S
GR
GS
[0.75 0 0 0.75 0 0.25] CT
0.149 GC
2 setlinecap
1 LJ
0.667 LW
N
789 337 M
1198 337 L
S
GR
GS
[0.75 0 0 0.75 0 0.25] CT
0.149 GC
2 setlinecap
1 LJ
0.667 LW
N
789 475 M
789 470.91 L
S
GR
GS
[0.75 0 0 0.75 0 0.25] CT
0.149 GC
2 setlinecap
1 LJ
0.667 LW
N
891.25 475 M
891.25 470.91 L
S
GR
GS
[0.75 0 0 0.75 0 0.25] CT
0.149 GC
2 setlinecap
1 LJ
0.667 LW
N
993.5 475 M
993.5 470.91 L
S
GR
GS
[0.75 0 0 0.75 0 0.25] CT
0.149 GC
2 setlinecap
1 LJ
0.667 LW
N
1095.75 475 M
1095.75 470.91 L
S
GR
GS
[0.75 0 0 0.75 0 0.25] CT
0.149 GC
2 setlinecap
1 LJ
0.667 LW
N
1198 475 M
1198 470.91 L
S
GR
GS
[0.75 0 0 0.75 0 0.25] CT
0.149 GC
2 setlinecap
1 LJ
0.667 LW
N
789 337 M
789 341.09 L
S
GR
GS
[0.75 0 0 0.75 0 0.25] CT
0.149 GC
2 setlinecap
1 LJ
0.667 LW
N
891.25 337 M
891.25 341.09 L
S
GR
GS
[0.75 0 0 0.75 0 0.25] CT
0.149 GC
2 setlinecap
1 LJ
0.667 LW
N
993.5 337 M
993.5 341.09 L
S
GR
GS
[0.75 0 0 0.75 0 0.25] CT
0.149 GC
2 setlinecap
1 LJ
0.667 LW
N
1095.75 337 M
1095.75 341.09 L
S
GR
GS
[0.75 0 0 0.75 0 0.25] CT
0.149 GC
2 setlinecap
1 LJ
0.667 LW
N
1198 337 M
1198 341.09 L
S
GR
GS
[0.75 0 0 0.75 591.75 360.50001] CT
0.149 GC
/Helvetica 13.333 F
GS
[1 0 0 1 0 0] CT
-4 14 moveto 
1 -1 scale
(0) t 
GR
GR
GS
[0.75 0 0 0.75 668.4375 360.50001] CT
0.149 GC
/Helvetica 13.333 F
GS
[1 0 0 1 0 0] CT
-4 14 moveto 
1 -1 scale
(5) t 
GR
GR
GS
[0.75 0 0 0.75 745.125 360.50001] CT
0.149 GC
/Helvetica 13.333 F
GS
[1 0 0 1 0 0] CT
-7.5 14 moveto 
1 -1 scale
(10) t 
GR
GR
GS
[0.75 0 0 0.75 821.8125 360.50001] CT
0.149 GC
/Helvetica 13.333 F
GS
[1 0 0 1 0 0] CT
-7.5 14 moveto 
1 -1 scale
(15) t 
GR
GR
GS
[0.75 0 0 0.75 898.5 360.50001] CT
0.149 GC
/Helvetica 13.333 F
GS
[1 0 0 1 0 0] CT
-7.5 14 moveto 
1 -1 scale
(20) t 
GR
GR
GS
[0.75 0 0 0.75 745.12514 374.24999] CT
0.149 GC
/Helvetica 14.667 F
GS
[1 0 0 1 0 0] CT
-30.5 16 moveto 
1 -1 scale
(channels) t 
GR
GR
GS
[0.75 0 0 0.75 0 0.25] CT
0.149 GC
2 setlinecap
1 LJ
0.667 LW
N
789 475 M
789 337 L
S
GR
GS
[0.75 0 0 0.75 0 0.25] CT
0.149 GC
2 setlinecap
1 LJ
0.667 LW
N
1198 475 M
1198 337 L
S
GR
GS
[0.75 0 0 0.75 0 0.25] CT
0.149 GC
2 setlinecap
1 LJ
0.667 LW
N
789 475 M
793.09 475 L
S
GR
GS
[0.75 0 0 0.75 0 0.25] CT
0.149 GC
2 setlinecap
1 LJ
0.667 LW
N
789 440.5 M
793.09 440.5 L
S
GR
GS
[0.75 0 0 0.75 0 0.25] CT
0.149 GC
2 setlinecap
1 LJ
0.667 LW
N
789 406 M
793.09 406 L
S
GR
GS
[0.75 0 0 0.75 0 0.25] CT
0.149 GC
2 setlinecap
1 LJ
0.667 LW
N
789 371.5 M
793.09 371.5 L
S
GR
GS
[0.75 0 0 0.75 0 0.25] CT
0.149 GC
2 setlinecap
1 LJ
0.667 LW
N
789 337 M
793.09 337 L
S
GR
GS
[0.75 0 0 0.75 0 0.25] CT
0.149 GC
2 setlinecap
1 LJ
0.667 LW
N
1198 475 M
1193.91 475 L
S
GR
GS
[0.75 0 0 0.75 0 0.25] CT
0.149 GC
2 setlinecap
1 LJ
0.667 LW
N
1198 440.5 M
1193.91 440.5 L
S
GR
GS
[0.75 0 0 0.75 0 0.25] CT
0.149 GC
2 setlinecap
1 LJ
0.667 LW
N
1198 406 M
1193.91 406 L
S
GR
GS
[0.75 0 0 0.75 0 0.25] CT
0.149 GC
2 setlinecap
1 LJ
0.667 LW
N
1198 371.5 M
1193.91 371.5 L
S
GR
GS
[0.75 0 0 0.75 0 0.25] CT
0.149 GC
2 setlinecap
1 LJ
0.667 LW
N
1198 337 M
1193.91 337 L
S
GR
GS
[0.75 0 0 0.75 587.75002 356.50002] CT
0.149 GC
/Helvetica 13.333 F
GS
[1 0 0 1 0 0] CT
-26 5.5 moveto 
1 -1 scale
(0.65) t 
GR
GR
GS
[0.75 0 0 0.75 587.75002 330.625] CT
0.149 GC
/Helvetica 13.333 F
GS
[1 0 0 1 0 0] CT
-19 5.5 moveto 
1 -1 scale
(0.7) t 
GR
GR
GS
[0.75 0 0 0.75 587.75002 304.75] CT
0.149 GC
/Helvetica 13.333 F
GS
[1 0 0 1 0 0] CT
-26 5.5 moveto 
1 -1 scale
(0.75) t 
GR
GR
GS
[0.75 0 0 0.75 587.75002 278.875] CT
0.149 GC
/Helvetica 13.333 F
GS
[1 0 0 1 0 0] CT
-19 5.5 moveto 
1 -1 scale
(0.8) t 
GR
GR
GS
[0.75 0 0 0.75 587.75002 252.99998] CT
0.149 GC
/Helvetica 13.333 F
GS
[1 0 0 1 0 0] CT
-26 5.5 moveto 
1 -1 scale
(0.85) t 
GR
GR
GS
[0 -0.75 0.75 0 565.25002 304.74993] CT
0.149 GC
/Helvetica 14.667 F
GS
[1 0 0 1 0 0] CT
-10.5 -4 moveto 
1 -1 scale
(BC) t 
GR
GR
GS
[0.75 0 0 0.75 0 0.25] CT
0 0.447 0.741 RC
1 LJ
0.667 LW
N
809.45 399.215 M
829.9 406.004 L
850.35 411.739 L
870.8 369.143 L
891.25 395.967 L
911.7 393.234 L
932.15 410.972 L
952.6 406.503 L
973.05 418.686 L
993.5 402.801 L
1013.95 387.455 L
1034.4 420.309 L
1054.85 403.075 L
1075.3 421.402 L
1095.75 368.68 L
1116.2 428.171 L
1136.65 412.667 L
1157.1 405.193 L
1177.55 381.031 L
1198 390.352 L
S
GR
GS
[0.75 0 0 0.75 0 0.25] CT
0.851 0.325 0.098 RC
1 LJ
0.667 LW
N
809.45 354.377 M
829.9 427.871 L
850.35 466.069 L
870.8 390.018 L
891.25 372.357 L
911.7 423.308 L
932.15 454.054 L
952.6 395.153 L
973.05 372.566 L
993.5 383.719 L
1013.95 359.555 L
1034.4 415.098 L
1054.85 368.466 L
1075.3 446.959 L
1095.75 416.736 L
1116.2 411.165 L
1136.65 427.831 L
1157.1 424.003 L
1177.55 393.052 L
1198 415.561 L
S
GR
GS
[0.75 0 0 0.75 0 0.25] CT
1 GC
N
1328 475 M
1738 475 L
1738 337 L
1328 337 L
cp
f
GR
GS
[0.75 0 0 0.75 0 0.25] CT
0.149 GC
2 setlinecap
1 LJ
0.667 LW
N
1328 475 M
1738 475 L
S
GR
GS
[0.75 0 0 0.75 0 0.25] CT
0.149 GC
2 setlinecap
1 LJ
0.667 LW
N
1328 337 M
1738 337 L
S
GR
GS
[0.75 0 0 0.75 0 0.25] CT
0.149 GC
2 setlinecap
1 LJ
0.667 LW
N
1328 475 M
1328 470.9 L
S
GR
GS
[0.75 0 0 0.75 0 0.25] CT
0.149 GC
2 setlinecap
1 LJ
0.667 LW
N
1373.556 475 M
1373.556 470.9 L
S
GR
GS
[0.75 0 0 0.75 0 0.25] CT
0.149 GC
2 setlinecap
1 LJ
0.667 LW
N
1419.111 475 M
1419.111 470.9 L
S
GR
GS
[0.75 0 0 0.75 0 0.25] CT
0.149 GC
2 setlinecap
1 LJ
0.667 LW
N
1464.667 475 M
1464.667 470.9 L
S
GR
GS
[0.75 0 0 0.75 0 0.25] CT
0.149 GC
2 setlinecap
1 LJ
0.667 LW
N
1510.222 475 M
1510.222 470.9 L
S
GR
GS
[0.75 0 0 0.75 0 0.25] CT
0.149 GC
2 setlinecap
1 LJ
0.667 LW
N
1555.778 475 M
1555.778 470.9 L
S
GR
GS
[0.75 0 0 0.75 0 0.25] CT
0.149 GC
2 setlinecap
1 LJ
0.667 LW
N
1601.333 475 M
1601.333 470.9 L
S
GR
GS
[0.75 0 0 0.75 0 0.25] CT
0.149 GC
2 setlinecap
1 LJ
0.667 LW
N
1646.889 475 M
1646.889 470.9 L
S
GR
GS
[0.75 0 0 0.75 0 0.25] CT
0.149 GC
2 setlinecap
1 LJ
0.667 LW
N
1692.444 475 M
1692.444 470.9 L
S
GR
GS
[0.75 0 0 0.75 0 0.25] CT
0.149 GC
2 setlinecap
1 LJ
0.667 LW
N
1738 475 M
1738 470.9 L
S
GR
GS
[0.75 0 0 0.75 0 0.25] CT
0.149 GC
2 setlinecap
1 LJ
0.667 LW
N
1328 337 M
1328 341.1 L
S
GR
GS
[0.75 0 0 0.75 0 0.25] CT
0.149 GC
2 setlinecap
1 LJ
0.667 LW
N
1373.556 337 M
1373.556 341.1 L
S
GR
GS
[0.75 0 0 0.75 0 0.25] CT
0.149 GC
2 setlinecap
1 LJ
0.667 LW
N
1419.111 337 M
1419.111 341.1 L
S
GR
GS
[0.75 0 0 0.75 0 0.25] CT
0.149 GC
2 setlinecap
1 LJ
0.667 LW
N
1464.667 337 M
1464.667 341.1 L
S
GR
GS
[0.75 0 0 0.75 0 0.25] CT
0.149 GC
2 setlinecap
1 LJ
0.667 LW
N
1510.222 337 M
1510.222 341.1 L
S
GR
GS
[0.75 0 0 0.75 0 0.25] CT
0.149 GC
2 setlinecap
1 LJ
0.667 LW
N
1555.778 337 M
1555.778 341.1 L
S
GR
GS
[0.75 0 0 0.75 0 0.25] CT
0.149 GC
2 setlinecap
1 LJ
0.667 LW
N
1601.333 337 M
1601.333 341.1 L
S
GR
GS
[0.75 0 0 0.75 0 0.25] CT
0.149 GC
2 setlinecap
1 LJ
0.667 LW
N
1646.889 337 M
1646.889 341.1 L
S
GR
GS
[0.75 0 0 0.75 0 0.25] CT
0.149 GC
2 setlinecap
1 LJ
0.667 LW
N
1692.444 337 M
1692.444 341.1 L
S
GR
GS
[0.75 0 0 0.75 0 0.25] CT
0.149 GC
2 setlinecap
1 LJ
0.667 LW
N
1738 337 M
1738 341.1 L
S
GR
GS
[0.75 0 0 0.75 996 360.49998] CT
0.149 GC
/Helvetica 13.333 F
GS
[1 0 0 1 0 0] CT
-4 14 moveto 
1 -1 scale
(0) t 
GR
GR
GS
[0.75 0 0 0.75 1030.16666 360.49998] CT
0.149 GC
/Helvetica 13.333 F
GS
[1 0 0 1 0 0] CT
-7.5 14 moveto 
1 -1 scale
(10) t 
GR
GR
GS
[0.75 0 0 0.75 1064.33331 360.49998] CT
0.149 GC
/Helvetica 13.333 F
GS
[1 0 0 1 0 0] CT
-7.5 14 moveto 
1 -1 scale
(20) t 
GR
GR
GS
[0.75 0 0 0.75 1098.49997 360.49998] CT
0.149 GC
/Helvetica 13.333 F
GS
[1 0 0 1 0 0] CT
-7.5 14 moveto 
1 -1 scale
(30) t 
GR
GR
GS
[0.75 0 0 0.75 1132.66663 360.49998] CT
0.149 GC
/Helvetica 13.333 F
GS
[1 0 0 1 0 0] CT
-7.5 14 moveto 
1 -1 scale
(40) t 
GR
GR
GS
[0.75 0 0 0.75 1166.83337 360.49998] CT
0.149 GC
/Helvetica 13.333 F
GS
[1 0 0 1 0 0] CT
-7.5 14 moveto 
1 -1 scale
(50) t 
GR
GR
GS
[0.75 0 0 0.75 1201.00003 360.49998] CT
0.149 GC
/Helvetica 13.333 F
GS
[1 0 0 1 0 0] CT
-7.5 14 moveto 
1 -1 scale
(60) t 
GR
GR
GS
[0.75 0 0 0.75 1235.16669 360.49998] CT
0.149 GC
/Helvetica 13.333 F
GS
[1 0 0 1 0 0] CT
-7.5 14 moveto 
1 -1 scale
(70) t 
GR
GR
GS
[0.75 0 0 0.75 1269.33334 360.49998] CT
0.149 GC
/Helvetica 13.333 F
GS
[1 0 0 1 0 0] CT
-7.5 14 moveto 
1 -1 scale
(80) t 
GR
GR
GS
[0.75 0 0 0.75 1303.5 360.49998] CT
0.149 GC
/Helvetica 13.333 F
GS
[1 0 0 1 0 0] CT
-7.5 14 moveto 
1 -1 scale
(90) t 
GR
GR
GS
[0.75 0 0 0.75 1149.75018 374.24999] CT
0.149 GC
/Helvetica 14.667 F
GS
[1 0 0 1 0 0] CT
-30.5 16 moveto 
1 -1 scale
(channels) t 
GR
GR
GS
[0.75 0 0 0.75 0 0.25] CT
0.149 GC
2 setlinecap
1 LJ
0.667 LW
N
1328 475 M
1328 337 L
S
GR
GS
[0.75 0 0 0.75 0 0.25] CT
0.149 GC
2 setlinecap
1 LJ
0.667 LW
N
1738 475 M
1738 337 L
S
GR
GS
[0.75 0 0 0.75 0 0.25] CT
0.149 GC
2 setlinecap
1 LJ
0.667 LW
N
1328 475 M
1332.1 475 L
S
GR
GS
[0.75 0 0 0.75 0 0.25] CT
0.149 GC
2 setlinecap
1 LJ
0.667 LW
N
1328 429 M
1332.1 429 L
S
GR
GS
[0.75 0 0 0.75 0 0.25] CT
0.149 GC
2 setlinecap
1 LJ
0.667 LW
N
1328 383 M
1332.1 383 L
S
GR
GS
[0.75 0 0 0.75 0 0.25] CT
0.149 GC
2 setlinecap
1 LJ
0.667 LW
N
1328 337 M
1332.1 337 L
S
GR
GS
[0.75 0 0 0.75 0 0.25] CT
0.149 GC
2 setlinecap
1 LJ
0.667 LW
N
1738 475 M
1733.9 475 L
S
GR
GS
[0.75 0 0 0.75 0 0.25] CT
0.149 GC
2 setlinecap
1 LJ
0.667 LW
N
1738 429 M
1733.9 429 L
S
GR
GS
[0.75 0 0 0.75 0 0.25] CT
0.149 GC
2 setlinecap
1 LJ
0.667 LW
N
1738 383 M
1733.9 383 L
S
GR
GS
[0.75 0 0 0.75 0 0.25] CT
0.149 GC
2 setlinecap
1 LJ
0.667 LW
N
1738 337 M
1733.9 337 L
S
GR
GS
[0.75 0 0 0.75 991.99997 356.5] CT
0.149 GC
/Helvetica 13.333 F
GS
[1 0 0 1 0 0] CT
-19 5.5 moveto 
1 -1 scale
(0.6) t 
GR
GR
GS
[0.75 0 0 0.75 991.99997 322] CT
0.149 GC
/Helvetica 13.333 F
GS
[1 0 0 1 0 0] CT
-19 5.5 moveto 
1 -1 scale
(0.7) t 
GR
GR
GS
[0.75 0 0 0.75 991.99997 287.5] CT
0.149 GC
/Helvetica 13.333 F
GS
[1 0 0 1 0 0] CT
-19 5.5 moveto 
1 -1 scale
(0.8) t 
GR
GR
GS
[0.75 0 0 0.75 991.99997 253] CT
0.149 GC
/Helvetica 13.333 F
GS
[1 0 0 1 0 0] CT
-19 5.5 moveto 
1 -1 scale
(0.9) t 
GR
GR
GS
[0 -0.75 0.75 0 974.74997 304.74995] CT
0.149 GC
/Helvetica 14.667 F
GS
[1 0 0 1 0 0] CT
-10.5 -4 moveto 
1 -1 scale
(BC) t 
GR
GR
GS
[0.75 0 0 0.75 0 0.25] CT
0 0.447 0.741 RC
1 LJ
0.667 LW
N
1332.556 359.214 M
1337.111 395.002 L
1341.667 416.737 L
1346.222 412.987 L
1350.778 418.388 L
1355.333 391.532 L
1359.889 429.662 L
1364.444 395.288 L
1369 384.327 L
1373.556 378.546 L
1378.111 410.788 L
1382.667 416.606 L
1387.222 415.938 L
1391.778 402.396 L
1396.333 393.815 L
1400.889 423.406 L
1405.444 394.874 L
1410 398.086 L
1414.556 401.342 L
1419.111 395.056 L
1423.667 419.608 L
1428.222 391.011 L
1432.778 426.389 L
1437.333 410.512 L
1441.889 382.192 L
1446.444 434.895 L
1451 396.406 L
1455.556 400.571 L
1460.111 407.323 L
1464.667 391.465 L
1469.222 406.248 L
1473.778 443.222 L
1478.333 417.798 L
1482.889 400.517 L
1487.444 409.095 L
1492 410.816 L
1496.556 406.799 L
1501.111 422.875 L
1505.667 404.786 L
1510.222 397.716 L
1514.778 387.493 L
1519.333 404.427 L
1523.889 377.835 L
1528.444 399.804 L
1533 399.706 L
1537.556 407.866 L
1542.111 410.554 L
1546.667 394.949 L
1551.222 412.72 L
1555.778 395.536 L
1560.333 428.939 L
1564.889 387.933 L
1569.444 416.677 L
1574 407.621 L
1578.556 384.272 L
1583.111 430.58 L
1587.667 391.122 L
1592.222 415.102 L
1596.778 421.4 L
1601.333 388.545 L
1605.889 380.604 L
1610.444 412.139 L
1615 405.828 L
1619.556 410.046 L
1624.111 434.236 L
1628.667 396.422 L
1633.222 422.37 L
1637.778 423.837 L
1642.333 418.734 L
1646.889 426.528 L
1651.444 386.128 L
1656 419.15 L
1660.556 401.997 L
1665.111 395.873 L
1669.667 413.612 L
1674.222 413.885 L
1678.778 401.498 L
1683.333 400.46 L
1687.889 409.955 L
1692.444 403.817 L
1697 406.856 L
1701.556 412.458 L
1706.111 415.079 L
1710.667 397.673 L
1715.222 414.478 L
S
GR
GS
[0.75 0 0 0.75 0 0.25] CT
0.851 0.325 0.098 RC
1 LJ
0.667 LW
N
1332.556 391.116 M
1337.111 358.734 L
1341.667 387.8 L
1346.222 421.684 L
1350.778 381.18 L
1355.333 394.173 L
1359.889 384.967 L
1364.444 370.402 L
1369 378.819 L
1373.556 443.091 L
1378.111 445.765 L
1382.667 405.061 L
1387.222 347.361 L
1391.778 443.729 L
1396.333 406.172 L
1400.889 375.332 L
1405.444 392.873 L
1410 417.835 L
1414.556 391.597 L
1419.111 418.774 L
1423.667 402.5 L
1428.222 433.696 L
1432.778 445.361 L
1437.333 414.783 L
1441.889 419.097 L
1446.444 432.786 L
1451 376.117 L
1455.556 441.012 L
1460.111 423.483 L
1464.667 411.502 L
1469.222 393.636 L
1473.778 374.691 L
1478.333 442.021 L
1482.889 391.35 L
1487.444 399.096 L
1492 397.642 L
1496.556 426.597 L
1501.111 450.288 L
1505.667 416.106 L
1510.222 404.565 L
1514.778 390.708 L
1519.333 370.607 L
1523.889 404.149 L
1528.444 354.837 L
1533 438.179 L
1537.556 383.418 L
1542.111 436.891 L
1546.667 425.166 L
1551.222 430.34 L
1555.778 381.295 L
1560.333 408.351 L
1564.889 410.809 L
1569.444 428.164 L
1574 419.48 L
1578.556 417.051 L
1583.111 416.68 L
1587.667 407.295 L
1592.222 419.749 L
1596.778 371.435 L
1601.333 383.761 L
1605.889 427.021 L
1610.444 402.823 L
1615 400.278 L
1619.556 434.882 L
1624.111 411.158 L
1628.667 394.129 L
1633.222 389.8 L
1637.778 351.904 L
1642.333 407.815 L
1646.889 431.847 L
1651.444 386.314 L
1656 436.579 L
1660.556 405.549 L
1665.111 380.833 L
1669.667 416.873 L
1674.222 412.393 L
1678.778 375.161 L
1683.333 405.158 L
1687.889 424.444 L
1692.444 426.653 L
1697 413.818 L
1701.556 432.157 L
1706.111 422.24 L
1710.667 398.295 L
1715.222 412.723 L
S
GR
GS
[0.75 0 0 0.75 0 0.25] CT
1 GC
N
250 673 M
659 673 L
659 536 L
250 536 L
cp
f
GR
GS
[0.75 0 0 0.75 0 0.25] CT
0.149 GC
2 setlinecap
1 LJ
0.667 LW
N
250 673 M
659 673 L
S
GR
GS
[0.75 0 0 0.75 0 0.25] CT
0.149 GC
2 setlinecap
1 LJ
0.667 LW
N
250 536 M
659 536 L
S
GR
GS
[0.75 0 0 0.75 0 0.25] CT
0.149 GC
2 setlinecap
1 LJ
0.667 LW
N
250 673 M
250 668.91 L
S
GR
GS
[0.75 0 0 0.75 0 0.25] CT
0.149 GC
2 setlinecap
1 LJ
0.667 LW
N
308.429 673 M
308.429 668.91 L
S
GR
GS
[0.75 0 0 0.75 0 0.25] CT
0.149 GC
2 setlinecap
1 LJ
0.667 LW
N
366.857 673 M
366.857 668.91 L
S
GR
GS
[0.75 0 0 0.75 0 0.25] CT
0.149 GC
2 setlinecap
1 LJ
0.667 LW
N
425.286 673 M
425.286 668.91 L
S
GR
GS
[0.75 0 0 0.75 0 0.25] CT
0.149 GC
2 setlinecap
1 LJ
0.667 LW
N
483.714 673 M
483.714 668.91 L
S
GR
GS
[0.75 0 0 0.75 0 0.25] CT
0.149 GC
2 setlinecap
1 LJ
0.667 LW
N
542.143 673 M
542.143 668.91 L
S
GR
GS
[0.75 0 0 0.75 0 0.25] CT
0.149 GC
2 setlinecap
1 LJ
0.667 LW
N
600.571 673 M
600.571 668.91 L
S
GR
GS
[0.75 0 0 0.75 0 0.25] CT
0.149 GC
2 setlinecap
1 LJ
0.667 LW
N
659 673 M
659 668.91 L
S
GR
GS
[0.75 0 0 0.75 0 0.25] CT
0.149 GC
2 setlinecap
1 LJ
0.667 LW
N
250 536 M
250 540.09 L
S
GR
GS
[0.75 0 0 0.75 0 0.25] CT
0.149 GC
2 setlinecap
1 LJ
0.667 LW
N
308.429 536 M
308.429 540.09 L
S
GR
GS
[0.75 0 0 0.75 0 0.25] CT
0.149 GC
2 setlinecap
1 LJ
0.667 LW
N
366.857 536 M
366.857 540.09 L
S
GR
GS
[0.75 0 0 0.75 0 0.25] CT
0.149 GC
2 setlinecap
1 LJ
0.667 LW
N
425.286 536 M
425.286 540.09 L
S
GR
GS
[0.75 0 0 0.75 0 0.25] CT
0.149 GC
2 setlinecap
1 LJ
0.667 LW
N
483.714 536 M
483.714 540.09 L
S
GR
GS
[0.75 0 0 0.75 0 0.25] CT
0.149 GC
2 setlinecap
1 LJ
0.667 LW
N
542.143 536 M
542.143 540.09 L
S
GR
GS
[0.75 0 0 0.75 0 0.25] CT
0.149 GC
2 setlinecap
1 LJ
0.667 LW
N
600.571 536 M
600.571 540.09 L
S
GR
GS
[0.75 0 0 0.75 0 0.25] CT
0.149 GC
2 setlinecap
1 LJ
0.667 LW
N
659 536 M
659 540.09 L
S
GR
GS
[0.75 0 0 0.75 187.5 508.99998] CT
0.149 GC
/Helvetica 13.333 F
GS
[1 0 0 1 0 0] CT
-4 14 moveto 
1 -1 scale
(0) t 
GR
GR
GS
[0.75 0 0 0.75 231.32142 508.99998] CT
0.149 GC
/Helvetica 13.333 F
GS
[1 0 0 1 0 0] CT
-7.5 14 moveto 
1 -1 scale
(20) t 
GR
GR
GS
[0.75 0 0 0.75 275.14286 508.99998] CT
0.149 GC
/Helvetica 13.333 F
GS
[1 0 0 1 0 0] CT
-7.5 14 moveto 
1 -1 scale
(40) t 
GR
GR
GS
[0.75 0 0 0.75 318.96428 508.99998] CT
0.149 GC
/Helvetica 13.333 F
GS
[1 0 0 1 0 0] CT
-7.5 14 moveto 
1 -1 scale
(60) t 
GR
GR
GS
[0.75 0 0 0.75 362.78572 508.99998] CT
0.149 GC
/Helvetica 13.333 F
GS
[1 0 0 1 0 0] CT
-7.5 14 moveto 
1 -1 scale
(80) t 
GR
GR
GS
[0.75 0 0 0.75 406.60716 508.99998] CT
0.149 GC
/Helvetica 13.333 F
GS
[1 0 0 1 0 0] CT
-11 14 moveto 
1 -1 scale
(100) t 
GR
GR
GS
[0.75 0 0 0.75 450.42856 508.99998] CT
0.149 GC
/Helvetica 13.333 F
GS
[1 0 0 1 0 0] CT
-11 14 moveto 
1 -1 scale
(120) t 
GR
GR
GS
[0.75 0 0 0.75 494.25 508.99998] CT
0.149 GC
/Helvetica 13.333 F
GS
[1 0 0 1 0 0] CT
-11 14 moveto 
1 -1 scale
(140) t 
GR
GR
GS
[0.75 0 0 0.75 340.87516 522.74997] CT
0.149 GC
/Helvetica 14.667 F
GS
[1 0 0 1 0 0] CT
-30.5 16 moveto 
1 -1 scale
(channels) t 
GR
GR
GS
[0.75 0 0 0.75 0 0.25] CT
0.149 GC
2 setlinecap
1 LJ
0.667 LW
N
250 673 M
250 536 L
S
GR
GS
[0.75 0 0 0.75 0 0.25] CT
0.149 GC
2 setlinecap
1 LJ
0.667 LW
N
659 673 M
659 536 L
S
GR
GS
[0.75 0 0 0.75 0 0.25] CT
0.149 GC
2 setlinecap
1 LJ
0.667 LW
N
250 673 M
254.09 673 L
S
GR
GS
[0.75 0 0 0.75 0 0.25] CT
0.149 GC
2 setlinecap
1 LJ
0.667 LW
N
250 627.333 M
254.09 627.333 L
S
GR
GS
[0.75 0 0 0.75 0 0.25] CT
0.149 GC
2 setlinecap
1 LJ
0.667 LW
N
250 581.667 M
254.09 581.667 L
S
GR
GS
[0.75 0 0 0.75 0 0.25] CT
0.149 GC
2 setlinecap
1 LJ
0.667 LW
N
250 536 M
254.09 536 L
S
GR
GS
[0.75 0 0 0.75 0 0.25] CT
0.149 GC
2 setlinecap
1 LJ
0.667 LW
N
659 673 M
654.91 673 L
S
GR
GS
[0.75 0 0 0.75 0 0.25] CT
0.149 GC
2 setlinecap
1 LJ
0.667 LW
N
659 627.333 M
654.91 627.333 L
S
GR
GS
[0.75 0 0 0.75 0 0.25] CT
0.149 GC
2 setlinecap
1 LJ
0.667 LW
N
659 581.667 M
654.91 581.667 L
S
GR
GS
[0.75 0 0 0.75 0 0.25] CT
0.149 GC
2 setlinecap
1 LJ
0.667 LW
N
659 536 M
654.91 536 L
S
GR
GS
[0.75 0 0 0.75 183.5 505] CT
0.149 GC
/Helvetica 13.333 F
GS
[1 0 0 1 0 0] CT
-19 5.5 moveto 
1 -1 scale
(0.6) t 
GR
GR
GS
[0.75 0 0 0.75 183.5 470.74998] CT
0.149 GC
/Helvetica 13.333 F
GS
[1 0 0 1 0 0] CT
-19 5.5 moveto 
1 -1 scale
(0.7) t 
GR
GR
GS
[0.75 0 0 0.75 183.5 436.50002] CT
0.149 GC
/Helvetica 13.333 F
GS
[1 0 0 1 0 0] CT
-19 5.5 moveto 
1 -1 scale
(0.8) t 
GR
GR
GS
[0.75 0 0 0.75 183.5 402.25] CT
0.149 GC
/Helvetica 13.333 F
GS
[1 0 0 1 0 0] CT
-19 5.5 moveto 
1 -1 scale
(0.9) t 
GR
GR
GS
[0 -0.75 0.75 0 166.25 453.62495] CT
0.149 GC
/Helvetica 14.667 F
GS
[1 0 0 1 0 0] CT
-10.5 -4 moveto 
1 -1 scale
(BC) t 
GR
GR
GS
[0.75 0 0 0.75 0 0.25] CT
0 0.447 0.741 RC
1 LJ
0.667 LW
N
252.921 614.815 M
255.843 622.603 L
258.764 644.682 L
261.686 629.788 L
264.607 639.643 L
267.529 616.254 L
270.45 617.717 L
273.371 620.056 L
276.293 607.35 L
279.214 605.245 L
282.136 612.228 L
285.057 631.722 L
287.979 637.377 L
290.9 620.431 L
293.821 629.744 L
296.743 615.767 L
299.664 643.852 L
302.586 626.825 L
305.507 636.415 L
308.429 612.058 L
311.35 629.273 L
314.271 626.855 L
317.193 632.584 L
320.114 615.945 L
323.036 611.943 L
325.957 615.154 L
328.879 637.036 L
331.8 634.517 L
334.721 630.784 L
337.643 626.615 L
340.564 631.452 L
343.486 616.343 L
346.407 632.095 L
349.329 631.32 L
352.25 636.289 L
355.171 604.324 L
358.093 634.172 L
361.014 616.867 L
363.936 606.11 L
366.857 628.606 L
369.779 635.24 L
372.7 607.988 L
375.621 631.573 L
378.543 645.111 L
381.464 616.707 L
384.386 617.491 L
387.307 610.891 L
390.229 611.505 L
393.15 647.449 L
396.071 642.392 L
398.993 582.118 L
401.914 625.812 L
404.836 644.88 L
407.757 607.78 L
410.679 618.501 L
413.6 610.271 L
416.521 649.339 L
419.443 605.731 L
422.364 630.358 L
425.286 611.722 L
428.207 614.842 L
431.129 627.855 L
434.05 625.291 L
436.971 605.273 L
439.893 598.802 L
442.814 622.357 L
445.736 614.79 L
448.657 636.039 L
451.579 634.977 L
454.5 585.442 L
457.421 636.534 L
460.343 641.303 L
463.264 597.199 L
466.186 619.477 L
469.107 635.7 L
472.029 629.31 L
474.95 619.91 L
477.871 635.761 L
480.793 641.331 L
483.714 641.171 L
486.636 620.645 L
489.557 611.828 L
492.479 629.554 L
495.4 591.768 L
498.321 631.638 L
501.243 623.838 L
504.164 636.173 L
507.086 635.915 L
510.007 613.721 L
512.929 618.964 L
515.85 616.471 L
518.771 616.729 L
521.693 607.994 L
524.614 617.876 L
527.536 618.568 L
530.457 650.488 L
533.379 615.18 L
536.3 647.092 L
539.221 626.832 L
542.143 650.436 L
545.064 629.211 L
547.986 641.333 L
550.907 623.95 L
553.829 641.106 L
556.75 606.443 L
559.671 639.405 L
562.593 646.267 L
565.514 633.066 L
568.436 609.568 L
571.357 620.704 L
574.279 644.18 L
577.2 649.148 L
580.121 653.807 L
583.043 630.328 L
585.964 644.734 L
588.886 624.843 L
591.807 619.425 L
594.729 598.572 L
597.65 634.397 L
600.571 614.313 L
603.493 618.599 L
606.414 604.354 L
609.336 617.694 L
612.257 619.384 L
615.179 598.948 L
S
GR
GS
[0.75 0 0 0.75 0 0.25] CT
0.851 0.325 0.098 RC
1 LJ
0.667 LW
N
252.921 629.647 M
255.843 623.849 L
258.764 585.781 L
261.686 644.127 L
264.607 624.202 L
267.529 612.91 L
270.45 643.051 L
273.371 631.954 L
276.293 625.831 L
279.214 632.995 L
282.136 646.113 L
285.057 616.976 L
287.979 660.59 L
290.9 632.668 L
293.821 647.655 L
296.743 601.319 L
299.664 635.832 L
302.586 625.828 L
305.507 623.96 L
308.429 623.419 L
311.35 603.486 L
314.271 607 L
317.193 618.263 L
320.114 635.344 L
323.036 574.423 L
325.957 603.392 L
328.879 645.793 L
331.8 632.95 L
334.721 603.347 L
337.643 632.354 L
340.564 645.085 L
343.486 612.641 L
346.407 648.685 L
349.329 643.938 L
352.25 647.496 L
355.171 643.968 L
358.093 612.598 L
361.014 641.228 L
363.936 606.943 L
366.857 625.126 L
369.779 607.084 L
372.7 606.06 L
375.621 609.738 L
378.543 626.998 L
381.464 626.077 L
384.386 635.177 L
387.307 618.169 L
390.229 605.211 L
393.15 631.06 L
396.071 618.317 L
398.993 623.145 L
401.914 627.542 L
404.836 637.802 L
407.757 629.292 L
410.679 581.603 L
413.6 604.692 L
416.521 609.405 L
419.443 638.012 L
422.364 582.631 L
425.286 600.626 L
428.207 625.542 L
431.129 626.406 L
434.05 627.615 L
436.971 654.952 L
439.893 629.056 L
442.814 625.142 L
445.736 612.18 L
448.657 633.998 L
451.579 600.384 L
454.5 631.787 L
457.421 638.432 L
460.343 632.483 L
463.264 636.461 L
466.186 616.723 L
469.107 579.524 L
472.029 606.999 L
474.95 609.8 L
477.871 644.536 L
480.793 631.72 L
483.714 636.852 L
486.636 622.876 L
489.557 615.466 L
492.479 601.614 L
495.4 606.787 L
498.321 587.183 L
501.243 594.451 L
504.164 615.777 L
507.086 594.544 L
510.007 639.503 L
512.929 646.555 L
515.85 628.144 L
518.771 626.118 L
521.693 597.241 L
524.614 634.719 L
527.536 628.08 L
530.457 620.208 L
533.379 631.926 L
536.3 634.572 L
539.221 631.811 L
542.143 572.883 L
545.064 626.436 L
547.986 637.594 L
550.907 652.737 L
553.829 649.616 L
556.75 589.846 L
559.671 595.221 L
562.593 637.348 L
565.514 628.655 L
568.436 643.438 L
571.357 652.199 L
574.279 639.276 L
577.2 630.06 L
580.121 614.724 L
583.043 606.877 L
585.964 595.339 L
588.886 602.031 L
591.807 636.791 L
594.729 626.156 L
597.65 646.111 L
600.571 598.31 L
603.493 618.039 L
606.414 624.729 L
609.336 630.915 L
612.257 608.984 L
615.179 606.522 L
S
GR
GS
[0.75 0 0 0.75 0 0.25] CT
1 GC
N
789 673 M
1198 673 L
1198 536 L
789 536 L
cp
f
GR
GS
[0.75 0 0 0.75 0 0.25] CT
0.149 GC
2 setlinecap
1 LJ
0.667 LW
N
789 673 M
1198 673 L
S
GR
GS
[0.75 0 0 0.75 0 0.25] CT
0.149 GC
2 setlinecap
1 LJ
0.667 LW
N
789 536 M
1198 536 L
S
GR
GS
[0.75 0 0 0.75 0 0.25] CT
0.149 GC
2 setlinecap
1 LJ
0.667 LW
N
789 673 M
789 668.91 L
S
GR
GS
[0.75 0 0 0.75 0 0.25] CT
0.149 GC
2 setlinecap
1 LJ
0.667 LW
N
891.25 673 M
891.25 668.91 L
S
GR
GS
[0.75 0 0 0.75 0 0.25] CT
0.149 GC
2 setlinecap
1 LJ
0.667 LW
N
993.5 673 M
993.5 668.91 L
S
GR
GS
[0.75 0 0 0.75 0 0.25] CT
0.149 GC
2 setlinecap
1 LJ
0.667 LW
N
1095.75 673 M
1095.75 668.91 L
S
GR
GS
[0.75 0 0 0.75 0 0.25] CT
0.149 GC
2 setlinecap
1 LJ
0.667 LW
N
1198 673 M
1198 668.91 L
S
GR
GS
[0.75 0 0 0.75 0 0.25] CT
0.149 GC
2 setlinecap
1 LJ
0.667 LW
N
789 536 M
789 540.09 L
S
GR
GS
[0.75 0 0 0.75 0 0.25] CT
0.149 GC
2 setlinecap
1 LJ
0.667 LW
N
891.25 536 M
891.25 540.09 L
S
GR
GS
[0.75 0 0 0.75 0 0.25] CT
0.149 GC
2 setlinecap
1 LJ
0.667 LW
N
993.5 536 M
993.5 540.09 L
S
GR
GS
[0.75 0 0 0.75 0 0.25] CT
0.149 GC
2 setlinecap
1 LJ
0.667 LW
N
1095.75 536 M
1095.75 540.09 L
S
GR
GS
[0.75 0 0 0.75 0 0.25] CT
0.149 GC
2 setlinecap
1 LJ
0.667 LW
N
1198 536 M
1198 540.09 L
S
GR
GS
[0.75 0 0 0.75 591.75 508.99998] CT
0.149 GC
/Helvetica 13.333 F
GS
[1 0 0 1 0 0] CT
-4 14 moveto 
1 -1 scale
(1) t 
GR
GR
GS
[0.75 0 0 0.75 668.4375 508.99998] CT
0.149 GC
/Helvetica 13.333 F
GS
[1 0 0 1 0 0] CT
-9.5 14 moveto 
1 -1 scale
(1.5) t 
GR
GR
GS
[0.75 0 0 0.75 745.125 508.99998] CT
0.149 GC
/Helvetica 13.333 F
GS
[1 0 0 1 0 0] CT
-4 14 moveto 
1 -1 scale
(2) t 
GR
GR
GS
[0.75 0 0 0.75 821.8125 508.99998] CT
0.149 GC
/Helvetica 13.333 F
GS
[1 0 0 1 0 0] CT
-9.5 14 moveto 
1 -1 scale
(2.5) t 
GR
GR
GS
[0.75 0 0 0.75 898.5 508.99998] CT
0.149 GC
/Helvetica 13.333 F
GS
[1 0 0 1 0 0] CT
-4 14 moveto 
1 -1 scale
(3) t 
GR
GR
GS
[0.75 0 0 0.75 745.12514 522.74997] CT
0.149 GC
/Helvetica 14.667 F
GS
[1 0 0 1 0 0] CT
-30.5 16 moveto 
1 -1 scale
(channels) t 
GR
GR
GS
[0.75 0 0 0.75 0 0.25] CT
0.149 GC
2 setlinecap
1 LJ
0.667 LW
N
789 673 M
789 536 L
S
GR
GS
[0.75 0 0 0.75 0 0.25] CT
0.149 GC
2 setlinecap
1 LJ
0.667 LW
N
1198 673 M
1198 536 L
S
GR
GS
[0.75 0 0 0.75 0 0.25] CT
0.149 GC
2 setlinecap
1 LJ
0.667 LW
N
789 673 M
793.09 673 L
S
GR
GS
[0.75 0 0 0.75 0 0.25] CT
0.149 GC
2 setlinecap
1 LJ
0.667 LW
N
789 638.75 M
793.09 638.75 L
S
GR
GS
[0.75 0 0 0.75 0 0.25] CT
0.149 GC
2 setlinecap
1 LJ
0.667 LW
N
789 604.5 M
793.09 604.5 L
S
GR
GS
[0.75 0 0 0.75 0 0.25] CT
0.149 GC
2 setlinecap
1 LJ
0.667 LW
N
789 570.25 M
793.09 570.25 L
S
GR
GS
[0.75 0 0 0.75 0 0.25] CT
0.149 GC
2 setlinecap
1 LJ
0.667 LW
N
789 536 M
793.09 536 L
S
GR
GS
[0.75 0 0 0.75 0 0.25] CT
0.149 GC
2 setlinecap
1 LJ
0.667 LW
N
1198 673 M
1193.91 673 L
S
GR
GS
[0.75 0 0 0.75 0 0.25] CT
0.149 GC
2 setlinecap
1 LJ
0.667 LW
N
1198 638.75 M
1193.91 638.75 L
S
GR
GS
[0.75 0 0 0.75 0 0.25] CT
0.149 GC
2 setlinecap
1 LJ
0.667 LW
N
1198 604.5 M
1193.91 604.5 L
S
GR
GS
[0.75 0 0 0.75 0 0.25] CT
0.149 GC
2 setlinecap
1 LJ
0.667 LW
N
1198 570.25 M
1193.91 570.25 L
S
GR
GS
[0.75 0 0 0.75 0 0.25] CT
0.149 GC
2 setlinecap
1 LJ
0.667 LW
N
1198 536 M
1193.91 536 L
S
GR
GS
[0.75 0 0 0.75 587.75002 505] CT
0.149 GC
/Helvetica 13.333 F
GS
[1 0 0 1 0 0] CT
-26 5.5 moveto 
1 -1 scale
(0.68) t 
GR
GR
GS
[0.75 0 0 0.75 587.75002 479.3125] CT
0.149 GC
/Helvetica 13.333 F
GS
[1 0 0 1 0 0] CT
-19 5.5 moveto 
1 -1 scale
(0.7) t 
GR
GR
GS
[0.75 0 0 0.75 587.75002 453.62495] CT
0.149 GC
/Helvetica 13.333 F
GS
[1 0 0 1 0 0] CT
-26 5.5 moveto 
1 -1 scale
(0.72) t 
GR
GR
GS
[0.75 0 0 0.75 587.75002 427.9375] CT
0.149 GC
/Helvetica 13.333 F
GS
[1 0 0 1 0 0] CT
-26 5.5 moveto 
1 -1 scale
(0.74) t 
GR
GR
GS
[0.75 0 0 0.75 587.75002 402.25] CT
0.149 GC
/Helvetica 13.333 F
GS
[1 0 0 1 0 0] CT
-26 5.5 moveto 
1 -1 scale
(0.76) t 
GR
GR
GS
[0 -0.75 0.75 0 565.25002 453.62495] CT
0.149 GC
/Helvetica 14.667 F
GS
[1 0 0 1 0 0] CT
-10.5 -4 moveto 
1 -1 scale
(BC) t 
GR
GR
GS
[0.75 0 0 0.75 0 0.25] CT
0 0.447 0.741 RC
1 LJ
0.667 LW
N
789 627.075 M
993.5 571.53 L
1198 657.602 L
S
GR
GS
[0.75 0 0 0.75 0 0.25] CT
0.851 0.325 0.098 RC
1 LJ
0.667 LW
N
789 659.728 M
993.5 567.933 L
1198 610.664 L
S
GR
GS
[0.75 0 0 0.75 0 0.25] CT
1 GC
N
1328 673 M
1738 673 L
1738 536 L
1328 536 L
cp
f
GR
GS
[0.75 0 0 0.75 0 0.25] CT
0.149 GC
2 setlinecap
1 LJ
0.667 LW
N
1328 673 M
1738 673 L
S
GR
GS
[0.75 0 0 0.75 0 0.25] CT
0.149 GC
2 setlinecap
1 LJ
0.667 LW
N
1328 536 M
1738 536 L
S
GR
GS
[0.75 0 0 0.75 0 0.25] CT
0.149 GC
2 setlinecap
1 LJ
0.667 LW
N
1328 673 M
1328 668.9 L
S
GR
GS
[0.75 0 0 0.75 0 0.25] CT
0.149 GC
2 setlinecap
1 LJ
0.667 LW
N
1373.556 673 M
1373.556 668.9 L
S
GR
GS
[0.75 0 0 0.75 0 0.25] CT
0.149 GC
2 setlinecap
1 LJ
0.667 LW
N
1419.111 673 M
1419.111 668.9 L
S
GR
GS
[0.75 0 0 0.75 0 0.25] CT
0.149 GC
2 setlinecap
1 LJ
0.667 LW
N
1464.667 673 M
1464.667 668.9 L
S
GR
GS
[0.75 0 0 0.75 0 0.25] CT
0.149 GC
2 setlinecap
1 LJ
0.667 LW
N
1510.222 673 M
1510.222 668.9 L
S
GR
GS
[0.75 0 0 0.75 0 0.25] CT
0.149 GC
2 setlinecap
1 LJ
0.667 LW
N
1555.778 673 M
1555.778 668.9 L
S
GR
GS
[0.75 0 0 0.75 0 0.25] CT
0.149 GC
2 setlinecap
1 LJ
0.667 LW
N
1601.333 673 M
1601.333 668.9 L
S
GR
GS
[0.75 0 0 0.75 0 0.25] CT
0.149 GC
2 setlinecap
1 LJ
0.667 LW
N
1646.889 673 M
1646.889 668.9 L
S
GR
GS
[0.75 0 0 0.75 0 0.25] CT
0.149 GC
2 setlinecap
1 LJ
0.667 LW
N
1692.444 673 M
1692.444 668.9 L
S
GR
GS
[0.75 0 0 0.75 0 0.25] CT
0.149 GC
2 setlinecap
1 LJ
0.667 LW
N
1738 673 M
1738 668.9 L
S
GR
GS
[0.75 0 0 0.75 0 0.25] CT
0.149 GC
2 setlinecap
1 LJ
0.667 LW
N
1328 536 M
1328 540.1 L
S
GR
GS
[0.75 0 0 0.75 0 0.25] CT
0.149 GC
2 setlinecap
1 LJ
0.667 LW
N
1373.556 536 M
1373.556 540.1 L
S
GR
GS
[0.75 0 0 0.75 0 0.25] CT
0.149 GC
2 setlinecap
1 LJ
0.667 LW
N
1419.111 536 M
1419.111 540.1 L
S
GR
GS
[0.75 0 0 0.75 0 0.25] CT
0.149 GC
2 setlinecap
1 LJ
0.667 LW
N
1464.667 536 M
1464.667 540.1 L
S
GR
GS
[0.75 0 0 0.75 0 0.25] CT
0.149 GC
2 setlinecap
1 LJ
0.667 LW
N
1510.222 536 M
1510.222 540.1 L
S
GR
GS
[0.75 0 0 0.75 0 0.25] CT
0.149 GC
2 setlinecap
1 LJ
0.667 LW
N
1555.778 536 M
1555.778 540.1 L
S
GR
GS
[0.75 0 0 0.75 0 0.25] CT
0.149 GC
2 setlinecap
1 LJ
0.667 LW
N
1601.333 536 M
1601.333 540.1 L
S
GR
GS
[0.75 0 0 0.75 0 0.25] CT
0.149 GC
2 setlinecap
1 LJ
0.667 LW
N
1646.889 536 M
1646.889 540.1 L
S
GR
GS
[0.75 0 0 0.75 0 0.25] CT
0.149 GC
2 setlinecap
1 LJ
0.667 LW
N
1692.444 536 M
1692.444 540.1 L
S
GR
GS
[0.75 0 0 0.75 0 0.25] CT
0.149 GC
2 setlinecap
1 LJ
0.667 LW
N
1738 536 M
1738 540.1 L
S
GR
GS
[0.75 0 0 0.75 996 508.99998] CT
0.149 GC
/Helvetica 13.333 F
GS
[1 0 0 1 0 0] CT
-4 14 moveto 
1 -1 scale
(0) t 
GR
GR
GS
[0.75 0 0 0.75 1030.16666 508.99998] CT
0.149 GC
/Helvetica 13.333 F
GS
[1 0 0 1 0 0] CT
-7.5 14 moveto 
1 -1 scale
(10) t 
GR
GR
GS
[0.75 0 0 0.75 1064.33331 508.99998] CT
0.149 GC
/Helvetica 13.333 F
GS
[1 0 0 1 0 0] CT
-7.5 14 moveto 
1 -1 scale
(20) t 
GR
GR
GS
[0.75 0 0 0.75 1098.49997 508.99998] CT
0.149 GC
/Helvetica 13.333 F
GS
[1 0 0 1 0 0] CT
-7.5 14 moveto 
1 -1 scale
(30) t 
GR
GR
GS
[0.75 0 0 0.75 1132.66663 508.99998] CT
0.149 GC
/Helvetica 13.333 F
GS
[1 0 0 1 0 0] CT
-7.5 14 moveto 
1 -1 scale
(40) t 
GR
GR
GS
[0.75 0 0 0.75 1166.83337 508.99998] CT
0.149 GC
/Helvetica 13.333 F
GS
[1 0 0 1 0 0] CT
-7.5 14 moveto 
1 -1 scale
(50) t 
GR
GR
GS
[0.75 0 0 0.75 1201.00003 508.99998] CT
0.149 GC
/Helvetica 13.333 F
GS
[1 0 0 1 0 0] CT
-7.5 14 moveto 
1 -1 scale
(60) t 
GR
GR
GS
[0.75 0 0 0.75 1235.16669 508.99998] CT
0.149 GC
/Helvetica 13.333 F
GS
[1 0 0 1 0 0] CT
-7.5 14 moveto 
1 -1 scale
(70) t 
GR
GR
GS
[0.75 0 0 0.75 1269.33334 508.99998] CT
0.149 GC
/Helvetica 13.333 F
GS
[1 0 0 1 0 0] CT
-7.5 14 moveto 
1 -1 scale
(80) t 
GR
GR
GS
[0.75 0 0 0.75 1303.5 508.99998] CT
0.149 GC
/Helvetica 13.333 F
GS
[1 0 0 1 0 0] CT
-7.5 14 moveto 
1 -1 scale
(90) t 
GR
GR
GS
[0.75 0 0 0.75 1149.75018 522.74997] CT
0.149 GC
/Helvetica 14.667 F
GS
[1 0 0 1 0 0] CT
-30.5 16 moveto 
1 -1 scale
(channels) t 
GR
GR
GS
[0.75 0 0 0.75 0 0.25] CT
0.149 GC
2 setlinecap
1 LJ
0.667 LW
N
1328 673 M
1328 536 L
S
GR
GS
[0.75 0 0 0.75 0 0.25] CT
0.149 GC
2 setlinecap
1 LJ
0.667 LW
N
1738 673 M
1738 536 L
S
GR
GS
[0.75 0 0 0.75 0 0.25] CT
0.149 GC
2 setlinecap
1 LJ
0.667 LW
N
1328 673 M
1332.1 673 L
S
GR
GS
[0.75 0 0 0.75 0 0.25] CT
0.149 GC
2 setlinecap
1 LJ
0.667 LW
N
1328 627.333 M
1332.1 627.333 L
S
GR
GS
[0.75 0 0 0.75 0 0.25] CT
0.149 GC
2 setlinecap
1 LJ
0.667 LW
N
1328 581.667 M
1332.1 581.667 L
S
GR
GS
[0.75 0 0 0.75 0 0.25] CT
0.149 GC
2 setlinecap
1 LJ
0.667 LW
N
1328 536 M
1332.1 536 L
S
GR
GS
[0.75 0 0 0.75 0 0.25] CT
0.149 GC
2 setlinecap
1 LJ
0.667 LW
N
1738 673 M
1733.9 673 L
S
GR
GS
[0.75 0 0 0.75 0 0.25] CT
0.149 GC
2 setlinecap
1 LJ
0.667 LW
N
1738 627.333 M
1733.9 627.333 L
S
GR
GS
[0.75 0 0 0.75 0 0.25] CT
0.149 GC
2 setlinecap
1 LJ
0.667 LW
N
1738 581.667 M
1733.9 581.667 L
S
GR
GS
[0.75 0 0 0.75 0 0.25] CT
0.149 GC
2 setlinecap
1 LJ
0.667 LW
N
1738 536 M
1733.9 536 L
S
GR
GS
[0.75 0 0 0.75 991.99997 505] CT
0.149 GC
/Helvetica 13.333 F
GS
[1 0 0 1 0 0] CT
-19 5.5 moveto 
1 -1 scale
(0.6) t 
GR
GR
GS
[0.75 0 0 0.75 991.99997 470.74998] CT
0.149 GC
/Helvetica 13.333 F
GS
[1 0 0 1 0 0] CT
-19 5.5 moveto 
1 -1 scale
(0.7) t 
GR
GR
GS
[0.75 0 0 0.75 991.99997 436.50002] CT
0.149 GC
/Helvetica 13.333 F
GS
[1 0 0 1 0 0] CT
-19 5.5 moveto 
1 -1 scale
(0.8) t 
GR
GR
GS
[0.75 0 0 0.75 991.99997 402.25] CT
0.149 GC
/Helvetica 13.333 F
GS
[1 0 0 1 0 0] CT
-19 5.5 moveto 
1 -1 scale
(0.9) t 
GR
GR
GS
[0 -0.75 0.75 0 974.74997 453.62495] CT
0.149 GC
/Helvetica 14.667 F
GS
[1 0 0 1 0 0] CT
-10.5 -4 moveto 
1 -1 scale
(BC) t 
GR
GR
GS
[0.75 0 0 0.75 0 0.25] CT
0 0.447 0.741 RC
1 LJ
0.667 LW
N
1332.556 630.318 M
1337.111 633.314 L
1341.667 651.003 L
1346.222 626.755 L
1350.778 645.065 L
1355.333 626.042 L
1359.889 644.015 L
1364.444 641.017 L
1369 644.109 L
1373.556 625.796 L
1378.111 637.286 L
1382.667 635.776 L
1387.222 636.459 L
1391.778 598.148 L
1396.333 611.472 L
1400.889 634.013 L
1405.444 630.483 L
1410 624.081 L
1414.556 639.942 L
1419.111 643.989 L
1423.667 639.59 L
1428.222 616.381 L
1432.778 650.789 L
1437.333 609.801 L
1441.889 626.295 L
1446.444 638.375 L
1451 614.103 L
1455.556 630.483 L
1460.111 626.852 L
1464.667 644.835 L
1469.222 608.866 L
1473.778 634.059 L
1478.333 623.253 L
1482.889 610.681 L
1487.444 619.042 L
1492 617.094 L
1496.556 632.979 L
1501.111 627.127 L
1505.667 623.338 L
1510.222 627.489 L
1514.778 635.748 L
1519.333 642.411 L
1523.889 634.317 L
1528.444 643.443 L
1533 633.887 L
1537.556 626.331 L
1542.111 629.175 L
1546.667 638.168 L
1551.222 636.097 L
1555.778 612.218 L
1560.333 630.561 L
1564.889 625.353 L
1569.444 619.163 L
1574 624.292 L
1578.556 640.108 L
1583.111 617.678 L
1587.667 628.283 L
1592.222 632.678 L
1596.778 610.854 L
1601.333 613.442 L
1605.889 604.512 L
1610.444 632.469 L
1615 619.388 L
1619.556 620.629 L
1624.111 621.193 L
1628.667 629.788 L
1633.222 605.812 L
1637.778 612.831 L
1642.333 628.524 L
1646.889 609.942 L
1651.444 614.794 L
1656 617.97 L
1660.556 622.497 L
1665.111 623.768 L
1669.667 625.423 L
1674.222 616.803 L
1678.778 626.336 L
1683.333 625.691 L
1687.889 621.151 L
1692.444 628.931 L
1697 629.989 L
1701.556 622.94 L
S
GR
GS
[0.75 0 0 0.75 0 0.25] CT
0.851 0.325 0.098 RC
1 LJ
0.667 LW
N
1332.556 627.134 M
1337.111 628.02 L
1341.667 619.976 L
1346.222 609.228 L
1350.778 640.276 L
1355.333 642.602 L
1359.889 634.112 L
1364.444 649.996 L
1369 628.006 L
1373.556 646.633 L
1378.111 629.645 L
1382.667 645.394 L
1387.222 627.902 L
1391.778 637.687 L
1396.333 644.607 L
1400.889 620.371 L
1405.444 615.763 L
1410 629.798 L
1414.556 628.894 L
1419.111 635.723 L
1423.667 644.662 L
1428.222 623.046 L
1432.778 615.742 L
1437.333 595.756 L
1441.889 616.753 L
1446.444 627.72 L
1451 618.482 L
1455.556 624.762 L
1460.111 645.325 L
1464.667 613.56 L
1469.222 547.269 L
1473.778 621.307 L
1478.333 642.182 L
1482.889 606.94 L
1487.444 646.791 L
1492 576.295 L
1496.556 614.929 L
1501.111 616.827 L
1505.667 637.959 L
1510.222 574.609 L
1514.778 614.128 L
1519.333 653.472 L
1523.889 634.445 L
1528.444 626.223 L
1533 626.425 L
1537.556 627.714 L
1542.111 610.481 L
1546.667 644.243 L
1551.222 638.979 L
1555.778 604.616 L
1560.333 654.07 L
1564.889 619.779 L
1569.444 630.385 L
1574 605.609 L
1578.556 628.734 L
1583.111 631.789 L
1587.667 629.114 L
1592.222 607 L
1596.778 626.413 L
1601.333 641.169 L
1605.889 624.677 L
1610.444 633.521 L
1615 642.127 L
1619.556 582.076 L
1624.111 558.461 L
1628.667 641.043 L
1633.222 615.169 L
1637.778 624.069 L
1642.333 622.279 L
1646.889 588.993 L
1651.444 634.658 L
1656 650.421 L
1660.556 618.116 L
1665.111 617.286 L
1669.667 597.538 L
1674.222 616.581 L
1678.778 640.412 L
1683.333 633.448 L
1687.889 635.427 L
1692.444 649.28 L
1697 623.717 L
1701.556 570.816 L
S
GR
GS
[0.75 0 0 0.75 0 0.25] CT
1 GC
N
250 872 M
659 872 L
659 735 L
250 735 L
cp
f
GR
GS
[0.75 0 0 0.75 0 0.25] CT
0.149 GC
2 setlinecap
1 LJ
0.667 LW
N
250 872 M
659 872 L
S
GR
GS
[0.75 0 0 0.75 0 0.25] CT
0.149 GC
2 setlinecap
1 LJ
0.667 LW
N
250 735 M
659 735 L
S
GR
GS
[0.75 0 0 0.75 0 0.25] CT
0.149 GC
2 setlinecap
1 LJ
0.667 LW
N
250 872 M
250 867.91 L
S
GR
GS
[0.75 0 0 0.75 0 0.25] CT
0.149 GC
2 setlinecap
1 LJ
0.667 LW
N
331.8 872 M
331.8 867.91 L
S
GR
GS
[0.75 0 0 0.75 0 0.25] CT
0.149 GC
2 setlinecap
1 LJ
0.667 LW
N
413.6 872 M
413.6 867.91 L
S
GR
GS
[0.75 0 0 0.75 0 0.25] CT
0.149 GC
2 setlinecap
1 LJ
0.667 LW
N
495.4 872 M
495.4 867.91 L
S
GR
GS
[0.75 0 0 0.75 0 0.25] CT
0.149 GC
2 setlinecap
1 LJ
0.667 LW
N
577.2 872 M
577.2 867.91 L
S
GR
GS
[0.75 0 0 0.75 0 0.25] CT
0.149 GC
2 setlinecap
1 LJ
0.667 LW
N
659 872 M
659 867.91 L
S
GR
GS
[0.75 0 0 0.75 0 0.25] CT
0.149 GC
2 setlinecap
1 LJ
0.667 LW
N
250 735 M
250 739.09 L
S
GR
GS
[0.75 0 0 0.75 0 0.25] CT
0.149 GC
2 setlinecap
1 LJ
0.667 LW
N
331.8 735 M
331.8 739.09 L
S
GR
GS
[0.75 0 0 0.75 0 0.25] CT
0.149 GC
2 setlinecap
1 LJ
0.667 LW
N
413.6 735 M
413.6 739.09 L
S
GR
GS
[0.75 0 0 0.75 0 0.25] CT
0.149 GC
2 setlinecap
1 LJ
0.667 LW
N
495.4 735 M
495.4 739.09 L
S
GR
GS
[0.75 0 0 0.75 0 0.25] CT
0.149 GC
2 setlinecap
1 LJ
0.667 LW
N
577.2 735 M
577.2 739.09 L
S
GR
GS
[0.75 0 0 0.75 0 0.25] CT
0.149 GC
2 setlinecap
1 LJ
0.667 LW
N
659 735 M
659 739.09 L
S
GR
GS
[0.75 0 0 0.75 187.5 658.24998] CT
0.149 GC
/Helvetica 13.333 F
GS
[1 0 0 1 0 0] CT
-4 14 moveto 
1 -1 scale
(0) t 
GR
GR
GS
[0.75 0 0 0.75 248.84999 658.24998] CT
0.149 GC
/Helvetica 13.333 F
GS
[1 0 0 1 0 0] CT
-7.5 14 moveto 
1 -1 scale
(20) t 
GR
GR
GS
[0.75 0 0 0.75 310.2 658.24998] CT
0.149 GC
/Helvetica 13.333 F
GS
[1 0 0 1 0 0] CT
-7.5 14 moveto 
1 -1 scale
(40) t 
GR
GR
GS
[0.75 0 0 0.75 371.55 658.24998] CT
0.149 GC
/Helvetica 13.333 F
GS
[1 0 0 1 0 0] CT
-7.5 14 moveto 
1 -1 scale
(60) t 
GR
GR
GS
[0.75 0 0 0.75 432.90001 658.24998] CT
0.149 GC
/Helvetica 13.333 F
GS
[1 0 0 1 0 0] CT
-7.5 14 moveto 
1 -1 scale
(80) t 
GR
GR
GS
[0.75 0 0 0.75 494.25 658.24998] CT
0.149 GC
/Helvetica 13.333 F
GS
[1 0 0 1 0 0] CT
-11 14 moveto 
1 -1 scale
(100) t 
GR
GR
GS
[0.75 0 0 0.75 340.87514 671.99997] CT
0.149 GC
/Helvetica 14.667 F
GS
[1 0 0 1 0 0] CT
-30.5 16 moveto 
1 -1 scale
(channels) t 
GR
GR
GS
[0.75 0 0 0.75 0 0.25] CT
0.149 GC
2 setlinecap
1 LJ
0.667 LW
N
250 872 M
250 735 L
S
GR
GS
[0.75 0 0 0.75 0 0.25] CT
0.149 GC
2 setlinecap
1 LJ
0.667 LW
N
659 872 M
659 735 L
S
GR
GS
[0.75 0 0 0.75 0 0.25] CT
0.149 GC
2 setlinecap
1 LJ
0.667 LW
N
250 872 M
254.09 872 L
S
GR
GS
[0.75 0 0 0.75 0 0.25] CT
0.149 GC
2 setlinecap
1 LJ
0.667 LW
N
250 826.333 M
254.09 826.333 L
S
GR
GS
[0.75 0 0 0.75 0 0.25] CT
0.149 GC
2 setlinecap
1 LJ
0.667 LW
N
250 780.667 M
254.09 780.667 L
S
GR
GS
[0.75 0 0 0.75 0 0.25] CT
0.149 GC
2 setlinecap
1 LJ
0.667 LW
N
250 735 M
254.09 735 L
S
GR
GS
[0.75 0 0 0.75 0 0.25] CT
0.149 GC
2 setlinecap
1 LJ
0.667 LW
N
659 872 M
654.91 872 L
S
GR
GS
[0.75 0 0 0.75 0 0.25] CT
0.149 GC
2 setlinecap
1 LJ
0.667 LW
N
659 826.333 M
654.91 826.333 L
S
GR
GS
[0.75 0 0 0.75 0 0.25] CT
0.149 GC
2 setlinecap
1 LJ
0.667 LW
N
659 780.667 M
654.91 780.667 L
S
GR
GS
[0.75 0 0 0.75 0 0.25] CT
0.149 GC
2 setlinecap
1 LJ
0.667 LW
N
659 735 M
654.91 735 L
S
GR
GS
[0.75 0 0 0.75 183.5 654.25] CT
0.149 GC
/Helvetica 13.333 F
GS
[1 0 0 1 0 0] CT
-19 5.5 moveto 
1 -1 scale
(0.6) t 
GR
GR
GS
[0.75 0 0 0.75 183.5 619.99998] CT
0.149 GC
/Helvetica 13.333 F
GS
[1 0 0 1 0 0] CT
-19 5.5 moveto 
1 -1 scale
(0.7) t 
GR
GR
GS
[0.75 0 0 0.75 183.5 585.75002] CT
0.149 GC
/Helvetica 13.333 F
GS
[1 0 0 1 0 0] CT
-19 5.5 moveto 
1 -1 scale
(0.8) t 
GR
GR
GS
[0.75 0 0 0.75 183.5 551.5] CT
0.149 GC
/Helvetica 13.333 F
GS
[1 0 0 1 0 0] CT
-19 5.5 moveto 
1 -1 scale
(0.9) t 
GR
GR
GS
[0 -0.75 0.75 0 166.25 602.87495] CT
0.149 GC
/Helvetica 14.667 F
GS
[1 0 0 1 0 0] CT
-10.5 -4 moveto 
1 -1 scale
(BC) t 
GR
GR
GS
[0.75 0 0 0.75 0 0.25] CT
0 0.447 0.741 RC
1 LJ
0.667 LW
N
254.09 796.245 M
258.18 803.419 L
262.27 791.264 L
266.36 778.772 L
270.45 777.99 L
274.54 770.969 L
278.63 808.342 L
282.72 768.602 L
286.81 806.821 L
290.9 788.576 L
294.99 818.195 L
299.08 778.572 L
303.17 797.903 L
307.26 807.464 L
311.35 783.628 L
315.44 808.992 L
319.53 783.801 L
323.62 815.79 L
327.71 818.415 L
331.8 787.226 L
335.89 810.039 L
339.98 789.102 L
344.07 813.885 L
348.16 793.324 L
352.25 804.174 L
356.34 790.285 L
360.43 785.914 L
364.52 805.446 L
368.61 811.781 L
372.7 774.091 L
376.79 797.707 L
380.88 777.851 L
384.97 799.473 L
389.06 810.272 L
393.15 789.259 L
397.24 806.427 L
401.33 785.963 L
405.42 827.946 L
409.51 783.896 L
413.6 816.283 L
417.69 786.173 L
421.78 827.925 L
425.87 821.404 L
429.96 804.178 L
434.05 751.623 L
438.14 812.345 L
442.23 822.924 L
446.32 800.419 L
450.41 808.22 L
454.5 828.696 L
458.59 794.883 L
462.68 822.825 L
466.77 810.988 L
470.86 807.394 L
474.95 804.907 L
479.04 816.138 L
483.13 818.797 L
487.22 788.478 L
491.31 802.196 L
495.4 771.815 L
499.49 787.934 L
503.58 816.198 L
507.67 798.324 L
511.76 808.913 L
515.85 800.537 L
519.94 810.964 L
524.03 808.961 L
528.12 823.701 L
532.21 801.394 L
536.3 824.436 L
540.39 793.835 L
544.48 806.077 L
548.57 769.588 L
552.66 816.808 L
556.75 775.576 L
560.84 803.122 L
564.93 797.027 L
569.02 795.205 L
573.11 810.319 L
577.2 770.674 L
581.29 803.207 L
585.38 823.823 L
589.47 797.052 L
593.56 790.734 L
597.65 762.581 L
601.74 804.918 L
605.83 787.011 L
609.92 821.699 L
614.01 808.584 L
618.1 798.888 L
622.19 773.107 L
626.28 806.157 L
630.37 804.227 L
634.46 787.521 L
638.55 775.707 L
642.64 791.469 L
646.73 800.787 L
650.82 787.204 L
654.91 824.434 L
S
GR
GS
[0.75 0 0 0.75 0 0.25] CT
0.851 0.325 0.098 RC
1 LJ
0.667 LW
N
254.09 839.122 M
258.18 747.832 L
262.27 841.58 L
266.36 834.961 L
270.45 817.575 L
274.54 810.142 L
278.63 823.576 L
282.72 837.947 L
286.81 776.622 L
290.9 828.612 L
294.99 776.027 L
299.08 792.287 L
303.17 802.639 L
307.26 827.76 L
311.35 785.11 L
315.44 808.879 L
319.53 791.464 L
323.62 796.929 L
327.71 808.721 L
331.8 795.267 L
335.89 813.764 L
339.98 799.553 L
344.07 829.89 L
348.16 810.874 L
352.25 823.781 L
356.34 773.143 L
360.43 793.082 L
364.52 786.782 L
368.61 825.581 L
372.7 812.18 L
376.79 790.09 L
380.88 809.354 L
384.97 846.355 L
389.06 844.297 L
393.15 802.27 L
397.24 830.921 L
401.33 835.716 L
405.42 835.309 L
409.51 818.419 L
413.6 821.455 L
417.69 794.566 L
421.78 811.76 L
425.87 833.013 L
429.96 837.929 L
434.05 845.401 L
438.14 821.982 L
442.23 832.882 L
446.32 834.041 L
450.41 819.58 L
454.5 824.03 L
458.59 814.067 L
462.68 817.047 L
466.77 810.103 L
470.86 824.88 L
474.95 837.902 L
479.04 818.301 L
483.13 817.472 L
487.22 800.078 L
491.31 826.733 L
495.4 810.941 L
499.49 820.471 L
503.58 805.649 L
507.67 823.672 L
511.76 815.179 L
515.85 836.724 L
519.94 823.535 L
524.03 793.007 L
528.12 818.747 L
532.21 820.681 L
536.3 793.131 L
540.39 819.15 L
544.48 830.26 L
548.57 839.25 L
552.66 809.706 L
556.75 810.03 L
560.84 804.571 L
564.93 820.293 L
569.02 818.453 L
573.11 773.108 L
577.2 826.358 L
581.29 822.319 L
585.38 821.259 L
589.47 812.73 L
593.56 801.379 L
597.65 797.7 L
601.74 815.739 L
605.83 841.024 L
609.92 813.64 L
614.01 823.224 L
618.1 787.389 L
622.19 807.015 L
626.28 796.87 L
630.37 808.342 L
634.46 820.808 L
638.55 826.221 L
642.64 798.509 L
646.73 813.116 L
650.82 807.375 L
654.91 828.67 L
S
GR
GS
[0.75 0 0 0.75 0 0.25] CT
1 GC
N
789 872 M
1198 872 L
1198 735 L
789 735 L
cp
f
GR
GS
[0.75 0 0 0.75 0 0.25] CT
0.149 GC
2 setlinecap
1 LJ
0.667 LW
N
789 872 M
1198 872 L
S
GR
GS
[0.75 0 0 0.75 0 0.25] CT
0.149 GC
2 setlinecap
1 LJ
0.667 LW
N
789 735 M
1198 735 L
S
GR
GS
[0.75 0 0 0.75 0 0.25] CT
0.149 GC
2 setlinecap
1 LJ
0.667 LW
N
789 872 M
789 867.91 L
S
GR
GS
[0.75 0 0 0.75 0 0.25] CT
0.149 GC
2 setlinecap
1 LJ
0.667 LW
N
840.125 872 M
840.125 867.91 L
S
GR
GS
[0.75 0 0 0.75 0 0.25] CT
0.149 GC
2 setlinecap
1 LJ
0.667 LW
N
891.25 872 M
891.25 867.91 L
S
GR
GS
[0.75 0 0 0.75 0 0.25] CT
0.149 GC
2 setlinecap
1 LJ
0.667 LW
N
942.375 872 M
942.375 867.91 L
S
GR
GS
[0.75 0 0 0.75 0 0.25] CT
0.149 GC
2 setlinecap
1 LJ
0.667 LW
N
993.5 872 M
993.5 867.91 L
S
GR
GS
[0.75 0 0 0.75 0 0.25] CT
0.149 GC
2 setlinecap
1 LJ
0.667 LW
N
1044.625 872 M
1044.625 867.91 L
S
GR
GS
[0.75 0 0 0.75 0 0.25] CT
0.149 GC
2 setlinecap
1 LJ
0.667 LW
N
1095.75 872 M
1095.75 867.91 L
S
GR
GS
[0.75 0 0 0.75 0 0.25] CT
0.149 GC
2 setlinecap
1 LJ
0.667 LW
N
1146.875 872 M
1146.875 867.91 L
S
GR
GS
[0.75 0 0 0.75 0 0.25] CT
0.149 GC
2 setlinecap
1 LJ
0.667 LW
N
1198 872 M
1198 867.91 L
S
GR
GS
[0.75 0 0 0.75 0 0.25] CT
0.149 GC
2 setlinecap
1 LJ
0.667 LW
N
789 735 M
789 739.09 L
S
GR
GS
[0.75 0 0 0.75 0 0.25] CT
0.149 GC
2 setlinecap
1 LJ
0.667 LW
N
840.125 735 M
840.125 739.09 L
S
GR
GS
[0.75 0 0 0.75 0 0.25] CT
0.149 GC
2 setlinecap
1 LJ
0.667 LW
N
891.25 735 M
891.25 739.09 L
S
GR
GS
[0.75 0 0 0.75 0 0.25] CT
0.149 GC
2 setlinecap
1 LJ
0.667 LW
N
942.375 735 M
942.375 739.09 L
S
GR
GS
[0.75 0 0 0.75 0 0.25] CT
0.149 GC
2 setlinecap
1 LJ
0.667 LW
N
993.5 735 M
993.5 739.09 L
S
GR
GS
[0.75 0 0 0.75 0 0.25] CT
0.149 GC
2 setlinecap
1 LJ
0.667 LW
N
1044.625 735 M
1044.625 739.09 L
S
GR
GS
[0.75 0 0 0.75 0 0.25] CT
0.149 GC
2 setlinecap
1 LJ
0.667 LW
N
1095.75 735 M
1095.75 739.09 L
S
GR
GS
[0.75 0 0 0.75 0 0.25] CT
0.149 GC
2 setlinecap
1 LJ
0.667 LW
N
1146.875 735 M
1146.875 739.09 L
S
GR
GS
[0.75 0 0 0.75 0 0.25] CT
0.149 GC
2 setlinecap
1 LJ
0.667 LW
N
1198 735 M
1198 739.09 L
S
GR
GS
[0.75 0 0 0.75 591.75 658.24998] CT
0.149 GC
/Helvetica 13.333 F
GS
[1 0 0 1 0 0] CT
-4 14 moveto 
1 -1 scale
(0) t 
GR
GR
GS
[0.75 0 0 0.75 630.09375 658.24998] CT
0.149 GC
/Helvetica 13.333 F
GS
[1 0 0 1 0 0] CT
-4 14 moveto 
1 -1 scale
(2) t 
GR
GR
GS
[0.75 0 0 0.75 668.4375 658.24998] CT
0.149 GC
/Helvetica 13.333 F
GS
[1 0 0 1 0 0] CT
-4 14 moveto 
1 -1 scale
(4) t 
GR
GR
GS
[0.75 0 0 0.75 706.78125 658.24998] CT
0.149 GC
/Helvetica 13.333 F
GS
[1 0 0 1 0 0] CT
-4 14 moveto 
1 -1 scale
(6) t 
GR
GR
GS
[0.75 0 0 0.75 745.125 658.24998] CT
0.149 GC
/Helvetica 13.333 F
GS
[1 0 0 1 0 0] CT
-4 14 moveto 
1 -1 scale
(8) t 
GR
GR
GS
[0.75 0 0 0.75 783.46875 658.24998] CT
0.149 GC
/Helvetica 13.333 F
GS
[1 0 0 1 0 0] CT
-7.5 14 moveto 
1 -1 scale
(10) t 
GR
GR
GS
[0.75 0 0 0.75 821.8125 658.24998] CT
0.149 GC
/Helvetica 13.333 F
GS
[1 0 0 1 0 0] CT
-7.5 14 moveto 
1 -1 scale
(12) t 
GR
GR
GS
[0.75 0 0 0.75 860.15625 658.24998] CT
0.149 GC
/Helvetica 13.333 F
GS
[1 0 0 1 0 0] CT
-7.5 14 moveto 
1 -1 scale
(14) t 
GR
GR
GS
[0.75 0 0 0.75 898.5 658.24998] CT
0.149 GC
/Helvetica 13.333 F
GS
[1 0 0 1 0 0] CT
-7.5 14 moveto 
1 -1 scale
(16) t 
GR
GR
GS
[0.75 0 0 0.75 745.12514 671.99997] CT
0.149 GC
/Helvetica 14.667 F
GS
[1 0 0 1 0 0] CT
-30.5 16 moveto 
1 -1 scale
(channels) t 
GR
GR
GS
[0.75 0 0 0.75 0 0.25] CT
0.149 GC
2 setlinecap
1 LJ
0.667 LW
N
789 872 M
789 735 L
S
GR
GS
[0.75 0 0 0.75 0 0.25] CT
0.149 GC
2 setlinecap
1 LJ
0.667 LW
N
1198 872 M
1198 735 L
S
GR
GS
[0.75 0 0 0.75 0 0.25] CT
0.149 GC
2 setlinecap
1 LJ
0.667 LW
N
789 872 M
793.09 872 L
S
GR
GS
[0.75 0 0 0.75 0 0.25] CT
0.149 GC
2 setlinecap
1 LJ
0.667 LW
N
789 826.333 M
793.09 826.333 L
S
GR
GS
[0.75 0 0 0.75 0 0.25] CT
0.149 GC
2 setlinecap
1 LJ
0.667 LW
N
789 780.667 M
793.09 780.667 L
S
GR
GS
[0.75 0 0 0.75 0 0.25] CT
0.149 GC
2 setlinecap
1 LJ
0.667 LW
N
789 735 M
793.09 735 L
S
GR
GS
[0.75 0 0 0.75 0 0.25] CT
0.149 GC
2 setlinecap
1 LJ
0.667 LW
N
1198 872 M
1193.91 872 L
S
GR
GS
[0.75 0 0 0.75 0 0.25] CT
0.149 GC
2 setlinecap
1 LJ
0.667 LW
N
1198 826.333 M
1193.91 826.333 L
S
GR
GS
[0.75 0 0 0.75 0 0.25] CT
0.149 GC
2 setlinecap
1 LJ
0.667 LW
N
1198 780.667 M
1193.91 780.667 L
S
GR
GS
[0.75 0 0 0.75 0 0.25] CT
0.149 GC
2 setlinecap
1 LJ
0.667 LW
N
1198 735 M
1193.91 735 L
S
GR
GS
[0.75 0 0 0.75 587.75002 654.25] CT
0.149 GC
/Helvetica 13.333 F
GS
[1 0 0 1 0 0] CT
-19 5.5 moveto 
1 -1 scale
(0.6) t 
GR
GR
GS
[0.75 0 0 0.75 587.75002 619.99998] CT
0.149 GC
/Helvetica 13.333 F
GS
[1 0 0 1 0 0] CT
-19 5.5 moveto 
1 -1 scale
(0.7) t 
GR
GR
GS
[0.75 0 0 0.75 587.75002 585.75002] CT
0.149 GC
/Helvetica 13.333 F
GS
[1 0 0 1 0 0] CT
-19 5.5 moveto 
1 -1 scale
(0.8) t 
GR
GR
GS
[0.75 0 0 0.75 587.75002 551.5] CT
0.149 GC
/Helvetica 13.333 F
GS
[1 0 0 1 0 0] CT
-19 5.5 moveto 
1 -1 scale
(0.9) t 
GR
GR
GS
[0 -0.75 0.75 0 570.50002 602.87495] CT
0.149 GC
/Helvetica 14.667 F
GS
[1 0 0 1 0 0] CT
-10.5 -4 moveto 
1 -1 scale
(BC) t 
GR
GR
GS
[0.75 0 0 0.75 0 0.25] CT
0 0.447 0.741 RC
1 LJ
0.667 LW
N
814.563 797.052 M
840.125 798.469 L
865.688 791.604 L
891.25 788.792 L
916.813 788.393 L
942.375 782.703 L
967.938 778.926 L
993.5 788.216 L
1019.063 779.397 L
1044.625 773.94 L
1070.188 788.085 L
1095.75 789.212 L
1121.313 797.825 L
1146.875 787.111 L
1172.438 756.672 L
1198 796.54 L
S
GR
GS
[0.75 0 0 0.75 0 0.25] CT
0.851 0.325 0.098 RC
1 LJ
0.667 LW
N
814.563 824.774 M
840.125 819.966 L
865.688 805.316 L
891.25 798.9 L
916.813 811.003 L
942.375 837.65 L
967.938 806.299 L
993.5 826.577 L
1019.063 818.428 L
1044.625 824.615 L
1070.188 818.936 L
1095.75 808.358 L
1121.313 816.832 L
1146.875 818.864 L
1172.438 826.789 L
1198 750.133 L
S
GR
GS
[0.75 0 0 0.75 720 36.7375] CT
/Helvetica 18.667 F
GS
[1 0 0 1 0 0] CT
-58 7.5 moveto 
1 -1 scale
(gcc - pearson) t 
GR
GR
GS
[0.75 0 0 0.75 0 0.25] CT
1 GC
N
1328 872 M
1738 872 L
1738 735 L
1328 735 L
cp
f
GR
GS
[0.75 0 0 0.75 0 0.25] CT
0.149 GC
2 setlinecap
1 LJ
0.667 LW
N
1328 872 M
1738 872 L
S
GR
GS
[0.75 0 0 0.75 0 0.25] CT
0.149 GC
2 setlinecap
1 LJ
0.667 LW
N
1328 735 M
1738 735 L
S
GR
GS
[0.75 0 0 0.75 0 0.25] CT
0.149 GC
2 setlinecap
1 LJ
0.667 LW
N
1328 872 M
1328 867.9 L
S
GR
GS
[0.75 0 0 0.75 0 0.25] CT
0.149 GC
2 setlinecap
1 LJ
0.667 LW
N
1410 872 M
1410 867.9 L
S
GR
GS
[0.75 0 0 0.75 0 0.25] CT
0.149 GC
2 setlinecap
1 LJ
0.667 LW
N
1492 872 M
1492 867.9 L
S
GR
GS
[0.75 0 0 0.75 0 0.25] CT
0.149 GC
2 setlinecap
1 LJ
0.667 LW
N
1574 872 M
1574 867.9 L
S
GR
GS
[0.75 0 0 0.75 0 0.25] CT
0.149 GC
2 setlinecap
1 LJ
0.667 LW
N
1656 872 M
1656 867.9 L
S
GR
GS
[0.75 0 0 0.75 0 0.25] CT
0.149 GC
2 setlinecap
1 LJ
0.667 LW
N
1738 872 M
1738 867.9 L
S
GR
GS
[0.75 0 0 0.75 0 0.25] CT
0.149 GC
2 setlinecap
1 LJ
0.667 LW
N
1328 735 M
1328 739.1 L
S
GR
GS
[0.75 0 0 0.75 0 0.25] CT
0.149 GC
2 setlinecap
1 LJ
0.667 LW
N
1410 735 M
1410 739.1 L
S
GR
GS
[0.75 0 0 0.75 0 0.25] CT
0.149 GC
2 setlinecap
1 LJ
0.667 LW
N
1492 735 M
1492 739.1 L
S
GR
GS
[0.75 0 0 0.75 0 0.25] CT
0.149 GC
2 setlinecap
1 LJ
0.667 LW
N
1574 735 M
1574 739.1 L
S
GR
GS
[0.75 0 0 0.75 0 0.25] CT
0.149 GC
2 setlinecap
1 LJ
0.667 LW
N
1656 735 M
1656 739.1 L
S
GR
GS
[0.75 0 0 0.75 0 0.25] CT
0.149 GC
2 setlinecap
1 LJ
0.667 LW
N
1738 735 M
1738 739.1 L
S
GR
GS
[0.75 0 0 0.75 996 658.24998] CT
0.149 GC
/Helvetica 13.333 F
GS
[1 0 0 1 0 0] CT
-4 14 moveto 
1 -1 scale
(0) t 
GR
GR
GS
[0.75 0 0 0.75 1057.5 658.24998] CT
0.149 GC
/Helvetica 13.333 F
GS
[1 0 0 1 0 0] CT
-7.5 14 moveto 
1 -1 scale
(20) t 
GR
GR
GS
[0.75 0 0 0.75 1119 658.24998] CT
0.149 GC
/Helvetica 13.333 F
GS
[1 0 0 1 0 0] CT
-7.5 14 moveto 
1 -1 scale
(40) t 
GR
GR
GS
[0.75 0 0 0.75 1180.5 658.24998] CT
0.149 GC
/Helvetica 13.333 F
GS
[1 0 0 1 0 0] CT
-7.5 14 moveto 
1 -1 scale
(60) t 
GR
GR
GS
[0.75 0 0 0.75 1242 658.24998] CT
0.149 GC
/Helvetica 13.333 F
GS
[1 0 0 1 0 0] CT
-7.5 14 moveto 
1 -1 scale
(80) t 
GR
GR
GS
[0.75 0 0 0.75 1303.5 658.24998] CT
0.149 GC
/Helvetica 13.333 F
GS
[1 0 0 1 0 0] CT
-11 14 moveto 
1 -1 scale
(100) t 
GR
GR
GS
[0.75 0 0 0.75 1149.75018 671.99997] CT
0.149 GC
/Helvetica 14.667 F
GS
[1 0 0 1 0 0] CT
-30.5 16 moveto 
1 -1 scale
(channels) t 
GR
GR
GS
[0.75 0 0 0.75 0 0.25] CT
0.149 GC
2 setlinecap
1 LJ
0.667 LW
N
1328 872 M
1328 735 L
S
GR
GS
[0.75 0 0 0.75 0 0.25] CT
0.149 GC
2 setlinecap
1 LJ
0.667 LW
N
1738 872 M
1738 735 L
S
GR
GS
[0.75 0 0 0.75 0 0.25] CT
0.149 GC
2 setlinecap
1 LJ
0.667 LW
N
1328 872 M
1332.1 872 L
S
GR
GS
[0.75 0 0 0.75 0 0.25] CT
0.149 GC
2 setlinecap
1 LJ
0.667 LW
N
1328 826.333 M
1332.1 826.333 L
S
GR
GS
[0.75 0 0 0.75 0 0.25] CT
0.149 GC
2 setlinecap
1 LJ
0.667 LW
N
1328 780.667 M
1332.1 780.667 L
S
GR
GS
[0.75 0 0 0.75 0 0.25] CT
0.149 GC
2 setlinecap
1 LJ
0.667 LW
N
1328 735 M
1332.1 735 L
S
GR
GS
[0.75 0 0 0.75 0 0.25] CT
0.149 GC
2 setlinecap
1 LJ
0.667 LW
N
1738 872 M
1733.9 872 L
S
GR
GS
[0.75 0 0 0.75 0 0.25] CT
0.149 GC
2 setlinecap
1 LJ
0.667 LW
N
1738 826.333 M
1733.9 826.333 L
S
GR
GS
[0.75 0 0 0.75 0 0.25] CT
0.149 GC
2 setlinecap
1 LJ
0.667 LW
N
1738 780.667 M
1733.9 780.667 L
S
GR
GS
[0.75 0 0 0.75 0 0.25] CT
0.149 GC
2 setlinecap
1 LJ
0.667 LW
N
1738 735 M
1733.9 735 L
S
GR
GS
[0.75 0 0 0.75 991.99997 654.25] CT
0.149 GC
/Helvetica 13.333 F
GS
[1 0 0 1 0 0] CT
-19 5.5 moveto 
1 -1 scale
(0.6) t 
GR
GR
GS
[0.75 0 0 0.75 991.99997 619.99998] CT
0.149 GC
/Helvetica 13.333 F
GS
[1 0 0 1 0 0] CT
-19 5.5 moveto 
1 -1 scale
(0.7) t 
GR
GR
GS
[0.75 0 0 0.75 991.99997 585.75002] CT
0.149 GC
/Helvetica 13.333 F
GS
[1 0 0 1 0 0] CT
-19 5.5 moveto 
1 -1 scale
(0.8) t 
GR
GR
GS
[0.75 0 0 0.75 991.99997 551.5] CT
0.149 GC
/Helvetica 13.333 F
GS
[1 0 0 1 0 0] CT
-19 5.5 moveto 
1 -1 scale
(0.9) t 
GR
GR
GS
[0 -0.75 0.75 0 974.74997 602.87495] CT
0.149 GC
/Helvetica 14.667 F
GS
[1 0 0 1 0 0] CT
-10.5 -4 moveto 
1 -1 scale
(BC) t 
GR
GR
GS
[0.75 0 0 0.75 0 0.25] CT
0 0.447 0.741 RC
1 LJ
0.667 LW
N
1332.1 831.324 M
1336.2 832.53 L
1340.3 817.138 L
1344.4 763.096 L
1348.5 825.593 L
1352.6 768.747 L
1356.7 807.164 L
1360.8 827.25 L
1364.9 824.942 L
1369 764.469 L
1373.1 814.282 L
1377.2 765.839 L
1381.3 759.682 L
1385.4 774.067 L
1389.5 802.165 L
1393.6 795.675 L
1397.7 799.087 L
1401.8 827.706 L
1405.9 807.907 L
1410 767.814 L
1414.1 804.025 L
1418.2 779.576 L
1422.3 812.135 L
1426.4 819.019 L
1430.5 767.517 L
1434.6 773.891 L
1438.7 772.219 L
1442.8 819.958 L
1446.9 803.037 L
1451 802.284 L
1455.1 813.047 L
1459.2 807.926 L
1463.3 775.043 L
1467.4 756.543 L
1471.5 806.7 L
1475.6 816.503 L
1479.7 822.756 L
1483.8 831.316 L
1487.9 824.518 L
1492 801.015 L
1496.1 811.025 L
1500.2 805.675 L
1504.3 816.411 L
1508.4 749.694 L
1512.5 802.547 L
1516.6 793.847 L
1520.7 801.793 L
1524.8 820.967 L
1528.9 824.92 L
1533 819.197 L
1537.1 820.989 L
1541.2 786.58 L
1545.3 802.4 L
1549.4 815.162 L
1553.5 799.32 L
1557.6 821.058 L
1561.7 828.032 L
1565.8 820.137 L
1569.9 801.659 L
1574 811.432 L
1578.1 833.401 L
1582.2 816.954 L
1586.3 774.698 L
1590.4 758.246 L
1594.5 810.334 L
1598.6 787.465 L
1602.7 804.198 L
1606.8 816.311 L
1610.9 789.397 L
1615 820.582 L
1619.1 776.034 L
1623.2 820.396 L
1627.3 819.945 L
1631.4 810.704 L
1635.5 782.894 L
1639.6 777.196 L
1643.7 818.14 L
1647.8 820.573 L
1651.9 797.011 L
1656 804.047 L
1660.1 809.503 L
1664.2 781.96 L
1668.3 793.807 L
1672.4 796.023 L
1676.5 820.388 L
1680.6 787.272 L
1684.7 771.891 L
1688.8 837.376 L
1692.9 836.505 L
1697 823.341 L
1701.1 802.432 L
1705.2 780.354 L
1709.3 792.682 L
1713.4 785.83 L
1717.5 811.848 L
S
GR
GS
[0.75 0 0 0.75 0 0.25] CT
0.851 0.325 0.098 RC
1 LJ
0.667 LW
N
1332.1 783.836 M
1336.2 822.992 L
1340.3 806.893 L
1344.4 828.742 L
1348.5 818.088 L
1352.6 820.547 L
1356.7 835.57 L
1360.8 807.761 L
1364.9 814.128 L
1369 823.252 L
1373.1 837.569 L
1377.2 811.297 L
1381.3 841.063 L
1385.4 807.098 L
1389.5 801.075 L
1393.6 828.398 L
1397.7 831.851 L
1401.8 784.646 L
1405.9 821.852 L
1410 814.249 L
1414.1 811.631 L
1418.2 814.307 L
1422.3 782.81 L
1426.4 821.889 L
1430.5 832.892 L
1434.6 779.035 L
1438.7 791.72 L
1442.8 802.88 L
1446.9 816.201 L
1451 761.02 L
1455.1 826.336 L
1459.2 815.968 L
1463.3 825.804 L
1467.4 815.796 L
1471.5 810.039 L
1475.6 789.753 L
1479.7 825.43 L
1483.8 813.441 L
1487.9 822.947 L
1492 802.277 L
1496.1 806.953 L
1500.2 782.97 L
1504.3 820.334 L
1508.4 795.013 L
1512.5 779.18 L
1516.6 827.544 L
1520.7 817.992 L
1524.8 797.703 L
1528.9 804.849 L
1533 822.591 L
1537.1 813.842 L
1541.2 791.062 L
1545.3 837.197 L
1549.4 805.462 L
1553.5 834.888 L
1557.6 799.05 L
1561.7 804.758 L
1565.8 821.805 L
1569.9 832.518 L
1574 800.403 L
1578.1 821.611 L
1582.2 809.099 L
1586.3 801.09 L
1590.4 823.964 L
1594.5 770.071 L
1598.6 791.149 L
1602.7 818.422 L
1606.8 814.523 L
1610.9 788.619 L
1615 815.366 L
1619.1 803.519 L
1623.2 819.68 L
1627.3 805.453 L
1631.4 819.112 L
1635.5 786.031 L
1639.6 814.122 L
1643.7 831.801 L
1647.8 835.305 L
1651.9 843.08 L
1656 791.297 L
1660.1 817.134 L
1664.2 831.3 L
1668.3 782.853 L
1672.4 763.995 L
1676.5 824.447 L
1680.6 788.783 L
1684.7 844.037 L
1688.8 840.861 L
1692.9 809.91 L
1697 780.166 L
1701.1 824.425 L
1705.2 818.63 L
1709.3 822.02 L
1713.4 806.785 L
1717.5 799.597 L
S
GR
%%Trailer
%%Pages: 1
%%EOF
