%!PS-Adobe-3.0 EPSF-3.0
%%Creator: (MATLAB, The Mathworks, Inc. Version 9.2.0.556344 \(R2017a\). Operating System: Windows 8)
%%Title: D:/home/Faculta/fbnc/Matlab/Plots/metrics_v1/pearson/gcc_pearson.eps
%%CreationDate: 2017-06-29T20:46:43
%%Pages: (atend)
%%BoundingBox: 0 0 1428 730
%%LanguageLevel: 3
%%EndComments
%%BeginProlog
%%BeginResource: procset (Apache XML Graphics Std ProcSet) 1.2 0
%%Version: 1.2 0
%%Copyright: (Copyright 2001-2003,2010 The Apache Software Foundation. License terms: http://www.apache.org/licenses/LICENSE-2.0)
/bd{bind def}bind def
/ld{load def}bd
/GR/grestore ld
/M/moveto ld
/LJ/setlinejoin ld
/C/curveto ld
/f/fill ld
/LW/setlinewidth ld
/GC/setgray ld
/t/show ld
/N/newpath ld
/CT/concat ld
/cp/closepath ld
/S/stroke ld
/L/lineto ld
/CC/setcmykcolor ld
/A/ashow ld
/GS/gsave ld
/RC/setrgbcolor ld
/RM/rmoveto ld
/ML/setmiterlimit ld
/re {4 2 roll M
1 index 0 rlineto
0 exch rlineto
neg 0 rlineto
cp } bd
/_ctm matrix def
/_tm matrix def
/BT { _ctm currentmatrix pop matrix _tm copy pop 0 0 moveto } bd
/ET { _ctm setmatrix } bd
/iTm { _ctm setmatrix _tm concat } bd
/Tm { _tm astore pop iTm 0 0 moveto } bd
/ux 0.0 def
/uy 0.0 def
/F {
  /Tp exch def
  /Tf exch def
  Tf findfont Tp scalefont setfont
  /cf Tf def  /cs Tp def
} bd
/ULS {currentpoint /uy exch def /ux exch def} bd
/ULE {
  /Tcx currentpoint pop def
  gsave
  newpath
  cf findfont cs scalefont dup
  /FontMatrix get 0 get /Ts exch def /FontInfo get dup
  /UnderlinePosition get Ts mul /To exch def
  /UnderlineThickness get Ts mul /Tt exch def
  ux uy To add moveto  Tcx uy To add lineto
  Tt setlinewidth stroke
  grestore
} bd
/OLE {
  /Tcx currentpoint pop def
  gsave
  newpath
  cf findfont cs scalefont dup
  /FontMatrix get 0 get /Ts exch def /FontInfo get dup
  /UnderlinePosition get Ts mul /To exch def
  /UnderlineThickness get Ts mul /Tt exch def
  ux uy To add cs add moveto Tcx uy To add cs add lineto
  Tt setlinewidth stroke
  grestore
} bd
/SOE {
  /Tcx currentpoint pop def
  gsave
  newpath
  cf findfont cs scalefont dup
  /FontMatrix get 0 get /Ts exch def /FontInfo get dup
  /UnderlinePosition get Ts mul /To exch def
  /UnderlineThickness get Ts mul /Tt exch def
  ux uy To add cs 10 mul 26 idiv add moveto Tcx uy To add cs 10 mul 26 idiv add lineto
  Tt setlinewidth stroke
  grestore
} bd
/QT {
/Y22 exch store
/X22 exch store
/Y21 exch store
/X21 exch store
currentpoint
/Y21 load 2 mul add 3 div exch
/X21 load 2 mul add 3 div exch
/X21 load 2 mul /X22 load add 3 div
/Y21 load 2 mul /Y22 load add 3 div
/X22 load /Y22 load curveto
} bd
/SSPD {
dup length /d exch dict def
{
/v exch def
/k exch def
currentpagedevice k known {
/cpdv currentpagedevice k get def
v cpdv ne {
/upd false def
/nullv v type /nulltype eq def
/nullcpdv cpdv type /nulltype eq def
nullv nullcpdv or
{
/upd true def
} {
/sametype v type cpdv type eq def
sametype {
v type /arraytype eq {
/vlen v length def
/cpdvlen cpdv length def
vlen cpdvlen eq {
0 1 vlen 1 sub {
/i exch def
/obj v i get def
/cpdobj cpdv i get def
obj cpdobj ne {
/upd true def
exit
} if
} for
} {
/upd true def
} ifelse
} {
v type /dicttype eq {
v {
/dv exch def
/dk exch def
/cpddv cpdv dk get def
dv cpddv ne {
/upd true def
exit
} if
} forall
} {
/upd true def
} ifelse
} ifelse
} if
} ifelse
upd true eq {
d k v put
} if
} if
} if
} forall
d length 0 gt {
d setpagedevice
} if
} bd
/RE { % /NewFontName [NewEncodingArray] /FontName RE -
  findfont dup length dict begin
  {
    1 index /FID ne
    {def} {pop pop} ifelse
  } forall
  /Encoding exch def
  /FontName 1 index def
  currentdict definefont pop
  end
} bind def
%%EndResource
%%BeginResource: procset (Apache XML Graphics EPS ProcSet) 1.0 0
%%Version: 1.0 0
%%Copyright: (Copyright 2002-2003 The Apache Software Foundation. License terms: http://www.apache.org/licenses/LICENSE-2.0)
/BeginEPSF { %def
/b4_Inc_state save def         % Save state for cleanup
/dict_count countdictstack def % Count objects on dict stack
/op_count count 1 sub def      % Count objects on operand stack
userdict begin                 % Push userdict on dict stack
/showpage { } def              % Redefine showpage, { } = null proc
0 setgray 0 setlinecap         % Prepare graphics state
1 setlinewidth 0 setlinejoin
10 setmiterlimit [ ] 0 setdash newpath
/languagelevel where           % If level not equal to 1 then
{pop languagelevel             % set strokeadjust and
1 ne                           % overprint to their defaults.
{false setstrokeadjust false setoverprint
} if
} if
} bd
/EndEPSF { %def
count op_count sub {pop} repeat            % Clean up stacks
countdictstack dict_count sub {end} repeat
b4_Inc_state restore
} bd
%%EndResource
%FOPBeginFontDict
%%IncludeResource: font Courier-Bold
%%IncludeResource: font Helvetica
%%IncludeResource: font Courier-BoldOblique
%%IncludeResource: font Courier-Oblique
%%IncludeResource: font Times-Roman
%%IncludeResource: font Helvetica-BoldOblique
%%IncludeResource: font Helvetica-Bold
%%IncludeResource: font Helvetica-Oblique
%%IncludeResource: font Times-BoldItalic
%%IncludeResource: font Courier
%%IncludeResource: font Times-Italic
%%IncludeResource: font Times-Bold
%%IncludeResource: font Symbol
%%IncludeResource: font ZapfDingbats
%FOPEndFontDict
%%BeginResource: encoding WinAnsiEncoding
/WinAnsiEncoding [
/.notdef /.notdef /.notdef /.notdef /.notdef
/.notdef /.notdef /.notdef /.notdef /.notdef
/.notdef /.notdef /.notdef /.notdef /.notdef
/.notdef /.notdef /.notdef /.notdef /.notdef
/.notdef /.notdef /.notdef /.notdef /.notdef
/.notdef /.notdef /.notdef /.notdef /.notdef
/.notdef /.notdef /space /exclam /quotedbl
/numbersign /dollar /percent /ampersand /quotesingle
/parenleft /parenright /asterisk /plus /comma
/hyphen /period /slash /zero /one
/two /three /four /five /six
/seven /eight /nine /colon /semicolon
/less /equal /greater /question /at
/A /B /C /D /E
/F /G /H /I /J
/K /L /M /N /O
/P /Q /R /S /T
/U /V /W /X /Y
/Z /bracketleft /backslash /bracketright /asciicircum
/underscore /quoteleft /a /b /c
/d /e /f /g /h
/i /j /k /l /m
/n /o /p /q /r
/s /t /u /v /w
/x /y /z /braceleft /bar
/braceright /asciitilde /bullet /Euro /bullet
/quotesinglbase /florin /quotedblbase /ellipsis /dagger
/daggerdbl /circumflex /perthousand /Scaron /guilsinglleft
/OE /bullet /Zcaron /bullet /bullet
/quoteleft /quoteright /quotedblleft /quotedblright /bullet
/endash /emdash /asciitilde /trademark /scaron
/guilsinglright /oe /bullet /zcaron /Ydieresis
/space /exclamdown /cent /sterling /currency
/yen /brokenbar /section /dieresis /copyright
/ordfeminine /guillemotleft /logicalnot /sfthyphen /registered
/macron /degree /plusminus /twosuperior /threesuperior
/acute /mu /paragraph /middot /cedilla
/onesuperior /ordmasculine /guillemotright /onequarter /onehalf
/threequarters /questiondown /Agrave /Aacute /Acircumflex
/Atilde /Adieresis /Aring /AE /Ccedilla
/Egrave /Eacute /Ecircumflex /Edieresis /Igrave
/Iacute /Icircumflex /Idieresis /Eth /Ntilde
/Ograve /Oacute /Ocircumflex /Otilde /Odieresis
/multiply /Oslash /Ugrave /Uacute /Ucircumflex
/Udieresis /Yacute /Thorn /germandbls /agrave
/aacute /acircumflex /atilde /adieresis /aring
/ae /ccedilla /egrave /eacute /ecircumflex
/edieresis /igrave /iacute /icircumflex /idieresis
/eth /ntilde /ograve /oacute /ocircumflex
/otilde /odieresis /divide /oslash /ugrave
/uacute /ucircumflex /udieresis /yacute /thorn
/ydieresis
] def
%%EndResource
%FOPBeginFontReencode
/Courier-Bold findfont
dup length dict begin
  {1 index /FID ne {def} {pop pop} ifelse} forall
  /Encoding WinAnsiEncoding def
  currentdict
end
/Courier-Bold exch definefont pop
/Helvetica findfont
dup length dict begin
  {1 index /FID ne {def} {pop pop} ifelse} forall
  /Encoding WinAnsiEncoding def
  currentdict
end
/Helvetica exch definefont pop
/Courier-BoldOblique findfont
dup length dict begin
  {1 index /FID ne {def} {pop pop} ifelse} forall
  /Encoding WinAnsiEncoding def
  currentdict
end
/Courier-BoldOblique exch definefont pop
/Courier-Oblique findfont
dup length dict begin
  {1 index /FID ne {def} {pop pop} ifelse} forall
  /Encoding WinAnsiEncoding def
  currentdict
end
/Courier-Oblique exch definefont pop
/Times-Roman findfont
dup length dict begin
  {1 index /FID ne {def} {pop pop} ifelse} forall
  /Encoding WinAnsiEncoding def
  currentdict
end
/Times-Roman exch definefont pop
/Helvetica-BoldOblique findfont
dup length dict begin
  {1 index /FID ne {def} {pop pop} ifelse} forall
  /Encoding WinAnsiEncoding def
  currentdict
end
/Helvetica-BoldOblique exch definefont pop
/Helvetica-Bold findfont
dup length dict begin
  {1 index /FID ne {def} {pop pop} ifelse} forall
  /Encoding WinAnsiEncoding def
  currentdict
end
/Helvetica-Bold exch definefont pop
/Helvetica-Oblique findfont
dup length dict begin
  {1 index /FID ne {def} {pop pop} ifelse} forall
  /Encoding WinAnsiEncoding def
  currentdict
end
/Helvetica-Oblique exch definefont pop
/Times-BoldItalic findfont
dup length dict begin
  {1 index /FID ne {def} {pop pop} ifelse} forall
  /Encoding WinAnsiEncoding def
  currentdict
end
/Times-BoldItalic exch definefont pop
/Courier findfont
dup length dict begin
  {1 index /FID ne {def} {pop pop} ifelse} forall
  /Encoding WinAnsiEncoding def
  currentdict
end
/Courier exch definefont pop
/Times-Italic findfont
dup length dict begin
  {1 index /FID ne {def} {pop pop} ifelse} forall
  /Encoding WinAnsiEncoding def
  currentdict
end
/Times-Italic exch definefont pop
/Times-Bold findfont
dup length dict begin
  {1 index /FID ne {def} {pop pop} ifelse} forall
  /Encoding WinAnsiEncoding def
  currentdict
end
/Times-Bold exch definefont pop
%FOPEndFontReencode
%%EndProlog
%%Page: 1 1
%%PageBoundingBox: 0 0 1428 730
%%BeginPageSetup
[1 0 0 -1 0 730] CT
%%EndPageSetup
GS
[0.75 0 0 0.75 0 0.25] CT
N
0 0 M
1904 0 L
1904 973 L
0 973 L
0 0 L
cp
clip
1 GC
N
0 0 1904 973 re
f
GR
GS
[0.75 0 0 0.75 0 0.25] CT
1 GC
N
0 0 1904 973 re
f
GR
GS
[0.75 0 0 0.75 0 0.25] CT
1 GC
N
248 276 M
654 276 L
654 139 L
248 139 L
cp
f
GR
GS
[0.75 0 0 0.75 0 0.25] CT
0.149 GC
2 setlinecap
1 LJ
0.667 LW
N
248 276 M
654 276 L
S
GR
GS
[0.75 0 0 0.75 0 0.25] CT
0.149 GC
2 setlinecap
1 LJ
0.667 LW
N
248 139 M
654 139 L
S
GR
GS
[0.75 0 0 0.75 0 0.25] CT
0.149 GC
2 setlinecap
1 LJ
0.667 LW
N
248 276 M
248 271.94 L
S
GR
GS
[0.75 0 0 0.75 0 0.25] CT
0.149 GC
2 setlinecap
1 LJ
0.667 LW
N
306 276 M
306 271.94 L
S
GR
GS
[0.75 0 0 0.75 0 0.25] CT
0.149 GC
2 setlinecap
1 LJ
0.667 LW
N
364 276 M
364 271.94 L
S
GR
GS
[0.75 0 0 0.75 0 0.25] CT
0.149 GC
2 setlinecap
1 LJ
0.667 LW
N
422 276 M
422 271.94 L
S
GR
GS
[0.75 0 0 0.75 0 0.25] CT
0.149 GC
2 setlinecap
1 LJ
0.667 LW
N
480 276 M
480 271.94 L
S
GR
GS
[0.75 0 0 0.75 0 0.25] CT
0.149 GC
2 setlinecap
1 LJ
0.667 LW
N
538 276 M
538 271.94 L
S
GR
GS
[0.75 0 0 0.75 0 0.25] CT
0.149 GC
2 setlinecap
1 LJ
0.667 LW
N
596 276 M
596 271.94 L
S
GR
GS
[0.75 0 0 0.75 0 0.25] CT
0.149 GC
2 setlinecap
1 LJ
0.667 LW
N
654 276 M
654 271.94 L
S
GR
GS
[0.75 0 0 0.75 0 0.25] CT
0.149 GC
2 setlinecap
1 LJ
0.667 LW
N
248 139 M
248 143.06 L
S
GR
GS
[0.75 0 0 0.75 0 0.25] CT
0.149 GC
2 setlinecap
1 LJ
0.667 LW
N
306 139 M
306 143.06 L
S
GR
GS
[0.75 0 0 0.75 0 0.25] CT
0.149 GC
2 setlinecap
1 LJ
0.667 LW
N
364 139 M
364 143.06 L
S
GR
GS
[0.75 0 0 0.75 0 0.25] CT
0.149 GC
2 setlinecap
1 LJ
0.667 LW
N
422 139 M
422 143.06 L
S
GR
GS
[0.75 0 0 0.75 0 0.25] CT
0.149 GC
2 setlinecap
1 LJ
0.667 LW
N
480 139 M
480 143.06 L
S
GR
GS
[0.75 0 0 0.75 0 0.25] CT
0.149 GC
2 setlinecap
1 LJ
0.667 LW
N
538 139 M
538 143.06 L
S
GR
GS
[0.75 0 0 0.75 0 0.25] CT
0.149 GC
2 setlinecap
1 LJ
0.667 LW
N
596 139 M
596 143.06 L
S
GR
GS
[0.75 0 0 0.75 0 0.25] CT
0.149 GC
2 setlinecap
1 LJ
0.667 LW
N
654 139 M
654 143.06 L
S
GR
GS
[0.75 0 0 0.75 186 211.25001] CT
0.149 GC
/Helvetica 13.333 F
GS
[1 0 0 1 0 0] CT
-4 14 moveto 
1 -1 scale
(0) t 
GR
GR
GS
[0.75 0 0 0.75 229.5 211.25001] CT
0.149 GC
/Helvetica 13.333 F
GS
[1 0 0 1 0 0] CT
-7.5 14 moveto 
1 -1 scale
(10) t 
GR
GR
GS
[0.75 0 0 0.75 273 211.25001] CT
0.149 GC
/Helvetica 13.333 F
GS
[1 0 0 1 0 0] CT
-7.5 14 moveto 
1 -1 scale
(20) t 
GR
GR
GS
[0.75 0 0 0.75 316.5 211.25001] CT
0.149 GC
/Helvetica 13.333 F
GS
[1 0 0 1 0 0] CT
-7.5 14 moveto 
1 -1 scale
(30) t 
GR
GR
GS
[0.75 0 0 0.75 360 211.25001] CT
0.149 GC
/Helvetica 13.333 F
GS
[1 0 0 1 0 0] CT
-7.5 14 moveto 
1 -1 scale
(40) t 
GR
GR
GS
[0.75 0 0 0.75 403.5 211.25001] CT
0.149 GC
/Helvetica 13.333 F
GS
[1 0 0 1 0 0] CT
-7.5 14 moveto 
1 -1 scale
(50) t 
GR
GR
GS
[0.75 0 0 0.75 447 211.25001] CT
0.149 GC
/Helvetica 13.333 F
GS
[1 0 0 1 0 0] CT
-7.5 14 moveto 
1 -1 scale
(60) t 
GR
GR
GS
[0.75 0 0 0.75 490.5 211.25001] CT
0.149 GC
/Helvetica 13.333 F
GS
[1 0 0 1 0 0] CT
-7.5 14 moveto 
1 -1 scale
(70) t 
GR
GR
GS
[0.75 0 0 0.75 338.25016 224.99999] CT
0.149 GC
/Helvetica 14.667 F
GS
[1 0 0 1 0 0] CT
-30.5 16 moveto 
1 -1 scale
(channels) t 
GR
GR
GS
[0.75 0 0 0.75 0 0.25] CT
0.149 GC
2 setlinecap
1 LJ
0.667 LW
N
248 276 M
248 139 L
S
GR
GS
[0.75 0 0 0.75 0 0.25] CT
0.149 GC
2 setlinecap
1 LJ
0.667 LW
N
654 276 M
654 139 L
S
GR
GS
[0.75 0 0 0.75 0 0.25] CT
0.149 GC
2 setlinecap
1 LJ
0.667 LW
N
248 276 M
252.06 276 L
S
GR
GS
[0.75 0 0 0.75 0 0.25] CT
0.149 GC
2 setlinecap
1 LJ
0.667 LW
N
248 241.75 M
252.06 241.75 L
S
GR
GS
[0.75 0 0 0.75 0 0.25] CT
0.149 GC
2 setlinecap
1 LJ
0.667 LW
N
248 207.5 M
252.06 207.5 L
S
GR
GS
[0.75 0 0 0.75 0 0.25] CT
0.149 GC
2 setlinecap
1 LJ
0.667 LW
N
248 173.25 M
252.06 173.25 L
S
GR
GS
[0.75 0 0 0.75 0 0.25] CT
0.149 GC
2 setlinecap
1 LJ
0.667 LW
N
248 139 M
252.06 139 L
S
GR
GS
[0.75 0 0 0.75 0 0.25] CT
0.149 GC
2 setlinecap
1 LJ
0.667 LW
N
654 276 M
649.94 276 L
S
GR
GS
[0.75 0 0 0.75 0 0.25] CT
0.149 GC
2 setlinecap
1 LJ
0.667 LW
N
654 241.75 M
649.94 241.75 L
S
GR
GS
[0.75 0 0 0.75 0 0.25] CT
0.149 GC
2 setlinecap
1 LJ
0.667 LW
N
654 207.5 M
649.94 207.5 L
S
GR
GS
[0.75 0 0 0.75 0 0.25] CT
0.149 GC
2 setlinecap
1 LJ
0.667 LW
N
654 173.25 M
649.94 173.25 L
S
GR
GS
[0.75 0 0 0.75 0 0.25] CT
0.149 GC
2 setlinecap
1 LJ
0.667 LW
N
654 139 M
649.94 139 L
S
GR
GS
[0.75 0 0 0.75 182 207.25] CT
0.149 GC
/Helvetica 13.333 F
GS
[1 0 0 1 0 0] CT
-19 5.5 moveto 
1 -1 scale
(0.5) t 
GR
GR
GS
[0.75 0 0 0.75 182 181.56249] CT
0.149 GC
/Helvetica 13.333 F
GS
[1 0 0 1 0 0] CT
-19 5.5 moveto 
1 -1 scale
(0.6) t 
GR
GR
GS
[0.75 0 0 0.75 182 155.875] CT
0.149 GC
/Helvetica 13.333 F
GS
[1 0 0 1 0 0] CT
-19 5.5 moveto 
1 -1 scale
(0.7) t 
GR
GR
GS
[0.75 0 0 0.75 182 130.1875] CT
0.149 GC
/Helvetica 13.333 F
GS
[1 0 0 1 0 0] CT
-19 5.5 moveto 
1 -1 scale
(0.8) t 
GR
GR
GS
[0.75 0 0 0.75 182 104.50001] CT
0.149 GC
/Helvetica 13.333 F
GS
[1 0 0 1 0 0] CT
-19 5.5 moveto 
1 -1 scale
(0.9) t 
GR
GR
GS
[0 -0.75 0.75 0 164.75 155.87495] CT
0.149 GC
/Helvetica 14.667 F
GS
[1 0 0 1 0 0] CT
-17 -4 moveto 
1 -1 scale
(GCC) t 
GR
GR
GS
[0.75 0 0 0.75 300 79.75] CT
/Helvetica-Bold 14.667 F
GS
[1 0 0 1 0 0] CT
0 0 moveto 
1 -1 scale
(SEEN \(129_1\)) t 
GR
GR
GS
[0.75 0 0 0.75 0 0.25] CT
0 0.447 0.741 RC
1 LJ
0.667 LW
N
253.8 216.204 M
259.6 203.089 L
265.4 222.745 L
271.2 195.049 L
277 208.662 L
282.8 267.256 L
288.6 205.249 L
294.4 183.567 L
300.2 253.038 L
306 193.688 L
311.8 205.385 L
317.6 244.095 L
323.4 204.894 L
329.2 199.441 L
335 231.074 L
340.8 210.897 L
346.6 217.786 L
352.4 242.455 L
358.2 241.398 L
364 239.798 L
369.8 206.971 L
375.6 210.82 L
381.4 212.999 L
387.2 197.343 L
393 213.038 L
398.8 217.033 L
404.6 191.356 L
410.4 237.078 L
416.2 214.879 L
422 208.287 L
427.8 252.85 L
433.6 181.866 L
439.4 203.078 L
445.2 237.436 L
451 242.347 L
456.8 210.774 L
462.6 223.265 L
468.4 171.839 L
474.2 225.779 L
480 224.089 L
485.8 245.827 L
491.6 235.711 L
497.4 226.317 L
503.2 235.767 L
509 264.63 L
514.8 246.236 L
520.6 191.4 L
526.4 222.457 L
532.2 217.006 L
538 231.902 L
543.8 202.94 L
549.6 251.294 L
555.4 273.001 L
561.2 216.642 L
567 201.749 L
572.8 203.446 L
578.6 250.586 L
584.4 204.058 L
590.2 222.88 L
596 217.031 L
601.8 239.289 L
607.6 227.77 L
613.4 223.124 L
S
GR
GS
[0.75 0 0 0.75 0 0.25] CT
0.851 0.325 0.098 RC
1 LJ
0.667 LW
N
253.8 259.702 M
259.6 221.079 L
265.4 172.03 L
271.2 219.426 L
277 214.5 L
282.8 224.879 L
288.6 233.024 L
294.4 231.232 L
300.2 266.379 L
306 192.396 L
311.8 224.525 L
317.6 220.017 L
323.4 198.992 L
329.2 241.91 L
335 251.16 L
340.8 213.018 L
346.6 187.794 L
352.4 216.338 L
358.2 216.971 L
364 238.501 L
369.8 260.9 L
375.6 229.381 L
381.4 218.519 L
387.2 221.866 L
393 254.805 L
398.8 225.793 L
404.6 214.295 L
410.4 259.888 L
416.2 218.577 L
422 253.992 L
427.8 258.148 L
433.6 218.376 L
439.4 243.81 L
445.2 223.635 L
451 199.86 L
456.8 214.387 L
462.6 208.795 L
468.4 208.791 L
474.2 229.846 L
480 219.739 L
485.8 248.465 L
491.6 202.727 L
497.4 241.482 L
503.2 222.045 L
509 253.564 L
514.8 228.848 L
520.6 205.342 L
526.4 252.64 L
532.2 241.802 L
538 255.321 L
543.8 195.335 L
549.6 235.37 L
555.4 226.502 L
561.2 246.391 L
567 196.401 L
572.8 249.036 L
578.6 205.636 L
584.4 258.043 L
590.2 222.618 L
596 270.367 L
601.8 206.401 L
607.6 194.209 L
613.4 202.579 L
S
GR
GS
[0.75 0 0 0.75 0 0.25] CT
1 GC
N
782 276 M
1188 276 L
1188 139 L
782 139 L
cp
f
GR
GS
[0.75 0 0 0.75 0 0.25] CT
0.149 GC
2 setlinecap
1 LJ
0.667 LW
N
782 276 M
1188 276 L
S
GR
GS
[0.75 0 0 0.75 0 0.25] CT
0.149 GC
2 setlinecap
1 LJ
0.667 LW
N
782 139 M
1188 139 L
S
GR
GS
[0.75 0 0 0.75 0 0.25] CT
0.149 GC
2 setlinecap
1 LJ
0.667 LW
N
782 276 M
782 271.94 L
S
GR
GS
[0.75 0 0 0.75 0 0.25] CT
0.149 GC
2 setlinecap
1 LJ
0.667 LW
N
849.667 276 M
849.667 271.94 L
S
GR
GS
[0.75 0 0 0.75 0 0.25] CT
0.149 GC
2 setlinecap
1 LJ
0.667 LW
N
917.333 276 M
917.333 271.94 L
S
GR
GS
[0.75 0 0 0.75 0 0.25] CT
0.149 GC
2 setlinecap
1 LJ
0.667 LW
N
985 276 M
985 271.94 L
S
GR
GS
[0.75 0 0 0.75 0 0.25] CT
0.149 GC
2 setlinecap
1 LJ
0.667 LW
N
1052.667 276 M
1052.667 271.94 L
S
GR
GS
[0.75 0 0 0.75 0 0.25] CT
0.149 GC
2 setlinecap
1 LJ
0.667 LW
N
1120.333 276 M
1120.333 271.94 L
S
GR
GS
[0.75 0 0 0.75 0 0.25] CT
0.149 GC
2 setlinecap
1 LJ
0.667 LW
N
1188 276 M
1188 271.94 L
S
GR
GS
[0.75 0 0 0.75 0 0.25] CT
0.149 GC
2 setlinecap
1 LJ
0.667 LW
N
782 139 M
782 143.06 L
S
GR
GS
[0.75 0 0 0.75 0 0.25] CT
0.149 GC
2 setlinecap
1 LJ
0.667 LW
N
849.667 139 M
849.667 143.06 L
S
GR
GS
[0.75 0 0 0.75 0 0.25] CT
0.149 GC
2 setlinecap
1 LJ
0.667 LW
N
917.333 139 M
917.333 143.06 L
S
GR
GS
[0.75 0 0 0.75 0 0.25] CT
0.149 GC
2 setlinecap
1 LJ
0.667 LW
N
985 139 M
985 143.06 L
S
GR
GS
[0.75 0 0 0.75 0 0.25] CT
0.149 GC
2 setlinecap
1 LJ
0.667 LW
N
1052.667 139 M
1052.667 143.06 L
S
GR
GS
[0.75 0 0 0.75 0 0.25] CT
0.149 GC
2 setlinecap
1 LJ
0.667 LW
N
1120.333 139 M
1120.333 143.06 L
S
GR
GS
[0.75 0 0 0.75 0 0.25] CT
0.149 GC
2 setlinecap
1 LJ
0.667 LW
N
1188 139 M
1188 143.06 L
S
GR
GS
[0.75 0 0 0.75 586.5 211.25001] CT
0.149 GC
/Helvetica 13.333 F
GS
[1 0 0 1 0 0] CT
-4 14 moveto 
1 -1 scale
(0) t 
GR
GR
GS
[0.75 0 0 0.75 637.25002 211.25001] CT
0.149 GC
/Helvetica 13.333 F
GS
[1 0 0 1 0 0] CT
-7.5 14 moveto 
1 -1 scale
(10) t 
GR
GR
GS
[0.75 0 0 0.75 687.99998 211.25001] CT
0.149 GC
/Helvetica 13.333 F
GS
[1 0 0 1 0 0] CT
-7.5 14 moveto 
1 -1 scale
(20) t 
GR
GR
GS
[0.75 0 0 0.75 738.75 211.25001] CT
0.149 GC
/Helvetica 13.333 F
GS
[1 0 0 1 0 0] CT
-7.5 14 moveto 
1 -1 scale
(30) t 
GR
GR
GS
[0.75 0 0 0.75 789.49997 211.25001] CT
0.149 GC
/Helvetica 13.333 F
GS
[1 0 0 1 0 0] CT
-7.5 14 moveto 
1 -1 scale
(40) t 
GR
GR
GS
[0.75 0 0 0.75 840.25003 211.25001] CT
0.149 GC
/Helvetica 13.333 F
GS
[1 0 0 1 0 0] CT
-7.5 14 moveto 
1 -1 scale
(50) t 
GR
GR
GS
[0.75 0 0 0.75 891 211.25001] CT
0.149 GC
/Helvetica 13.333 F
GS
[1 0 0 1 0 0] CT
-7.5 14 moveto 
1 -1 scale
(60) t 
GR
GR
GS
[0.75 0 0 0.75 738.75014 224.99999] CT
0.149 GC
/Helvetica 14.667 F
GS
[1 0 0 1 0 0] CT
-30.5 16 moveto 
1 -1 scale
(channels) t 
GR
GR
GS
[0.75 0 0 0.75 0 0.25] CT
0.149 GC
2 setlinecap
1 LJ
0.667 LW
N
782 276 M
782 139 L
S
GR
GS
[0.75 0 0 0.75 0 0.25] CT
0.149 GC
2 setlinecap
1 LJ
0.667 LW
N
1188 276 M
1188 139 L
S
GR
GS
[0.75 0 0 0.75 0 0.25] CT
0.149 GC
2 setlinecap
1 LJ
0.667 LW
N
782 276 M
786.06 276 L
S
GR
GS
[0.75 0 0 0.75 0 0.25] CT
0.149 GC
2 setlinecap
1 LJ
0.667 LW
N
782 241.75 M
786.06 241.75 L
S
GR
GS
[0.75 0 0 0.75 0 0.25] CT
0.149 GC
2 setlinecap
1 LJ
0.667 LW
N
782 207.5 M
786.06 207.5 L
S
GR
GS
[0.75 0 0 0.75 0 0.25] CT
0.149 GC
2 setlinecap
1 LJ
0.667 LW
N
782 173.25 M
786.06 173.25 L
S
GR
GS
[0.75 0 0 0.75 0 0.25] CT
0.149 GC
2 setlinecap
1 LJ
0.667 LW
N
782 139 M
786.06 139 L
S
GR
GS
[0.75 0 0 0.75 0 0.25] CT
0.149 GC
2 setlinecap
1 LJ
0.667 LW
N
1188 276 M
1183.94 276 L
S
GR
GS
[0.75 0 0 0.75 0 0.25] CT
0.149 GC
2 setlinecap
1 LJ
0.667 LW
N
1188 241.75 M
1183.94 241.75 L
S
GR
GS
[0.75 0 0 0.75 0 0.25] CT
0.149 GC
2 setlinecap
1 LJ
0.667 LW
N
1188 207.5 M
1183.94 207.5 L
S
GR
GS
[0.75 0 0 0.75 0 0.25] CT
0.149 GC
2 setlinecap
1 LJ
0.667 LW
N
1188 173.25 M
1183.94 173.25 L
S
GR
GS
[0.75 0 0 0.75 0 0.25] CT
0.149 GC
2 setlinecap
1 LJ
0.667 LW
N
1188 139 M
1183.94 139 L
S
GR
GS
[0.75 0 0 0.75 582.50002 207.25] CT
0.149 GC
/Helvetica 13.333 F
GS
[1 0 0 1 0 0] CT
-19 5.5 moveto 
1 -1 scale
(0.5) t 
GR
GR
GS
[0.75 0 0 0.75 582.50002 181.56249] CT
0.149 GC
/Helvetica 13.333 F
GS
[1 0 0 1 0 0] CT
-19 5.5 moveto 
1 -1 scale
(0.6) t 
GR
GR
GS
[0.75 0 0 0.75 582.50002 155.875] CT
0.149 GC
/Helvetica 13.333 F
GS
[1 0 0 1 0 0] CT
-19 5.5 moveto 
1 -1 scale
(0.7) t 
GR
GR
GS
[0.75 0 0 0.75 582.50002 130.1875] CT
0.149 GC
/Helvetica 13.333 F
GS
[1 0 0 1 0 0] CT
-19 5.5 moveto 
1 -1 scale
(0.8) t 
GR
GR
GS
[0.75 0 0 0.75 582.50002 104.50001] CT
0.149 GC
/Helvetica 13.333 F
GS
[1 0 0 1 0 0] CT
-19 5.5 moveto 
1 -1 scale
(0.9) t 
GR
GR
GS
[0 -0.75 0.75 0 565.25002 155.87495] CT
0.149 GC
/Helvetica 14.667 F
GS
[1 0 0 1 0 0] CT
-17 -4 moveto 
1 -1 scale
(GCC) t 
GR
GR
GS
[0.75 0 0 0.75 684.75 79] CT
/Helvetica-Bold 14.667 F
GS
[1 0 0 1 0 0] CT
0 0 moveto 
1 -1 scale
(SOMETHING \(129_2\)) t 
GR
GR
GS
[0.75 0 0 0.75 0 0.25] CT
0 0.447 0.741 RC
1 LJ
0.667 LW
N
788.767 202.939 M
795.533 243.195 L
802.3 180.426 L
809.067 243.036 L
815.833 193.786 L
822.6 180.579 L
829.367 224.272 L
836.133 204.225 L
842.9 185.506 L
849.667 209.084 L
856.433 213.706 L
863.2 194.277 L
869.967 204.231 L
876.733 252.238 L
883.5 227.518 L
890.267 182.06 L
897.033 198.439 L
903.8 191.742 L
910.567 202.255 L
917.333 205.228 L
924.1 255.665 L
930.867 226.135 L
937.633 255.535 L
944.4 204.348 L
951.167 239.264 L
957.933 204.186 L
964.7 196.217 L
971.467 181.652 L
978.233 201.612 L
985 175.314 L
991.767 224.836 L
998.533 253.945 L
1005.3 221.851 L
1012.067 204.988 L
1018.833 206.044 L
1025.6 225.456 L
1032.367 211.788 L
1039.133 234.995 L
1045.9 214.046 L
1052.667 250.213 L
1059.433 229.56 L
1066.2 211.412 L
1072.967 193.218 L
1079.733 209.846 L
1086.5 239.011 L
1093.267 188.668 L
1100.033 196.656 L
1106.8 235.36 L
1113.567 188.516 L
1120.333 243.537 L
1127.1 226.924 L
1133.867 217.714 L
S
GR
GS
[0.75 0 0 0.75 0 0.25] CT
0.851 0.325 0.098 RC
1 LJ
0.667 LW
N
788.767 218.822 M
795.533 236.934 L
802.3 209.507 L
809.067 237.088 L
815.833 238.456 L
822.6 190.123 L
829.367 240.347 L
836.133 255.308 L
842.9 217.225 L
849.667 188.887 L
856.433 177.033 L
863.2 228.251 L
869.967 211.749 L
876.733 233.982 L
883.5 191.265 L
890.267 181.829 L
897.033 214.67 L
903.8 239.778 L
910.567 219.184 L
917.333 189.923 L
924.1 220.014 L
930.867 216.404 L
937.633 206.564 L
944.4 243.206 L
951.167 246.943 L
957.933 244.947 L
964.7 250.105 L
971.467 229.893 L
978.233 179.906 L
985 227.411 L
991.767 203.919 L
998.533 249.577 L
1005.3 226.137 L
1012.067 267.851 L
1018.833 170.903 L
1025.6 231.904 L
1032.367 248.405 L
1039.133 261.989 L
1045.9 229.585 L
1052.667 240.102 L
1059.433 231.659 L
1066.2 209.249 L
1072.967 200.226 L
1079.733 229.677 L
1086.5 210.61 L
1093.267 153.004 L
1100.033 202.226 L
1106.8 197.859 L
1113.567 189.623 L
1120.333 233.217 L
1127.1 227.3 L
1133.867 266.619 L
S
GR
GS
[0.75 0 0 0.75 0 0.25] CT
1 GC
N
1317 276 M
1723 276 L
1723 139 L
1317 139 L
cp
f
GR
GS
[0.75 0 0 0.75 0 0.25] CT
0.149 GC
2 setlinecap
1 LJ
0.667 LW
N
1317 276 M
1723 276 L
S
GR
GS
[0.75 0 0 0.75 0 0.25] CT
0.149 GC
2 setlinecap
1 LJ
0.667 LW
N
1317 139 M
1723 139 L
S
GR
GS
[0.75 0 0 0.75 0 0.25] CT
0.149 GC
2 setlinecap
1 LJ
0.667 LW
N
1317 276 M
1317 271.94 L
S
GR
GS
[0.75 0 0 0.75 0 0.25] CT
0.149 GC
2 setlinecap
1 LJ
0.667 LW
N
1398.2 276 M
1398.2 271.94 L
S
GR
GS
[0.75 0 0 0.75 0 0.25] CT
0.149 GC
2 setlinecap
1 LJ
0.667 LW
N
1479.4 276 M
1479.4 271.94 L
S
GR
GS
[0.75 0 0 0.75 0 0.25] CT
0.149 GC
2 setlinecap
1 LJ
0.667 LW
N
1560.6 276 M
1560.6 271.94 L
S
GR
GS
[0.75 0 0 0.75 0 0.25] CT
0.149 GC
2 setlinecap
1 LJ
0.667 LW
N
1641.8 276 M
1641.8 271.94 L
S
GR
GS
[0.75 0 0 0.75 0 0.25] CT
0.149 GC
2 setlinecap
1 LJ
0.667 LW
N
1723 276 M
1723 271.94 L
S
GR
GS
[0.75 0 0 0.75 0 0.25] CT
0.149 GC
2 setlinecap
1 LJ
0.667 LW
N
1317 139 M
1317 143.06 L
S
GR
GS
[0.75 0 0 0.75 0 0.25] CT
0.149 GC
2 setlinecap
1 LJ
0.667 LW
N
1398.2 139 M
1398.2 143.06 L
S
GR
GS
[0.75 0 0 0.75 0 0.25] CT
0.149 GC
2 setlinecap
1 LJ
0.667 LW
N
1479.4 139 M
1479.4 143.06 L
S
GR
GS
[0.75 0 0 0.75 0 0.25] CT
0.149 GC
2 setlinecap
1 LJ
0.667 LW
N
1560.6 139 M
1560.6 143.06 L
S
GR
GS
[0.75 0 0 0.75 0 0.25] CT
0.149 GC
2 setlinecap
1 LJ
0.667 LW
N
1641.8 139 M
1641.8 143.06 L
S
GR
GS
[0.75 0 0 0.75 0 0.25] CT
0.149 GC
2 setlinecap
1 LJ
0.667 LW
N
1723 139 M
1723 143.06 L
S
GR
GS
[0.75 0 0 0.75 987.75 211.25001] CT
0.149 GC
/Helvetica 13.333 F
GS
[1 0 0 1 0 0] CT
-4 14 moveto 
1 -1 scale
(0) t 
GR
GR
GS
[0.75 0 0 0.75 1048.64996 211.25001] CT
0.149 GC
/Helvetica 13.333 F
GS
[1 0 0 1 0 0] CT
-7.5 14 moveto 
1 -1 scale
(20) t 
GR
GR
GS
[0.75 0 0 0.75 1109.55002 211.25001] CT
0.149 GC
/Helvetica 13.333 F
GS
[1 0 0 1 0 0] CT
-7.5 14 moveto 
1 -1 scale
(40) t 
GR
GR
GS
[0.75 0 0 0.75 1170.44998 211.25001] CT
0.149 GC
/Helvetica 13.333 F
GS
[1 0 0 1 0 0] CT
-7.5 14 moveto 
1 -1 scale
(60) t 
GR
GR
GS
[0.75 0 0 0.75 1231.35004 211.25001] CT
0.149 GC
/Helvetica 13.333 F
GS
[1 0 0 1 0 0] CT
-7.5 14 moveto 
1 -1 scale
(80) t 
GR
GR
GS
[0.75 0 0 0.75 1292.25 211.25001] CT
0.149 GC
/Helvetica 13.333 F
GS
[1 0 0 1 0 0] CT
-11 14 moveto 
1 -1 scale
(100) t 
GR
GR
GS
[0.75 0 0 0.75 1140.00018 224.99999] CT
0.149 GC
/Helvetica 14.667 F
GS
[1 0 0 1 0 0] CT
-30.5 16 moveto 
1 -1 scale
(channels) t 
GR
GR
GS
[0.75 0 0 0.75 0 0.25] CT
0.149 GC
2 setlinecap
1 LJ
0.667 LW
N
1317 276 M
1317 139 L
S
GR
GS
[0.75 0 0 0.75 0 0.25] CT
0.149 GC
2 setlinecap
1 LJ
0.667 LW
N
1723 276 M
1723 139 L
S
GR
GS
[0.75 0 0 0.75 0 0.25] CT
0.149 GC
2 setlinecap
1 LJ
0.667 LW
N
1317 276 M
1321.06 276 L
S
GR
GS
[0.75 0 0 0.75 0 0.25] CT
0.149 GC
2 setlinecap
1 LJ
0.667 LW
N
1317 241.75 M
1321.06 241.75 L
S
GR
GS
[0.75 0 0 0.75 0 0.25] CT
0.149 GC
2 setlinecap
1 LJ
0.667 LW
N
1317 207.5 M
1321.06 207.5 L
S
GR
GS
[0.75 0 0 0.75 0 0.25] CT
0.149 GC
2 setlinecap
1 LJ
0.667 LW
N
1317 173.25 M
1321.06 173.25 L
S
GR
GS
[0.75 0 0 0.75 0 0.25] CT
0.149 GC
2 setlinecap
1 LJ
0.667 LW
N
1317 139 M
1321.06 139 L
S
GR
GS
[0.75 0 0 0.75 0 0.25] CT
0.149 GC
2 setlinecap
1 LJ
0.667 LW
N
1723 276 M
1718.94 276 L
S
GR
GS
[0.75 0 0 0.75 0 0.25] CT
0.149 GC
2 setlinecap
1 LJ
0.667 LW
N
1723 241.75 M
1718.94 241.75 L
S
GR
GS
[0.75 0 0 0.75 0 0.25] CT
0.149 GC
2 setlinecap
1 LJ
0.667 LW
N
1723 207.5 M
1718.94 207.5 L
S
GR
GS
[0.75 0 0 0.75 0 0.25] CT
0.149 GC
2 setlinecap
1 LJ
0.667 LW
N
1723 173.25 M
1718.94 173.25 L
S
GR
GS
[0.75 0 0 0.75 0 0.25] CT
0.149 GC
2 setlinecap
1 LJ
0.667 LW
N
1723 139 M
1718.94 139 L
S
GR
GS
[0.75 0 0 0.75 983.74997 207.25] CT
0.149 GC
/Helvetica 13.333 F
GS
[1 0 0 1 0 0] CT
-19 5.5 moveto 
1 -1 scale
(0.5) t 
GR
GR
GS
[0.75 0 0 0.75 983.74997 181.56249] CT
0.149 GC
/Helvetica 13.333 F
GS
[1 0 0 1 0 0] CT
-19 5.5 moveto 
1 -1 scale
(0.6) t 
GR
GR
GS
[0.75 0 0 0.75 983.74997 155.875] CT
0.149 GC
/Helvetica 13.333 F
GS
[1 0 0 1 0 0] CT
-19 5.5 moveto 
1 -1 scale
(0.7) t 
GR
GR
GS
[0.75 0 0 0.75 983.74997 130.1875] CT
0.149 GC
/Helvetica 13.333 F
GS
[1 0 0 1 0 0] CT
-19 5.5 moveto 
1 -1 scale
(0.8) t 
GR
GR
GS
[0.75 0 0 0.75 983.74997 104.50001] CT
0.149 GC
/Helvetica 13.333 F
GS
[1 0 0 1 0 0] CT
-19 5.5 moveto 
1 -1 scale
(0.9) t 
GR
GR
GS
[0 -0.75 0.75 0 966.49997 155.87495] CT
0.149 GC
/Helvetica 14.667 F
GS
[1 0 0 1 0 0] CT
-17 -4 moveto 
1 -1 scale
(GCC) t 
GR
GR
GS
[0.75 0 0 0.75 1091.25 82] CT
/Helvetica-Bold 14.667 F
GS
[1 0 0 1 0 0] CT
0 0 moveto 
1 -1 scale
(NOTHING \(129_3\)) t 
GR
GR
GS
[0.75 0 0 0.75 0 0.25] CT
0 0.447 0.741 RC
1 LJ
0.667 LW
N
1321.06 237.007 M
1325.12 222.707 L
1329.18 216.7 L
1333.24 235.629 L
1337.3 205.157 L
1341.36 183.534 L
1345.42 210.781 L
1349.48 248.554 L
1353.54 209.099 L
1357.6 214.06 L
1361.66 239.542 L
1365.72 245.525 L
1369.78 244.948 L
1373.84 254.716 L
1377.9 193.255 L
1381.96 164.423 L
1386.02 241.489 L
1390.08 189.697 L
1394.14 186.77 L
1398.2 245.52 L
1402.26 241.932 L
1406.32 201.512 L
1410.38 203.909 L
1414.44 223.258 L
1418.5 252.106 L
1422.56 222.231 L
1426.62 213.333 L
1430.68 220.408 L
1434.74 222.794 L
1438.8 259.212 L
1442.86 224.938 L
1446.92 187.062 L
1450.98 206.267 L
1455.04 203.251 L
1459.1 233.792 L
1463.16 203.496 L
1467.22 230.338 L
1471.28 263.231 L
1475.34 226.232 L
1479.4 254.312 L
1483.46 229.639 L
1487.52 181.929 L
1491.58 223.929 L
1495.64 198.64 L
1499.7 232.353 L
1503.76 232.017 L
1507.82 203.085 L
1511.88 222.811 L
1515.94 233.247 L
1520 212.417 L
1524.06 208.804 L
1528.12 209.77 L
1532.18 229.89 L
1536.24 245.519 L
1540.3 210.567 L
1544.36 179.12 L
1548.42 178.244 L
1552.48 228.928 L
1556.54 201.119 L
1560.6 250.848 L
1564.66 234.455 L
1568.72 206.427 L
1572.78 220.633 L
1576.84 216.853 L
1580.9 239.242 L
1584.96 203.896 L
1589.02 226.557 L
1593.08 240.284 L
1597.14 203.282 L
1601.2 224.284 L
1605.26 219.385 L
1609.32 180.741 L
1613.38 204.328 L
1617.44 215.128 L
1621.5 212.281 L
1625.56 217.453 L
1629.62 232.07 L
1633.68 192.522 L
1637.74 215.664 L
1641.8 202.392 L
1645.86 203.842 L
1649.92 219.661 L
1653.98 202.917 L
1658.04 190.917 L
1662.1 209.867 L
1666.16 250.444 L
1670.22 222.33 L
1674.28 194.135 L
1678.34 218.079 L
1682.4 217.38 L
1686.46 218.175 L
1690.52 236.307 L
1694.58 187.793 L
1698.64 216.85 L
1702.7 226.283 L
S
GR
GS
[0.75 0 0 0.75 0 0.25] CT
0.851 0.325 0.098 RC
1 LJ
0.667 LW
N
1321.06 239.666 M
1325.12 233.855 L
1329.18 218.319 L
1333.24 250.846 L
1337.3 245.617 L
1341.36 201.483 L
1345.42 231.347 L
1349.48 259.939 L
1353.54 226.581 L
1357.6 220.549 L
1361.66 246.847 L
1365.72 231.113 L
1369.78 187.542 L
1373.84 250.68 L
1377.9 254.764 L
1381.96 186.417 L
1386.02 238.714 L
1390.08 237.72 L
1394.14 209.17 L
1398.2 166.875 L
1402.26 232.901 L
1406.32 231.243 L
1410.38 177.491 L
1414.44 221.03 L
1418.5 264.199 L
1422.56 226.106 L
1426.62 179.874 L
1430.68 206.424 L
1434.74 253.602 L
1438.8 252.881 L
1442.86 236.585 L
1446.92 220.549 L
1450.98 242.747 L
1455.04 207.396 L
1459.1 213.372 L
1463.16 235.185 L
1467.22 233.118 L
1471.28 211.606 L
1475.34 220.379 L
1479.4 241.196 L
1483.46 241.393 L
1487.52 202.148 L
1491.58 245.37 L
1495.64 237.367 L
1499.7 248.824 L
1503.76 218.307 L
1507.82 212.86 L
1511.88 226.601 L
1515.94 195.849 L
1520 210.715 L
1524.06 242.73 L
1528.12 231.824 L
1532.18 222.443 L
1536.24 232.837 L
1540.3 183.625 L
1544.36 220.018 L
1548.42 214.515 L
1552.48 195.999 L
1556.54 240.685 L
1560.6 197.638 L
1564.66 244.288 L
1568.72 192.137 L
1572.78 241.309 L
1576.84 187.54 L
1580.9 229.606 L
1584.96 210.812 L
1589.02 226.147 L
1593.08 213.37 L
1597.14 231.622 L
1601.2 208.576 L
1605.26 179.285 L
1609.32 193.639 L
1613.38 226.096 L
1617.44 230.436 L
1621.5 239.137 L
1625.56 157.335 L
1629.62 227.621 L
1633.68 265.97 L
1637.74 238.277 L
1641.8 178.742 L
1645.86 228.549 L
1649.92 253.32 L
1653.98 249.855 L
1658.04 245.917 L
1662.1 181.03 L
1666.16 228.174 L
1670.22 233.396 L
1674.28 237.741 L
1678.34 250.729 L
1682.4 170.846 L
1686.46 228.973 L
1690.52 241.6 L
1694.58 198.462 L
1698.64 255.861 L
1702.7 238.476 L
S
GR
GS
[0.75 0 0 0.75 0 0.25] CT
1 GC
N
1184 66 M
1184 29 L
1280 29 L
1280 66 L
cp
f
GR
GS
[0.75 0 0 0.75 923.25 29.60274] CT
/Helvetica 12 F
GS
[1 0 0 1 0 0] CT
0 5 moveto 
1 -1 scale
(stimulus) t 
GR
GR
GS
[0.75 0 0 0.75 0 0.25] CT
0 0.447 0.741 RC
1 LJ
0.667 LW
N
1188 39.137 M
1228 39.137 L
S
GR
GS
[0.75 0 0 0.75 923.25 42.14726] CT
/Helvetica 12 F
GS
[1 0 0 1 0 0] CT
0 5 moveto 
1 -1 scale
(baseline) t 
GR
GR
GS
[0.75 0 0 0.75 0 0.25] CT
0.851 0.325 0.098 RC
1 LJ
0.667 LW
N
1188 55.863 M
1228 55.863 L
S
GR
GS
[0.75 0 0 0.75 0 0.25] CT
0.149 GC
10.0 ML
0.667 LW
N
1184 66 M
1184 29 L
1280 29 L
1280 66 L
cp
S
GR
GS
[0.75 0 0 0.75 0 0.25] CT
1 GC
N
248 475 M
654 475 L
654 337 L
248 337 L
cp
f
GR
GS
[0.75 0 0 0.75 0 0.25] CT
0.149 GC
2 setlinecap
1 LJ
0.667 LW
N
248 475 M
654 475 L
S
GR
GS
[0.75 0 0 0.75 0 0.25] CT
0.149 GC
2 setlinecap
1 LJ
0.667 LW
N
248 337 M
654 337 L
S
GR
GS
[0.75 0 0 0.75 0 0.25] CT
0.149 GC
2 setlinecap
1 LJ
0.667 LW
N
248 475 M
248 470.94 L
S
GR
GS
[0.75 0 0 0.75 0 0.25] CT
0.149 GC
2 setlinecap
1 LJ
0.667 LW
N
315.667 475 M
315.667 470.94 L
S
GR
GS
[0.75 0 0 0.75 0 0.25] CT
0.149 GC
2 setlinecap
1 LJ
0.667 LW
N
383.333 475 M
383.333 470.94 L
S
GR
GS
[0.75 0 0 0.75 0 0.25] CT
0.149 GC
2 setlinecap
1 LJ
0.667 LW
N
451 475 M
451 470.94 L
S
GR
GS
[0.75 0 0 0.75 0 0.25] CT
0.149 GC
2 setlinecap
1 LJ
0.667 LW
N
518.667 475 M
518.667 470.94 L
S
GR
GS
[0.75 0 0 0.75 0 0.25] CT
0.149 GC
2 setlinecap
1 LJ
0.667 LW
N
586.333 475 M
586.333 470.94 L
S
GR
GS
[0.75 0 0 0.75 0 0.25] CT
0.149 GC
2 setlinecap
1 LJ
0.667 LW
N
654 475 M
654 470.94 L
S
GR
GS
[0.75 0 0 0.75 0 0.25] CT
0.149 GC
2 setlinecap
1 LJ
0.667 LW
N
248 337 M
248 341.06 L
S
GR
GS
[0.75 0 0 0.75 0 0.25] CT
0.149 GC
2 setlinecap
1 LJ
0.667 LW
N
315.667 337 M
315.667 341.06 L
S
GR
GS
[0.75 0 0 0.75 0 0.25] CT
0.149 GC
2 setlinecap
1 LJ
0.667 LW
N
383.333 337 M
383.333 341.06 L
S
GR
GS
[0.75 0 0 0.75 0 0.25] CT
0.149 GC
2 setlinecap
1 LJ
0.667 LW
N
451 337 M
451 341.06 L
S
GR
GS
[0.75 0 0 0.75 0 0.25] CT
0.149 GC
2 setlinecap
1 LJ
0.667 LW
N
518.667 337 M
518.667 341.06 L
S
GR
GS
[0.75 0 0 0.75 0 0.25] CT
0.149 GC
2 setlinecap
1 LJ
0.667 LW
N
586.333 337 M
586.333 341.06 L
S
GR
GS
[0.75 0 0 0.75 0 0.25] CT
0.149 GC
2 setlinecap
1 LJ
0.667 LW
N
654 337 M
654 341.06 L
S
GR
GS
[0.75 0 0 0.75 186 360.50001] CT
0.149 GC
/Helvetica 13.333 F
GS
[1 0 0 1 0 0] CT
-4 14 moveto 
1 -1 scale
(0) t 
GR
GR
GS
[0.75 0 0 0.75 236.74999 360.50001] CT
0.149 GC
/Helvetica 13.333 F
GS
[1 0 0 1 0 0] CT
-7.5 14 moveto 
1 -1 scale
(20) t 
GR
GR
GS
[0.75 0 0 0.75 287.50001 360.50001] CT
0.149 GC
/Helvetica 13.333 F
GS
[1 0 0 1 0 0] CT
-7.5 14 moveto 
1 -1 scale
(40) t 
GR
GR
GS
[0.75 0 0 0.75 338.25 360.50001] CT
0.149 GC
/Helvetica 13.333 F
GS
[1 0 0 1 0 0] CT
-7.5 14 moveto 
1 -1 scale
(60) t 
GR
GR
GS
[0.75 0 0 0.75 389.00002 360.50001] CT
0.149 GC
/Helvetica 13.333 F
GS
[1 0 0 1 0 0] CT
-7.5 14 moveto 
1 -1 scale
(80) t 
GR
GR
GS
[0.75 0 0 0.75 439.74998 360.50001] CT
0.149 GC
/Helvetica 13.333 F
GS
[1 0 0 1 0 0] CT
-11 14 moveto 
1 -1 scale
(100) t 
GR
GR
GS
[0.75 0 0 0.75 490.5 360.50001] CT
0.149 GC
/Helvetica 13.333 F
GS
[1 0 0 1 0 0] CT
-11 14 moveto 
1 -1 scale
(120) t 
GR
GR
GS
[0.75 0 0 0.75 338.25014 374.24999] CT
0.149 GC
/Helvetica 14.667 F
GS
[1 0 0 1 0 0] CT
-30.5 16 moveto 
1 -1 scale
(channels) t 
GR
GR
GS
[0.75 0 0 0.75 0 0.25] CT
0.149 GC
2 setlinecap
1 LJ
0.667 LW
N
248 475 M
248 337 L
S
GR
GS
[0.75 0 0 0.75 0 0.25] CT
0.149 GC
2 setlinecap
1 LJ
0.667 LW
N
654 475 M
654 337 L
S
GR
GS
[0.75 0 0 0.75 0 0.25] CT
0.149 GC
2 setlinecap
1 LJ
0.667 LW
N
248 475 M
252.06 475 L
S
GR
GS
[0.75 0 0 0.75 0 0.25] CT
0.149 GC
2 setlinecap
1 LJ
0.667 LW
N
248 440.5 M
252.06 440.5 L
S
GR
GS
[0.75 0 0 0.75 0 0.25] CT
0.149 GC
2 setlinecap
1 LJ
0.667 LW
N
248 406 M
252.06 406 L
S
GR
GS
[0.75 0 0 0.75 0 0.25] CT
0.149 GC
2 setlinecap
1 LJ
0.667 LW
N
248 371.5 M
252.06 371.5 L
S
GR
GS
[0.75 0 0 0.75 0 0.25] CT
0.149 GC
2 setlinecap
1 LJ
0.667 LW
N
248 337 M
252.06 337 L
S
GR
GS
[0.75 0 0 0.75 0 0.25] CT
0.149 GC
2 setlinecap
1 LJ
0.667 LW
N
654 475 M
649.94 475 L
S
GR
GS
[0.75 0 0 0.75 0 0.25] CT
0.149 GC
2 setlinecap
1 LJ
0.667 LW
N
654 440.5 M
649.94 440.5 L
S
GR
GS
[0.75 0 0 0.75 0 0.25] CT
0.149 GC
2 setlinecap
1 LJ
0.667 LW
N
654 406 M
649.94 406 L
S
GR
GS
[0.75 0 0 0.75 0 0.25] CT
0.149 GC
2 setlinecap
1 LJ
0.667 LW
N
654 371.5 M
649.94 371.5 L
S
GR
GS
[0.75 0 0 0.75 0 0.25] CT
0.149 GC
2 setlinecap
1 LJ
0.667 LW
N
654 337 M
649.94 337 L
S
GR
GS
[0.75 0 0 0.75 182 356.5] CT
0.149 GC
/Helvetica 13.333 F
GS
[1 0 0 1 0 0] CT
-19 5.5 moveto 
1 -1 scale
(0.5) t 
GR
GR
GS
[0.75 0 0 0.75 182 330.625] CT
0.149 GC
/Helvetica 13.333 F
GS
[1 0 0 1 0 0] CT
-19 5.5 moveto 
1 -1 scale
(0.6) t 
GR
GR
GS
[0.75 0 0 0.75 182 304.75] CT
0.149 GC
/Helvetica 13.333 F
GS
[1 0 0 1 0 0] CT
-19 5.5 moveto 
1 -1 scale
(0.7) t 
GR
GR
GS
[0.75 0 0 0.75 182 278.875] CT
0.149 GC
/Helvetica 13.333 F
GS
[1 0 0 1 0 0] CT
-19 5.5 moveto 
1 -1 scale
(0.8) t 
GR
GR
GS
[0.75 0 0 0.75 182 253] CT
0.149 GC
/Helvetica 13.333 F
GS
[1 0 0 1 0 0] CT
-19 5.5 moveto 
1 -1 scale
(0.9) t 
GR
GR
GS
[0 -0.75 0.75 0 164.75 304.74995] CT
0.149 GC
/Helvetica 14.667 F
GS
[1 0 0 1 0 0] CT
-17 -4 moveto 
1 -1 scale
(GCC) t 
GR
GR
GS
[0.75 0 0 0.75 0 0.25] CT
0 0.447 0.741 RC
1 LJ
0.667 LW
N
251.383 389.68 M
254.767 407.279 L
258.15 392.722 L
261.533 381.733 L
264.917 409.404 L
268.3 412.54 L
271.683 382.432 L
275.067 394.558 L
278.45 429.09 L
281.833 375.558 L
285.217 407.988 L
288.6 424.856 L
291.983 407.782 L
295.367 432.897 L
298.75 401.253 L
302.133 410.174 L
305.517 415.796 L
308.9 419.626 L
312.283 395.664 L
315.667 398.395 L
319.05 383.724 L
322.433 402.178 L
325.817 398.566 L
329.2 376.247 L
332.583 396.876 L
335.967 428.741 L
339.35 419.889 L
342.733 399.656 L
346.117 420.083 L
349.5 397.148 L
352.883 432.794 L
356.267 389.586 L
359.65 401.239 L
363.033 386.335 L
366.417 411.567 L
369.8 376.78 L
373.183 402.546 L
376.567 429.767 L
379.95 409.354 L
383.333 405.558 L
386.717 367.896 L
390.1 383.341 L
393.483 439.692 L
396.867 395.891 L
400.25 421.314 L
403.633 416.217 L
407.017 389.972 L
410.4 391.069 L
413.783 400.652 L
417.167 392.7 L
420.55 427.329 L
423.933 414.107 L
427.317 425.158 L
430.7 398.283 L
434.083 423.401 L
437.467 387.757 L
440.85 402.604 L
444.233 382.472 L
447.617 393.625 L
451 381.923 L
454.383 413.666 L
457.767 418.465 L
461.15 427.165 L
464.533 423.285 L
467.917 401.538 L
471.3 418.469 L
474.683 434.397 L
478.067 435.645 L
481.45 395.36 L
484.833 446.702 L
488.217 366.889 L
491.6 382.264 L
494.983 420.762 L
498.367 424.509 L
501.75 411.929 L
505.133 437.269 L
508.517 373.74 L
511.9 428.851 L
515.283 435.353 L
518.667 390.159 L
522.05 404.246 L
525.433 399.079 L
528.817 440.611 L
532.2 412.733 L
535.583 391.014 L
538.967 363.445 L
542.35 388.448 L
545.733 427.493 L
549.117 370.36 L
552.5 421.915 L
555.883 435.787 L
559.267 428.654 L
562.65 407.702 L
566.033 412.831 L
569.417 433.488 L
572.8 410.774 L
576.183 379.536 L
579.567 407.961 L
582.95 406.45 L
586.333 409.268 L
589.717 404.123 L
593.1 404.733 L
596.483 412.544 L
599.867 434.785 L
603.25 413.876 L
S
GR
GS
[0.75 0 0 0.75 0 0.25] CT
0.851 0.325 0.098 RC
1 LJ
0.667 LW
N
251.383 434.345 M
254.767 412.719 L
258.15 367.96 L
261.533 371.136 L
264.917 435.965 L
268.3 429.402 L
271.683 405.796 L
275.067 446.231 L
278.45 431.587 L
281.833 415.111 L
285.217 437.075 L
288.6 416.091 L
291.983 406.558 L
295.367 416.987 L
298.75 392.592 L
302.133 432.545 L
305.517 448.732 L
308.9 409.29 L
312.283 436.883 L
315.667 412.475 L
319.05 353.05 L
322.433 389.647 L
325.817 421.699 L
329.2 415.478 L
332.583 397.691 L
335.967 410.764 L
339.35 376.068 L
342.733 437.519 L
346.117 426.941 L
349.5 436.491 L
352.883 400.664 L
356.267 450.201 L
359.65 440.677 L
363.033 409.161 L
366.417 433.296 L
369.8 436.801 L
373.183 403.167 L
376.567 419.342 L
379.95 411.652 L
383.333 378.081 L
386.717 400.317 L
390.1 427.924 L
393.483 414.268 L
396.867 422.049 L
400.25 384.864 L
403.633 421.519 L
407.017 394.899 L
410.4 446.882 L
413.783 373.361 L
417.167 414.978 L
420.55 447.527 L
423.933 432.735 L
427.317 413.022 L
430.7 416.796 L
434.083 386.606 L
437.467 432.072 L
440.85 372.545 L
444.233 438.07 L
447.617 433.809 L
451 440.602 L
454.383 415.51 L
457.767 429.96 L
461.15 437.07 L
464.533 417.21 L
467.917 421.523 L
471.3 409.729 L
474.683 405.034 L
478.067 437.993 L
481.45 419.026 L
484.833 376.049 L
488.217 436.377 L
491.6 422.906 L
494.983 424.011 L
498.367 435.393 L
501.75 424.25 L
505.133 421.387 L
508.517 430.546 L
511.9 366.179 L
515.283 429.278 L
518.667 442.59 L
522.05 412.425 L
525.433 413.622 L
528.817 439.735 L
532.2 415.955 L
535.583 436.882 L
538.967 411.817 L
542.35 419.624 L
545.733 452.592 L
549.117 436.372 L
552.5 430.92 L
555.883 434.818 L
559.267 413.335 L
562.65 448.217 L
566.033 425.932 L
569.417 363.783 L
572.8 401.075 L
576.183 397.51 L
579.567 406.458 L
582.95 346.284 L
586.333 438.537 L
589.717 430.511 L
593.1 432.22 L
596.483 446.068 L
599.867 415.451 L
603.25 422.002 L
S
GR
GS
[0.75 0 0 0.75 0 0.25] CT
1 GC
N
782 475 M
1188 475 L
1188 337 L
782 337 L
cp
f
GR
GS
[0.75 0 0 0.75 0 0.25] CT
0.149 GC
2 setlinecap
1 LJ
0.667 LW
N
782 475 M
1188 475 L
S
GR
GS
[0.75 0 0 0.75 0 0.25] CT
0.149 GC
2 setlinecap
1 LJ
0.667 LW
N
782 337 M
1188 337 L
S
GR
GS
[0.75 0 0 0.75 0 0.25] CT
0.149 GC
2 setlinecap
1 LJ
0.667 LW
N
782 475 M
782 470.94 L
S
GR
GS
[0.75 0 0 0.75 0 0.25] CT
0.149 GC
2 setlinecap
1 LJ
0.667 LW
N
883.5 475 M
883.5 470.94 L
S
GR
GS
[0.75 0 0 0.75 0 0.25] CT
0.149 GC
2 setlinecap
1 LJ
0.667 LW
N
985 475 M
985 470.94 L
S
GR
GS
[0.75 0 0 0.75 0 0.25] CT
0.149 GC
2 setlinecap
1 LJ
0.667 LW
N
1086.5 475 M
1086.5 470.94 L
S
GR
GS
[0.75 0 0 0.75 0 0.25] CT
0.149 GC
2 setlinecap
1 LJ
0.667 LW
N
1188 475 M
1188 470.94 L
S
GR
GS
[0.75 0 0 0.75 0 0.25] CT
0.149 GC
2 setlinecap
1 LJ
0.667 LW
N
782 337 M
782 341.06 L
S
GR
GS
[0.75 0 0 0.75 0 0.25] CT
0.149 GC
2 setlinecap
1 LJ
0.667 LW
N
883.5 337 M
883.5 341.06 L
S
GR
GS
[0.75 0 0 0.75 0 0.25] CT
0.149 GC
2 setlinecap
1 LJ
0.667 LW
N
985 337 M
985 341.06 L
S
GR
GS
[0.75 0 0 0.75 0 0.25] CT
0.149 GC
2 setlinecap
1 LJ
0.667 LW
N
1086.5 337 M
1086.5 341.06 L
S
GR
GS
[0.75 0 0 0.75 0 0.25] CT
0.149 GC
2 setlinecap
1 LJ
0.667 LW
N
1188 337 M
1188 341.06 L
S
GR
GS
[0.75 0 0 0.75 586.5 360.50001] CT
0.149 GC
/Helvetica 13.333 F
GS
[1 0 0 1 0 0] CT
-4 14 moveto 
1 -1 scale
(0) t 
GR
GR
GS
[0.75 0 0 0.75 662.625 360.50001] CT
0.149 GC
/Helvetica 13.333 F
GS
[1 0 0 1 0 0] CT
-4 14 moveto 
1 -1 scale
(5) t 
GR
GR
GS
[0.75 0 0 0.75 738.75 360.50001] CT
0.149 GC
/Helvetica 13.333 F
GS
[1 0 0 1 0 0] CT
-7.5 14 moveto 
1 -1 scale
(10) t 
GR
GR
GS
[0.75 0 0 0.75 814.875 360.50001] CT
0.149 GC
/Helvetica 13.333 F
GS
[1 0 0 1 0 0] CT
-7.5 14 moveto 
1 -1 scale
(15) t 
GR
GR
GS
[0.75 0 0 0.75 891 360.50001] CT
0.149 GC
/Helvetica 13.333 F
GS
[1 0 0 1 0 0] CT
-7.5 14 moveto 
1 -1 scale
(20) t 
GR
GR
GS
[0.75 0 0 0.75 738.75014 374.24999] CT
0.149 GC
/Helvetica 14.667 F
GS
[1 0 0 1 0 0] CT
-30.5 16 moveto 
1 -1 scale
(channels) t 
GR
GR
GS
[0.75 0 0 0.75 0 0.25] CT
0.149 GC
2 setlinecap
1 LJ
0.667 LW
N
782 475 M
782 337 L
S
GR
GS
[0.75 0 0 0.75 0 0.25] CT
0.149 GC
2 setlinecap
1 LJ
0.667 LW
N
1188 475 M
1188 337 L
S
GR
GS
[0.75 0 0 0.75 0 0.25] CT
0.149 GC
2 setlinecap
1 LJ
0.667 LW
N
782 475 M
786.06 475 L
S
GR
GS
[0.75 0 0 0.75 0 0.25] CT
0.149 GC
2 setlinecap
1 LJ
0.667 LW
N
782 440.5 M
786.06 440.5 L
S
GR
GS
[0.75 0 0 0.75 0 0.25] CT
0.149 GC
2 setlinecap
1 LJ
0.667 LW
N
782 406 M
786.06 406 L
S
GR
GS
[0.75 0 0 0.75 0 0.25] CT
0.149 GC
2 setlinecap
1 LJ
0.667 LW
N
782 371.5 M
786.06 371.5 L
S
GR
GS
[0.75 0 0 0.75 0 0.25] CT
0.149 GC
2 setlinecap
1 LJ
0.667 LW
N
782 337 M
786.06 337 L
S
GR
GS
[0.75 0 0 0.75 0 0.25] CT
0.149 GC
2 setlinecap
1 LJ
0.667 LW
N
1188 475 M
1183.94 475 L
S
GR
GS
[0.75 0 0 0.75 0 0.25] CT
0.149 GC
2 setlinecap
1 LJ
0.667 LW
N
1188 440.5 M
1183.94 440.5 L
S
GR
GS
[0.75 0 0 0.75 0 0.25] CT
0.149 GC
2 setlinecap
1 LJ
0.667 LW
N
1188 406 M
1183.94 406 L
S
GR
GS
[0.75 0 0 0.75 0 0.25] CT
0.149 GC
2 setlinecap
1 LJ
0.667 LW
N
1188 371.5 M
1183.94 371.5 L
S
GR
GS
[0.75 0 0 0.75 0 0.25] CT
0.149 GC
2 setlinecap
1 LJ
0.667 LW
N
1188 337 M
1183.94 337 L
S
GR
GS
[0.75 0 0 0.75 582.50002 356.5] CT
0.149 GC
/Helvetica 13.333 F
GS
[1 0 0 1 0 0] CT
-19 5.5 moveto 
1 -1 scale
(0.5) t 
GR
GR
GS
[0.75 0 0 0.75 582.50002 330.625] CT
0.149 GC
/Helvetica 13.333 F
GS
[1 0 0 1 0 0] CT
-19 5.5 moveto 
1 -1 scale
(0.6) t 
GR
GR
GS
[0.75 0 0 0.75 582.50002 304.75] CT
0.149 GC
/Helvetica 13.333 F
GS
[1 0 0 1 0 0] CT
-19 5.5 moveto 
1 -1 scale
(0.7) t 
GR
GR
GS
[0.75 0 0 0.75 582.50002 278.875] CT
0.149 GC
/Helvetica 13.333 F
GS
[1 0 0 1 0 0] CT
-19 5.5 moveto 
1 -1 scale
(0.8) t 
GR
GR
GS
[0.75 0 0 0.75 582.50002 253] CT
0.149 GC
/Helvetica 13.333 F
GS
[1 0 0 1 0 0] CT
-19 5.5 moveto 
1 -1 scale
(0.9) t 
GR
GR
GS
[0 -0.75 0.75 0 565.25002 304.74995] CT
0.149 GC
/Helvetica 14.667 F
GS
[1 0 0 1 0 0] CT
-17 -4 moveto 
1 -1 scale
(GCC) t 
GR
GR
GS
[0.75 0 0 0.75 0 0.25] CT
0 0.447 0.741 RC
1 LJ
0.667 LW
N
802.3 396.862 M
822.6 405.041 L
842.9 409.982 L
863.2 399.595 L
883.5 410.246 L
903.8 400.342 L
924.1 406.269 L
944.4 411.813 L
964.7 410.1 L
985 408.147 L
1005.3 386.292 L
1025.6 408.679 L
1045.9 405.148 L
1066.2 421.319 L
1086.5 377.009 L
1106.8 421.752 L
1127.1 419.164 L
1147.4 414.195 L
1167.7 394.563 L
1188 394.488 L
S
GR
GS
[0.75 0 0 0.75 0 0.25] CT
0.851 0.325 0.098 RC
1 LJ
0.667 LW
N
802.3 369.774 M
822.6 407.688 L
842.9 449.228 L
863.2 400.389 L
883.5 395.515 L
903.8 430.217 L
924.1 442.92 L
944.4 391.656 L
964.7 381.169 L
985 397.8 L
1005.3 379.686 L
1025.6 431.445 L
1045.9 373.629 L
1066.2 432.857 L
1086.5 412.948 L
1106.8 417.397 L
1127.1 443.3 L
1147.4 419.124 L
1167.7 400.796 L
1188 401.313 L
S
GR
GS
[0.75 0 0 0.75 0 0.25] CT
1 GC
N
1317 475 M
1723 475 L
1723 337 L
1317 337 L
cp
f
GR
GS
[0.75 0 0 0.75 0 0.25] CT
0.149 GC
2 setlinecap
1 LJ
0.667 LW
N
1317 475 M
1723 475 L
S
GR
GS
[0.75 0 0 0.75 0 0.25] CT
0.149 GC
2 setlinecap
1 LJ
0.667 LW
N
1317 337 M
1723 337 L
S
GR
GS
[0.75 0 0 0.75 0 0.25] CT
0.149 GC
2 setlinecap
1 LJ
0.667 LW
N
1317 475 M
1317 470.94 L
S
GR
GS
[0.75 0 0 0.75 0 0.25] CT
0.149 GC
2 setlinecap
1 LJ
0.667 LW
N
1362.111 475 M
1362.111 470.94 L
S
GR
GS
[0.75 0 0 0.75 0 0.25] CT
0.149 GC
2 setlinecap
1 LJ
0.667 LW
N
1407.222 475 M
1407.222 470.94 L
S
GR
GS
[0.75 0 0 0.75 0 0.25] CT
0.149 GC
2 setlinecap
1 LJ
0.667 LW
N
1452.333 475 M
1452.333 470.94 L
S
GR
GS
[0.75 0 0 0.75 0 0.25] CT
0.149 GC
2 setlinecap
1 LJ
0.667 LW
N
1497.444 475 M
1497.444 470.94 L
S
GR
GS
[0.75 0 0 0.75 0 0.25] CT
0.149 GC
2 setlinecap
1 LJ
0.667 LW
N
1542.556 475 M
1542.556 470.94 L
S
GR
GS
[0.75 0 0 0.75 0 0.25] CT
0.149 GC
2 setlinecap
1 LJ
0.667 LW
N
1587.667 475 M
1587.667 470.94 L
S
GR
GS
[0.75 0 0 0.75 0 0.25] CT
0.149 GC
2 setlinecap
1 LJ
0.667 LW
N
1632.778 475 M
1632.778 470.94 L
S
GR
GS
[0.75 0 0 0.75 0 0.25] CT
0.149 GC
2 setlinecap
1 LJ
0.667 LW
N
1677.889 475 M
1677.889 470.94 L
S
GR
GS
[0.75 0 0 0.75 0 0.25] CT
0.149 GC
2 setlinecap
1 LJ
0.667 LW
N
1723 475 M
1723 470.94 L
S
GR
GS
[0.75 0 0 0.75 0 0.25] CT
0.149 GC
2 setlinecap
1 LJ
0.667 LW
N
1317 337 M
1317 341.06 L
S
GR
GS
[0.75 0 0 0.75 0 0.25] CT
0.149 GC
2 setlinecap
1 LJ
0.667 LW
N
1362.111 337 M
1362.111 341.06 L
S
GR
GS
[0.75 0 0 0.75 0 0.25] CT
0.149 GC
2 setlinecap
1 LJ
0.667 LW
N
1407.222 337 M
1407.222 341.06 L
S
GR
GS
[0.75 0 0 0.75 0 0.25] CT
0.149 GC
2 setlinecap
1 LJ
0.667 LW
N
1452.333 337 M
1452.333 341.06 L
S
GR
GS
[0.75 0 0 0.75 0 0.25] CT
0.149 GC
2 setlinecap
1 LJ
0.667 LW
N
1497.444 337 M
1497.444 341.06 L
S
GR
GS
[0.75 0 0 0.75 0 0.25] CT
0.149 GC
2 setlinecap
1 LJ
0.667 LW
N
1542.556 337 M
1542.556 341.06 L
S
GR
GS
[0.75 0 0 0.75 0 0.25] CT
0.149 GC
2 setlinecap
1 LJ
0.667 LW
N
1587.667 337 M
1587.667 341.06 L
S
GR
GS
[0.75 0 0 0.75 0 0.25] CT
0.149 GC
2 setlinecap
1 LJ
0.667 LW
N
1632.778 337 M
1632.778 341.06 L
S
GR
GS
[0.75 0 0 0.75 0 0.25] CT
0.149 GC
2 setlinecap
1 LJ
0.667 LW
N
1677.889 337 M
1677.889 341.06 L
S
GR
GS
[0.75 0 0 0.75 0 0.25] CT
0.149 GC
2 setlinecap
1 LJ
0.667 LW
N
1723 337 M
1723 341.06 L
S
GR
GS
[0.75 0 0 0.75 987.75 360.50001] CT
0.149 GC
/Helvetica 13.333 F
GS
[1 0 0 1 0 0] CT
-4 14 moveto 
1 -1 scale
(0) t 
GR
GR
GS
[0.75 0 0 0.75 1021.58331 360.50001] CT
0.149 GC
/Helvetica 13.333 F
GS
[1 0 0 1 0 0] CT
-7.5 14 moveto 
1 -1 scale
(10) t 
GR
GR
GS
[0.75 0 0 0.75 1055.41663 360.50001] CT
0.149 GC
/Helvetica 13.333 F
GS
[1 0 0 1 0 0] CT
-7.5 14 moveto 
1 -1 scale
(20) t 
GR
GR
GS
[0.75 0 0 0.75 1089.25003 360.50001] CT
0.149 GC
/Helvetica 13.333 F
GS
[1 0 0 1 0 0] CT
-7.5 14 moveto 
1 -1 scale
(30) t 
GR
GR
GS
[0.75 0 0 0.75 1123.08334 360.50001] CT
0.149 GC
/Helvetica 13.333 F
GS
[1 0 0 1 0 0] CT
-7.5 14 moveto 
1 -1 scale
(40) t 
GR
GR
GS
[0.75 0 0 0.75 1156.91666 360.50001] CT
0.149 GC
/Helvetica 13.333 F
GS
[1 0 0 1 0 0] CT
-7.5 14 moveto 
1 -1 scale
(50) t 
GR
GR
GS
[0.75 0 0 0.75 1190.74997 360.50001] CT
0.149 GC
/Helvetica 13.333 F
GS
[1 0 0 1 0 0] CT
-7.5 14 moveto 
1 -1 scale
(60) t 
GR
GR
GS
[0.75 0 0 0.75 1224.58337 360.50001] CT
0.149 GC
/Helvetica 13.333 F
GS
[1 0 0 1 0 0] CT
-7.5 14 moveto 
1 -1 scale
(70) t 
GR
GR
GS
[0.75 0 0 0.75 1258.41669 360.50001] CT
0.149 GC
/Helvetica 13.333 F
GS
[1 0 0 1 0 0] CT
-7.5 14 moveto 
1 -1 scale
(80) t 
GR
GR
GS
[0.75 0 0 0.75 1292.25 360.50001] CT
0.149 GC
/Helvetica 13.333 F
GS
[1 0 0 1 0 0] CT
-7.5 14 moveto 
1 -1 scale
(90) t 
GR
GR
GS
[0.75 0 0 0.75 1140.00018 374.24999] CT
0.149 GC
/Helvetica 14.667 F
GS
[1 0 0 1 0 0] CT
-30.5 16 moveto 
1 -1 scale
(channels) t 
GR
GR
GS
[0.75 0 0 0.75 0 0.25] CT
0.149 GC
2 setlinecap
1 LJ
0.667 LW
N
1317 475 M
1317 337 L
S
GR
GS
[0.75 0 0 0.75 0 0.25] CT
0.149 GC
2 setlinecap
1 LJ
0.667 LW
N
1723 475 M
1723 337 L
S
GR
GS
[0.75 0 0 0.75 0 0.25] CT
0.149 GC
2 setlinecap
1 LJ
0.667 LW
N
1317 475 M
1321.06 475 L
S
GR
GS
[0.75 0 0 0.75 0 0.25] CT
0.149 GC
2 setlinecap
1 LJ
0.667 LW
N
1317 440.5 M
1321.06 440.5 L
S
GR
GS
[0.75 0 0 0.75 0 0.25] CT
0.149 GC
2 setlinecap
1 LJ
0.667 LW
N
1317 406 M
1321.06 406 L
S
GR
GS
[0.75 0 0 0.75 0 0.25] CT
0.149 GC
2 setlinecap
1 LJ
0.667 LW
N
1317 371.5 M
1321.06 371.5 L
S
GR
GS
[0.75 0 0 0.75 0 0.25] CT
0.149 GC
2 setlinecap
1 LJ
0.667 LW
N
1317 337 M
1321.06 337 L
S
GR
GS
[0.75 0 0 0.75 0 0.25] CT
0.149 GC
2 setlinecap
1 LJ
0.667 LW
N
1723 475 M
1718.94 475 L
S
GR
GS
[0.75 0 0 0.75 0 0.25] CT
0.149 GC
2 setlinecap
1 LJ
0.667 LW
N
1723 440.5 M
1718.94 440.5 L
S
GR
GS
[0.75 0 0 0.75 0 0.25] CT
0.149 GC
2 setlinecap
1 LJ
0.667 LW
N
1723 406 M
1718.94 406 L
S
GR
GS
[0.75 0 0 0.75 0 0.25] CT
0.149 GC
2 setlinecap
1 LJ
0.667 LW
N
1723 371.5 M
1718.94 371.5 L
S
GR
GS
[0.75 0 0 0.75 0 0.25] CT
0.149 GC
2 setlinecap
1 LJ
0.667 LW
N
1723 337 M
1718.94 337 L
S
GR
GS
[0.75 0 0 0.75 983.74997 356.5] CT
0.149 GC
/Helvetica 13.333 F
GS
[1 0 0 1 0 0] CT
-19 5.5 moveto 
1 -1 scale
(0.5) t 
GR
GR
GS
[0.75 0 0 0.75 983.74997 330.625] CT
0.149 GC
/Helvetica 13.333 F
GS
[1 0 0 1 0 0] CT
-19 5.5 moveto 
1 -1 scale
(0.6) t 
GR
GR
GS
[0.75 0 0 0.75 983.74997 304.75] CT
0.149 GC
/Helvetica 13.333 F
GS
[1 0 0 1 0 0] CT
-19 5.5 moveto 
1 -1 scale
(0.7) t 
GR
GR
GS
[0.75 0 0 0.75 983.74997 278.875] CT
0.149 GC
/Helvetica 13.333 F
GS
[1 0 0 1 0 0] CT
-19 5.5 moveto 
1 -1 scale
(0.8) t 
GR
GR
GS
[0.75 0 0 0.75 983.74997 253] CT
0.149 GC
/Helvetica 13.333 F
GS
[1 0 0 1 0 0] CT
-19 5.5 moveto 
1 -1 scale
(0.9) t 
GR
GR
GS
[0 -0.75 0.75 0 966.49997 304.74995] CT
0.149 GC
/Helvetica 14.667 F
GS
[1 0 0 1 0 0] CT
-17 -4 moveto 
1 -1 scale
(GCC) t 
GR
GR
GS
[0.75 0 0 0.75 0 0.25] CT
0 0.447 0.741 RC
1 LJ
0.667 LW
N
1321.511 362.813 M
1326.022 389.683 L
1330.533 418.662 L
1335.044 411.825 L
1339.556 431.632 L
1344.067 382.632 L
1348.578 435.866 L
1353.089 400.611 L
1357.6 379.047 L
1362.111 375.437 L
1366.622 424.986 L
1371.133 409.777 L
1375.644 415.812 L
1380.156 403.842 L
1384.667 399.92 L
1389.178 422.825 L
1393.689 404.765 L
1398.2 404.969 L
1402.711 402.698 L
1407.222 401.751 L
1411.733 419.125 L
1416.244 397.674 L
1420.756 420.284 L
1425.267 409.838 L
1429.778 384.909 L
1434.289 426.86 L
1438.8 393.171 L
1443.311 416.001 L
1447.822 415.469 L
1452.333 400.062 L
1456.844 398.289 L
1461.356 432.083 L
1465.867 409.501 L
1470.378 401.595 L
1474.889 405.585 L
1479.4 420.012 L
1483.911 406.431 L
1488.422 413.819 L
1492.933 405.143 L
1497.444 402.543 L
1501.956 396.067 L
1506.467 405.283 L
1510.978 383.356 L
1515.489 401.272 L
1520 387.416 L
1524.511 416.97 L
1529.022 405.286 L
1533.533 405.61 L
1538.044 421.261 L
1542.556 391.404 L
1547.067 422.586 L
1551.578 394.765 L
1556.089 418.268 L
1560.6 406.21 L
1565.111 390.185 L
1569.622 421.716 L
1574.133 393.752 L
1578.644 412.483 L
1583.156 415.541 L
1587.667 393.596 L
1592.178 386.135 L
1596.689 411.333 L
1601.2 401.66 L
1605.711 398.193 L
1610.222 438.508 L
1614.733 398.121 L
1619.244 413.846 L
1623.756 419.071 L
1628.267 413.072 L
1632.778 421.45 L
1637.289 396.958 L
1641.8 412.713 L
1646.311 403.546 L
1650.822 392.124 L
1655.333 413.768 L
1659.844 414.646 L
1664.356 411.266 L
1668.867 415.304 L
1673.378 415.993 L
1677.889 401.348 L
1682.4 410.811 L
1686.911 409.13 L
1691.422 419.512 L
1695.933 403.731 L
1700.444 409.589 L
S
GR
GS
[0.75 0 0 0.75 0 0.25] CT
0.851 0.325 0.098 RC
1 LJ
0.667 LW
N
1321.511 404.246 M
1326.022 359.699 L
1330.533 387.801 L
1335.044 432.721 L
1339.556 376.6 L
1344.067 389.472 L
1348.578 399.402 L
1353.089 365.504 L
1357.6 378.938 L
1362.111 436.824 L
1366.622 438.392 L
1371.133 406.287 L
1375.644 346.943 L
1380.156 454.618 L
1384.667 413.052 L
1389.178 375.242 L
1393.689 394.131 L
1398.2 416.417 L
1402.711 399.982 L
1407.222 420.807 L
1411.733 415.423 L
1416.244 431.722 L
1420.756 443.601 L
1425.267 422.898 L
1429.778 412.106 L
1434.289 423.568 L
1438.8 381.682 L
1443.311 434.74 L
1447.822 438.753 L
1452.333 414.452 L
1456.844 397.991 L
1461.356 373.33 L
1465.867 448.322 L
1470.378 388.391 L
1474.889 407.365 L
1479.4 404.221 L
1483.911 423.55 L
1488.422 444.145 L
1492.933 429.854 L
1497.444 402.473 L
1501.956 383.808 L
1506.467 371.687 L
1510.978 401.995 L
1515.489 357.362 L
1520 431.507 L
1524.511 386.511 L
1529.022 430.597 L
1533.533 429.423 L
1538.044 431.682 L
1542.556 393.897 L
1547.067 408.576 L
1551.578 414.276 L
1556.089 428.694 L
1560.6 420.105 L
1565.111 410.341 L
1569.622 413.824 L
1574.133 413.991 L
1578.644 413.752 L
1583.156 375.284 L
1587.667 379.84 L
1592.178 425.702 L
1596.689 411.437 L
1601.2 401.564 L
1605.711 439.914 L
1610.222 417.257 L
1614.733 398.802 L
1619.244 398.167 L
1623.756 355.097 L
1628.267 420.536 L
1632.778 426.65 L
1637.289 389.203 L
1641.8 436.469 L
1646.311 400.501 L
1650.822 382.675 L
1655.333 411.208 L
1659.844 405.31 L
1664.356 375.578 L
1668.867 412.295 L
1673.378 419.018 L
1677.889 427.626 L
1682.4 412.824 L
1686.911 439.362 L
1691.422 435.746 L
1695.933 422.819 L
1700.444 410.907 L
S
GR
GS
[0.75 0 0 0.75 0 0.25] CT
1 GC
N
248 673 M
654 673 L
654 536 L
248 536 L
cp
f
GR
GS
[0.75 0 0 0.75 0 0.25] CT
0.149 GC
2 setlinecap
1 LJ
0.667 LW
N
248 673 M
654 673 L
S
GR
GS
[0.75 0 0 0.75 0 0.25] CT
0.149 GC
2 setlinecap
1 LJ
0.667 LW
N
248 536 M
654 536 L
S
GR
GS
[0.75 0 0 0.75 0 0.25] CT
0.149 GC
2 setlinecap
1 LJ
0.667 LW
N
248 673 M
248 668.94 L
S
GR
GS
[0.75 0 0 0.75 0 0.25] CT
0.149 GC
2 setlinecap
1 LJ
0.667 LW
N
306 673 M
306 668.94 L
S
GR
GS
[0.75 0 0 0.75 0 0.25] CT
0.149 GC
2 setlinecap
1 LJ
0.667 LW
N
364 673 M
364 668.94 L
S
GR
GS
[0.75 0 0 0.75 0 0.25] CT
0.149 GC
2 setlinecap
1 LJ
0.667 LW
N
422 673 M
422 668.94 L
S
GR
GS
[0.75 0 0 0.75 0 0.25] CT
0.149 GC
2 setlinecap
1 LJ
0.667 LW
N
480 673 M
480 668.94 L
S
GR
GS
[0.75 0 0 0.75 0 0.25] CT
0.149 GC
2 setlinecap
1 LJ
0.667 LW
N
538 673 M
538 668.94 L
S
GR
GS
[0.75 0 0 0.75 0 0.25] CT
0.149 GC
2 setlinecap
1 LJ
0.667 LW
N
596 673 M
596 668.94 L
S
GR
GS
[0.75 0 0 0.75 0 0.25] CT
0.149 GC
2 setlinecap
1 LJ
0.667 LW
N
654 673 M
654 668.94 L
S
GR
GS
[0.75 0 0 0.75 0 0.25] CT
0.149 GC
2 setlinecap
1 LJ
0.667 LW
N
248 536 M
248 540.06 L
S
GR
GS
[0.75 0 0 0.75 0 0.25] CT
0.149 GC
2 setlinecap
1 LJ
0.667 LW
N
306 536 M
306 540.06 L
S
GR
GS
[0.75 0 0 0.75 0 0.25] CT
0.149 GC
2 setlinecap
1 LJ
0.667 LW
N
364 536 M
364 540.06 L
S
GR
GS
[0.75 0 0 0.75 0 0.25] CT
0.149 GC
2 setlinecap
1 LJ
0.667 LW
N
422 536 M
422 540.06 L
S
GR
GS
[0.75 0 0 0.75 0 0.25] CT
0.149 GC
2 setlinecap
1 LJ
0.667 LW
N
480 536 M
480 540.06 L
S
GR
GS
[0.75 0 0 0.75 0 0.25] CT
0.149 GC
2 setlinecap
1 LJ
0.667 LW
N
538 536 M
538 540.06 L
S
GR
GS
[0.75 0 0 0.75 0 0.25] CT
0.149 GC
2 setlinecap
1 LJ
0.667 LW
N
596 536 M
596 540.06 L
S
GR
GS
[0.75 0 0 0.75 0 0.25] CT
0.149 GC
2 setlinecap
1 LJ
0.667 LW
N
654 536 M
654 540.06 L
S
GR
GS
[0.75 0 0 0.75 186 508.99998] CT
0.149 GC
/Helvetica 13.333 F
GS
[1 0 0 1 0 0] CT
-4 14 moveto 
1 -1 scale
(0) t 
GR
GR
GS
[0.75 0 0 0.75 229.5 508.99998] CT
0.149 GC
/Helvetica 13.333 F
GS
[1 0 0 1 0 0] CT
-7.5 14 moveto 
1 -1 scale
(20) t 
GR
GR
GS
[0.75 0 0 0.75 273 508.99998] CT
0.149 GC
/Helvetica 13.333 F
GS
[1 0 0 1 0 0] CT
-7.5 14 moveto 
1 -1 scale
(40) t 
GR
GR
GS
[0.75 0 0 0.75 316.5 508.99998] CT
0.149 GC
/Helvetica 13.333 F
GS
[1 0 0 1 0 0] CT
-7.5 14 moveto 
1 -1 scale
(60) t 
GR
GR
GS
[0.75 0 0 0.75 360 508.99998] CT
0.149 GC
/Helvetica 13.333 F
GS
[1 0 0 1 0 0] CT
-7.5 14 moveto 
1 -1 scale
(80) t 
GR
GR
GS
[0.75 0 0 0.75 403.5 508.99998] CT
0.149 GC
/Helvetica 13.333 F
GS
[1 0 0 1 0 0] CT
-11 14 moveto 
1 -1 scale
(100) t 
GR
GR
GS
[0.75 0 0 0.75 447 508.99998] CT
0.149 GC
/Helvetica 13.333 F
GS
[1 0 0 1 0 0] CT
-11 14 moveto 
1 -1 scale
(120) t 
GR
GR
GS
[0.75 0 0 0.75 490.5 508.99998] CT
0.149 GC
/Helvetica 13.333 F
GS
[1 0 0 1 0 0] CT
-11 14 moveto 
1 -1 scale
(140) t 
GR
GR
GS
[0.75 0 0 0.75 338.25016 522.75002] CT
0.149 GC
/Helvetica 14.667 F
GS
[1 0 0 1 0 0] CT
-30.5 16 moveto 
1 -1 scale
(channels) t 
GR
GR
GS
[0.75 0 0 0.75 0 0.25] CT
0.149 GC
2 setlinecap
1 LJ
0.667 LW
N
248 673 M
248 536 L
S
GR
GS
[0.75 0 0 0.75 0 0.25] CT
0.149 GC
2 setlinecap
1 LJ
0.667 LW
N
654 673 M
654 536 L
S
GR
GS
[0.75 0 0 0.75 0 0.25] CT
0.149 GC
2 setlinecap
1 LJ
0.667 LW
N
248 673 M
252.06 673 L
S
GR
GS
[0.75 0 0 0.75 0 0.25] CT
0.149 GC
2 setlinecap
1 LJ
0.667 LW
N
248 627.333 M
252.06 627.333 L
S
GR
GS
[0.75 0 0 0.75 0 0.25] CT
0.149 GC
2 setlinecap
1 LJ
0.667 LW
N
248 581.667 M
252.06 581.667 L
S
GR
GS
[0.75 0 0 0.75 0 0.25] CT
0.149 GC
2 setlinecap
1 LJ
0.667 LW
N
248 536 M
252.06 536 L
S
GR
GS
[0.75 0 0 0.75 0 0.25] CT
0.149 GC
2 setlinecap
1 LJ
0.667 LW
N
654 673 M
649.94 673 L
S
GR
GS
[0.75 0 0 0.75 0 0.25] CT
0.149 GC
2 setlinecap
1 LJ
0.667 LW
N
654 627.333 M
649.94 627.333 L
S
GR
GS
[0.75 0 0 0.75 0 0.25] CT
0.149 GC
2 setlinecap
1 LJ
0.667 LW
N
654 581.667 M
649.94 581.667 L
S
GR
GS
[0.75 0 0 0.75 0 0.25] CT
0.149 GC
2 setlinecap
1 LJ
0.667 LW
N
654 536 M
649.94 536 L
S
GR
GS
[0.75 0 0 0.75 182 505] CT
0.149 GC
/Helvetica 13.333 F
GS
[1 0 0 1 0 0] CT
-19 5.5 moveto 
1 -1 scale
(0.5) t 
GR
GR
GS
[0.75 0 0 0.75 182 470.74998] CT
0.149 GC
/Helvetica 13.333 F
GS
[1 0 0 1 0 0] CT
-19 5.5 moveto 
1 -1 scale
(0.6) t 
GR
GR
GS
[0.75 0 0 0.75 182 436.50002] CT
0.149 GC
/Helvetica 13.333 F
GS
[1 0 0 1 0 0] CT
-19 5.5 moveto 
1 -1 scale
(0.7) t 
GR
GR
GS
[0.75 0 0 0.75 182 402.25] CT
0.149 GC
/Helvetica 13.333 F
GS
[1 0 0 1 0 0] CT
-19 5.5 moveto 
1 -1 scale
(0.8) t 
GR
GR
GS
[0 -0.75 0.75 0 164.75 453.62495] CT
0.149 GC
/Helvetica 14.667 F
GS
[1 0 0 1 0 0] CT
-17 -4 moveto 
1 -1 scale
(GCC) t 
GR
GR
GS
[0.75 0 0 0.75 0 0.25] CT
0 0.447 0.741 RC
1 LJ
0.667 LW
N
250.9 600.997 M
253.8 630.516 L
256.7 643.357 L
259.6 628.406 L
262.5 635.133 L
265.4 604.815 L
268.3 606.692 L
271.2 612.714 L
274.1 594.505 L
277 578.672 L
279.9 592.508 L
282.8 628.71 L
285.7 635.196 L
288.6 632.932 L
291.5 618.089 L
294.4 605.597 L
297.3 646.731 L
300.2 631.547 L
303.1 642.203 L
306 603.042 L
308.9 621.444 L
311.8 613.174 L
314.7 617.588 L
317.6 590.556 L
320.5 599.468 L
323.4 587.487 L
326.3 632.262 L
329.2 623.738 L
332.1 639.279 L
335 618.078 L
337.9 635.963 L
340.8 595.097 L
343.7 624.295 L
346.6 616.568 L
349.5 622.46 L
352.4 588.194 L
355.3 615.39 L
358.2 607.189 L
361.1 577.972 L
364 614.478 L
366.9 637.663 L
369.8 588.781 L
372.7 624.038 L
375.6 643.431 L
378.5 592.215 L
381.4 625.369 L
384.3 597.748 L
387.2 586.848 L
390.1 641.731 L
393 623.227 L
395.9 544.805 L
398.8 610.797 L
401.7 638.306 L
404.6 588.165 L
407.5 601.493 L
410.4 600.236 L
413.3 653.533 L
416.2 576.758 L
419.1 614.55 L
422 595.082 L
424.9 600.928 L
427.8 615.392 L
430.7 615.133 L
433.6 595.476 L
436.5 577.788 L
439.4 605.163 L
442.3 600.32 L
445.2 638.834 L
448.1 621.49 L
451 548.147 L
453.9 647.1 L
456.8 633.421 L
459.7 573.642 L
462.6 603.051 L
465.5 629.796 L
468.4 618.419 L
471.3 603.133 L
474.2 625.974 L
477.1 642.465 L
480 628.454 L
482.9 603.732 L
485.8 589.237 L
488.7 618.913 L
491.6 566.177 L
494.5 607.7 L
497.4 620.22 L
500.3 627.475 L
503.2 624.982 L
506.1 581.368 L
509 609.195 L
511.9 591.992 L
514.8 594.56 L
517.7 580.119 L
520.6 624.446 L
523.5 604.681 L
526.4 653.525 L
529.3 607.009 L
532.2 650.561 L
535.1 620.342 L
538 648.141 L
540.9 622.092 L
543.8 634.28 L
546.7 600.4 L
549.6 637.871 L
552.5 591.046 L
555.4 634.728 L
558.3 642.868 L
561.2 616.923 L
564.1 593.912 L
567 599.479 L
569.9 632.073 L
572.8 657.304 L
575.7 646.572 L
578.6 618.849 L
581.5 637.005 L
584.4 605.516 L
587.3 602.203 L
590.2 576.723 L
593.1 616.484 L
596 597.203 L
598.9 597.445 L
601.8 585.052 L
604.7 609.33 L
607.6 595.246 L
610.5 572.798 L
S
GR
GS
[0.75 0 0 0.75 0 0.25] CT
0.851 0.325 0.098 RC
1 LJ
0.667 LW
N
250.9 623.117 M
253.8 608.035 L
256.7 555.052 L
259.6 647.049 L
262.5 616.79 L
265.4 606.201 L
268.3 628.569 L
271.2 631.668 L
274.1 613.293 L
277 598.324 L
279.9 643.81 L
282.8 601.897 L
285.7 669.839 L
288.6 617.414 L
291.5 647.304 L
294.4 580.477 L
297.3 623.229 L
300.2 619.516 L
303.1 595.018 L
306 618.786 L
308.9 577.729 L
311.8 602.114 L
314.7 613.949 L
317.6 609.77 L
320.5 548.791 L
323.4 585.104 L
326.3 638.959 L
329.2 616.914 L
332.1 570.272 L
335 621.029 L
337.9 641.317 L
340.8 582.328 L
343.7 656.772 L
346.6 635.073 L
349.5 638.137 L
352.4 643.398 L
355.3 591.9 L
358.2 627.539 L
361.1 589.668 L
364 598.712 L
366.9 585.243 L
369.8 570.902 L
372.7 583.456 L
375.6 607.483 L
378.5 607.827 L
381.4 634.218 L
384.3 592.097 L
387.2 581.66 L
390.1 631.262 L
393 597.315 L
395.9 604.975 L
398.8 621.32 L
401.7 615.347 L
404.6 609.63 L
407.5 545.462 L
410.4 579.574 L
413.3 586.442 L
416.2 634.004 L
419.1 551.973 L
422 573.641 L
424.9 605.718 L
427.8 598.537 L
430.7 633.199 L
433.6 650.32 L
436.5 603.801 L
439.4 609.11 L
442.3 598.971 L
445.2 617.94 L
448.1 599.012 L
451 623.248 L
453.9 636.033 L
456.8 611.691 L
459.7 637.341 L
462.6 594.037 L
465.5 545.87 L
468.4 588.886 L
471.3 594.106 L
474.2 639.155 L
477.1 614.186 L
480 634.657 L
482.9 605.817 L
485.8 596.809 L
488.7 581.205 L
491.6 583.489 L
494.5 559.904 L
497.4 562.356 L
500.3 589.867 L
503.2 572.163 L
506.1 629.792 L
509 636.01 L
511.9 617.175 L
514.8 609.98 L
517.7 572.061 L
520.6 607.615 L
523.5 594.958 L
526.4 611.152 L
529.3 615.521 L
532.2 626.083 L
535.1 617.602 L
538 541.893 L
540.9 613.166 L
543.8 619.035 L
546.7 651.931 L
549.6 638.435 L
552.5 568.036 L
555.4 574.566 L
558.3 630.112 L
561.2 595.933 L
564.1 634.795 L
567 640.327 L
569.9 625.474 L
572.8 615.432 L
575.7 609.318 L
578.6 578.575 L
581.5 563.112 L
584.4 571.371 L
587.3 606.907 L
590.2 606.015 L
593.1 649.702 L
596 577.75 L
598.9 602.475 L
601.8 601.656 L
604.7 612.755 L
607.6 598.338 L
610.5 590.783 L
S
GR
GS
[0.75 0 0 0.75 0 0.25] CT
1 GC
N
782 673 M
1188 673 L
1188 536 L
782 536 L
cp
f
GR
GS
[0.75 0 0 0.75 0 0.25] CT
0.149 GC
2 setlinecap
1 LJ
0.667 LW
N
782 673 M
1188 673 L
S
GR
GS
[0.75 0 0 0.75 0 0.25] CT
0.149 GC
2 setlinecap
1 LJ
0.667 LW
N
782 536 M
1188 536 L
S
GR
GS
[0.75 0 0 0.75 0 0.25] CT
0.149 GC
2 setlinecap
1 LJ
0.667 LW
N
782 673 M
782 668.94 L
S
GR
GS
[0.75 0 0 0.75 0 0.25] CT
0.149 GC
2 setlinecap
1 LJ
0.667 LW
N
883.5 673 M
883.5 668.94 L
S
GR
GS
[0.75 0 0 0.75 0 0.25] CT
0.149 GC
2 setlinecap
1 LJ
0.667 LW
N
985 673 M
985 668.94 L
S
GR
GS
[0.75 0 0 0.75 0 0.25] CT
0.149 GC
2 setlinecap
1 LJ
0.667 LW
N
1086.5 673 M
1086.5 668.94 L
S
GR
GS
[0.75 0 0 0.75 0 0.25] CT
0.149 GC
2 setlinecap
1 LJ
0.667 LW
N
1188 673 M
1188 668.94 L
S
GR
GS
[0.75 0 0 0.75 0 0.25] CT
0.149 GC
2 setlinecap
1 LJ
0.667 LW
N
782 536 M
782 540.06 L
S
GR
GS
[0.75 0 0 0.75 0 0.25] CT
0.149 GC
2 setlinecap
1 LJ
0.667 LW
N
883.5 536 M
883.5 540.06 L
S
GR
GS
[0.75 0 0 0.75 0 0.25] CT
0.149 GC
2 setlinecap
1 LJ
0.667 LW
N
985 536 M
985 540.06 L
S
GR
GS
[0.75 0 0 0.75 0 0.25] CT
0.149 GC
2 setlinecap
1 LJ
0.667 LW
N
1086.5 536 M
1086.5 540.06 L
S
GR
GS
[0.75 0 0 0.75 0 0.25] CT
0.149 GC
2 setlinecap
1 LJ
0.667 LW
N
1188 536 M
1188 540.06 L
S
GR
GS
[0.75 0 0 0.75 586.5 508.99998] CT
0.149 GC
/Helvetica 13.333 F
GS
[1 0 0 1 0 0] CT
-4 14 moveto 
1 -1 scale
(1) t 
GR
GR
GS
[0.75 0 0 0.75 662.625 508.99998] CT
0.149 GC
/Helvetica 13.333 F
GS
[1 0 0 1 0 0] CT
-9.5 14 moveto 
1 -1 scale
(1.5) t 
GR
GR
GS
[0.75 0 0 0.75 738.75 508.99998] CT
0.149 GC
/Helvetica 13.333 F
GS
[1 0 0 1 0 0] CT
-4 14 moveto 
1 -1 scale
(2) t 
GR
GR
GS
[0.75 0 0 0.75 814.875 508.99998] CT
0.149 GC
/Helvetica 13.333 F
GS
[1 0 0 1 0 0] CT
-9.5 14 moveto 
1 -1 scale
(2.5) t 
GR
GR
GS
[0.75 0 0 0.75 891 508.99998] CT
0.149 GC
/Helvetica 13.333 F
GS
[1 0 0 1 0 0] CT
-4 14 moveto 
1 -1 scale
(3) t 
GR
GR
GS
[0.75 0 0 0.75 738.75014 522.74997] CT
0.149 GC
/Helvetica 14.667 F
GS
[1 0 0 1 0 0] CT
-30.5 16 moveto 
1 -1 scale
(channels) t 
GR
GR
GS
[0.75 0 0 0.75 0 0.25] CT
0.149 GC
2 setlinecap
1 LJ
0.667 LW
N
782 673 M
782 536 L
S
GR
GS
[0.75 0 0 0.75 0 0.25] CT
0.149 GC
2 setlinecap
1 LJ
0.667 LW
N
1188 673 M
1188 536 L
S
GR
GS
[0.75 0 0 0.75 0 0.25] CT
0.149 GC
2 setlinecap
1 LJ
0.667 LW
N
782 673 M
786.06 673 L
S
GR
GS
[0.75 0 0 0.75 0 0.25] CT
0.149 GC
2 setlinecap
1 LJ
0.667 LW
N
782 627.333 M
786.06 627.333 L
S
GR
GS
[0.75 0 0 0.75 0 0.25] CT
0.149 GC
2 setlinecap
1 LJ
0.667 LW
N
782 581.667 M
786.06 581.667 L
S
GR
GS
[0.75 0 0 0.75 0 0.25] CT
0.149 GC
2 setlinecap
1 LJ
0.667 LW
N
782 536 M
786.06 536 L
S
GR
GS
[0.75 0 0 0.75 0 0.25] CT
0.149 GC
2 setlinecap
1 LJ
0.667 LW
N
1188 673 M
1183.94 673 L
S
GR
GS
[0.75 0 0 0.75 0 0.25] CT
0.149 GC
2 setlinecap
1 LJ
0.667 LW
N
1188 627.333 M
1183.94 627.333 L
S
GR
GS
[0.75 0 0 0.75 0 0.25] CT
0.149 GC
2 setlinecap
1 LJ
0.667 LW
N
1188 581.667 M
1183.94 581.667 L
S
GR
GS
[0.75 0 0 0.75 0 0.25] CT
0.149 GC
2 setlinecap
1 LJ
0.667 LW
N
1188 536 M
1183.94 536 L
S
GR
GS
[0.75 0 0 0.75 582.50002 505] CT
0.149 GC
/Helvetica 13.333 F
GS
[1 0 0 1 0 0] CT
-26 5.5 moveto 
1 -1 scale
(0.55) t 
GR
GR
GS
[0.75 0 0 0.75 582.50002 470.74998] CT
0.149 GC
/Helvetica 13.333 F
GS
[1 0 0 1 0 0] CT
-19 5.5 moveto 
1 -1 scale
(0.6) t 
GR
GR
GS
[0.75 0 0 0.75 582.50002 436.50002] CT
0.149 GC
/Helvetica 13.333 F
GS
[1 0 0 1 0 0] CT
-26 5.5 moveto 
1 -1 scale
(0.65) t 
GR
GR
GS
[0.75 0 0 0.75 582.50002 402.25] CT
0.149 GC
/Helvetica 13.333 F
GS
[1 0 0 1 0 0] CT
-19 5.5 moveto 
1 -1 scale
(0.7) t 
GR
GR
GS
[0 -0.75 0.75 0 560.00002 453.62495] CT
0.149 GC
/Helvetica 14.667 F
GS
[1 0 0 1 0 0] CT
-17 -4 moveto 
1 -1 scale
(GCC) t 
GR
GR
GS
[0.75 0 0 0.75 0 0.25] CT
0 0.447 0.741 RC
1 LJ
0.667 LW
N
782 583.229 M
985 597.536 L
1188 640.341 L
S
GR
GS
[0.75 0 0 0.75 0 0.25] CT
0.851 0.325 0.098 RC
1 LJ
0.667 LW
N
782 609.68 M
985 547.587 L
1188 569.832 L
S
GR
GS
[0.75 0 0 0.75 0 0.25] CT
1 GC
N
1317 673 M
1723 673 L
1723 536 L
1317 536 L
cp
f
GR
GS
[0.75 0 0 0.75 0 0.25] CT
0.149 GC
2 setlinecap
1 LJ
0.667 LW
N
1317 673 M
1723 673 L
S
GR
GS
[0.75 0 0 0.75 0 0.25] CT
0.149 GC
2 setlinecap
1 LJ
0.667 LW
N
1317 536 M
1723 536 L
S
GR
GS
[0.75 0 0 0.75 0 0.25] CT
0.149 GC
2 setlinecap
1 LJ
0.667 LW
N
1317 673 M
1317 668.94 L
S
GR
GS
[0.75 0 0 0.75 0 0.25] CT
0.149 GC
2 setlinecap
1 LJ
0.667 LW
N
1362.111 673 M
1362.111 668.94 L
S
GR
GS
[0.75 0 0 0.75 0 0.25] CT
0.149 GC
2 setlinecap
1 LJ
0.667 LW
N
1407.222 673 M
1407.222 668.94 L
S
GR
GS
[0.75 0 0 0.75 0 0.25] CT
0.149 GC
2 setlinecap
1 LJ
0.667 LW
N
1452.333 673 M
1452.333 668.94 L
S
GR
GS
[0.75 0 0 0.75 0 0.25] CT
0.149 GC
2 setlinecap
1 LJ
0.667 LW
N
1497.444 673 M
1497.444 668.94 L
S
GR
GS
[0.75 0 0 0.75 0 0.25] CT
0.149 GC
2 setlinecap
1 LJ
0.667 LW
N
1542.556 673 M
1542.556 668.94 L
S
GR
GS
[0.75 0 0 0.75 0 0.25] CT
0.149 GC
2 setlinecap
1 LJ
0.667 LW
N
1587.667 673 M
1587.667 668.94 L
S
GR
GS
[0.75 0 0 0.75 0 0.25] CT
0.149 GC
2 setlinecap
1 LJ
0.667 LW
N
1632.778 673 M
1632.778 668.94 L
S
GR
GS
[0.75 0 0 0.75 0 0.25] CT
0.149 GC
2 setlinecap
1 LJ
0.667 LW
N
1677.889 673 M
1677.889 668.94 L
S
GR
GS
[0.75 0 0 0.75 0 0.25] CT
0.149 GC
2 setlinecap
1 LJ
0.667 LW
N
1723 673 M
1723 668.94 L
S
GR
GS
[0.75 0 0 0.75 0 0.25] CT
0.149 GC
2 setlinecap
1 LJ
0.667 LW
N
1317 536 M
1317 540.06 L
S
GR
GS
[0.75 0 0 0.75 0 0.25] CT
0.149 GC
2 setlinecap
1 LJ
0.667 LW
N
1362.111 536 M
1362.111 540.06 L
S
GR
GS
[0.75 0 0 0.75 0 0.25] CT
0.149 GC
2 setlinecap
1 LJ
0.667 LW
N
1407.222 536 M
1407.222 540.06 L
S
GR
GS
[0.75 0 0 0.75 0 0.25] CT
0.149 GC
2 setlinecap
1 LJ
0.667 LW
N
1452.333 536 M
1452.333 540.06 L
S
GR
GS
[0.75 0 0 0.75 0 0.25] CT
0.149 GC
2 setlinecap
1 LJ
0.667 LW
N
1497.444 536 M
1497.444 540.06 L
S
GR
GS
[0.75 0 0 0.75 0 0.25] CT
0.149 GC
2 setlinecap
1 LJ
0.667 LW
N
1542.556 536 M
1542.556 540.06 L
S
GR
GS
[0.75 0 0 0.75 0 0.25] CT
0.149 GC
2 setlinecap
1 LJ
0.667 LW
N
1587.667 536 M
1587.667 540.06 L
S
GR
GS
[0.75 0 0 0.75 0 0.25] CT
0.149 GC
2 setlinecap
1 LJ
0.667 LW
N
1632.778 536 M
1632.778 540.06 L
S
GR
GS
[0.75 0 0 0.75 0 0.25] CT
0.149 GC
2 setlinecap
1 LJ
0.667 LW
N
1677.889 536 M
1677.889 540.06 L
S
GR
GS
[0.75 0 0 0.75 0 0.25] CT
0.149 GC
2 setlinecap
1 LJ
0.667 LW
N
1723 536 M
1723 540.06 L
S
GR
GS
[0.75 0 0 0.75 987.75 508.99998] CT
0.149 GC
/Helvetica 13.333 F
GS
[1 0 0 1 0 0] CT
-4 14 moveto 
1 -1 scale
(0) t 
GR
GR
GS
[0.75 0 0 0.75 1021.58331 508.99998] CT
0.149 GC
/Helvetica 13.333 F
GS
[1 0 0 1 0 0] CT
-7.5 14 moveto 
1 -1 scale
(10) t 
GR
GR
GS
[0.75 0 0 0.75 1055.41663 508.99998] CT
0.149 GC
/Helvetica 13.333 F
GS
[1 0 0 1 0 0] CT
-7.5 14 moveto 
1 -1 scale
(20) t 
GR
GR
GS
[0.75 0 0 0.75 1089.25003 508.99998] CT
0.149 GC
/Helvetica 13.333 F
GS
[1 0 0 1 0 0] CT
-7.5 14 moveto 
1 -1 scale
(30) t 
GR
GR
GS
[0.75 0 0 0.75 1123.08334 508.99998] CT
0.149 GC
/Helvetica 13.333 F
GS
[1 0 0 1 0 0] CT
-7.5 14 moveto 
1 -1 scale
(40) t 
GR
GR
GS
[0.75 0 0 0.75 1156.91666 508.99998] CT
0.149 GC
/Helvetica 13.333 F
GS
[1 0 0 1 0 0] CT
-7.5 14 moveto 
1 -1 scale
(50) t 
GR
GR
GS
[0.75 0 0 0.75 1190.74997 508.99998] CT
0.149 GC
/Helvetica 13.333 F
GS
[1 0 0 1 0 0] CT
-7.5 14 moveto 
1 -1 scale
(60) t 
GR
GR
GS
[0.75 0 0 0.75 1224.58337 508.99998] CT
0.149 GC
/Helvetica 13.333 F
GS
[1 0 0 1 0 0] CT
-7.5 14 moveto 
1 -1 scale
(70) t 
GR
GR
GS
[0.75 0 0 0.75 1258.41669 508.99998] CT
0.149 GC
/Helvetica 13.333 F
GS
[1 0 0 1 0 0] CT
-7.5 14 moveto 
1 -1 scale
(80) t 
GR
GR
GS
[0.75 0 0 0.75 1292.25 508.99998] CT
0.149 GC
/Helvetica 13.333 F
GS
[1 0 0 1 0 0] CT
-7.5 14 moveto 
1 -1 scale
(90) t 
GR
GR
GS
[0.75 0 0 0.75 1140.00018 522.75002] CT
0.149 GC
/Helvetica 14.667 F
GS
[1 0 0 1 0 0] CT
-30.5 16 moveto 
1 -1 scale
(channels) t 
GR
GR
GS
[0.75 0 0 0.75 0 0.25] CT
0.149 GC
2 setlinecap
1 LJ
0.667 LW
N
1317 673 M
1317 536 L
S
GR
GS
[0.75 0 0 0.75 0 0.25] CT
0.149 GC
2 setlinecap
1 LJ
0.667 LW
N
1723 673 M
1723 536 L
S
GR
GS
[0.75 0 0 0.75 0 0.25] CT
0.149 GC
2 setlinecap
1 LJ
0.667 LW
N
1317 673 M
1321.06 673 L
S
GR
GS
[0.75 0 0 0.75 0 0.25] CT
0.149 GC
2 setlinecap
1 LJ
0.667 LW
N
1317 638.75 M
1321.06 638.75 L
S
GR
GS
[0.75 0 0 0.75 0 0.25] CT
0.149 GC
2 setlinecap
1 LJ
0.667 LW
N
1317 604.5 M
1321.06 604.5 L
S
GR
GS
[0.75 0 0 0.75 0 0.25] CT
0.149 GC
2 setlinecap
1 LJ
0.667 LW
N
1317 570.25 M
1321.06 570.25 L
S
GR
GS
[0.75 0 0 0.75 0 0.25] CT
0.149 GC
2 setlinecap
1 LJ
0.667 LW
N
1317 536 M
1321.06 536 L
S
GR
GS
[0.75 0 0 0.75 0 0.25] CT
0.149 GC
2 setlinecap
1 LJ
0.667 LW
N
1723 673 M
1718.94 673 L
S
GR
GS
[0.75 0 0 0.75 0 0.25] CT
0.149 GC
2 setlinecap
1 LJ
0.667 LW
N
1723 638.75 M
1718.94 638.75 L
S
GR
GS
[0.75 0 0 0.75 0 0.25] CT
0.149 GC
2 setlinecap
1 LJ
0.667 LW
N
1723 604.5 M
1718.94 604.5 L
S
GR
GS
[0.75 0 0 0.75 0 0.25] CT
0.149 GC
2 setlinecap
1 LJ
0.667 LW
N
1723 570.25 M
1718.94 570.25 L
S
GR
GS
[0.75 0 0 0.75 0 0.25] CT
0.149 GC
2 setlinecap
1 LJ
0.667 LW
N
1723 536 M
1718.94 536 L
S
GR
GS
[0.75 0 0 0.75 983.74997 505] CT
0.149 GC
/Helvetica 13.333 F
GS
[1 0 0 1 0 0] CT
-19 5.5 moveto 
1 -1 scale
(0.5) t 
GR
GR
GS
[0.75 0 0 0.75 983.74997 479.3125] CT
0.149 GC
/Helvetica 13.333 F
GS
[1 0 0 1 0 0] CT
-19 5.5 moveto 
1 -1 scale
(0.6) t 
GR
GR
GS
[0.75 0 0 0.75 983.74997 453.625] CT
0.149 GC
/Helvetica 13.333 F
GS
[1 0 0 1 0 0] CT
-19 5.5 moveto 
1 -1 scale
(0.7) t 
GR
GR
GS
[0.75 0 0 0.75 983.74997 427.9375] CT
0.149 GC
/Helvetica 13.333 F
GS
[1 0 0 1 0 0] CT
-19 5.5 moveto 
1 -1 scale
(0.8) t 
GR
GR
GS
[0.75 0 0 0.75 983.74997 402.25] CT
0.149 GC
/Helvetica 13.333 F
GS
[1 0 0 1 0 0] CT
-19 5.5 moveto 
1 -1 scale
(0.9) t 
GR
GR
GS
[0 -0.75 0.75 0 966.49997 453.62495] CT
0.149 GC
/Helvetica 14.667 F
GS
[1 0 0 1 0 0] CT
-17 -4 moveto 
1 -1 scale
(GCC) t 
GR
GR
GS
[0.75 0 0 0.75 0 0.25] CT
0 0.447 0.741 RC
1 LJ
0.667 LW
N
1321.511 625.251 M
1326.022 647.657 L
1330.533 645.458 L
1335.044 629.651 L
1339.556 649.855 L
1344.067 622.151 L
1348.578 656.138 L
1353.089 646.943 L
1357.6 646.77 L
1362.111 629.336 L
1366.622 637.26 L
1371.133 641.089 L
1375.644 640.683 L
1380.156 589.976 L
1384.667 615.106 L
1389.178 646.018 L
1393.689 630.085 L
1398.2 638.211 L
1402.711 651.987 L
1407.222 645.294 L
1411.733 653.755 L
1416.244 621.165 L
1420.756 653.971 L
1425.267 607.626 L
1429.778 636.749 L
1434.289 639.081 L
1438.8 619.743 L
1443.311 647.122 L
1447.822 634.295 L
1452.333 649.863 L
1456.844 607.451 L
1461.356 650.685 L
1465.867 621.862 L
1470.378 607.35 L
1474.889 621.066 L
1479.4 613.204 L
1483.911 633.249 L
1488.422 623.373 L
1492.933 623.986 L
1497.444 638.917 L
1501.956 644.267 L
1506.467 652.701 L
1510.978 645.21 L
1515.489 648.218 L
1520 635.79 L
1524.511 623.449 L
1529.022 638.663 L
1533.533 640.336 L
1538.044 650.941 L
1542.556 610.437 L
1547.067 638.812 L
1551.578 623.114 L
1556.089 616.237 L
1560.6 624.831 L
1565.111 642.91 L
1569.622 615.277 L
1574.133 636.109 L
1578.644 645.645 L
1583.156 612.591 L
1587.667 611.716 L
1592.178 606.041 L
1596.689 639.459 L
1601.2 633.329 L
1605.711 629.971 L
1610.222 619.929 L
1614.733 644.814 L
1619.244 606.201 L
1623.756 631.575 L
1628.267 642.158 L
1632.778 618.568 L
1637.289 608.847 L
1641.8 613.906 L
1646.311 629.502 L
1650.822 621.38 L
1655.333 628.679 L
1659.844 610.711 L
1664.356 632.003 L
1668.867 645.525 L
1673.378 626.55 L
1677.889 636.625 L
1682.4 632.061 L
1686.911 629.408 L
S
GR
GS
[0.75 0 0 0.75 0 0.25] CT
0.851 0.325 0.098 RC
1 LJ
0.667 LW
N
1321.511 626.307 M
1326.022 616.78 L
1330.533 621.435 L
1335.044 609.314 L
1339.556 645.514 L
1344.067 637.283 L
1348.578 645.46 L
1353.089 646.627 L
1357.6 639.784 L
1362.111 634.877 L
1366.622 637.025 L
1371.133 649.694 L
1375.644 632.357 L
1380.156 629.36 L
1384.667 643.831 L
1389.178 627.705 L
1393.689 609.471 L
1398.2 651.526 L
1402.711 633.699 L
1407.222 632.468 L
1411.733 656.349 L
1416.244 622.286 L
1420.756 616.855 L
1425.267 602.142 L
1429.778 611.204 L
1434.289 628.014 L
1438.8 620.83 L
1443.311 637.412 L
1447.822 645.028 L
1452.333 627.529 L
1456.844 544.354 L
1461.356 618.129 L
1465.867 638.438 L
1470.378 604.953 L
1474.889 656.134 L
1479.4 572.489 L
1483.911 610.751 L
1488.422 617.475 L
1492.933 629.832 L
1497.444 574.003 L
1501.956 606.954 L
1506.467 659.642 L
1510.978 637.032 L
1515.489 604.891 L
1520 623.384 L
1524.511 623.317 L
1529.022 611.121 L
1533.533 645.254 L
1538.044 618.816 L
1542.556 607.774 L
1547.067 650.037 L
1551.578 615.717 L
1556.089 626.962 L
1560.6 604.56 L
1565.111 626.842 L
1569.622 627.226 L
1574.133 627.728 L
1578.644 611.971 L
1583.156 632.687 L
1587.667 654.288 L
1592.178 630.55 L
1596.689 644.133 L
1601.2 664.181 L
1605.711 587.168 L
1610.222 555.047 L
1614.733 667.599 L
1619.244 615.863 L
1623.756 649.049 L
1628.267 623.934 L
1632.778 590.845 L
1637.289 646.75 L
1641.8 662.422 L
1646.311 618.403 L
1650.822 622.253 L
1655.333 600.514 L
1659.844 623.842 L
1664.356 659.326 L
1668.867 634.096 L
1673.378 640.81 L
1677.889 665.854 L
1682.4 630.948 L
1686.911 573.142 L
S
GR
GS
[0.75 0 0 0.75 0 0.25] CT
1 GC
N
248 872 M
654 872 L
654 735 L
248 735 L
cp
f
GR
GS
[0.75 0 0 0.75 0 0.25] CT
0.149 GC
2 setlinecap
1 LJ
0.667 LW
N
248 872 M
654 872 L
S
GR
GS
[0.75 0 0 0.75 0 0.25] CT
0.149 GC
2 setlinecap
1 LJ
0.667 LW
N
248 735 M
654 735 L
S
GR
GS
[0.75 0 0 0.75 0 0.25] CT
0.149 GC
2 setlinecap
1 LJ
0.667 LW
N
248 872 M
248 867.94 L
S
GR
GS
[0.75 0 0 0.75 0 0.25] CT
0.149 GC
2 setlinecap
1 LJ
0.667 LW
N
329.2 872 M
329.2 867.94 L
S
GR
GS
[0.75 0 0 0.75 0 0.25] CT
0.149 GC
2 setlinecap
1 LJ
0.667 LW
N
410.4 872 M
410.4 867.94 L
S
GR
GS
[0.75 0 0 0.75 0 0.25] CT
0.149 GC
2 setlinecap
1 LJ
0.667 LW
N
491.6 872 M
491.6 867.94 L
S
GR
GS
[0.75 0 0 0.75 0 0.25] CT
0.149 GC
2 setlinecap
1 LJ
0.667 LW
N
572.8 872 M
572.8 867.94 L
S
GR
GS
[0.75 0 0 0.75 0 0.25] CT
0.149 GC
2 setlinecap
1 LJ
0.667 LW
N
654 872 M
654 867.94 L
S
GR
GS
[0.75 0 0 0.75 0 0.25] CT
0.149 GC
2 setlinecap
1 LJ
0.667 LW
N
248 735 M
248 739.06 L
S
GR
GS
[0.75 0 0 0.75 0 0.25] CT
0.149 GC
2 setlinecap
1 LJ
0.667 LW
N
329.2 735 M
329.2 739.06 L
S
GR
GS
[0.75 0 0 0.75 0 0.25] CT
0.149 GC
2 setlinecap
1 LJ
0.667 LW
N
410.4 735 M
410.4 739.06 L
S
GR
GS
[0.75 0 0 0.75 0 0.25] CT
0.149 GC
2 setlinecap
1 LJ
0.667 LW
N
491.6 735 M
491.6 739.06 L
S
GR
GS
[0.75 0 0 0.75 0 0.25] CT
0.149 GC
2 setlinecap
1 LJ
0.667 LW
N
572.8 735 M
572.8 739.06 L
S
GR
GS
[0.75 0 0 0.75 0 0.25] CT
0.149 GC
2 setlinecap
1 LJ
0.667 LW
N
654 735 M
654 739.06 L
S
GR
GS
[0.75 0 0 0.75 186 658.24998] CT
0.149 GC
/Helvetica 13.333 F
GS
[1 0 0 1 0 0] CT
-4 14 moveto 
1 -1 scale
(0) t 
GR
GR
GS
[0.75 0 0 0.75 246.90001 658.24998] CT
0.149 GC
/Helvetica 13.333 F
GS
[1 0 0 1 0 0] CT
-7.5 14 moveto 
1 -1 scale
(20) t 
GR
GR
GS
[0.75 0 0 0.75 307.8 658.24998] CT
0.149 GC
/Helvetica 13.333 F
GS
[1 0 0 1 0 0] CT
-7.5 14 moveto 
1 -1 scale
(40) t 
GR
GR
GS
[0.75 0 0 0.75 368.7 658.24998] CT
0.149 GC
/Helvetica 13.333 F
GS
[1 0 0 1 0 0] CT
-7.5 14 moveto 
1 -1 scale
(60) t 
GR
GR
GS
[0.75 0 0 0.75 429.59999 658.24998] CT
0.149 GC
/Helvetica 13.333 F
GS
[1 0 0 1 0 0] CT
-7.5 14 moveto 
1 -1 scale
(80) t 
GR
GR
GS
[0.75 0 0 0.75 490.5 658.24998] CT
0.149 GC
/Helvetica 13.333 F
GS
[1 0 0 1 0 0] CT
-11 14 moveto 
1 -1 scale
(100) t 
GR
GR
GS
[0.75 0 0 0.75 338.25014 672.00002] CT
0.149 GC
/Helvetica 14.667 F
GS
[1 0 0 1 0 0] CT
-30.5 16 moveto 
1 -1 scale
(channels) t 
GR
GR
GS
[0.75 0 0 0.75 0 0.25] CT
0.149 GC
2 setlinecap
1 LJ
0.667 LW
N
248 872 M
248 735 L
S
GR
GS
[0.75 0 0 0.75 0 0.25] CT
0.149 GC
2 setlinecap
1 LJ
0.667 LW
N
654 872 M
654 735 L
S
GR
GS
[0.75 0 0 0.75 0 0.25] CT
0.149 GC
2 setlinecap
1 LJ
0.667 LW
N
248 872 M
252.06 872 L
S
GR
GS
[0.75 0 0 0.75 0 0.25] CT
0.149 GC
2 setlinecap
1 LJ
0.667 LW
N
248 837.75 M
252.06 837.75 L
S
GR
GS
[0.75 0 0 0.75 0 0.25] CT
0.149 GC
2 setlinecap
1 LJ
0.667 LW
N
248 803.5 M
252.06 803.5 L
S
GR
GS
[0.75 0 0 0.75 0 0.25] CT
0.149 GC
2 setlinecap
1 LJ
0.667 LW
N
248 769.25 M
252.06 769.25 L
S
GR
GS
[0.75 0 0 0.75 0 0.25] CT
0.149 GC
2 setlinecap
1 LJ
0.667 LW
N
248 735 M
252.06 735 L
S
GR
GS
[0.75 0 0 0.75 0 0.25] CT
0.149 GC
2 setlinecap
1 LJ
0.667 LW
N
654 872 M
649.94 872 L
S
GR
GS
[0.75 0 0 0.75 0 0.25] CT
0.149 GC
2 setlinecap
1 LJ
0.667 LW
N
654 837.75 M
649.94 837.75 L
S
GR
GS
[0.75 0 0 0.75 0 0.25] CT
0.149 GC
2 setlinecap
1 LJ
0.667 LW
N
654 803.5 M
649.94 803.5 L
S
GR
GS
[0.75 0 0 0.75 0 0.25] CT
0.149 GC
2 setlinecap
1 LJ
0.667 LW
N
654 769.25 M
649.94 769.25 L
S
GR
GS
[0.75 0 0 0.75 0 0.25] CT
0.149 GC
2 setlinecap
1 LJ
0.667 LW
N
654 735 M
649.94 735 L
S
GR
GS
[0.75 0 0 0.75 182 654.25] CT
0.149 GC
/Helvetica 13.333 F
GS
[1 0 0 1 0 0] CT
-19 5.5 moveto 
1 -1 scale
(0.5) t 
GR
GR
GS
[0.75 0 0 0.75 182 628.5625] CT
0.149 GC
/Helvetica 13.333 F
GS
[1 0 0 1 0 0] CT
-19 5.5 moveto 
1 -1 scale
(0.6) t 
GR
GR
GS
[0.75 0 0 0.75 182 602.875] CT
0.149 GC
/Helvetica 13.333 F
GS
[1 0 0 1 0 0] CT
-19 5.5 moveto 
1 -1 scale
(0.7) t 
GR
GR
GS
[0.75 0 0 0.75 182 577.1875] CT
0.149 GC
/Helvetica 13.333 F
GS
[1 0 0 1 0 0] CT
-19 5.5 moveto 
1 -1 scale
(0.8) t 
GR
GR
GS
[0.75 0 0 0.75 182 551.5] CT
0.149 GC
/Helvetica 13.333 F
GS
[1 0 0 1 0 0] CT
-19 5.5 moveto 
1 -1 scale
(0.9) t 
GR
GR
GS
[0 -0.75 0.75 0 164.75 602.87495] CT
0.149 GC
/Helvetica 14.667 F
GS
[1 0 0 1 0 0] CT
-17 -4 moveto 
1 -1 scale
(GCC) t 
GR
GR
GS
[0.75 0 0 0.75 0 0.25] CT
0 0.447 0.741 RC
1 LJ
0.667 LW
N
252.06 810.301 M
256.12 808.086 L
260.18 792.689 L
264.24 786.195 L
268.3 774.716 L
272.36 768.455 L
276.42 804.221 L
280.48 771.657 L
284.54 813.838 L
288.6 790.047 L
292.66 810.393 L
296.72 772.319 L
300.78 802.294 L
304.84 807.386 L
308.9 783.575 L
312.96 813.19 L
317.02 781.982 L
321.08 814.8 L
325.14 823.923 L
329.2 787.062 L
333.26 815.895 L
337.32 788.884 L
341.38 817.7 L
345.44 788.948 L
349.5 806.076 L
353.56 788.762 L
357.62 792.051 L
361.68 811.314 L
365.74 799.111 L
369.8 770.535 L
373.86 792.704 L
377.92 773.381 L
381.98 803.667 L
386.04 803.157 L
390.1 787.503 L
394.16 800.936 L
398.22 785.633 L
402.28 832.965 L
406.34 787.547 L
410.4 806.604 L
414.46 788.537 L
418.52 839.174 L
422.58 825.213 L
426.64 804.306 L
430.7 747.05 L
434.76 815.075 L
438.82 844.728 L
442.88 799.382 L
446.94 821.79 L
451 832.082 L
455.06 795.389 L
459.12 836.948 L
463.18 815.45 L
467.24 819.06 L
471.3 814.574 L
475.36 827.612 L
479.42 822.422 L
483.48 782.774 L
487.54 809.823 L
491.6 768.729 L
495.66 795.524 L
499.72 820.629 L
503.78 797.83 L
507.84 821.594 L
511.9 810.337 L
515.96 820.376 L
520.02 816.572 L
524.08 826.125 L
528.14 812.261 L
532.2 834.899 L
536.26 800.246 L
540.32 812.052 L
544.38 766.485 L
548.44 815.156 L
552.5 770.966 L
556.56 808.264 L
560.62 802.271 L
564.68 801.071 L
568.74 816.021 L
572.8 769.653 L
576.86 800.202 L
580.92 820.716 L
584.98 798.74 L
589.04 791.564 L
593.1 764.033 L
597.16 808.816 L
601.22 798.1 L
605.28 815.951 L
609.34 812.348 L
613.4 803.992 L
617.46 772.084 L
621.52 800.298 L
625.58 796.815 L
629.64 786.75 L
633.7 775.009 L
637.76 790.416 L
641.82 797.028 L
645.88 790.141 L
649.94 825.24 L
S
GR
GS
[0.75 0 0 0.75 0 0.25] CT
0.851 0.325 0.098 RC
1 LJ
0.667 LW
N
252.06 854.261 M
256.12 751.143 L
260.18 846.969 L
264.24 838.839 L
268.3 834.092 L
272.36 811.782 L
276.42 816.724 L
280.48 845.096 L
284.54 781.823 L
288.6 833.085 L
292.66 771.777 L
296.72 792.162 L
300.78 798.566 L
304.84 825.754 L
308.9 785.035 L
312.96 817.346 L
317.02 797.87 L
321.08 800.372 L
325.14 802.431 L
329.2 790.11 L
333.26 822.553 L
337.32 799.442 L
341.38 848.4 L
345.44 828.513 L
349.5 820.753 L
353.56 777.389 L
357.62 788.374 L
361.68 786.785 L
365.74 829.207 L
369.8 805.056 L
373.86 789.135 L
377.92 818.428 L
381.98 847.619 L
386.04 836.636 L
390.1 809.863 L
394.16 829.753 L
398.22 851.25 L
402.28 838.215 L
406.34 815.06 L
410.4 821.044 L
414.46 789.396 L
418.52 803.861 L
422.58 833.099 L
426.64 850.067 L
430.7 850.976 L
434.76 818.671 L
438.82 826.655 L
442.88 835.58 L
446.94 822.06 L
451 834.282 L
455.06 818.965 L
459.12 825.517 L
463.18 804.158 L
467.24 830.446 L
471.3 840.14 L
475.36 826.664 L
479.42 828.063 L
483.48 802.938 L
487.54 840.248 L
491.6 814.323 L
495.66 831.17 L
499.72 807.852 L
503.78 821.146 L
507.84 823.007 L
511.9 845.715 L
515.96 831.221 L
520.02 805.299 L
524.08 817.078 L
528.14 822.218 L
532.2 804.779 L
536.26 820.876 L
540.32 836.926 L
544.38 851.906 L
548.44 811.101 L
552.5 808.988 L
556.56 819.019 L
560.62 825.809 L
564.68 813.784 L
568.74 774.557 L
572.8 820.711 L
576.86 824.86 L
580.92 821.712 L
584.98 819.817 L
589.04 809.41 L
593.1 798.143 L
597.16 823.224 L
601.22 841.055 L
605.28 811.451 L
609.34 817.997 L
613.4 784.949 L
617.46 819.918 L
621.52 798.203 L
625.58 804.476 L
629.64 828.387 L
633.7 838.309 L
637.76 802.239 L
641.82 810.823 L
645.88 807.185 L
649.94 838.888 L
S
GR
GS
[0.75 0 0 0.75 0 0.25] CT
1 GC
N
782 872 M
1188 872 L
1188 735 L
782 735 L
cp
f
GR
GS
[0.75 0 0 0.75 0 0.25] CT
0.149 GC
2 setlinecap
1 LJ
0.667 LW
N
782 872 M
1188 872 L
S
GR
GS
[0.75 0 0 0.75 0 0.25] CT
0.149 GC
2 setlinecap
1 LJ
0.667 LW
N
782 735 M
1188 735 L
S
GR
GS
[0.75 0 0 0.75 0 0.25] CT
0.149 GC
2 setlinecap
1 LJ
0.667 LW
N
782 872 M
782 867.94 L
S
GR
GS
[0.75 0 0 0.75 0 0.25] CT
0.149 GC
2 setlinecap
1 LJ
0.667 LW
N
832.75 872 M
832.75 867.94 L
S
GR
GS
[0.75 0 0 0.75 0 0.25] CT
0.149 GC
2 setlinecap
1 LJ
0.667 LW
N
883.5 872 M
883.5 867.94 L
S
GR
GS
[0.75 0 0 0.75 0 0.25] CT
0.149 GC
2 setlinecap
1 LJ
0.667 LW
N
934.25 872 M
934.25 867.94 L
S
GR
GS
[0.75 0 0 0.75 0 0.25] CT
0.149 GC
2 setlinecap
1 LJ
0.667 LW
N
985 872 M
985 867.94 L
S
GR
GS
[0.75 0 0 0.75 0 0.25] CT
0.149 GC
2 setlinecap
1 LJ
0.667 LW
N
1035.75 872 M
1035.75 867.94 L
S
GR
GS
[0.75 0 0 0.75 0 0.25] CT
0.149 GC
2 setlinecap
1 LJ
0.667 LW
N
1086.5 872 M
1086.5 867.94 L
S
GR
GS
[0.75 0 0 0.75 0 0.25] CT
0.149 GC
2 setlinecap
1 LJ
0.667 LW
N
1137.25 872 M
1137.25 867.94 L
S
GR
GS
[0.75 0 0 0.75 0 0.25] CT
0.149 GC
2 setlinecap
1 LJ
0.667 LW
N
1188 872 M
1188 867.94 L
S
GR
GS
[0.75 0 0 0.75 0 0.25] CT
0.149 GC
2 setlinecap
1 LJ
0.667 LW
N
782 735 M
782 739.06 L
S
GR
GS
[0.75 0 0 0.75 0 0.25] CT
0.149 GC
2 setlinecap
1 LJ
0.667 LW
N
832.75 735 M
832.75 739.06 L
S
GR
GS
[0.75 0 0 0.75 0 0.25] CT
0.149 GC
2 setlinecap
1 LJ
0.667 LW
N
883.5 735 M
883.5 739.06 L
S
GR
GS
[0.75 0 0 0.75 0 0.25] CT
0.149 GC
2 setlinecap
1 LJ
0.667 LW
N
934.25 735 M
934.25 739.06 L
S
GR
GS
[0.75 0 0 0.75 0 0.25] CT
0.149 GC
2 setlinecap
1 LJ
0.667 LW
N
985 735 M
985 739.06 L
S
GR
GS
[0.75 0 0 0.75 0 0.25] CT
0.149 GC
2 setlinecap
1 LJ
0.667 LW
N
1035.75 735 M
1035.75 739.06 L
S
GR
GS
[0.75 0 0 0.75 0 0.25] CT
0.149 GC
2 setlinecap
1 LJ
0.667 LW
N
1086.5 735 M
1086.5 739.06 L
S
GR
GS
[0.75 0 0 0.75 0 0.25] CT
0.149 GC
2 setlinecap
1 LJ
0.667 LW
N
1137.25 735 M
1137.25 739.06 L
S
GR
GS
[0.75 0 0 0.75 0 0.25] CT
0.149 GC
2 setlinecap
1 LJ
0.667 LW
N
1188 735 M
1188 739.06 L
S
GR
GS
[0.75 0 0 0.75 586.5 658.24998] CT
0.149 GC
/Helvetica 13.333 F
GS
[1 0 0 1 0 0] CT
-4 14 moveto 
1 -1 scale
(0) t 
GR
GR
GS
[0.75 0 0 0.75 624.5625 658.24998] CT
0.149 GC
/Helvetica 13.333 F
GS
[1 0 0 1 0 0] CT
-4 14 moveto 
1 -1 scale
(2) t 
GR
GR
GS
[0.75 0 0 0.75 662.625 658.24998] CT
0.149 GC
/Helvetica 13.333 F
GS
[1 0 0 1 0 0] CT
-4 14 moveto 
1 -1 scale
(4) t 
GR
GR
GS
[0.75 0 0 0.75 700.6875 658.24998] CT
0.149 GC
/Helvetica 13.333 F
GS
[1 0 0 1 0 0] CT
-4 14 moveto 
1 -1 scale
(6) t 
GR
GR
GS
[0.75 0 0 0.75 738.75 658.24998] CT
0.149 GC
/Helvetica 13.333 F
GS
[1 0 0 1 0 0] CT
-4 14 moveto 
1 -1 scale
(8) t 
GR
GR
GS
[0.75 0 0 0.75 776.8125 658.24998] CT
0.149 GC
/Helvetica 13.333 F
GS
[1 0 0 1 0 0] CT
-7.5 14 moveto 
1 -1 scale
(10) t 
GR
GR
GS
[0.75 0 0 0.75 814.875 658.24998] CT
0.149 GC
/Helvetica 13.333 F
GS
[1 0 0 1 0 0] CT
-7.5 14 moveto 
1 -1 scale
(12) t 
GR
GR
GS
[0.75 0 0 0.75 852.9375 658.24998] CT
0.149 GC
/Helvetica 13.333 F
GS
[1 0 0 1 0 0] CT
-7.5 14 moveto 
1 -1 scale
(14) t 
GR
GR
GS
[0.75 0 0 0.75 891 658.24998] CT
0.149 GC
/Helvetica 13.333 F
GS
[1 0 0 1 0 0] CT
-7.5 14 moveto 
1 -1 scale
(16) t 
GR
GR
GS
[0.75 0 0 0.75 738.75014 672.00002] CT
0.149 GC
/Helvetica 14.667 F
GS
[1 0 0 1 0 0] CT
-30.5 16 moveto 
1 -1 scale
(channels) t 
GR
GR
GS
[0.75 0 0 0.75 0 0.25] CT
0.149 GC
2 setlinecap
1 LJ
0.667 LW
N
782 872 M
782 735 L
S
GR
GS
[0.75 0 0 0.75 0 0.25] CT
0.149 GC
2 setlinecap
1 LJ
0.667 LW
N
1188 872 M
1188 735 L
S
GR
GS
[0.75 0 0 0.75 0 0.25] CT
0.149 GC
2 setlinecap
1 LJ
0.667 LW
N
782 872 M
786.06 872 L
S
GR
GS
[0.75 0 0 0.75 0 0.25] CT
0.149 GC
2 setlinecap
1 LJ
0.667 LW
N
782 826.333 M
786.06 826.333 L
S
GR
GS
[0.75 0 0 0.75 0 0.25] CT
0.149 GC
2 setlinecap
1 LJ
0.667 LW
N
782 780.667 M
786.06 780.667 L
S
GR
GS
[0.75 0 0 0.75 0 0.25] CT
0.149 GC
2 setlinecap
1 LJ
0.667 LW
N
782 735 M
786.06 735 L
S
GR
GS
[0.75 0 0 0.75 0 0.25] CT
0.149 GC
2 setlinecap
1 LJ
0.667 LW
N
1188 872 M
1183.94 872 L
S
GR
GS
[0.75 0 0 0.75 0 0.25] CT
0.149 GC
2 setlinecap
1 LJ
0.667 LW
N
1188 826.333 M
1183.94 826.333 L
S
GR
GS
[0.75 0 0 0.75 0 0.25] CT
0.149 GC
2 setlinecap
1 LJ
0.667 LW
N
1188 780.667 M
1183.94 780.667 L
S
GR
GS
[0.75 0 0 0.75 0 0.25] CT
0.149 GC
2 setlinecap
1 LJ
0.667 LW
N
1188 735 M
1183.94 735 L
S
GR
GS
[0.75 0 0 0.75 582.50002 654.25] CT
0.149 GC
/Helvetica 13.333 F
GS
[1 0 0 1 0 0] CT
-19 5.5 moveto 
1 -1 scale
(0.4) t 
GR
GR
GS
[0.75 0 0 0.75 582.50002 619.99998] CT
0.149 GC
/Helvetica 13.333 F
GS
[1 0 0 1 0 0] CT
-19 5.5 moveto 
1 -1 scale
(0.6) t 
GR
GR
GS
[0.75 0 0 0.75 582.50002 585.75002] CT
0.149 GC
/Helvetica 13.333 F
GS
[1 0 0 1 0 0] CT
-19 5.5 moveto 
1 -1 scale
(0.8) t 
GR
GR
GS
[0.75 0 0 0.75 582.50002 551.5] CT
0.149 GC
/Helvetica 13.333 F
GS
[1 0 0 1 0 0] CT
-8 5.5 moveto 
1 -1 scale
(1) t 
GR
GR
GS
[0 -0.75 0.75 0 565.25002 602.87495] CT
0.149 GC
/Helvetica 14.667 F
GS
[1 0 0 1 0 0] CT
-17 -4 moveto 
1 -1 scale
(GCC) t 
GR
GR
GS
[0.75 0 0 0.75 0 0.25] CT
0 0.447 0.741 RC
1 LJ
0.667 LW
N
807.375 793.746 M
832.75 800.254 L
858.125 798.446 L
883.5 791.639 L
908.875 793.443 L
934.25 792.741 L
959.625 784.39 L
985 794.419 L
1010.375 788.541 L
1035.75 780.692 L
1061.125 791.6 L
1086.5 797.266 L
1111.875 803.109 L
1137.25 793.434 L
1162.625 769.56 L
1188 801.17 L
S
GR
GS
[0.75 0 0 0.75 0 0.25] CT
0.851 0.325 0.098 RC
1 LJ
0.667 LW
N
807.375 823.852 M
832.75 813.615 L
858.125 813.188 L
883.5 801.014 L
908.875 810.97 L
934.25 833.284 L
959.625 812.453 L
985 828.188 L
1010.375 813.084 L
1035.75 816.593 L
1061.125 837.354 L
1086.5 808.695 L
1111.875 815.127 L
1137.25 811.835 L
1162.625 817.797 L
1188 745.883 L
S
GR
GS
[0.75 0 0 0.75 714 36.7375] CT
/Helvetica 18.667 F
GS
[1 0 0 1 0 0] CT
-211.5 7.5 moveto 
1 -1 scale
(Global Clustering Coefficient / Pearson Coefficient) t 
GR
GR
GS
[0.75 0 0 0.75 0 0.25] CT
1 GC
N
1317 872 M
1723 872 L
1723 735 L
1317 735 L
cp
f
GR
GS
[0.75 0 0 0.75 0 0.25] CT
0.149 GC
2 setlinecap
1 LJ
0.667 LW
N
1317 872 M
1723 872 L
S
GR
GS
[0.75 0 0 0.75 0 0.25] CT
0.149 GC
2 setlinecap
1 LJ
0.667 LW
N
1317 735 M
1723 735 L
S
GR
GS
[0.75 0 0 0.75 0 0.25] CT
0.149 GC
2 setlinecap
1 LJ
0.667 LW
N
1317 872 M
1317 867.94 L
S
GR
GS
[0.75 0 0 0.75 0 0.25] CT
0.149 GC
2 setlinecap
1 LJ
0.667 LW
N
1398.2 872 M
1398.2 867.94 L
S
GR
GS
[0.75 0 0 0.75 0 0.25] CT
0.149 GC
2 setlinecap
1 LJ
0.667 LW
N
1479.4 872 M
1479.4 867.94 L
S
GR
GS
[0.75 0 0 0.75 0 0.25] CT
0.149 GC
2 setlinecap
1 LJ
0.667 LW
N
1560.6 872 M
1560.6 867.94 L
S
GR
GS
[0.75 0 0 0.75 0 0.25] CT
0.149 GC
2 setlinecap
1 LJ
0.667 LW
N
1641.8 872 M
1641.8 867.94 L
S
GR
GS
[0.75 0 0 0.75 0 0.25] CT
0.149 GC
2 setlinecap
1 LJ
0.667 LW
N
1723 872 M
1723 867.94 L
S
GR
GS
[0.75 0 0 0.75 0 0.25] CT
0.149 GC
2 setlinecap
1 LJ
0.667 LW
N
1317 735 M
1317 739.06 L
S
GR
GS
[0.75 0 0 0.75 0 0.25] CT
0.149 GC
2 setlinecap
1 LJ
0.667 LW
N
1398.2 735 M
1398.2 739.06 L
S
GR
GS
[0.75 0 0 0.75 0 0.25] CT
0.149 GC
2 setlinecap
1 LJ
0.667 LW
N
1479.4 735 M
1479.4 739.06 L
S
GR
GS
[0.75 0 0 0.75 0 0.25] CT
0.149 GC
2 setlinecap
1 LJ
0.667 LW
N
1560.6 735 M
1560.6 739.06 L
S
GR
GS
[0.75 0 0 0.75 0 0.25] CT
0.149 GC
2 setlinecap
1 LJ
0.667 LW
N
1641.8 735 M
1641.8 739.06 L
S
GR
GS
[0.75 0 0 0.75 0 0.25] CT
0.149 GC
2 setlinecap
1 LJ
0.667 LW
N
1723 735 M
1723 739.06 L
S
GR
GS
[0.75 0 0 0.75 987.75 658.24998] CT
0.149 GC
/Helvetica 13.333 F
GS
[1 0 0 1 0 0] CT
-4 14 moveto 
1 -1 scale
(0) t 
GR
GR
GS
[0.75 0 0 0.75 1048.64996 658.24998] CT
0.149 GC
/Helvetica 13.333 F
GS
[1 0 0 1 0 0] CT
-7.5 14 moveto 
1 -1 scale
(20) t 
GR
GR
GS
[0.75 0 0 0.75 1109.55002 658.24998] CT
0.149 GC
/Helvetica 13.333 F
GS
[1 0 0 1 0 0] CT
-7.5 14 moveto 
1 -1 scale
(40) t 
GR
GR
GS
[0.75 0 0 0.75 1170.44998 658.24998] CT
0.149 GC
/Helvetica 13.333 F
GS
[1 0 0 1 0 0] CT
-7.5 14 moveto 
1 -1 scale
(60) t 
GR
GR
GS
[0.75 0 0 0.75 1231.35004 658.24998] CT
0.149 GC
/Helvetica 13.333 F
GS
[1 0 0 1 0 0] CT
-7.5 14 moveto 
1 -1 scale
(80) t 
GR
GR
GS
[0.75 0 0 0.75 1292.25 658.24998] CT
0.149 GC
/Helvetica 13.333 F
GS
[1 0 0 1 0 0] CT
-11 14 moveto 
1 -1 scale
(100) t 
GR
GR
GS
[0.75 0 0 0.75 1140.00018 672.00002] CT
0.149 GC
/Helvetica 14.667 F
GS
[1 0 0 1 0 0] CT
-30.5 16 moveto 
1 -1 scale
(channels) t 
GR
GR
GS
[0.75 0 0 0.75 0 0.25] CT
0.149 GC
2 setlinecap
1 LJ
0.667 LW
N
1317 872 M
1317 735 L
S
GR
GS
[0.75 0 0 0.75 0 0.25] CT
0.149 GC
2 setlinecap
1 LJ
0.667 LW
N
1723 872 M
1723 735 L
S
GR
GS
[0.75 0 0 0.75 0 0.25] CT
0.149 GC
2 setlinecap
1 LJ
0.667 LW
N
1317 872 M
1321.06 872 L
S
GR
GS
[0.75 0 0 0.75 0 0.25] CT
0.149 GC
2 setlinecap
1 LJ
0.667 LW
N
1317 826.333 M
1321.06 826.333 L
S
GR
GS
[0.75 0 0 0.75 0 0.25] CT
0.149 GC
2 setlinecap
1 LJ
0.667 LW
N
1317 780.667 M
1321.06 780.667 L
S
GR
GS
[0.75 0 0 0.75 0 0.25] CT
0.149 GC
2 setlinecap
1 LJ
0.667 LW
N
1317 735 M
1321.06 735 L
S
GR
GS
[0.75 0 0 0.75 0 0.25] CT
0.149 GC
2 setlinecap
1 LJ
0.667 LW
N
1723 872 M
1718.94 872 L
S
GR
GS
[0.75 0 0 0.75 0 0.25] CT
0.149 GC
2 setlinecap
1 LJ
0.667 LW
N
1723 826.333 M
1718.94 826.333 L
S
GR
GS
[0.75 0 0 0.75 0 0.25] CT
0.149 GC
2 setlinecap
1 LJ
0.667 LW
N
1723 780.667 M
1718.94 780.667 L
S
GR
GS
[0.75 0 0 0.75 0 0.25] CT
0.149 GC
2 setlinecap
1 LJ
0.667 LW
N
1723 735 M
1718.94 735 L
S
GR
GS
[0.75 0 0 0.75 983.74997 654.25] CT
0.149 GC
/Helvetica 13.333 F
GS
[1 0 0 1 0 0] CT
-19 5.5 moveto 
1 -1 scale
(0.4) t 
GR
GR
GS
[0.75 0 0 0.75 983.74997 619.99998] CT
0.149 GC
/Helvetica 13.333 F
GS
[1 0 0 1 0 0] CT
-19 5.5 moveto 
1 -1 scale
(0.6) t 
GR
GR
GS
[0.75 0 0 0.75 983.74997 585.75002] CT
0.149 GC
/Helvetica 13.333 F
GS
[1 0 0 1 0 0] CT
-19 5.5 moveto 
1 -1 scale
(0.8) t 
GR
GR
GS
[0.75 0 0 0.75 983.74997 551.5] CT
0.149 GC
/Helvetica 13.333 F
GS
[1 0 0 1 0 0] CT
-8 5.5 moveto 
1 -1 scale
(1) t 
GR
GR
GS
[0 -0.75 0.75 0 966.49997 602.87495] CT
0.149 GC
/Helvetica 14.667 F
GS
[1 0 0 1 0 0] CT
-17 -4 moveto 
1 -1 scale
(GCC) t 
GR
GR
GS
[0.75 0 0 0.75 0 0.25] CT
0 0.447 0.741 RC
1 LJ
0.667 LW
N
1321.06 822.942 M
1325.12 824.173 L
1329.18 823.969 L
1333.24 775.254 L
1337.3 822.924 L
1341.36 777.793 L
1345.42 814.918 L
1349.48 829.179 L
1353.54 831.717 L
1357.6 777.155 L
1361.66 819.691 L
1365.72 776.321 L
1369.78 773.758 L
1373.84 785.062 L
1377.9 807.512 L
1381.96 802.198 L
1386.02 809.835 L
1390.08 828.172 L
1394.14 813.458 L
1398.2 777.985 L
1402.26 807.07 L
1406.32 790.769 L
1410.38 816.225 L
1414.44 820.375 L
1418.5 779.744 L
1422.56 784.695 L
1426.62 788.651 L
1430.68 822.23 L
1434.74 804.399 L
1438.8 809.209 L
1442.86 829.006 L
1446.92 813.117 L
1450.98 779.896 L
1455.04 766.654 L
1459.1 822.475 L
1463.16 820.917 L
1467.22 841.981 L
1471.28 829.638 L
1475.34 821.124 L
1479.4 811.298 L
1483.46 812.494 L
1487.52 804.652 L
1491.58 811.169 L
1495.64 768.657 L
1499.7 807.497 L
1503.76 798.866 L
1507.82 801.471 L
1511.88 817.797 L
1515.94 813.422 L
1520 818.003 L
1524.06 821.455 L
1528.12 796.862 L
1532.18 794.228 L
1536.24 814.338 L
1540.3 809.11 L
1544.36 815.351 L
1548.42 819.801 L
1552.48 815.699 L
1556.54 800.283 L
1560.6 809.996 L
1564.66 838.174 L
1568.72 815.43 L
1572.78 780.449 L
1576.84 774.213 L
1580.9 809.75 L
1584.96 790.698 L
1589.02 801.008 L
1593.08 815.611 L
1597.14 796.68 L
1601.2 813.507 L
1605.26 782.246 L
1609.32 811.044 L
1613.38 813.569 L
1617.44 811.453 L
1621.5 792.087 L
1625.56 786.527 L
1629.62 814.64 L
1633.68 816.367 L
1637.74 802.021 L
1641.8 806.082 L
1645.86 807.636 L
1649.92 788.995 L
1653.98 802.013 L
1658.04 798.635 L
1662.1 818.129 L
1666.16 792.051 L
1670.22 780.699 L
1674.28 825.083 L
1678.34 830.521 L
1682.4 815.856 L
1686.46 804.96 L
1690.52 790.488 L
1694.58 800.05 L
1698.64 795.747 L
1702.7 809.11 L
S
GR
GS
[0.75 0 0 0.75 0 0.25] CT
0.851 0.325 0.098 RC
1 LJ
0.667 LW
N
1321.06 792.864 M
1325.12 820.738 L
1329.18 809.007 L
1333.24 822.852 L
1337.3 818.853 L
1341.36 822.522 L
1345.42 829.482 L
1349.48 814.323 L
1353.54 817.289 L
1357.6 818.236 L
1361.66 829.064 L
1365.72 808.978 L
1369.78 828.81 L
1373.84 810.425 L
1377.9 812.359 L
1381.96 825.884 L
1386.02 832.615 L
1390.08 792.602 L
1394.14 825.69 L
1398.2 827.851 L
1402.26 810.126 L
1406.32 820.877 L
1410.38 794.23 L
1414.44 821.304 L
1418.5 830.653 L
1422.56 794.746 L
1426.62 802.416 L
1430.68 810.279 L
1434.74 815.052 L
1438.8 753.962 L
1442.86 826.751 L
1446.92 819.787 L
1450.98 834.971 L
1455.04 824.186 L
1459.1 810.865 L
1463.16 795.548 L
1467.22 818.627 L
1471.28 809.547 L
1475.34 827.697 L
1479.4 792.589 L
1483.46 808.007 L
1487.52 791.088 L
1491.58 819.708 L
1495.64 802.957 L
1499.7 785.331 L
1503.76 820.885 L
1507.82 820.438 L
1511.88 798.204 L
1515.94 806.233 L
1520 812.573 L
1524.06 813.434 L
1528.12 798.347 L
1532.18 831.319 L
1536.24 802.866 L
1540.3 826.775 L
1544.36 797.31 L
1548.42 816.725 L
1552.48 816.953 L
1556.54 824.47 L
1560.6 793.596 L
1564.66 823.031 L
1568.72 808.702 L
1572.78 806.325 L
1576.84 822.5 L
1580.9 788.509 L
1584.96 800.113 L
1589.02 818.566 L
1593.08 810.24 L
1597.14 790.794 L
1601.2 813.712 L
1605.26 802.071 L
1609.32 811.092 L
1613.38 813.466 L
1617.44 811.418 L
1621.5 791.159 L
1625.56 810.064 L
1629.62 820.879 L
1633.68 823.548 L
1637.74 828.387 L
1641.8 793.471 L
1645.86 808.422 L
1649.92 816.729 L
1653.98 793.16 L
1658.04 776.446 L
1662.1 816.054 L
1666.16 797.364 L
1670.22 827.041 L
1674.28 830.295 L
1678.34 809.782 L
1682.4 782.94 L
1686.46 820.763 L
1690.52 814.567 L
1694.58 814.435 L
1698.64 807.188 L
1702.7 803.777 L
S
GR
GS
[0.75 0 0 0.75 0 0.25] CT
10.0 ML
0.667 LW
N
41.571 219 M
41.571 188 L
132.883 188 L
132.883 219 L
cp
S
GR
GS
[0.75 0 0 0.75 36.178 144.25] CT
/Helvetica 13.333 F
GS
[1 0 0 1 0 0] CT
0 14 moveto 
1 -1 scale
(SUBJECT 1) t 
GR
GR
GS
[0.75 0 0 0.75 0 0.25] CT
10.0 ML
0.667 LW
N
43.554 421 M
43.554 390 L
134.867 390 L
134.867 421 L
cp
S
GR
GS
[0.75 0 0 0.75 37.6655 295.75002] CT
/Helvetica 13.333 F
GS
[1 0 0 1 0 0] CT
0 14 moveto 
1 -1 scale
(SUBJECT 2) t 
GR
GR
GS
[0.75 0 0 0.75 0 0.25] CT
10.0 ML
0.667 LW
N
43.554 613 M
43.554 582 L
134.867 582 L
134.867 613 L
cp
S
GR
GS
[0.75 0 0 0.75 37.6655 439.75] CT
/Helvetica 13.333 F
GS
[1 0 0 1 0 0] CT
0 14 moveto 
1 -1 scale
(SUBJECT 3) t 
GR
GR
GS
[0.75 0 0 0.75 0 0.25] CT
10.0 ML
0.667 LW
N
47.521 808 M
47.521 777 L
138.833 777 L
138.833 808 L
cp
S
GR
GS
[0.75 0 0 0.75 40.6405 586] CT
/Helvetica 13.333 F
GS
[1 0 0 1 0 0] CT
0 14 moveto 
1 -1 scale
(SUBJECT 4) t 
GR
GR
%%Trailer
%%Pages: 1
%%EOF
