0.9275094723558931
0.928528019746735
0.9339162588696783
0.9871112072007014
0.9611505631889233
0.9220271203919245
0.9833254191549075
1.0069778268192453
1.0125890259687815
0.9996586968796908
1.0016928690444664
1.0029720605128571
0.9595764470622798
1.0038917968801302
1.0422298652163693
1.0298828086039582
1.0107062295355502
0.9861313154221796
0.9795896621503619
1.0014371804463447
1.0482944806140995
1.0544591991261405
1.0475787522760511
1.0413668067802293
1.0479691250862333
1.0266344862383152
1.0231612105322554
1.035876473306478
1.0396088406888968
1.0375877954071115
1.0018566371962785
0.9704884644612398
0.9625365155371074
0.9470750886101804
0.9687940229735409
0.966794851487816
0.9710648372008439
0.9742990879705031
0.9743858651267825
0.9772271145219675
0.9746253218466191
0.8330758690489203
0.914931196995983
0.9753522633743887
0.9744527328925559
0.6010905126420165
0.7638231147298231
0.7781059719661777
0.8982234429684396
0.8989221500125429
0.9472844443791375
0.9641898143666908
0.9599863662841446
0.9496441948261296
0.9606668984141311
0.8222056454971927
0.8020151637789728
0.7959749095500023
0.7694879873461331
0.8303401789666442
0.8134873714757099
0.9192799274985809
0.9797949804539021
0.9821843503856755
0.9790196572337572
0.9811199454715402
1.0029677998915527
0.9930136959307482
1.0002665923140164
0.8437554891749173
0.8110994421640831
0.6794767135647715
0.8072881989576605
0.9342450596273009
1.0260792858839147
1.0794019249722797
1.0762614924078384
1.0235439561987605
1.0132738893642217
0.8898904932899407
0.9421336095905303
1.0009895361100536
1.0277807422491398
1.074228048045662
1.00684273904939
1.0390761676717453
0.968343723894199
1.0411279385750547
1.0541718766763486
1.0508317015628008
1.0465746620352325
0.9615367383464962
0.783726393786365
0.8844722496677385
0.8758769894722744
0.9593764609875033
0.9715762951568864
0.9798419514094528
1.0386079816246454
1.0481887724189616
0.9198753335447034
0.8751687298743612
0.8842489128742663
0.9144642171012619
0.9035401184725353
0.9135016736901622
0.9090711233357405
0.9118776825764335
0.9726372101123374
0.9390232557446974
0.9281421297806295
0.9313147692782364
0.8772744077998563
0.8996070432144962
0.874923117171523
0.8619675528792035
0.8566352897937455
0.8022704397732036
1.1074527414189037
1.0296746304185473
0.8733741340305381
0.8666817501759261
0.8881484343719104
0.8191779893658588
0.9924321080451978
0.9903627731333075
0.9836737559013152
0.9282769083740039