0.6108682879293791
0.6557020399721161
0.657570822602636
0.7108887454271573
0.667285158732176
0.5695588535638914
0.6607899311932222
0.591875203119922
0.6580241358150951
0.6426575342465753
0.5517323775388292
0.6772469024507851
0.6490809494826537
0.6634969325153375
0.6373874087193718
0.9523358069394514