0.6722962817035791
0.6497686173728335
0.5661964887298933
0.6655768431136686
0.6491067061961433
0.6134318429916704
0.6865241149736991
0.7389181694021387
0.7413800359704248
0.7498024035151041
0.7498944839189228
0.7510719005870448
0.8765961722566116
0.8034105528347927
0.7512719908006912
0.7327855409402617
0.7337227867273929
0.7213666555423531
0.6675555831087697
0.7477489656387993
0.7905598439207498
0.80058201021078
0.8027251119538615
0.8028203094531456
0.8056594446847221
0.7632560224663087
0.7639222665093908
0.7610711875658736
0.7559835847610189
0.7498327304150486
0.6763155432485083
0.638815700524286
0.6526218280951648
0.5817911471628897
0.5913475002947217
0.591475765615067
0.7757332624219745
0.7892112544706996
0.7914760629523675
0.793945198027691
0.7960082227288178
0.8796509757988371
0.7974782547314692
0.6777153059281734
0.6766343792614757
0.5034619972502646
0.567597684243919
0.7600898644056302
0.5585493243125333
0.5515742176902444
0.584350989542095
0.6541886525981044
0.6567166004642013
0.6664820657112688
0.6598318142343961
0.7045516302210793
0.7003187443384751
0.6934420941793838
0.651451306870692
0.6222830195532749
0.6219669469176452
0.609771092279065
0.6170489340399301
0.6144020799001295
0.6322550006590939
0.6286817018292451
0.6949049653974466
0.7286075379067966
0.7307470320476258
0.7582071502408578
0.6375407350544052
0.8107386060020938
0.8080529975183623
0.7643076982140862
0.647772611864541
0.6786204981785375
0.679126179942884
0.6594986612567336
0.6584660504277895
0.7509870166841928
0.6847442895846043
0.6666181200933283
0.6695819144504761
0.6895165335703497
0.8172980563537076
0.6942189033318586
0.6358748767853246
0.7188134323278716
0.6991632084596212
0.7000531977202691
0.675550625139877
0.7023075229959922
0.7630236010934347
0.7124569557587779
0.7049299151483224
0.7012202552727976
0.6055928140120724
0.6449287756071592
0.7173246744047098
0.7137988946646849
0.6936961612253415
0.7007511779169597
0.6565874935669752
0.6937497578044017
0.6918689866876572
0.6788954168682352
0.6750350989205175
0.6426670560391454
0.6146416461585156
0.5757031809806595
0.6163069417196344
0.5545880591022256
0.5635046268383369
0.5939886931365669
0.5405668520229971
0.5980235457706488
0.6515520067738415
0.6904105870089461
0.417541830572599
0.5603042100572191
0.6273218529693105
0.6315499407133633
0.6039762155981189
0.5932487045673086
0.6958154228458009
0.6980223468909146
0.6988163948620951
0.8133979775278378