0.6150481548953171
0.6287800895111161
0.5828653071894695
0.6265311105742148
0.6218552108236045
0.5878821381677332
0.6595718536727293
0.7082025982224689
0.7119504007008369
0.7224021158513042
0.7238855909371555
0.7240914361832681
0.8183298094115496
0.7717619509506146
0.7085372172917864
0.6529140722366458
0.6520563403178493
0.6666502570406164
0.6253793446046335
0.6365900719088206
0.6445884669030488
0.7089164633149853
0.7918365674886193
0.7878808123625494
0.7894812272413744
0.7257476942787847
0.7216342055327569
0.7153716095459739
0.7092060570715414
0.6978917678413785
0.6241843819442907
0.6044900323783136
0.6397997813703247
0.5847807739366796
0.5835603495585034
0.5735391319526576
0.755239964894399
0.7587966420051977
0.7636081420802088
0.7644983505540867
0.7645752165154281
0.777647737189004
0.7163619494541974
0.6256066307226844
0.6283471043116649
0.5925018104130334
0.6690978763382965
0.6943292438104436
0.5905667599889749
0.600318042557953
0.5885635871179895
0.6437114051263106
0.6519355782931159
0.6539094592815129
0.6534930430481659
0.6781833023121764
0.6800391152345241
0.6852987441027514
0.4613646159454115
0.7297104342252316
0.7243772321471559
0.7069854299852283
0.6477596964036704
0.6484418232686748
0.6318755256624672
0.6264533726334762
0.627074854603643
0.685936695501445
0.6854870967365946
0.7212558612735004
0.5941359410561151
0.6708110731057194
0.833788713742021
0.7686956380784546
0.6273882248172181
0.6296171873298438
0.6289239592185963
0.6334446916747138
0.6414232272389978
0.6882323409751766
0.6749848521688152
0.6375623680502938
0.6363747349924541
0.6355832244573959
0.756445178387814
0.6510135348760566
0.6544074921913137
0.6601778185265014
0.6528703206989079
0.6525431183074931
0.6471183461210285
0.6950839861155751
0.7854871244496491
0.7127275312969962
0.719281361965428
0.6714954575645352
0.6302855174182549
0.642335886578835
0.6571719851773278
0.65586388959007
0.6602852377088888
0.6806310645580111
0.6682122561997607
0.6732107587970679
0.6699860649485254
0.6639089231579057
0.6640699486805485
0.6458546730265232
0.6331312733310437
0.5965355826683559
0.6111464304385421
0.5954429625684287
0.5928135234922527
0.6392179219071333
0.6038770021103467
0.6065402654399468
0.6333640818089215
0.6432410856423139
0.6158809086933255
0.6553398631121901
0.6169619997516905
0.6131647046548654
0.6004061410658591
0.5873519011826362
0.6670488995478783
0.6680062471064985
0.6707242398587646
0.8251741741559393