1
1
1
2
2
3
3
3
3
3
3
3
3
3
3
3
3
4
4
4
5
5
5
5
5
5
5
5
5
5
5
5
18
19
19
19
19
34
35
45
46
52
62
62
62
65
66
40
12
13
23
24
25
26
27
38
39
40
54
71
71
71
72
78
54
79
79
79
79
79
80
82
71
79
85
86
71
79
87
87
87
59
71
79
59
71
59
62
91
92
92
93
94
95
71
79
71
79
36
28
29
36
37
38
39
92
