0.7911234817083292
0.7946780822196788
0.8199622654350629
0.823396682133096
0.8275843397143077
0.8212727188451961
0.792102382867617
0.828761113820003
0.8233011845961229
0.7899850021997864
0.7600840501674437
0.7906840619890759
0.8391466081219081
0.8292912569967676
0.8401224793944319
0.7890044502474298
0.7967846302332899
0.7987367944715502
0.8164320557491289
0.7810766712845778
0.7778817204843338
0.7832139780769166
0.7670606473629998
0.7975434667697326
0.7789843791529658
0.7962082182143302
0.8434304186551728
0.8154908789631296
0.6684216135564318
0.7983428379083756
0.6383047277940308
0.7421084100020857
0.7589869340055326
0.7823693970809757
0.8043312699095859
0.7481350608559089
0.7707984397368491
0.7064054537137606
0.7527133110961072
0.7654252450174308
0.7500945365300274
0.7386652549235928
0.6872832781285582
0.7227719517724709
0.7306744285346678
0.7498352546728392
0.7668707874223097
0.6287743403710402
0.6516217220967142
0.7148506625927318
0.7302819050525473
0.7791019088348806
0.7696881836174867
0.7501099211056819
0.7735159372682273
0.8096837400382098
0.7181096556835532
0.727709203061761
0.7768587414103167
0.7403881209667121
0.8457132914682248
0.8094837530112446
0.785599298390599
0.7567984926594904
0.7930653357665488
0.7707880953739842
0.8230768058402615
0.8171820042646525
0.8329444745413614
0.7878939420601825
0.7822909186919047
0.8512156699940429
0.8352363320695886
0.8370062562824054
0.8904727362624136
0.8522583440226301
0.832537755875161
0.8061309776593956
0.847672223459628
0.8189825046959786
0.7928627191683183
0.8254230037232491
0.8571572013396285
0.7988838286697862
0.8221249130489321