0.5978876116862215
0.5909014334142076
0.5989189373010977
0.5982340222998884
0.5914235084056877
0.5837720774163
0.58754423782868
0.5834946136172775
0.579923262206359
0.5847401107905916
0.5881548334195357
0.5844896852618081
0.5881197870498998
0.5873651529446922
0.5879278744333338
0.5909396154461972
0.5891716996980297
0.5880559043224357
0.6025781647674363
0.6002142004902437
0.6152185148889597
0.6126736315373082
0.6101215777851268
0.6100358836736403
0.6145336799653851
0.6139935410252412
0.5926247752835774
0.5945793693821617
0.5945557949740079
0.5967385388715768
0.5911514366370834
0.5953566755184198
0.5976460678001632
0.5953856115945503
0.5938871860101114
0.
0.5949958231542024
0.5910691057251739
0.5922261705813341
0.5948736996349302
0.5943798694630826
0.6042795855960564
0.5904673026195861
0.5906965450851498
0.5884461674938436
0.5992101485067647
0.591431249701639
0.5924237348154507
0.5848784701470734
0.586595651505403
0.5978509323790004
0.5945307445079557
0.5927523630674841
0.5942289302000926
0.5955853180047765
0.6050015992826824
0.5998203962589943
0.6053653592924755
0.5953608648115719
0.5966417950685059
0.5975780633635234
0.6054054769180293
0.6032715091717822
0.6012828557643284
0.6017018611208597
0.6128421937713922
0.6165101845006467
0.6173476956353638
0.613518684780893
0.5998082812089762
0.5998265319683223
0.6046354776971177
0.5986916434338204
0.6030798307533789
0.6187554815328395
0.613680461388601
0.6106042924646294
0.6067145199820217
0.6137651608974524
0.6037709928672038
0.6074921927969567
0.6046169957059118
0.609561480493697
0.6043147468551036
0.6124451544388421
0.6193133956873569
0.6090828705024033
0.6173525427418424
0.6112117073291725
0.6026740781743193
0.6126383766538228
0.5970708201280887
0.5993245860621491
0.595999409797874
0.5941984290162531
0.
0.604631367269314
0.6108204574782832
0.598529330973871
0.6037137115950522
0.5961596267665958
0.6024100123766726
0.6067795389958276
0.5874077992000898
0.5958887371617563
0.5958603318717147
0.6002987321374031
0.6091166280336204
0.6029292974658303
0.6070870323822507
0.6025340661832569
0.5856730053572635
0.5938133826131481
0.6014050335536214
0.6036718565112169
0.6061275905325507
0.5961213970857709
0.5922016898724077
0.6128927677025144
0.599452640577649
0.6041309745848795
0.595298681724427
0.5964478901227426
0.5971827566888678
0.5976376321040245
0.5955675323820712
0.6059974411600828
0.6076517708637525