0.560972750732464
0.5652130551987659
0.5867850717250833
0.5813625228272528
0.5936904896176886
0.5546132077294009
0.5503778798054606
0.5755289842502523
0.5226537693355751
0.6435934721450438
0.5482947346468753
0.6200148451608267
0.652499337951757
0.5733885433998496
0.7032480429817686
0.5857561565628078
0.5756679304466641
0.561634823372553
0.543969081304807
0.5352396833031341
0.5851656814641953
0.603742533793028
0.5763986954137789
0.6074954055679485
0.5688688421737291
0.5573462699316757
0.6291412863003154
0.5913627436766786
0.574353885003726
0.567565675221701
0.5862047229300221
0.5653925383827868
0.5736464921962882
0.572743404923494
0.5590353464804019
0.5745992763496613
0.5706404014117247
0.5919228006515127
0.5475376962569628
0.5751186719918604
0.5930847083221095
0.5155494818437266
0.6054153477711715
0.5611701183721803
0.5906373625389354
0.6070544785177568
0.5660521149773864
0.5779154569065352
0.5669834518035611
0.5689136377549839
0.584655605825176
0.5704686324207549
0.5690205681334175
0.5702668458410264
0.6019987583361244
0.5593586853670774
0.5770422083219642
0.5793364729855878
0.6123538944365873
0.5411129732424609
0.549729116582684
0.6230454685570961
0.521565764774153
0.6117841599754558
0.6127378145042942
0.6026308205120993
0.6048361454036447
0.6336760469858137
0.6814852273664226
0.5752599577416797
0.6366399859522337
0.6141411078476766
0.6301766927334763
0.6092572904485853
0.5912432757289899
0.5467137863479066
0.5766928786844848
0.6697897661348063
0.605659189288357
0.6046597606657389
0.592709418705719
0.5941039408608438
0.6338965856064861
0.5976594568066087
0.5572042447007801