0.8423109343897285
0.86017537118015
0.8268223203401835
0.8336313690415776
0.7797141759504292
0.8216539681723691
0.8540746989033005
0.7497970901204811
0.8142331760821989
0.7829509512686322
0.779852928081976
0.8605186965238029
0.7967253101529895
0.7946856304675439
0.7923918891468902
0.7515322420375928
0.8283802885303092
0.7786897712547122
0.7949524791433733
0.7980929113633072