0.13268781813957933
0.13820125947637643
0.13904952471902696
0.13265056676613304
0.12482784036420003
0.11044246530979457
0.10777220372999519
0.10759058282067013
0.11841635314972916
0.09562128254797596
0.10649832648015732
0.10646427190531689
0.1066825201551201
0.11090965943992942
0.11314536560243507
0.12224445042446318
0.1293105505280293
0.10989965128532538
0.13806211562902157
0.1384887659377331
0.12976570486968328
0.13392080673301468
0.1356557754270856
0.13707119928927902
0.13326903775037066
0.14035297117433976
0.12835295417558273
0.1332880849215289
0.13337220438975864
0.12232948238707897
0.1317337068995772
0.1287356579825473
0.13793728484344253
0.12550081671460317
0.14085853113081875
0.
0.13071838368025465
0.1300747931172289
0.1311322103187287
0.13104417162335594
0.13092493648228992
0.13657925801291892
0.1209582906137605
0.1409431420178363
0.1351293528531864
0.14398547267372278
0.13802643505769566
0.1341806137562246
0.12377103049654946
0.14067747375723508
0.13284726233634336
0.12501561313911855
0.13157208076313426
0.133149156715024
0.12018716859333611
0.13141264788428095
0.1214092521199876
0.1157499935893842
0.12719545865345255
0.12521299431599964
0.1278656784986317
0.12997349288411295
0.11914477007826701
0.12247751675593035
0.12205579623834262
0.1373095332063097
0.1272396512090845
0.12532868751076942
0.11146330607927075
0.1074832782713686
0.10907396018025878
0.09992796423181763
0.1090680587686965
0.10784377234832863
0.134424808148616
0.12539448612135906
0.12497452085097645
0.11926946615457193
0.11872633008337999
0.10265131867750071
0.13402384238480414
0.1353071146071375
0.12014370220389681
0.12402935119883968
0.10785773294991222
0.12259164529158528
0.13136234544372627
0.12509919589356944
0.12080494915661827
0.10886061343209529
0.12132047602152925
0.11889653004134432
0.12277508288551504
0.11197386802151371
0.10706411591868725
0.
0.12669008020564423
0.11614012167489113
0.12621228660535055
0.11963442200938697
0.11788217609079044
0.11832696033024533
0.09944337943846288
0.11760322219742401
0.11695514391841666
0.10656524538539514
0.10317249560721134
0.1157004168447722
0.11707752787729042
0.11898880089864934
0.11295788466985197
0.1146523661642499
0.10559169007481997
0.10874846159470951
0.1079024719383583
0.1091003659558148
0.1091866601709274
0.12311948146445209
0.11940520581895955
0.12381115486332848
0.11240630410064212
0.11315853613990466
0.1254679062151926
0.121466498001534
0.10779690509786898
0.10852361435115579
0.10073302470898803
0.10605048084158175