0.19806583613541498
0.2016340890328517
0.1983429791024835
0.19955439733233304
0.19330055045674424
0.19218871522707479
0.20054261101627738
0.1977957132135205
0.19576983642965762
0.19668072238884468
0.19205980381626153
0.19419927843765616
0.19868268846170425
0.19785239438886124
0.1953164277320316
0.1941692658120206
0.19485364079094536
0.18941357164889874
0.21902416774285496
0.21675029430359344
0.18336256343942867
0.183326943022837
0.18277705901018537
0.1891956678455306
0.18324799536674197
0.21627020356604862
0.20164612763366496
0.20428655460603493
0.20180995687416167
0.2027599269173733
0.20466655276252158
0.20627247887798666
0.19119286284779688
0.2026161598290751
0.21155952969134825
0.
0.1999428736965034
0.2010183558267219
0.20302380394033984
0.20190018307326718
0.20016333111873572
0.2099092539367733
0.20846480969285583
0.21681048233092892
0.21185301245765795
0.19252490055650123
0.20452882777127984
0.2046653164722372
0.2013265634674579
0.19826375657951362
0.19844540134646388
0.1794905848687312
0.18386484747119142
0.1819505562834364
0.17550987712332183
0.19996473639217074
0.19109694143811937
0.16870585967322477
0.19587646174298054
0.19919839660203245
0.1985385495021675
0.17778558578767312
0.18064138807324867
0.18191891977787814
0.17748693923311037
0.17969865025752346
0.18028483604284437
0.18010194589839074
0.17341188841075078
0.1669610303019032
0.16382697480664002
0.16736406534332496
0.168349903679486
0.17550174127040385
0.18501238338049314
0.18050379528354837
0.17435596594056468
0.18504765328380288
0.19940095475009093
0.19186100521669894
0.20316537872293813
0.2015225514188048
0.19003193312760192
0.18359093535885904
0.18208925593926528
0.17430586894846523
0.1757236561981552
0.17775636505953707
0.1784824724690221
0.17672334874074863
0.188717605666958
0.1941671341490625
0.19348983770622677
0.17551850730250054
0.1823123280878745
0.
0.17284588117235536
0.1701446168765103
0.17520574435663602
0.17161645403483872
0.17501599404857077
0.17464469934163843
0.1654189821412671
0.18274428218533534
0.18910522288143736
0.18056431500853368
0.17684131469391912
0.1667017950409814
0.17066241458002396
0.16330991280458015
0.16557492049607977
0.16452684022340494
0.1714077886082272
0.16623200895875198
0.17148779573448653
0.17461642485356024
0.18047647009045617
0.18181088112602756
0.1619184080765404
0.18371355259912345
0.177791585192379
0.1807090468951462
0.17625732006197858
0.17150098571750846
0.16221497339164742
0.16164700375357122
0.15488329435600384
0.15821967152613658