0.17922467337759693
0.22446839163257074
0.16498106944660546
0.17712283859355918
0.19507173851075285
0.18108240809667864
0.23376119917298416
0.18049908993484953
0.19800085677566756
0.2377165776648089
0.24024162232130017
0.2413111342351717
0.19895618642377502
0.1915776893683267
0.1878079562939783
0.2340863717558054
0.23548398056603131
0.22312072467199123
0.20051606459131013
0.24969847013267313
0.2190385748903006
0.2275851763299462
0.24861657062168455
0.2314657676230395
0.24777507467742432
0.21089521883510096
0.17535377358490567
0.19108463041666096
0.3191595094796127
0.23359366283610397
0.3335094982236707
0.28392680854971647
0.2832947940753703
0.22598567575485135
0.2521770597436556
0.21838534978504828
0.22881742675469288
0.28157056037986605
0.2891901050491359
0.26530267613520214
0.2851554562080878
0.2800320235896542
0.3407117874838656
0.28078306145661863
0.29595553719628975
0.26953871663583256
0.24897757170022664
0.3358120209184039
0.32826370073200306
0.27880612818900763
0.3041216006325718
0.2368938401048493
0.24087387320271175
0.2886429351906224
0.24938120458840124
0.21320952826727727
0.2596600032408703
0.2675028711689598
0.23547700698260546
0.2761574401812261
0.197792812405801
0.2013509513173121
0.2602068694460155
0.28788663433924955
0.20931108903429138
0.2612391723014533
0.21343544857768051
0.18188462288053012
0.21951795469214905
0.2282799565181035
0.21598813862976463
0.20131402302591433
0.18302580466148724
0.21861956632393362
0.14777113578138343
0.14589022993568848
0.1581520176363462
0.2198242956679794
0.1771266855335442
0.18826230658983883
0.2287721441661576
0.21116259089932804
0.14796006836929326
0.20296465222348917
0.1895536914306901