0.36948404341487123
0.2639218009478673
0.3220925875679936
0.3495048605432906
0.3064320820571266
0.34081855514711534
0.310390424510745
0.31354431464396904
0.3315277575951936
0.357954854747691
0.3130647727390893
0.44084602676821416
0.3466930933906913
0.3714593755779806
0.28335270988726763
0.3812017931804803
0.29840531249510954
0.3319041687186767
0.34494315816787124
0.38799267088513495
0.3299663775322804
0.28071975158034823
0.3500249357239349
0.3580075471698113
0.3831915675247972
0.3022577646474551
0.31629713069516535
0.2776210128533426
0.37827871786916156
0.35713354709209877
0.2918585439589412
0.3151203456078996
0.3140155177699691
0.3666265620615561
0.2947808972241703
0.35079384581780454
0.39581974808662523
0.34642601036409637
0.35366526307292856
0.3225932326216623
0.3619869595583175
0.31671998924586636
0.3442856303633644
0.31002082704017553
0.319455821573519
0.30163093840736394
0.3538849938405852
0.3294190889184664
0.33017198028763955
0.28097314287887043
0.26436259649725696
0.3050798038919246
0.27477214175921716
0.3182259765185352
0.3650626639851897
0.29516910632223486
0.2443499896330085
0.2707568606886908
0.30063767168083716
0.3038187270909697
0.3557513789856047
0.2627571196067794
0.3235632492876727
0.30246735762870297
0.31086250573813695
0.28908486936292055
0.3634806136360075
0.2741449780433753
0.2847627754249146
0.26510967334700963
0.3215554059700107
0.29722121322193973
0.32758795364346344
0.38424846426077386
0.360299250429667
0.2974847960653603
0.3194829563223184
0.29907970400993966
0.2820776163495159
0.3299655872231536
0.35315683347736143
0.27550004452035387
0.3518572230538922
0.3131477231220459
0.2968500709443481
0.2747710818331928
0.3972534949894841
0.2662990389160233
0.4471596066407606
0.3066147396029964
0.3054353989469421
0.33698961526334015
0.305363045100757
0.32505646527385657
0.3522276639681292
0.2899797309324345
0.28360209074733095
0.3872913430361162
0.3749630688995174