0.22643690807682007
0.2199488738792922
0.2258478593743212
0.25543873060375105
0.24245520466704717
0.21755381300980575
0.22573509966734107
0.23829977288644158
0.2381734099730691
0.24140876349204432
0.24082386052678284
0.24232858070455213
0.24883419536229856
0.2602100716612834
0.25640107015045616
0.26430027348968393
0.2657541236172574
0.25861084009973173
0.25423598329901637
0.26662971232147165
0.2752733098923311
0.27969961648608893
0.26226699924694824
0.2606108264102036
0.26257199313302326
0.26560366711654476
0.26597277759642707
0.267025607023148
0.2676488148277081
0.2679035023511464
0.25042639915659515
0.2475997047929457
0.22582799799123393
0.22121580636708038
0.23306938322652668
0.23496879613825863
0.23368881022131285
0.23027661812273326
0.22902320350900296
0.238075631304772
0.23100227622863176
0.22876529550445845
0.2293495586103787
0.21644560707652163
0.2240529452497068
0.22605292096951726
0.2234749945928335
0.2194801251966959
0.20750730311266052
0.21059229304886484
0.224557802877595
0.2229202686791684
0.22432493984412655
0.22336484689342848
0.22676744477592894
0.2148976236495885
0.21447463179327708
0.2147934967454276
0.21605676407468097
0.22932035379821894
0.22954163394852964
0.22766305523715663
0.24947721331923225
0.25155409918628674
0.2418892637549339
0.2392574014327252
0.26210080745089975
0.2504339027918668
0.2536310160069336
0.23890168548112986
0.2338404746185714
0.22916835694751597
0.2268890978685949
0.23734681742611355
0.26930599034332264
0.2610160313321525
0.2566339114176344
0.24306336185071759
0.24541435522624602
0.24595480647683285
0.24410102329672287
0.24624164497811912
0.24964767928478623
0.24792151964942247
0.2701726830159253
0.27776692817711174
0.2646341966835274
0.2507773595412694
0.2553969808892512
0.2558952760489073
0.24754642591605638
0.2373990605945004
0.22314203360221532
0.22301845366597237
0.22088031297950084
0.23920637244964016
0.2417506248890604
0.2559380411894278
0.2529994434118984
0.2546487067554346
0.23409388030482
0.22989857011070838
0.21523201323652802
0.23040285785518033
0.23027356913862723
0.23433253234309198
0.23019947748394037
0.23259639318461806
0.2346961394426467
0.22006386158542754
0.22260174239375202
0.20733085298402704
0.20547053142997512
0.21863345159306583
0.23834553134146716
0.23317237379206113
0.23453970962363765
0.2187063917172966
0.2114949060150839
0.22252504517526506
0.23121322167063835
0.22512798395738268
0.2171848624191726
0.2201564181209164
0.23553166075467616
0.22931974400165311
0.23668942297355794
0.21971346917166515