0.21479315277401723
0.2012360558001027
0.21458916940002662
0.2588408783634099
0.2346877325155879
0.21179468457105113
0.20901561116589382
0.22168621234726646
0.21171082719665477
0.21957515790646012
0.2157224144299557
0.21863427839397623
0.24255162963049445
0.27199352276658584
0.2660110212343852
0.2749304713706823
0.27279342821513614
0.2578494172918395
0.262270573542892
0.267004786163737
0.2753779725255744
0.28144583716804894
0.284071504991964
0.2833214271960244
0.2836760724741516
0.2592451570996136
0.25908181999681884
0.25322970187040317
0.25393497222916406
0.25464525387922793
0.24222207696904768
0.22953154141051338
0.21914365275058972
0.21531050227839443
0.20345422422566203
0.20437778329780903
0.21342154324471446
0.21589632957045035
0.21730714606409662
0.21851617570000137
0.218072152374342
0.2218034784020161
0.19281867850132378
0.19377819686895154
0.1973515031835117
0.21291014297968003
0.20119132034559079
0.21183484759011686
0.19304350494369032
0.19331038413582693
0.21070943072695045
0.21500125517532995
0.213799528682727
0.21279499391089474
0.2155053453337913
0.21953145546501093
0.21710092218149454
0.21379227162762648
0.2270405214814995
0.23137827809479788
0.23084740638774662
0.24793435928416027
0.25398928369935253
0.24790206953948674
0.22770482561401867
0.23338728057652755
0.24797411741726813
0.23450901569091953
0.23747322732131418
0.21774514514987067
0.20733131445919362
0.23459417356506743
0.22216468715961393
0.2367216924034437
0.2503528637028568
0.24547350984048216
0.249791074666517
0.24463311197625096
0.24055807986081998
0.24101681312941461
0.24610566286617228
0.24509211427334734
0.2598336873276541
0.25980229051845694
0.27122428910113217
0.274212324315543
0.25595056921082016
0.24648992454728474
0.24977643995763724
0.24670435585731162
0.247726339758493
0.24116025290492876
0.2256579966428107
0.22162225360146992
0.22338466771178603
0.22802253054842583
0.23024307275257683
0.23315515908445653
0.24869406877158967
0.24773311847629162
0.2180956050723919
0.19941986340167756
0.202050690916294
0.20756337634146785
0.2056288426274061
0.20260355065948218
0.20363451095523685
0.20707717360867167
0.2307883293660377
0.20853171708300625
0.20955098901260444
0.208649054208588
0.2052477302399619
0.20707027920479631
0.2124440830228871
0.21820155396798474
0.21854562635730523
0.2146342343571666
0.20941815826982296
0.21218977838814207
0.21469763094270494
0.21065683919952646
0.1976943289323208
0.20216564942210635
0.20626450393712217
0.20698721978126333
0.20570182268230194
0.21603949561163457