0.7257131181700106
0.7069632695292292
0.763594829932665
0.8197137883446393
0.8011239806652682
0.7366404575449093
0.7893507900412832
0.8145072939213135
0.7232615344780153
0.7657717129996997
0.7437842070388131
0.7946685100252789
0.8119309026867014
0.7994445007894062
0.805437094399302
0.7647292814680555
0.6746710120831843
0.7676684370379284
0.7537270204396412
0.7236698392885006
0.7776413883571464
0.7193078970223152
0.7576247224542665
0.7594788419792943
0.7030437344432819
0.7567343094142638
0.8077691356319675
0.7730424773295151
0.5902961690826819
0.7940206289743978
0.5369685199234904
0.7475107886135786
0.75229163499402
0.7947002908671578
0.7681549618496106
0.7586529793642253
0.7291862797265769
0.68238099178683
0.6995869242609077
0.7620868444841595
0.6934695127541417
0.7437527577189226
0.6765773895354427
0.6264856748284706
0.7235572870110384
0.7166452645218142
0.7597954663933021
0.6512699764540855
0.6114433594241864
0.7088830263647543
0.705514468086326
0.71057624013189
0.7544382220129463
0.7592669486950118
0.7704389762329511
0.7836120268499027
0.7082766602007774
0.720283989845624
0.7340387261973722
0.7035830336306422
0.8233436253062287
0.810246581141305
0.7643239892098797
0.7292027120499521
0.7739309787254871
0.7849184312169935
0.7941056164455399
0.7992027898352903
0.8123710205754875
0.7657441742055268
0.7198808262492081
0.806305381481879
0.7951131623958759
0.7565393853291731
0.8631736879468273
0.8023887349343739
0.8117437932193347
0.7999390898280013
0.8421807935519806
0.8107292805572587
0.7826480031406329
0.8110277285015183
0.7596114525537911
0.772002277105433
0.8032840478137351