0.785065902631984
0.7494295851710635
0.705450589245754
0.738886265002438
0.7061803360182578
0.7998439328345692
0.7281180745119581
0.745307961273826
0.6979784106276695
0.6464408238952196
0.7817033137469945
0.7142370343860864
0.6608385672066686
0.6816816235577736
0.7055920220862172
0.5761842797648196
0.7605422128354415
0.721596158884533
0.726169834476394
0.6864351873385044
0.7485152542434279
0.6415083496224107
0.5926693050669176
0.7520793064462095
0.6879283650316111
0.7395061839291428
0.7205340754678151
0.6522543909604019
0.7278654996647999
0.8298467832851906
0.6816483102764893
0.7239923347655147
0.6955871542428634
0.7215928149465469
0.735373157602607
0.7124173724227498
0.7117515815070596
0.6992241428478965
0.6812512375919082
0.6761144554364544
0.6107627141222521
0.6549753443194803
0.7052109754532923
0.5934366008249855
0.6295568708728186
0.6650998193727106
0.6758672715681263
0.6398243195250851
0.668035488765557
0.6633895658973487
0.6051611901725577
0.7613694591942446
0.7111821751929843
0.6680384724361473
0.6022849601442127
0.6633532391856733
0.6867763877967861
0.6405078283082263
0.6694703151211079
0.6341959797548535
0.6189171431165922
0.6727586025011164
0.629693011903116
0.608315566736565
0.6765756362737462
0.6774294058072674
0.6722861083218249
0.6528765712703294
0.604796197962759
0.5428561572927869
0.6199058914537829
0.699111927872539
0.6345298183790642
0.717463233163291
0.5460188177112947
0.5580013635054344
0.504389862125451
0.6610383994274808
0.6271423217993692
0.684331703610856
0.7108327135880157
0.5688656124252385
0.6297728176026369
0.7277349305411988
0.6138942431761674
0.6847206409836415
0.6249906055625674
0.7063710139891769
0.5420611374217994
0.7747737647824094
0.6920864481636011
0.6754256357587483
0.5825223050108985
0.7130570258227154
0.6386297064250542
0.7319681732345993
0.6912167672134095
0.6804425191293713
0.6699650562159042
0.6983863941695493
0.6953127380650006
0.6865364284579968
0.5807147648520007
0.6647835271679727
0.6339328899559324