-0.01521958103875402
-0.1163901532318133
-0.12981097453626184
-0.1310651238037641
-0.18774123228251682
0.039936007621417656
-0.053323672781153915
-0.08333706769437936
-0.049284685132749945
-0.2557048035627419
-0.1083892106776592
-0.17506282834843706
-0.13886576109872129
-0.12835077237579484
-0.06879178044625474
-0.22857065839147697