-0.06109559715648558
-0.22859381408718146
-0.011191310171313383
-0.10353844142053066
-0.06826877693652533
-0.033073506429766
-0.06186557345617197
-0.06784574295874514
-0.13360132621369383
-0.0594164792535574
-0.08118308392834943
-0.09106328709691425
-0.09375475326705392
-0.1981080884000489
-0.19759264645689492
-0.16896500807390066
-0.13706828388635137
-0.17184238643020727
-0.18353240110254682
-0.2593621108701171
-0.03133832394423957
-0.11501352958915706
-0.19338514055942488
-0.0011881176287691678
-0.1778792691794427
-0.08986993028891058
-0.1660863906421871
-0.1337453229944948
-0.028452701540684546
-0.09546055623844424
-0.19270115313281927
-0.08336369608465687
-0.07659320984403262
-0.11078995812274195
-0.1423321217736027
-0.0897427421094089
-0.06320629511884228
-0.03811896137418043
-0.1018725074284267
-0.07948805354737565
-0.03607637922339427
-0.21206316633840316
-0.04178184219655487
-0.2030415919650219
-0.09465670637495054
-0.22370801832161877
-0.16271354200015675
-0.05670021718855149
-0.1605648001466317
-0.10821920641760921
-0.10895199532443144
-0.0993559458145527
0.007894369998708002
-0.16375855321262944
-0.06315339153533235
0.0040278306487503196
-0.0389396109828369
-0.05547589013151066
-0.19592310099707175
-0.20725074270282862
-0.1725897100685901
-0.19091081619711156
-0.02111726679198685
-0.09797791324928258
-0.12278908467449569
-0.23495843051806767
-0.189721886210147
-0.01580321504903279
-0.1676620150626111
-0.14155728106325055
-0.06600164446543162
-0.11298832429809545
-0.18110222025649947
-0.04306010655298002
-0.14122120941060434
-0.07809403812446442
-0.33124518618997667
-0.11998381053593675
-0.1584881013677395
-0.026961830484819233
-0.009466939179860348
-0.22888427151000354
-0.08722412040243467
-0.19039461749068357
-0.13027124588677558
-0.12243976423184157
-0.05677530183472697
-0.15964684043186894
-0.050513308006670504
-0.19226774529435336
-0.02494750152393278
-0.07081873412887434
-0.08472563766419534
-0.045392575729425955
-0.07231725490974182
-0.05243101252879149
-0.1040816566534069
-0.01449302367103195
-0.03632359504590798