123.38572223112871
140.31993980230047
133.1823102586311
91.66324167423177
82.573075813309
91.69597529509751
55.18232123820249
47.43125478614552
47.75722347557632
52.51053292687467
51.58278889577074
51.0590358718323
104.38843743803356
62.21408684632545
45.09615969165277
35.73825056118063
35.446176765217636
60.512883276287575
86.3751652088215
47.48873635301122
34.86092696161048
35.7636173994697
42.82291027755591
42.245433033795614
41.477372875068816
39.376964923467504
39.65584712417978
38.16977513322464
37.63249861054713
38.0430214943088
62.91632230943453
97.49499381046263
88.30882821984576
114.19375832164744
84.81052773496364
86.92996518074004
57.63333857618016
57.385576856595236
56.48918939723425
58.038915985594386
57.89546903431739
138.62815105099065
108.12958188690479
84.69866341353242
84.31891051086049
190.9238322593849
152.81927781755857
152.49912234176074
107.76134700878488
108.55735561615539
113.20519318558837
86.05400335116593
85.12571282427795
88.40515103545307
84.74122906901604
130.99717048198724
134.14074587418335
137.9405928271498
170.83887554384566
120.76434335931751
118.51092182912576
88.1620221893745
63.43851922671029
65.4850289313146
80.11650428648169
78.4105036274221
40.870534568926864
52.21707919573342
54.42472575470387
93.19495909630955
127.58830477828478
158.84122659521063
124.85610932599091
82.5402203051588
37.83456441009828
28.802702576985112
29.226252683433234
40.43315496169299
41.837769790239605
84.12847907268264
60.2795045513573
40.39848379886584
31.41162581320642
28.698638134720326
66.85635830802319
40.8578103045816
61.79281220156072
58.93956526125633
42.063200417234384
43.845281565321805
51.985766734709664
102.19508476896843
150.93122478159722
117.79530893891837
120.13403919229093
87.95259762593032
98.98383978341126
87.1129175270179
57.6554773015667
61.17501554893361
94.40876745081866
110.85744036676395
120.77174545674383
80.34097334669974
82.14330925613287
77.19408679823329
81.6951068952835
78.99411606466367
90.39242984000444
136.50243508536738
130.80603534409886
132.326275849155
127.63970129927641
137.78182336410032
123.29168843563373
119.90775480695085
121.79532108137231
130.61875892447569
145.38086792018237
132.86460521724445
90.63749028081666
88.69259938359501
92.02683084890714
115.35545561605048
56.84006204383593
56.45426081062473
54.92007111371888
125.10959915347306