271.43044188030746
338.3786343496985
490.1341010461744
76.49790276385686
116.72150848204954
141.84343520691928
64.50036184529047
47.442896910992076
53.827385441475414
48.64385235448895
47.52463632309597
49.39282932894894
161.67157878758556
71.57496508646454
41.95905810251548
50.0658226955105
49.88969509578965
58.87638622969914
69.04418952886081
71.2959286880781
34.50256864704586
27.138575188396942
30.53645041173547
30.45861605581411
27.395262425536018
37.20569175348335
35.72878915997294
31.717270986483108
34.24389875434616
32.155770439013516
100.59607364356123
201.69659961909053
130.02131021630836
271.4619734389527
82.06948453957209
93.9648105255743
50.460967953657715
42.04096402470098
40.98874816565753
45.69922910803392
40.33559116116665
546.2982622908384
288.9909054876021
89.74650091892491
101.19481169316059
1593.1374537939018
436.04631198514164
346.07677999837415
147.65354498590042
147.40644010653583
248.40842742011762
125.17512008831059
119.18156298540885
133.12794232952493
156.72024068534006
227.1850571110375
226.36506865236734
261.06818792858536
377.1331871018197
141.9760495077889
134.34143604046358
91.90478631870666
60.937033989248846
60.24053649658514
180.6056940750678
150.41072339303778
62.049697008498576
70.60744162404886
63.0768981744415
186.95712420568458
360.956713612927
278.83422322764096
226.94266013673413
101.97358762783253
85.12440111118451
45.28002926091195
46.05249497409601
59.922000167982354
56.1734387260656
105.13777093157162
78.37805247278301
62.32521648415664
56.53269446752494
47.08125895376272
74.87631863227
40.78395460615722
101.59966097800891
86.42997450985294
64.09528411671492
59.255567479257344
68.21823196845472
128.51373283101503
189.99584122419273
135.27914411144303
135.1892651738027
171.95832985746216
164.89407753690185
110.35157432617132
84.78600862867557
94.89231497733776
295.2891896408573
232.8470527370627
272.0522741903688
126.47798282945499
128.34406817259642
131.98016779588406
126.15952837257686
125.52587911718636
144.38775516097755
154.9386052028782
255.99869329864265
382.726629462181
245.69623735527418
250.14505277895634
209.92390117031363
212.37729890769228
209.05150690332124
288.5180402893494
541.0926011835187
385.1605180967233
147.1361978182188
152.26661521775233
87.34615246510337
169.04942142312723
64.38572639035733
63.467217586342535
67.28374871985648
191.1306318381648