0.1423071368779113
0.13995064155947418
0.14511349080995334
0.14934264516615797
0.14098692876661872
0.13968502818280257
0.14123340702668682
0.1365621660534308
0.1402167205378626
0.13624364761131877
0.1345964720854761
0.13861701164822499
0.13467658722641063
0.1326722746120616
0.131695643548101
0.13455150554775627
0.13761699856337506
0.13706612112443742
0.14977892652365735
0.14080483661266338
0.1400755539186371
0.14162748435197642
0.13027637746258958
0.12860930124331893
0.1262493403093829
0.1298395596596786
0.13377026301948236
0.13280576525741625
0.1301792440962403
0.13543325128850198
0.1348113623773492
0.1481332847745705
0.1365439323951427
0.1349467789519652
0.13571107164510005
0.1371026006476
0.13649059662458968
0.13747240531691685
0.13576754931289114
0.138584002258463
0.13824805973763554
0.13899265277690273
0.1429650257916692
0.13906204658181878
0.13572820536053576
0.1373804681102081
0.11721141623331513
0.12392324925098587
0.12302824975633238
0.1296407507821323
0.13673268959162468
0.13264359353916055
0.13120835274837847
0.12678660989589413
0.12578733416045643
0.12805762434779425
0.1263690231809772
0.13007279688892698
0.12831353460746345
0.12838278414803486
0.12868058053055995
0.13094723778021372
0.13331527801167015
0.13711165211568466
0.13915137124490506
0.1385191649010754
0.13088719306497218
0.12771764968208243
0.13029149907995402
0.11749209050172459
0.12129391166276919
0.10975345400060205
0.12858431472174503
0.12822213275868735
0.13134398150110058
0.1267471001770684
0.12736585276167312
0.1273644530953808
0.12953242401405124
0.12446067949799372
0.12658970412120688
0.1258366666007415
0.1269650886504652
0.12374761016432946
0.13305243795789176
0.13245939171607596
0.13658685549133945
0.1309310136467184
0.12647625093173032
0.13234322803626897
0.12896986928856133
0.1298088257851857
0.1132803891761706
0.12180156936570394
0.12049014362341946
0.12559634135345252
0.12667028457547114
0.13028109291594905
0.13077224071461122
0.12538244259825831
0.12196338483542812
0.12039497489763945
0.12465896867508133
0.12266973490577193
0.12303362435552938
0.11732267550938988
0.12249820269807565
0.1209317773247674
0.1249331925152505
0.12623786196646783
0.1282556486093486
0.12111334433366393
0.12482183001859799
0.11611715510636833
0.11900205127700311
0.120751002431568
0.12051252979948768
0.11902393556835507
0.12114747544905985
0.11129927321433183
0.12371108863627159
0.12224153684742599
0.12447369730152955
0.11737006249710057
0.12164261972165331
0.12077804902557157
0.11938885414772511
0.11862009671806634