0.1492240732033744
0.15186370691057607
0.14908975463106386
0.1589478420472618
0.15695404904602986
0.1524201820148398
0.15717005428053255
0.1516297467064898
0.15424186410534696
0.15057918690049232
0.14978948109798448
0.14896608323746577
0.13657945220036558
0.1432693299899205
0.14292329828796296
0.1440388004489628
0.14236345557687938
0.15033176153451644
0.15372443049657306
0.14780329849432433
0.14896146208074876
0.14606446669526515
0.1427634613334248
0.1394170194888665
0.14257617323313934
0.1388876691275534
0.13871157724950436
0.14274802227706881
0.14428219840548767
0.14531739072300354
0.14610190910336968
0.15252061167653275
0.14685537479961808
0.14208622245581018
0.1424033250271083
0.14575388309445045
0.14979545093619048
0.14744721725178242
0.14812118071325758
0.1467259205209189
0.14921611840502272
0.1440989687412779
0.14864518311444033
0.1460054020985765
0.1428334181509426
0.1341901368998359
0.12862787659092048
0.13011845115626816
0.1384233506844132
0.1396455546815322
0.13844386736420436
0.1451445297538184
0.14432154106345493
0.1374957626317607
0.13988639297352554
0.13583514895051527
0.13905109417690664
0.13928604521714388
0.13304502099151355
0.13526453240561964
0.13593473244213417
0.13276989836727965
0.14643563078466298
0.14480646299196934
0.14146552536840096
0.14645040212664112
0.14122281666811615
0.14148567048109847
0.1401884180959101
0.12805005121808857
0.1340511968508579
0.12410038988085147
0.12721291651768005
0.1323482802070271
0.1396129351935933
0.14066557541378438
0.13920072608494818
0.13993076202575186
0.141174966691233
0.12548024095805596
0.13493639619815476
0.13936064980135124
0.14096715316528566
0.13975681240275456
0.1438592257059928
0.13635654876497422
0.13901596252232282
0.13984567335092585
0.135852356914419
0.13554792557440867
0.14217859322731555
0.13440230220324595
0.1227883962235545
0.12987072157387905
0.1316740149122074
0.13568486265982677
0.1382648117022119
0.13268984416072724
0.13811281465079558
0.136338575611545
0.12974823152282258
0.13526644840589028
0.13241809529641313
0.13499274753839074
0.13195852440614736
0.13279867848343752
0.12907260938119997
0.13373113990891064
0.13031445114118298
0.13382213059817438
0.13527930044514264
0.132196836035995
0.1298217049239319
0.13119470148024243
0.12445758201580769
0.1307365180320001
0.13253316829525574
0.13027464070996417
0.1260341385521156
0.12294665428783906
0.13433738862148106
0.13145655603279843
0.13526556519123126
0.12722260153791423
0.13024969874348077
0.1304172878979041
0.1287625836741097
0.1320237588073212