0.13672752737216565
0.11008575817158339
0.10269458309263718
0.09277223544817328
0.1066069243308453
0.09218506356265123
0.10770120934456157
0.0891899425782027
0.11462651326638199
0.13271974404062065
0.14370403802584414
0.1190787433490863
0.12355082324517687
0.133220510506518
0.1606112586055741
0.11911337612524159