0.6913084271732136
0.6893797652576278
0.6913909867763072
0.690175203457053
0.7246631594201483
0.7307909131892769
0.7281579662448256
0.720586786750301
0.7201843365780899
0.7166453281118481
0.708499219246233
0.7085668117436034
0.7048367481630534
0.6999019352503388
0.6993613065105456
0.7133596412718277
0.7153630841805511
0.72075389910801
0.7109183475080797
0.7070810782444046
0.7063767780118123
0.7006982342926122
0.696554800680685
0.695445867620318
0.6961734358119567
0.6967799313136617
0.6956865756188609
0.6998101853045524
0.6993611386097072
0.703389603271977
0.70642962599432
0.7074217067784406
0.702206996317753
0.7041773195120989
0.713336370317328
0.7117896113795287
0.7051767942823228
0.7052441800257878
0.710188464292021
0.7012666512872744
0.7004691295644259
0.7167265099899768
0.7134134158682068
0.7110568909252913
0.7157496143835509
0.7294797099117296
0.7327817980719877
0.7353247356831014
0.7230205127550231
0.720319555187145
0.7113417347876562
0.7079068975932826
0.7223285388312399
0.7233711637414393
0.7342716472014595
0.7434855055880886
0.7432010694734758
0.7416494785503459
0.733722955749568
0.7398801907792237
0.7373375799383454
0.7291827586012062
0.7183342857085728
0.7181167364768022
0.6925429975774606
0.7101248024533757
0.7175623276750901
0.7178400312664146
0.7270258057438741
0.7251134711906345
0.7262688550894669
0.7285925466619471
0.717334296778652
0.718324236100376
0.7115217934544406
0.707714552023684
0.709194868347548
0.708934349974273
0.7144172244608893
0.720236009657706
0.714406484063382
0.7091527034358885
0.7062520222331812
0.7057201881698355
0.7064157561730408
0.7061636501254335
0.708618140870617
0.7138359034982188
0.7095113972131378
0.7091177582634594
0.7095283174876953
0.7102070507713677
0.7104737842628843
0.7170660176595366
0.7188161876793426
0.7136416113065169
0.7093196254440255
0.7163844135523553
0.7119691687728035
0.7142008070782675
0.7185045939553185
0.7210283647698491
0.7201503406237219
0.7127608157321763
0.7131530199854322
0.7130619550387425
0.7278408384306455
0.7194650849372605
0.7200748031812187
0.7207272257510523
0.711900755758566
0.7250722705566678
0.7296535796504836
0.7285098654090071
0.7309768997961504
0.7347667351558365
0.738982653148986
0.7222103586958065
0.7402874582354256
0.7354800774655653
0.735924782957093
0.7349402221104185
0.733665775620684
0.7318557555657963
0.7294961320209625
0.7280384360403896
0.724429921922301
0.7186214082204301