0.5486502731940777
0.549309782022472
0.5482743408667562
0.5461333547281173
0.6047468300430954
0.6184081370394835
0.6134012088494831
0.6004637974867947
0.5998987623358745
0.5794992575439136
0.56377095946129
0.5790125976400341
0.57492949941238
0.5625354327508058
0.5619856030442925
0.5896760519039898
0.5866470468148608
0.5990248275613037
0.5970385665780489
0.5715855972276063
0.5734808617387245
0.5664964689938395
0.5615630885657583
0.5616129526889172
0.5621177600547135
0.5638750277376527
0.5618738448257483
0.5632346565231563
0.5630102991457564
0.5705015730935943
0.5760614120497155
0.5712632898796685
0.5678495243810451
0.5723040592553965
0.5834215327045436
0.5732922675593332
0.5692332367388975
0.5647859239217528
0.5750179986978214
0.5718050684531739
0.5702218179149021
0.5797442045705763
0.5748340913688623
0.5722103005382272
0.5750513627320158
0.5880629181599675
0.5892067954504434
0.5975551018306176
0.5945128817615472
0.5944663202537764
0.5816257926249664
0.5799135250418834
0.6084146471886406
0.6032752217037384
0.6202534480145003
0.6147526307888316
0.6174389448460577
0.604441876094283
0.6019603184802943
0.6151792200369233
0.6217838191731764
0.6170915997834076
0.6013307351553822
0.6009366065185537
0.5480272432548806
0.5760015809085351
0.5925917052582971
0.5835873968714366
0.6058672385034004
0.5973837647384462
0.5964738254667834
0.597457275660624
0.5816115611201099
0.5762045798194267
0.5753374123942877
0.5681291722434131
0.5677037101268718
0.5676453571992944
0.575993064708145
0.5823311202195923
0.5816689331862999
0.5713008249303135
0.5699463957534415
0.5661299745976202
0.5556157135566135
0.562574569568928
0.561913412545169
0.5686881573456336
0.5632332873133188
0.5624733083400139
0.569119187090087
0.5766100977911774
0.5779303739837133
0.5811442247547904
0.5743730390577044
0.5724329599152899
0.5645231075364521
0.5834558312950695
0.5796827285094717
0.5793970568830445
0.5905435338835667
0.5825223946719766
0.5844659547738137
0.5851480419355793
0.5848367133707824
0.5853325173496083
0.6069905217762559
0.5997218722640475
0.5995114948566295
0.5921527588366275
0.5764077436998802
0.5982096649406848
0.6144224696594865
0.6115910323075948
0.6234278172346106
0.6320580094452618
0.6278850910407381
0.6138486729871505
0.6194548720822826
0.6198115635719783
0.6190740720225237
0.6259855029249518
0.6297195394595985
0.6226210872069192
0.6178450335402413
0.6139036255786935
0.5942629549602473
0.5772850690154292