%!PS-Adobe-3.0 EPSF-3.0
%%Creator: (MATLAB, The Mathworks, Inc. Version 9.2.0.556344 \(R2017a\). Operating System: Windows 8)
%%Title: D:/home/Faculta/fbnc/Matlab/Plots/metrics_v1/peaks/gcc_peaks_sc_R.eps
%%CreationDate: 2017-07-02T15:17:38
%%Pages: (atend)
%%BoundingBox: 0 0 1440 730
%%LanguageLevel: 3
%%EndComments
%%BeginProlog
%%BeginResource: procset (Apache XML Graphics Std ProcSet) 1.2 0
%%Version: 1.2 0
%%Copyright: (Copyright 2001-2003,2010 The Apache Software Foundation. License terms: http://www.apache.org/licenses/LICENSE-2.0)
/bd{bind def}bind def
/ld{load def}bd
/GR/grestore ld
/M/moveto ld
/LJ/setlinejoin ld
/C/curveto ld
/f/fill ld
/LW/setlinewidth ld
/GC/setgray ld
/t/show ld
/N/newpath ld
/CT/concat ld
/cp/closepath ld
/S/stroke ld
/L/lineto ld
/CC/setcmykcolor ld
/A/ashow ld
/GS/gsave ld
/RC/setrgbcolor ld
/RM/rmoveto ld
/ML/setmiterlimit ld
/re {4 2 roll M
1 index 0 rlineto
0 exch rlineto
neg 0 rlineto
cp } bd
/_ctm matrix def
/_tm matrix def
/BT { _ctm currentmatrix pop matrix _tm copy pop 0 0 moveto } bd
/ET { _ctm setmatrix } bd
/iTm { _ctm setmatrix _tm concat } bd
/Tm { _tm astore pop iTm 0 0 moveto } bd
/ux 0.0 def
/uy 0.0 def
/F {
  /Tp exch def
  /Tf exch def
  Tf findfont Tp scalefont setfont
  /cf Tf def  /cs Tp def
} bd
/ULS {currentpoint /uy exch def /ux exch def} bd
/ULE {
  /Tcx currentpoint pop def
  gsave
  newpath
  cf findfont cs scalefont dup
  /FontMatrix get 0 get /Ts exch def /FontInfo get dup
  /UnderlinePosition get Ts mul /To exch def
  /UnderlineThickness get Ts mul /Tt exch def
  ux uy To add moveto  Tcx uy To add lineto
  Tt setlinewidth stroke
  grestore
} bd
/OLE {
  /Tcx currentpoint pop def
  gsave
  newpath
  cf findfont cs scalefont dup
  /FontMatrix get 0 get /Ts exch def /FontInfo get dup
  /UnderlinePosition get Ts mul /To exch def
  /UnderlineThickness get Ts mul /Tt exch def
  ux uy To add cs add moveto Tcx uy To add cs add lineto
  Tt setlinewidth stroke
  grestore
} bd
/SOE {
  /Tcx currentpoint pop def
  gsave
  newpath
  cf findfont cs scalefont dup
  /FontMatrix get 0 get /Ts exch def /FontInfo get dup
  /UnderlinePosition get Ts mul /To exch def
  /UnderlineThickness get Ts mul /Tt exch def
  ux uy To add cs 10 mul 26 idiv add moveto Tcx uy To add cs 10 mul 26 idiv add lineto
  Tt setlinewidth stroke
  grestore
} bd
/QT {
/Y22 exch store
/X22 exch store
/Y21 exch store
/X21 exch store
currentpoint
/Y21 load 2 mul add 3 div exch
/X21 load 2 mul add 3 div exch
/X21 load 2 mul /X22 load add 3 div
/Y21 load 2 mul /Y22 load add 3 div
/X22 load /Y22 load curveto
} bd
/SSPD {
dup length /d exch dict def
{
/v exch def
/k exch def
currentpagedevice k known {
/cpdv currentpagedevice k get def
v cpdv ne {
/upd false def
/nullv v type /nulltype eq def
/nullcpdv cpdv type /nulltype eq def
nullv nullcpdv or
{
/upd true def
} {
/sametype v type cpdv type eq def
sametype {
v type /arraytype eq {
/vlen v length def
/cpdvlen cpdv length def
vlen cpdvlen eq {
0 1 vlen 1 sub {
/i exch def
/obj v i get def
/cpdobj cpdv i get def
obj cpdobj ne {
/upd true def
exit
} if
} for
} {
/upd true def
} ifelse
} {
v type /dicttype eq {
v {
/dv exch def
/dk exch def
/cpddv cpdv dk get def
dv cpddv ne {
/upd true def
exit
} if
} forall
} {
/upd true def
} ifelse
} ifelse
} if
} ifelse
upd true eq {
d k v put
} if
} if
} if
} forall
d length 0 gt {
d setpagedevice
} if
} bd
/RE { % /NewFontName [NewEncodingArray] /FontName RE -
  findfont dup length dict begin
  {
    1 index /FID ne
    {def} {pop pop} ifelse
  } forall
  /Encoding exch def
  /FontName 1 index def
  currentdict definefont pop
  end
} bind def
%%EndResource
%%BeginResource: procset (Apache XML Graphics EPS ProcSet) 1.0 0
%%Version: 1.0 0
%%Copyright: (Copyright 2002-2003 The Apache Software Foundation. License terms: http://www.apache.org/licenses/LICENSE-2.0)
/BeginEPSF { %def
/b4_Inc_state save def         % Save state for cleanup
/dict_count countdictstack def % Count objects on dict stack
/op_count count 1 sub def      % Count objects on operand stack
userdict begin                 % Push userdict on dict stack
/showpage { } def              % Redefine showpage, { } = null proc
0 setgray 0 setlinecap         % Prepare graphics state
1 setlinewidth 0 setlinejoin
10 setmiterlimit [ ] 0 setdash newpath
/languagelevel where           % If level not equal to 1 then
{pop languagelevel             % set strokeadjust and
1 ne                           % overprint to their defaults.
{false setstrokeadjust false setoverprint
} if
} if
} bd
/EndEPSF { %def
count op_count sub {pop} repeat            % Clean up stacks
countdictstack dict_count sub {end} repeat
b4_Inc_state restore
} bd
%%EndResource
%FOPBeginFontDict
%%IncludeResource: font Courier-Bold
%%IncludeResource: font Helvetica
%%IncludeResource: font Courier-BoldOblique
%%IncludeResource: font Courier-Oblique
%%IncludeResource: font Times-Roman
%%IncludeResource: font Helvetica-BoldOblique
%%IncludeResource: font Helvetica-Bold
%%IncludeResource: font Helvetica-Oblique
%%IncludeResource: font Times-BoldItalic
%%IncludeResource: font Courier
%%IncludeResource: font Times-Italic
%%IncludeResource: font Times-Bold
%%IncludeResource: font Symbol
%%IncludeResource: font ZapfDingbats
%FOPEndFontDict
%%BeginResource: encoding WinAnsiEncoding
/WinAnsiEncoding [
/.notdef /.notdef /.notdef /.notdef /.notdef
/.notdef /.notdef /.notdef /.notdef /.notdef
/.notdef /.notdef /.notdef /.notdef /.notdef
/.notdef /.notdef /.notdef /.notdef /.notdef
/.notdef /.notdef /.notdef /.notdef /.notdef
/.notdef /.notdef /.notdef /.notdef /.notdef
/.notdef /.notdef /space /exclam /quotedbl
/numbersign /dollar /percent /ampersand /quotesingle
/parenleft /parenright /asterisk /plus /comma
/hyphen /period /slash /zero /one
/two /three /four /five /six
/seven /eight /nine /colon /semicolon
/less /equal /greater /question /at
/A /B /C /D /E
/F /G /H /I /J
/K /L /M /N /O
/P /Q /R /S /T
/U /V /W /X /Y
/Z /bracketleft /backslash /bracketright /asciicircum
/underscore /quoteleft /a /b /c
/d /e /f /g /h
/i /j /k /l /m
/n /o /p /q /r
/s /t /u /v /w
/x /y /z /braceleft /bar
/braceright /asciitilde /bullet /Euro /bullet
/quotesinglbase /florin /quotedblbase /ellipsis /dagger
/daggerdbl /circumflex /perthousand /Scaron /guilsinglleft
/OE /bullet /Zcaron /bullet /bullet
/quoteleft /quoteright /quotedblleft /quotedblright /bullet
/endash /emdash /asciitilde /trademark /scaron
/guilsinglright /oe /bullet /zcaron /Ydieresis
/space /exclamdown /cent /sterling /currency
/yen /brokenbar /section /dieresis /copyright
/ordfeminine /guillemotleft /logicalnot /sfthyphen /registered
/macron /degree /plusminus /twosuperior /threesuperior
/acute /mu /paragraph /middot /cedilla
/onesuperior /ordmasculine /guillemotright /onequarter /onehalf
/threequarters /questiondown /Agrave /Aacute /Acircumflex
/Atilde /Adieresis /Aring /AE /Ccedilla
/Egrave /Eacute /Ecircumflex /Edieresis /Igrave
/Iacute /Icircumflex /Idieresis /Eth /Ntilde
/Ograve /Oacute /Ocircumflex /Otilde /Odieresis
/multiply /Oslash /Ugrave /Uacute /Ucircumflex
/Udieresis /Yacute /Thorn /germandbls /agrave
/aacute /acircumflex /atilde /adieresis /aring
/ae /ccedilla /egrave /eacute /ecircumflex
/edieresis /igrave /iacute /icircumflex /idieresis
/eth /ntilde /ograve /oacute /ocircumflex
/otilde /odieresis /divide /oslash /ugrave
/uacute /ucircumflex /udieresis /yacute /thorn
/ydieresis
] def
%%EndResource
%FOPBeginFontReencode
/Courier-Bold findfont
dup length dict begin
  {1 index /FID ne {def} {pop pop} ifelse} forall
  /Encoding WinAnsiEncoding def
  currentdict
end
/Courier-Bold exch definefont pop
/Helvetica findfont
dup length dict begin
  {1 index /FID ne {def} {pop pop} ifelse} forall
  /Encoding WinAnsiEncoding def
  currentdict
end
/Helvetica exch definefont pop
/Courier-BoldOblique findfont
dup length dict begin
  {1 index /FID ne {def} {pop pop} ifelse} forall
  /Encoding WinAnsiEncoding def
  currentdict
end
/Courier-BoldOblique exch definefont pop
/Courier-Oblique findfont
dup length dict begin
  {1 index /FID ne {def} {pop pop} ifelse} forall
  /Encoding WinAnsiEncoding def
  currentdict
end
/Courier-Oblique exch definefont pop
/Times-Roman findfont
dup length dict begin
  {1 index /FID ne {def} {pop pop} ifelse} forall
  /Encoding WinAnsiEncoding def
  currentdict
end
/Times-Roman exch definefont pop
/Helvetica-BoldOblique findfont
dup length dict begin
  {1 index /FID ne {def} {pop pop} ifelse} forall
  /Encoding WinAnsiEncoding def
  currentdict
end
/Helvetica-BoldOblique exch definefont pop
/Helvetica-Bold findfont
dup length dict begin
  {1 index /FID ne {def} {pop pop} ifelse} forall
  /Encoding WinAnsiEncoding def
  currentdict
end
/Helvetica-Bold exch definefont pop
/Helvetica-Oblique findfont
dup length dict begin
  {1 index /FID ne {def} {pop pop} ifelse} forall
  /Encoding WinAnsiEncoding def
  currentdict
end
/Helvetica-Oblique exch definefont pop
/Times-BoldItalic findfont
dup length dict begin
  {1 index /FID ne {def} {pop pop} ifelse} forall
  /Encoding WinAnsiEncoding def
  currentdict
end
/Times-BoldItalic exch definefont pop
/Courier findfont
dup length dict begin
  {1 index /FID ne {def} {pop pop} ifelse} forall
  /Encoding WinAnsiEncoding def
  currentdict
end
/Courier exch definefont pop
/Times-Italic findfont
dup length dict begin
  {1 index /FID ne {def} {pop pop} ifelse} forall
  /Encoding WinAnsiEncoding def
  currentdict
end
/Times-Italic exch definefont pop
/Times-Bold findfont
dup length dict begin
  {1 index /FID ne {def} {pop pop} ifelse} forall
  /Encoding WinAnsiEncoding def
  currentdict
end
/Times-Bold exch definefont pop
%FOPEndFontReencode
%%EndProlog
%%Page: 1 1
%%PageBoundingBox: 0 0 1440 730
%%BeginPageSetup
[1 0 0 -1 0 730] CT
%%EndPageSetup
GS
[0.75 0 0 0.75 0 0.25] CT
N
0 0 M
1920 0 L
1920 973 L
0 973 L
0 0 L
cp
clip
1 GC
N
0 0 1920 973 re
f
GR
GS
[0.75 0 0 0.75 0 0.25] CT
1 GC
N
0 0 1920 973 re
f
GR
GS
[0.75 0 0 0.75 0 0.25] CT
1 GC
N
250 276 M
659 276 L
659 139 L
250 139 L
cp
f
GR
GS
[0.75 0 0 0.75 0 0.25] CT
0.149 GC
2 setlinecap
1 LJ
0.667 LW
N
250 276 M
659 276 L
S
GR
GS
[0.75 0 0 0.75 0 0.25] CT
0.149 GC
2 setlinecap
1 LJ
0.667 LW
N
250 139 M
659 139 L
S
GR
GS
[0.75 0 0 0.75 0 0.25] CT
0.149 GC
2 setlinecap
1 LJ
0.667 LW
N
250 276 M
250 271.91 L
S
GR
GS
[0.75 0 0 0.75 0 0.25] CT
0.149 GC
2 setlinecap
1 LJ
0.667 LW
N
308.429 276 M
308.429 271.91 L
S
GR
GS
[0.75 0 0 0.75 0 0.25] CT
0.149 GC
2 setlinecap
1 LJ
0.667 LW
N
366.857 276 M
366.857 271.91 L
S
GR
GS
[0.75 0 0 0.75 0 0.25] CT
0.149 GC
2 setlinecap
1 LJ
0.667 LW
N
425.286 276 M
425.286 271.91 L
S
GR
GS
[0.75 0 0 0.75 0 0.25] CT
0.149 GC
2 setlinecap
1 LJ
0.667 LW
N
483.714 276 M
483.714 271.91 L
S
GR
GS
[0.75 0 0 0.75 0 0.25] CT
0.149 GC
2 setlinecap
1 LJ
0.667 LW
N
542.143 276 M
542.143 271.91 L
S
GR
GS
[0.75 0 0 0.75 0 0.25] CT
0.149 GC
2 setlinecap
1 LJ
0.667 LW
N
600.571 276 M
600.571 271.91 L
S
GR
GS
[0.75 0 0 0.75 0 0.25] CT
0.149 GC
2 setlinecap
1 LJ
0.667 LW
N
659 276 M
659 271.91 L
S
GR
GS
[0.75 0 0 0.75 0 0.25] CT
0.149 GC
2 setlinecap
1 LJ
0.667 LW
N
250 139 M
250 143.09 L
S
GR
GS
[0.75 0 0 0.75 0 0.25] CT
0.149 GC
2 setlinecap
1 LJ
0.667 LW
N
308.429 139 M
308.429 143.09 L
S
GR
GS
[0.75 0 0 0.75 0 0.25] CT
0.149 GC
2 setlinecap
1 LJ
0.667 LW
N
366.857 139 M
366.857 143.09 L
S
GR
GS
[0.75 0 0 0.75 0 0.25] CT
0.149 GC
2 setlinecap
1 LJ
0.667 LW
N
425.286 139 M
425.286 143.09 L
S
GR
GS
[0.75 0 0 0.75 0 0.25] CT
0.149 GC
2 setlinecap
1 LJ
0.667 LW
N
483.714 139 M
483.714 143.09 L
S
GR
GS
[0.75 0 0 0.75 0 0.25] CT
0.149 GC
2 setlinecap
1 LJ
0.667 LW
N
542.143 139 M
542.143 143.09 L
S
GR
GS
[0.75 0 0 0.75 0 0.25] CT
0.149 GC
2 setlinecap
1 LJ
0.667 LW
N
600.571 139 M
600.571 143.09 L
S
GR
GS
[0.75 0 0 0.75 0 0.25] CT
0.149 GC
2 setlinecap
1 LJ
0.667 LW
N
659 139 M
659 143.09 L
S
GR
GS
[0.75 0 0 0.75 187.5 211.24998] CT
0.149 GC
/Helvetica 13.333 F
GS
[1 0 0 1 0 0] CT
-4 14 moveto 
1 -1 scale
(0) t 
GR
GR
GS
[0.75 0 0 0.75 231.32142 211.24998] CT
0.149 GC
/Helvetica 13.333 F
GS
[1 0 0 1 0 0] CT
-7.5 14 moveto 
1 -1 scale
(10) t 
GR
GR
GS
[0.75 0 0 0.75 275.14286 211.24998] CT
0.149 GC
/Helvetica 13.333 F
GS
[1 0 0 1 0 0] CT
-7.5 14 moveto 
1 -1 scale
(20) t 
GR
GR
GS
[0.75 0 0 0.75 318.96428 211.24998] CT
0.149 GC
/Helvetica 13.333 F
GS
[1 0 0 1 0 0] CT
-7.5 14 moveto 
1 -1 scale
(30) t 
GR
GR
GS
[0.75 0 0 0.75 362.78572 211.24998] CT
0.149 GC
/Helvetica 13.333 F
GS
[1 0 0 1 0 0] CT
-7.5 14 moveto 
1 -1 scale
(40) t 
GR
GR
GS
[0.75 0 0 0.75 406.60716 211.24998] CT
0.149 GC
/Helvetica 13.333 F
GS
[1 0 0 1 0 0] CT
-7.5 14 moveto 
1 -1 scale
(50) t 
GR
GR
GS
[0.75 0 0 0.75 450.42856 211.24998] CT
0.149 GC
/Helvetica 13.333 F
GS
[1 0 0 1 0 0] CT
-7.5 14 moveto 
1 -1 scale
(60) t 
GR
GR
GS
[0.75 0 0 0.75 494.25 211.24998] CT
0.149 GC
/Helvetica 13.333 F
GS
[1 0 0 1 0 0] CT
-7.5 14 moveto 
1 -1 scale
(70) t 
GR
GR
GS
[0.75 0 0 0.75 340.87516 224.99999] CT
0.149 GC
/Helvetica 14.667 F
GS
[1 0 0 1 0 0] CT
-30.5 16 moveto 
1 -1 scale
(channels) t 
GR
GR
GS
[0.75 0 0 0.75 0 0.25] CT
0.149 GC
2 setlinecap
1 LJ
0.667 LW
N
250 276 M
250 139 L
S
GR
GS
[0.75 0 0 0.75 0 0.25] CT
0.149 GC
2 setlinecap
1 LJ
0.667 LW
N
659 276 M
659 139 L
S
GR
GS
[0.75 0 0 0.75 0 0.25] CT
0.149 GC
2 setlinecap
1 LJ
0.667 LW
N
250 276 M
254.09 276 L
S
GR
GS
[0.75 0 0 0.75 0 0.25] CT
0.149 GC
2 setlinecap
1 LJ
0.667 LW
N
250 230.333 M
254.09 230.333 L
S
GR
GS
[0.75 0 0 0.75 0 0.25] CT
0.149 GC
2 setlinecap
1 LJ
0.667 LW
N
250 184.667 M
254.09 184.667 L
S
GR
GS
[0.75 0 0 0.75 0 0.25] CT
0.149 GC
2 setlinecap
1 LJ
0.667 LW
N
250 139 M
254.09 139 L
S
GR
GS
[0.75 0 0 0.75 0 0.25] CT
0.149 GC
2 setlinecap
1 LJ
0.667 LW
N
659 276 M
654.91 276 L
S
GR
GS
[0.75 0 0 0.75 0 0.25] CT
0.149 GC
2 setlinecap
1 LJ
0.667 LW
N
659 230.333 M
654.91 230.333 L
S
GR
GS
[0.75 0 0 0.75 0 0.25] CT
0.149 GC
2 setlinecap
1 LJ
0.667 LW
N
659 184.667 M
654.91 184.667 L
S
GR
GS
[0.75 0 0 0.75 0 0.25] CT
0.149 GC
2 setlinecap
1 LJ
0.667 LW
N
659 139 M
654.91 139 L
S
GR
GS
[0.75 0 0 0.75 183.5 207.25] CT
0.149 GC
/Helvetica 13.333 F
GS
[1 0 0 1 0 0] CT
-19 5.5 moveto 
1 -1 scale
(0.6) t 
GR
GR
GS
[0.75 0 0 0.75 183.5 173.00001] CT
0.149 GC
/Helvetica 13.333 F
GS
[1 0 0 1 0 0] CT
-19 5.5 moveto 
1 -1 scale
(0.7) t 
GR
GR
GS
[0.75 0 0 0.75 183.5 138.74999] CT
0.149 GC
/Helvetica 13.333 F
GS
[1 0 0 1 0 0] CT
-19 5.5 moveto 
1 -1 scale
(0.8) t 
GR
GR
GS
[0.75 0 0 0.75 183.5 104.50001] CT
0.149 GC
/Helvetica 13.333 F
GS
[1 0 0 1 0 0] CT
-19 5.5 moveto 
1 -1 scale
(0.9) t 
GR
GR
GS
[0 -0.75 0.75 0 166.25 155.87495] CT
0.149 GC
/Helvetica 14.667 F
GS
[1 0 0 1 0 0] CT
-11 -4 moveto 
1 -1 scale
(CC) t 
GR
GR
GS
[0.75 0 0 0.75 304.5 99.25] CT
/Helvetica-Bold 14.667 F
GS
[1 0 0 1 0 0] CT
0 0 moveto 
1 -1 scale
(SEEN \(129_1\)) t 
GR
GR
GS
[0.75 0 0 0.75 0 0.25] CT
0 0.447 0.741 RC
1 LJ
0.667 LW
N
255.843 165.884 M
261.686 171.083 L
267.529 185.856 L
273.371 174.3 L
279.214 178.337 L
285.057 178.804 L
290.9 152.083 L
296.743 166.396 L
302.586 167.637 L
308.429 176.644 L
314.271 167.477 L
320.114 179.086 L
325.957 166.414 L
331.8 169.058 L
337.643 167.745 L
343.486 167.471 L
349.329 164.253 L
355.171 180.22 L
361.014 191.648 L
366.857 188.111 L
372.7 178.118 L
378.543 158.208 L
384.386 179.008 L
390.229 172.559 L
396.071 152.186 L
401.914 179.215 L
407.757 173.156 L
413.6 176.798 L
419.443 167.443 L
425.286 172.765 L
431.129 190.385 L
436.971 179.916 L
442.814 191.462 L
448.657 162.738 L
454.5 174.55 L
460.343 165.526 L
466.186 180.674 L
472.029 179.418 L
477.871 186.322 L
483.714 179.515 L
489.557 172.605 L
495.4 176.899 L
501.243 174.778 L
507.086 176.417 L
512.929 182.09 L
518.771 183.482 L
524.614 181.112 L
530.457 181.22 L
536.3 183.587 L
542.143 165.709 L
547.986 191.568 L
553.829 190.177 L
559.671 181.004 L
565.514 200.223 L
571.357 175.908 L
577.2 178.143 L
583.043 177.555 L
588.886 169.195 L
594.729 187.222 L
600.571 168.401 L
606.414 167.99 L
612.257 182.776 L
618.1 197.086 L
S
GR
GS
[0.75 0 0 0.75 0 0.25] CT
0.851 0.325 0.098 RC
1 LJ
0.667 LW
N
255.843 243.195 M
261.686 233.129 L
267.529 224.054 L
273.371 229.431 L
279.214 231.722 L
285.057 220.679 L
290.9 214.667 L
296.743 221.968 L
302.586 226.287 L
308.429 220.969 L
314.271 203.026 L
320.114 219.804 L
325.957 221.102 L
331.8 228.205 L
337.643 221.452 L
343.486 226.65 L
349.329 221.832 L
355.171 215.045 L
361.014 225.773 L
366.857 238.335 L
372.7 215.678 L
378.543 217.955 L
384.386 209.909 L
390.229 240.952 L
396.071 233.99 L
401.914 217.615 L
407.757 221.233 L
413.6 235.305 L
419.443 214.951 L
425.286 226.947 L
431.129 222.627 L
436.971 235.503 L
442.814 216.71 L
448.657 217.009 L
454.5 198.56 L
460.343 231.244 L
466.186 213.066 L
472.029 207.498 L
477.871 224.203 L
483.714 204.923 L
489.557 210.384 L
495.4 224.261 L
501.243 204.167 L
507.086 208.326 L
512.929 206.393 L
518.771 204.467 L
524.614 216.061 L
530.457 222.578 L
536.3 219.91 L
542.143 226.686 L
547.986 222.619 L
553.829 236.99 L
559.671 234.645 L
565.514 219.381 L
571.357 236.354 L
577.2 220.227 L
583.043 218.469 L
588.886 226.736 L
594.729 246.334 L
600.571 229.132 L
606.414 224.336 L
612.257 221.014 L
618.1 202.066 L
S
GR
GS
[0.75 0 0 0.75 0 0.25] CT
1 GC
N
789 276 M
1198 276 L
1198 139 L
789 139 L
cp
f
GR
GS
[0.75 0 0 0.75 0 0.25] CT
0.149 GC
2 setlinecap
1 LJ
0.667 LW
N
789 276 M
1198 276 L
S
GR
GS
[0.75 0 0 0.75 0 0.25] CT
0.149 GC
2 setlinecap
1 LJ
0.667 LW
N
789 139 M
1198 139 L
S
GR
GS
[0.75 0 0 0.75 0 0.25] CT
0.149 GC
2 setlinecap
1 LJ
0.667 LW
N
789 276 M
789 271.91 L
S
GR
GS
[0.75 0 0 0.75 0 0.25] CT
0.149 GC
2 setlinecap
1 LJ
0.667 LW
N
857.167 276 M
857.167 271.91 L
S
GR
GS
[0.75 0 0 0.75 0 0.25] CT
0.149 GC
2 setlinecap
1 LJ
0.667 LW
N
925.333 276 M
925.333 271.91 L
S
GR
GS
[0.75 0 0 0.75 0 0.25] CT
0.149 GC
2 setlinecap
1 LJ
0.667 LW
N
993.5 276 M
993.5 271.91 L
S
GR
GS
[0.75 0 0 0.75 0 0.25] CT
0.149 GC
2 setlinecap
1 LJ
0.667 LW
N
1061.667 276 M
1061.667 271.91 L
S
GR
GS
[0.75 0 0 0.75 0 0.25] CT
0.149 GC
2 setlinecap
1 LJ
0.667 LW
N
1129.833 276 M
1129.833 271.91 L
S
GR
GS
[0.75 0 0 0.75 0 0.25] CT
0.149 GC
2 setlinecap
1 LJ
0.667 LW
N
1198 276 M
1198 271.91 L
S
GR
GS
[0.75 0 0 0.75 0 0.25] CT
0.149 GC
2 setlinecap
1 LJ
0.667 LW
N
789 139 M
789 143.09 L
S
GR
GS
[0.75 0 0 0.75 0 0.25] CT
0.149 GC
2 setlinecap
1 LJ
0.667 LW
N
857.167 139 M
857.167 143.09 L
S
GR
GS
[0.75 0 0 0.75 0 0.25] CT
0.149 GC
2 setlinecap
1 LJ
0.667 LW
N
925.333 139 M
925.333 143.09 L
S
GR
GS
[0.75 0 0 0.75 0 0.25] CT
0.149 GC
2 setlinecap
1 LJ
0.667 LW
N
993.5 139 M
993.5 143.09 L
S
GR
GS
[0.75 0 0 0.75 0 0.25] CT
0.149 GC
2 setlinecap
1 LJ
0.667 LW
N
1061.667 139 M
1061.667 143.09 L
S
GR
GS
[0.75 0 0 0.75 0 0.25] CT
0.149 GC
2 setlinecap
1 LJ
0.667 LW
N
1129.833 139 M
1129.833 143.09 L
S
GR
GS
[0.75 0 0 0.75 0 0.25] CT
0.149 GC
2 setlinecap
1 LJ
0.667 LW
N
1198 139 M
1198 143.09 L
S
GR
GS
[0.75 0 0 0.75 591.75 211.24998] CT
0.149 GC
/Helvetica 13.333 F
GS
[1 0 0 1 0 0] CT
-4 14 moveto 
1 -1 scale
(0) t 
GR
GR
GS
[0.75 0 0 0.75 642.87502 211.24998] CT
0.149 GC
/Helvetica 13.333 F
GS
[1 0 0 1 0 0] CT
-7.5 14 moveto 
1 -1 scale
(10) t 
GR
GR
GS
[0.75 0 0 0.75 693.99998 211.24998] CT
0.149 GC
/Helvetica 13.333 F
GS
[1 0 0 1 0 0] CT
-7.5 14 moveto 
1 -1 scale
(20) t 
GR
GR
GS
[0.75 0 0 0.75 745.125 211.24998] CT
0.149 GC
/Helvetica 13.333 F
GS
[1 0 0 1 0 0] CT
-7.5 14 moveto 
1 -1 scale
(30) t 
GR
GR
GS
[0.75 0 0 0.75 796.24997 211.24998] CT
0.149 GC
/Helvetica 13.333 F
GS
[1 0 0 1 0 0] CT
-7.5 14 moveto 
1 -1 scale
(40) t 
GR
GR
GS
[0.75 0 0 0.75 847.37503 211.24998] CT
0.149 GC
/Helvetica 13.333 F
GS
[1 0 0 1 0 0] CT
-7.5 14 moveto 
1 -1 scale
(50) t 
GR
GR
GS
[0.75 0 0 0.75 898.5 211.24998] CT
0.149 GC
/Helvetica 13.333 F
GS
[1 0 0 1 0 0] CT
-7.5 14 moveto 
1 -1 scale
(60) t 
GR
GR
GS
[0.75 0 0 0.75 745.12514 224.99999] CT
0.149 GC
/Helvetica 14.667 F
GS
[1 0 0 1 0 0] CT
-30.5 16 moveto 
1 -1 scale
(channels) t 
GR
GR
GS
[0.75 0 0 0.75 0 0.25] CT
0.149 GC
2 setlinecap
1 LJ
0.667 LW
N
789 276 M
789 139 L
S
GR
GS
[0.75 0 0 0.75 0 0.25] CT
0.149 GC
2 setlinecap
1 LJ
0.667 LW
N
1198 276 M
1198 139 L
S
GR
GS
[0.75 0 0 0.75 0 0.25] CT
0.149 GC
2 setlinecap
1 LJ
0.667 LW
N
789 276 M
793.09 276 L
S
GR
GS
[0.75 0 0 0.75 0 0.25] CT
0.149 GC
2 setlinecap
1 LJ
0.667 LW
N
789 241.75 M
793.09 241.75 L
S
GR
GS
[0.75 0 0 0.75 0 0.25] CT
0.149 GC
2 setlinecap
1 LJ
0.667 LW
N
789 207.5 M
793.09 207.5 L
S
GR
GS
[0.75 0 0 0.75 0 0.25] CT
0.149 GC
2 setlinecap
1 LJ
0.667 LW
N
789 173.25 M
793.09 173.25 L
S
GR
GS
[0.75 0 0 0.75 0 0.25] CT
0.149 GC
2 setlinecap
1 LJ
0.667 LW
N
789 139 M
793.09 139 L
S
GR
GS
[0.75 0 0 0.75 0 0.25] CT
0.149 GC
2 setlinecap
1 LJ
0.667 LW
N
1198 276 M
1193.91 276 L
S
GR
GS
[0.75 0 0 0.75 0 0.25] CT
0.149 GC
2 setlinecap
1 LJ
0.667 LW
N
1198 241.75 M
1193.91 241.75 L
S
GR
GS
[0.75 0 0 0.75 0 0.25] CT
0.149 GC
2 setlinecap
1 LJ
0.667 LW
N
1198 207.5 M
1193.91 207.5 L
S
GR
GS
[0.75 0 0 0.75 0 0.25] CT
0.149 GC
2 setlinecap
1 LJ
0.667 LW
N
1198 173.25 M
1193.91 173.25 L
S
GR
GS
[0.75 0 0 0.75 0 0.25] CT
0.149 GC
2 setlinecap
1 LJ
0.667 LW
N
1198 139 M
1193.91 139 L
S
GR
GS
[0.75 0 0 0.75 587.75002 207.25] CT
0.149 GC
/Helvetica 13.333 F
GS
[1 0 0 1 0 0] CT
-19 5.5 moveto 
1 -1 scale
(0.6) t 
GR
GR
GS
[0.75 0 0 0.75 587.75002 181.5625] CT
0.149 GC
/Helvetica 13.333 F
GS
[1 0 0 1 0 0] CT
-19 5.5 moveto 
1 -1 scale
(0.7) t 
GR
GR
GS
[0.75 0 0 0.75 587.75002 155.875] CT
0.149 GC
/Helvetica 13.333 F
GS
[1 0 0 1 0 0] CT
-19 5.5 moveto 
1 -1 scale
(0.8) t 
GR
GR
GS
[0.75 0 0 0.75 587.75002 130.18751] CT
0.149 GC
/Helvetica 13.333 F
GS
[1 0 0 1 0 0] CT
-19 5.5 moveto 
1 -1 scale
(0.9) t 
GR
GR
GS
[0.75 0 0 0.75 587.75002 104.5] CT
0.149 GC
/Helvetica 13.333 F
GS
[1 0 0 1 0 0] CT
-8 5.5 moveto 
1 -1 scale
(1) t 
GR
GR
GS
[0 -0.75 0.75 0 570.50002 155.87495] CT
0.149 GC
/Helvetica 14.667 F
GS
[1 0 0 1 0 0] CT
-11 -4 moveto 
1 -1 scale
(CC) t 
GR
GR
GS
[0.75 0 0 0.75 690 99.25] CT
/Helvetica-Bold 14.667 F
GS
[1 0 0 1 0 0] CT
0 0 moveto 
1 -1 scale
(SOMETHING \(129_2\)) t 
GR
GR
GS
[0.75 0 0 0.75 0 0.25] CT
0 0.447 0.741 RC
1 LJ
0.667 LW
N
795.817 180.091 M
802.633 176.119 L
809.45 180.257 L
816.267 184.783 L
823.083 184.479 L
829.9 178.394 L
836.717 183.4 L
843.533 178.414 L
850.35 188.231 L
857.167 189.095 L
863.983 181.938 L
870.8 174.261 L
877.617 182.599 L
884.433 200.795 L
891.25 183.136 L
898.067 192.214 L
904.883 195.115 L
911.7 178.877 L
918.517 197.652 L
925.333 187.245 L
932.15 186.547 L
938.967 200.726 L
945.783 206.009 L
952.6 191.181 L
959.417 181.784 L
966.233 178.287 L
973.05 191.097 L
979.867 194.177 L
986.683 192.751 L
993.5 193.671 L
1000.317 188.688 L
1007.133 174.391 L
1013.95 172.943 L
1020.767 183.284 L
1027.583 173.632 L
1034.4 179.187 L
1041.217 185.172 L
1048.033 183.67 L
1054.85 193.35 L
1061.667 206.166 L
1068.483 213.913 L
1075.3 186.941 L
1082.117 192.145 L
1088.933 199.336 L
1095.75 194.508 L
1102.567 191.03 L
1109.383 190.566 L
1116.2 203.13 L
1123.017 195.431 L
1129.833 208.88 L
1136.65 195.262 L
1143.467 196.271 L
S
GR
GS
[0.75 0 0 0.75 0 0.25] CT
0.851 0.325 0.098 RC
1 LJ
0.667 LW
N
795.817 232.796 M
802.633 239.94 L
809.45 232.514 L
816.267 225.915 L
823.083 237.502 L
829.9 224.656 L
836.717 219.708 L
843.533 240.698 L
850.35 234.678 L
857.167 239.849 L
863.983 233.526 L
870.8 237.933 L
877.617 226.337 L
884.433 236.387 L
891.25 234.124 L
898.067 241.838 L
904.883 243.12 L
911.7 239.298 L
918.517 250.558 L
925.333 240.386 L
932.15 237.361 L
938.967 236.108 L
945.783 238.502 L
952.6 237.954 L
959.417 244.79 L
966.233 235.499 L
973.05 236.647 L
979.867 246.302 L
986.683 234.305 L
993.5 232.749 L
1000.317 222.789 L
1007.133 229.367 L
1013.95 231.262 L
1020.767 242.047 L
1027.583 233.837 L
1034.4 225.681 L
1041.217 234.823 L
1048.033 236.828 L
1054.85 237.504 L
1061.667 239.876 L
1068.483 243.685 L
1075.3 232.985 L
1082.117 237.822 L
1088.933 240.315 L
1095.75 241.475 L
1102.567 242.363 L
1109.383 229.365 L
1116.2 232.494 L
1123.017 235.508 L
1129.833 236.626 L
1136.65 247.41 L
1143.467 235.694 L
S
GR
GS
[0.75 0 0 0.75 0 0.25] CT
1 GC
N
1328 276 M
1738 276 L
1738 139 L
1328 139 L
cp
f
GR
GS
[0.75 0 0 0.75 0 0.25] CT
0.149 GC
2 setlinecap
1 LJ
0.667 LW
N
1328 276 M
1738 276 L
S
GR
GS
[0.75 0 0 0.75 0 0.25] CT
0.149 GC
2 setlinecap
1 LJ
0.667 LW
N
1328 139 M
1738 139 L
S
GR
GS
[0.75 0 0 0.75 0 0.25] CT
0.149 GC
2 setlinecap
1 LJ
0.667 LW
N
1328 276 M
1328 271.9 L
S
GR
GS
[0.75 0 0 0.75 0 0.25] CT
0.149 GC
2 setlinecap
1 LJ
0.667 LW
N
1410 276 M
1410 271.9 L
S
GR
GS
[0.75 0 0 0.75 0 0.25] CT
0.149 GC
2 setlinecap
1 LJ
0.667 LW
N
1492 276 M
1492 271.9 L
S
GR
GS
[0.75 0 0 0.75 0 0.25] CT
0.149 GC
2 setlinecap
1 LJ
0.667 LW
N
1574 276 M
1574 271.9 L
S
GR
GS
[0.75 0 0 0.75 0 0.25] CT
0.149 GC
2 setlinecap
1 LJ
0.667 LW
N
1656 276 M
1656 271.9 L
S
GR
GS
[0.75 0 0 0.75 0 0.25] CT
0.149 GC
2 setlinecap
1 LJ
0.667 LW
N
1738 276 M
1738 271.9 L
S
GR
GS
[0.75 0 0 0.75 0 0.25] CT
0.149 GC
2 setlinecap
1 LJ
0.667 LW
N
1328 139 M
1328 143.1 L
S
GR
GS
[0.75 0 0 0.75 0 0.25] CT
0.149 GC
2 setlinecap
1 LJ
0.667 LW
N
1410 139 M
1410 143.1 L
S
GR
GS
[0.75 0 0 0.75 0 0.25] CT
0.149 GC
2 setlinecap
1 LJ
0.667 LW
N
1492 139 M
1492 143.1 L
S
GR
GS
[0.75 0 0 0.75 0 0.25] CT
0.149 GC
2 setlinecap
1 LJ
0.667 LW
N
1574 139 M
1574 143.1 L
S
GR
GS
[0.75 0 0 0.75 0 0.25] CT
0.149 GC
2 setlinecap
1 LJ
0.667 LW
N
1656 139 M
1656 143.1 L
S
GR
GS
[0.75 0 0 0.75 0 0.25] CT
0.149 GC
2 setlinecap
1 LJ
0.667 LW
N
1738 139 M
1738 143.1 L
S
GR
GS
[0.75 0 0 0.75 996 211.24998] CT
0.149 GC
/Helvetica 13.333 F
GS
[1 0 0 1 0 0] CT
-4 14 moveto 
1 -1 scale
(0) t 
GR
GR
GS
[0.75 0 0 0.75 1057.5 211.24998] CT
0.149 GC
/Helvetica 13.333 F
GS
[1 0 0 1 0 0] CT
-7.5 14 moveto 
1 -1 scale
(20) t 
GR
GR
GS
[0.75 0 0 0.75 1119 211.24998] CT
0.149 GC
/Helvetica 13.333 F
GS
[1 0 0 1 0 0] CT
-7.5 14 moveto 
1 -1 scale
(40) t 
GR
GR
GS
[0.75 0 0 0.75 1180.5 211.24998] CT
0.149 GC
/Helvetica 13.333 F
GS
[1 0 0 1 0 0] CT
-7.5 14 moveto 
1 -1 scale
(60) t 
GR
GR
GS
[0.75 0 0 0.75 1242 211.24998] CT
0.149 GC
/Helvetica 13.333 F
GS
[1 0 0 1 0 0] CT
-7.5 14 moveto 
1 -1 scale
(80) t 
GR
GR
GS
[0.75 0 0 0.75 1303.5 211.24998] CT
0.149 GC
/Helvetica 13.333 F
GS
[1 0 0 1 0 0] CT
-11 14 moveto 
1 -1 scale
(100) t 
GR
GR
GS
[0.75 0 0 0.75 1149.75018 224.99999] CT
0.149 GC
/Helvetica 14.667 F
GS
[1 0 0 1 0 0] CT
-30.5 16 moveto 
1 -1 scale
(channels) t 
GR
GR
GS
[0.75 0 0 0.75 0 0.25] CT
0.149 GC
2 setlinecap
1 LJ
0.667 LW
N
1328 276 M
1328 139 L
S
GR
GS
[0.75 0 0 0.75 0 0.25] CT
0.149 GC
2 setlinecap
1 LJ
0.667 LW
N
1738 276 M
1738 139 L
S
GR
GS
[0.75 0 0 0.75 0 0.25] CT
0.149 GC
2 setlinecap
1 LJ
0.667 LW
N
1328 276 M
1332.1 276 L
S
GR
GS
[0.75 0 0 0.75 0 0.25] CT
0.149 GC
2 setlinecap
1 LJ
0.667 LW
N
1328 241.75 M
1332.1 241.75 L
S
GR
GS
[0.75 0 0 0.75 0 0.25] CT
0.149 GC
2 setlinecap
1 LJ
0.667 LW
N
1328 207.5 M
1332.1 207.5 L
S
GR
GS
[0.75 0 0 0.75 0 0.25] CT
0.149 GC
2 setlinecap
1 LJ
0.667 LW
N
1328 173.25 M
1332.1 173.25 L
S
GR
GS
[0.75 0 0 0.75 0 0.25] CT
0.149 GC
2 setlinecap
1 LJ
0.667 LW
N
1328 139 M
1332.1 139 L
S
GR
GS
[0.75 0 0 0.75 0 0.25] CT
0.149 GC
2 setlinecap
1 LJ
0.667 LW
N
1738 276 M
1733.9 276 L
S
GR
GS
[0.75 0 0 0.75 0 0.25] CT
0.149 GC
2 setlinecap
1 LJ
0.667 LW
N
1738 241.75 M
1733.9 241.75 L
S
GR
GS
[0.75 0 0 0.75 0 0.25] CT
0.149 GC
2 setlinecap
1 LJ
0.667 LW
N
1738 207.5 M
1733.9 207.5 L
S
GR
GS
[0.75 0 0 0.75 0 0.25] CT
0.149 GC
2 setlinecap
1 LJ
0.667 LW
N
1738 173.25 M
1733.9 173.25 L
S
GR
GS
[0.75 0 0 0.75 0 0.25] CT
0.149 GC
2 setlinecap
1 LJ
0.667 LW
N
1738 139 M
1733.9 139 L
S
GR
GS
[0.75 0 0 0.75 991.99997 207.25] CT
0.149 GC
/Helvetica 13.333 F
GS
[1 0 0 1 0 0] CT
-19 5.5 moveto 
1 -1 scale
(0.6) t 
GR
GR
GS
[0.75 0 0 0.75 991.99997 181.5625] CT
0.149 GC
/Helvetica 13.333 F
GS
[1 0 0 1 0 0] CT
-19 5.5 moveto 
1 -1 scale
(0.7) t 
GR
GR
GS
[0.75 0 0 0.75 991.99997 155.875] CT
0.149 GC
/Helvetica 13.333 F
GS
[1 0 0 1 0 0] CT
-19 5.5 moveto 
1 -1 scale
(0.8) t 
GR
GR
GS
[0.75 0 0 0.75 991.99997 130.18751] CT
0.149 GC
/Helvetica 13.333 F
GS
[1 0 0 1 0 0] CT
-19 5.5 moveto 
1 -1 scale
(0.9) t 
GR
GR
GS
[0.75 0 0 0.75 991.99997 104.5] CT
0.149 GC
/Helvetica 13.333 F
GS
[1 0 0 1 0 0] CT
-8 5.5 moveto 
1 -1 scale
(1) t 
GR
GR
GS
[0 -0.75 0.75 0 974.74997 155.87495] CT
0.149 GC
/Helvetica 14.667 F
GS
[1 0 0 1 0 0] CT
-11 -4 moveto 
1 -1 scale
(CC) t 
GR
GR
GS
[0.75 0 0 0.75 1102.5 99.25] CT
/Helvetica-Bold 14.667 F
GS
[1 0 0 1 0 0] CT
0 0 moveto 
1 -1 scale
(NOTHING \(129_3\)) t 
GR
GR
GS
[0.75 0 0 0.75 0 0.25] CT
0 0.447 0.741 RC
1 LJ
0.667 LW
N
1332.1 188.035 M
1336.2 185.706 L
1340.3 188.88 L
1344.4 183.654 L
1348.5 189.773 L
1352.6 185.195 L
1356.7 188.529 L
1360.8 189.173 L
1364.9 193.126 L
1369 193.618 L
1373.1 197.988 L
1377.2 200.358 L
1381.3 204.397 L
1385.4 193.744 L
1389.5 200.096 L
1393.6 188.509 L
1397.7 190.228 L
1401.8 200.626 L
1405.9 198.912 L
1410 194.067 L
1414.1 205.684 L
1418.2 196.312 L
1422.3 185.129 L
1426.4 200.127 L
1430.5 197.633 L
1434.6 198.636 L
1438.7 188.648 L
1442.8 186.969 L
1446.9 195.206 L
1451 187.975 L
1455.1 186.009 L
1459.2 187.733 L
1463.3 191.61 L
1467.4 187.317 L
1471.5 195.947 L
1475.6 193.085 L
1479.7 191.87 L
1483.8 190.709 L
1487.9 200.881 L
1492 193.442 L
1496.1 202.642 L
1500.2 195.125 L
1504.3 191.324 L
1508.4 194.227 L
1512.5 188.418 L
1516.6 192.388 L
1520.7 198.132 L
1524.8 188.606 L
1528.9 187.609 L
1533 188.969 L
1537.1 193.696 L
1541.2 197.132 L
1545.3 194.934 L
1549.4 192.17 L
1553.5 190.716 L
1557.6 195.071 L
1561.7 199.485 L
1565.8 190.034 L
1569.9 208.299 L
1574 194.799 L
1578.1 191.23 L
1582.2 190.748 L
1586.3 178.936 L
1590.4 182.071 L
1594.5 186.831 L
1598.6 184.551 L
1602.7 184.766 L
1606.8 184.653 L
1610.9 181.848 L
1615 182.152 L
1619.1 189.571 L
1623.2 181.605 L
1627.3 190.353 L
1631.4 182.706 L
1635.5 189.288 L
1639.6 189.118 L
1643.7 185.462 L
1647.8 185.741 L
1651.9 189.272 L
1656 186.265 L
1660.1 184.603 L
1664.2 182.745 L
1668.3 181.782 L
1672.4 189.272 L
1676.5 183.721 L
1680.6 190.03 L
1684.7 187.551 L
1688.8 185.811 L
1692.9 172.863 L
1697 180.07 L
1701.1 183.121 L
1705.2 196.106 L
1709.3 185.95 L
1713.4 188.422 L
1717.5 180.647 L
S
GR
GS
[0.75 0 0 0.75 0 0.25] CT
0.851 0.325 0.098 RC
1 LJ
0.667 LW
N
1332.1 238.426 M
1336.2 246.185 L
1340.3 246.706 L
1344.4 242.318 L
1348.5 240.234 L
1352.6 242.586 L
1356.7 245.852 L
1360.8 241.886 L
1364.9 234.85 L
1369 234.387 L
1373.1 244.793 L
1377.2 235.491 L
1381.3 235.451 L
1385.4 241.321 L
1389.5 241.005 L
1393.6 222.781 L
1397.7 228.135 L
1401.8 240.862 L
1405.9 216.18 L
1410 223.611 L
1414.1 230.339 L
1418.2 246.462 L
1422.3 248.397 L
1426.4 247.256 L
1430.5 244.883 L
1434.6 231.965 L
1438.7 213.395 L
1442.8 240.51 L
1446.9 234.319 L
1451 230.609 L
1455.1 238.373 L
1459.2 229.207 L
1463.3 242.142 L
1467.4 228.168 L
1471.5 234.791 L
1475.6 228.633 L
1479.7 225.22 L
1483.8 241.841 L
1487.9 226.799 L
1492 232.622 L
1496.1 226.939 L
1500.2 238.158 L
1504.3 231.967 L
1508.4 226.654 L
1512.5 229.579 L
1516.6 234.034 L
1520.7 235.903 L
1524.8 237.476 L
1528.9 230.278 L
1533 232.01 L
1537.1 240.307 L
1541.2 230.684 L
1545.3 229.33 L
1549.4 224.304 L
1553.5 218.391 L
1557.6 226.223 L
1561.7 241.35 L
1565.8 248.679 L
1569.9 241.687 L
1574 218.959 L
1578.1 236.52 L
1582.2 242.998 L
1586.3 250.172 L
1590.4 233.119 L
1594.5 228.287 L
1598.6 225.485 L
1602.7 237.605 L
1606.8 238.518 L
1610.9 235.348 L
1615 232.985 L
1619.1 218.071 L
1623.2 246.74 L
1627.3 235.029 L
1631.4 231.48 L
1635.5 232.459 L
1639.6 237.277 L
1643.7 228.626 L
1647.8 238.137 L
1651.9 231.78 L
1656 233.305 L
1660.1 226.104 L
1664.2 230.941 L
1668.3 238.678 L
1672.4 231.262 L
1676.5 228.272 L
1680.6 221.913 L
1684.7 226.481 L
1688.8 237.009 L
1692.9 237.336 L
1697 224.491 L
1701.1 237.029 L
1705.2 247.487 L
1709.3 237.282 L
1713.4 248.305 L
1717.5 251.603 L
S
GR
GS
[0.75 0 0 0.75 0 0.25] CT
1 GC
N
1762 175 M
1762 139 L
1858 139 L
1858 175 L
cp
f
GR
GS
[0.75 0 0 0.75 1356.75 111.89727] CT
/Helvetica 12 F
GS
[1 0 0 1 0 0] CT
0 5 moveto 
1 -1 scale
(stimulus) t 
GR
GR
GS
[0.75 0 0 0.75 0 0.25] CT
0 0.447 0.741 RC
1 LJ
0.667 LW
N
1766 148.863 M
1806 148.863 L
S
GR
GS
[0.75 0 0 0.75 1356.75 124.10275] CT
/Helvetica 12 F
GS
[1 0 0 1 0 0] CT
0 5 moveto 
1 -1 scale
(baseline) t 
GR
GR
GS
[0.75 0 0 0.75 0 0.25] CT
0.851 0.325 0.098 RC
1 LJ
0.667 LW
N
1766 165.137 M
1806 165.137 L
S
GR
GS
[0.75 0 0 0.75 0 0.25] CT
0.149 GC
10.0 ML
0.667 LW
N
1762 175 M
1762 139 L
1858 139 L
1858 175 L
cp
S
GR
GS
[0.75 0 0 0.75 0 0.25] CT
1 GC
N
250 475 M
659 475 L
659 337 L
250 337 L
cp
f
GR
GS
[0.75 0 0 0.75 0 0.25] CT
0.149 GC
2 setlinecap
1 LJ
0.667 LW
N
250 475 M
659 475 L
S
GR
GS
[0.75 0 0 0.75 0 0.25] CT
0.149 GC
2 setlinecap
1 LJ
0.667 LW
N
250 337 M
659 337 L
S
GR
GS
[0.75 0 0 0.75 0 0.25] CT
0.149 GC
2 setlinecap
1 LJ
0.667 LW
N
250 475 M
250 470.91 L
S
GR
GS
[0.75 0 0 0.75 0 0.25] CT
0.149 GC
2 setlinecap
1 LJ
0.667 LW
N
318.167 475 M
318.167 470.91 L
S
GR
GS
[0.75 0 0 0.75 0 0.25] CT
0.149 GC
2 setlinecap
1 LJ
0.667 LW
N
386.333 475 M
386.333 470.91 L
S
GR
GS
[0.75 0 0 0.75 0 0.25] CT
0.149 GC
2 setlinecap
1 LJ
0.667 LW
N
454.5 475 M
454.5 470.91 L
S
GR
GS
[0.75 0 0 0.75 0 0.25] CT
0.149 GC
2 setlinecap
1 LJ
0.667 LW
N
522.667 475 M
522.667 470.91 L
S
GR
GS
[0.75 0 0 0.75 0 0.25] CT
0.149 GC
2 setlinecap
1 LJ
0.667 LW
N
590.833 475 M
590.833 470.91 L
S
GR
GS
[0.75 0 0 0.75 0 0.25] CT
0.149 GC
2 setlinecap
1 LJ
0.667 LW
N
659 475 M
659 470.91 L
S
GR
GS
[0.75 0 0 0.75 0 0.25] CT
0.149 GC
2 setlinecap
1 LJ
0.667 LW
N
250 337 M
250 341.09 L
S
GR
GS
[0.75 0 0 0.75 0 0.25] CT
0.149 GC
2 setlinecap
1 LJ
0.667 LW
N
318.167 337 M
318.167 341.09 L
S
GR
GS
[0.75 0 0 0.75 0 0.25] CT
0.149 GC
2 setlinecap
1 LJ
0.667 LW
N
386.333 337 M
386.333 341.09 L
S
GR
GS
[0.75 0 0 0.75 0 0.25] CT
0.149 GC
2 setlinecap
1 LJ
0.667 LW
N
454.5 337 M
454.5 341.09 L
S
GR
GS
[0.75 0 0 0.75 0 0.25] CT
0.149 GC
2 setlinecap
1 LJ
0.667 LW
N
522.667 337 M
522.667 341.09 L
S
GR
GS
[0.75 0 0 0.75 0 0.25] CT
0.149 GC
2 setlinecap
1 LJ
0.667 LW
N
590.833 337 M
590.833 341.09 L
S
GR
GS
[0.75 0 0 0.75 0 0.25] CT
0.149 GC
2 setlinecap
1 LJ
0.667 LW
N
659 337 M
659 341.09 L
S
GR
GS
[0.75 0 0 0.75 187.5 360.49998] CT
0.149 GC
/Helvetica 13.333 F
GS
[1 0 0 1 0 0] CT
-4 14 moveto 
1 -1 scale
(0) t 
GR
GR
GS
[0.75 0 0 0.75 238.62499 360.49998] CT
0.149 GC
/Helvetica 13.333 F
GS
[1 0 0 1 0 0] CT
-7.5 14 moveto 
1 -1 scale
(20) t 
GR
GR
GS
[0.75 0 0 0.75 289.75001 360.49998] CT
0.149 GC
/Helvetica 13.333 F
GS
[1 0 0 1 0 0] CT
-7.5 14 moveto 
1 -1 scale
(40) t 
GR
GR
GS
[0.75 0 0 0.75 340.875 360.49998] CT
0.149 GC
/Helvetica 13.333 F
GS
[1 0 0 1 0 0] CT
-7.5 14 moveto 
1 -1 scale
(60) t 
GR
GR
GS
[0.75 0 0 0.75 392.00002 360.49998] CT
0.149 GC
/Helvetica 13.333 F
GS
[1 0 0 1 0 0] CT
-7.5 14 moveto 
1 -1 scale
(80) t 
GR
GR
GS
[0.75 0 0 0.75 443.12498 360.49998] CT
0.149 GC
/Helvetica 13.333 F
GS
[1 0 0 1 0 0] CT
-11 14 moveto 
1 -1 scale
(100) t 
GR
GR
GS
[0.75 0 0 0.75 494.25 360.49998] CT
0.149 GC
/Helvetica 13.333 F
GS
[1 0 0 1 0 0] CT
-11 14 moveto 
1 -1 scale
(120) t 
GR
GR
GS
[0.75 0 0 0.75 340.87514 374.24999] CT
0.149 GC
/Helvetica 14.667 F
GS
[1 0 0 1 0 0] CT
-30.5 16 moveto 
1 -1 scale
(channels) t 
GR
GR
GS
[0.75 0 0 0.75 0 0.25] CT
0.149 GC
2 setlinecap
1 LJ
0.667 LW
N
250 475 M
250 337 L
S
GR
GS
[0.75 0 0 0.75 0 0.25] CT
0.149 GC
2 setlinecap
1 LJ
0.667 LW
N
659 475 M
659 337 L
S
GR
GS
[0.75 0 0 0.75 0 0.25] CT
0.149 GC
2 setlinecap
1 LJ
0.667 LW
N
250 475 M
254.09 475 L
S
GR
GS
[0.75 0 0 0.75 0 0.25] CT
0.149 GC
2 setlinecap
1 LJ
0.667 LW
N
250 429 M
254.09 429 L
S
GR
GS
[0.75 0 0 0.75 0 0.25] CT
0.149 GC
2 setlinecap
1 LJ
0.667 LW
N
250 383 M
254.09 383 L
S
GR
GS
[0.75 0 0 0.75 0 0.25] CT
0.149 GC
2 setlinecap
1 LJ
0.667 LW
N
250 337 M
254.09 337 L
S
GR
GS
[0.75 0 0 0.75 0 0.25] CT
0.149 GC
2 setlinecap
1 LJ
0.667 LW
N
659 475 M
654.91 475 L
S
GR
GS
[0.75 0 0 0.75 0 0.25] CT
0.149 GC
2 setlinecap
1 LJ
0.667 LW
N
659 429 M
654.91 429 L
S
GR
GS
[0.75 0 0 0.75 0 0.25] CT
0.149 GC
2 setlinecap
1 LJ
0.667 LW
N
659 383 M
654.91 383 L
S
GR
GS
[0.75 0 0 0.75 0 0.25] CT
0.149 GC
2 setlinecap
1 LJ
0.667 LW
N
659 337 M
654.91 337 L
S
GR
GS
[0.75 0 0 0.75 183.5 356.5] CT
0.149 GC
/Helvetica 13.333 F
GS
[1 0 0 1 0 0] CT
-19 5.5 moveto 
1 -1 scale
(0.6) t 
GR
GR
GS
[0.75 0 0 0.75 183.5 322] CT
0.149 GC
/Helvetica 13.333 F
GS
[1 0 0 1 0 0] CT
-19 5.5 moveto 
1 -1 scale
(0.7) t 
GR
GR
GS
[0.75 0 0 0.75 183.5 287.5] CT
0.149 GC
/Helvetica 13.333 F
GS
[1 0 0 1 0 0] CT
-19 5.5 moveto 
1 -1 scale
(0.8) t 
GR
GR
GS
[0.75 0 0 0.75 183.5 253] CT
0.149 GC
/Helvetica 13.333 F
GS
[1 0 0 1 0 0] CT
-19 5.5 moveto 
1 -1 scale
(0.9) t 
GR
GR
GS
[0 -0.75 0.75 0 166.25 304.74995] CT
0.149 GC
/Helvetica 14.667 F
GS
[1 0 0 1 0 0] CT
-11 -4 moveto 
1 -1 scale
(CC) t 
GR
GR
GS
[0.75 0 0 0.75 0 0.25] CT
0 0.447 0.741 RC
1 LJ
0.667 LW
N
253.408 346.519 M
256.817 359.805 L
260.225 379.327 L
263.633 378.429 L
267.042 384.04 L
270.45 348.228 L
273.858 380.313 L
277.267 358.12 L
280.675 390.508 L
284.083 390.27 L
287.492 364.308 L
290.9 390.02 L
294.308 397.374 L
297.717 402.168 L
301.125 377.544 L
304.533 402.401 L
307.942 366.433 L
311.35 387.552 L
314.758 398.572 L
318.167 389.402 L
321.575 376.922 L
324.983 405.69 L
328.392 408.577 L
331.8 372.527 L
335.208 399.296 L
338.617 377.443 L
342.025 386.218 L
345.433 399.237 L
348.842 384.781 L
352.25 344.303 L
355.658 403.093 L
359.067 373.471 L
362.475 399.042 L
365.883 391.224 L
369.292 380.525 L
372.7 382.552 L
376.108 398.079 L
379.517 381.571 L
382.925 389.977 L
386.333 406.303 L
389.742 400.867 L
393.15 401.843 L
396.558 391.555 L
399.967 413.854 L
403.375 394.264 L
406.783 402.668 L
410.192 385.107 L
413.6 400.99 L
417.008 367.213 L
420.417 395.789 L
423.825 402.864 L
427.233 368.142 L
430.642 389.99 L
434.05 395.008 L
437.458 411.667 L
440.867 392.22 L
444.275 399.617 L
447.683 414.036 L
451.092 418.866 L
454.5 412.245 L
457.908 417.069 L
461.317 407.978 L
464.725 404.476 L
468.133 418.111 L
471.542 393.023 L
474.95 393.934 L
478.358 396.578 L
481.767 398.815 L
485.175 418.569 L
488.583 436.35 L
491.992 408.824 L
495.4 384.692 L
498.808 421.467 L
502.217 381.652 L
505.625 429.25 L
509.033 412.594 L
512.442 394.384 L
515.85 398.868 L
519.258 418.743 L
522.667 409.366 L
526.075 389.266 L
529.483 417.708 L
532.892 393.626 L
536.3 387.046 L
539.708 405.223 L
543.117 399.084 L
546.525 413.429 L
549.933 382.465 L
553.342 405.016 L
556.75 371.756 L
560.158 396.848 L
563.567 392.619 L
566.975 397.549 L
570.383 395.752 L
573.792 397.53 L
577.2 394.129 L
580.608 405.95 L
584.017 389.945 L
587.425 396.855 L
590.833 389.867 L
594.242 391.163 L
597.65 388.887 L
601.058 408.653 L
604.467 404.718 L
607.875 398.128 L
S
GR
GS
[0.75 0 0 0.75 0 0.25] CT
0.851 0.325 0.098 RC
1 LJ
0.667 LW
N
253.408 391.727 M
256.817 429.876 L
260.225 412.59 L
263.633 420.722 L
267.042 432.687 L
270.45 445.517 L
273.858 444.46 L
277.267 443.59 L
280.675 445.001 L
284.083 439.567 L
287.492 440.543 L
290.9 425.425 L
294.308 429.549 L
297.717 437.938 L
301.125 413.92 L
304.533 438.28 L
307.942 440.972 L
311.35 451.103 L
314.758 449.288 L
318.167 423.246 L
321.575 429.358 L
324.983 438.23 L
328.392 427.104 L
331.8 437.914 L
335.208 407.431 L
338.617 429.108 L
342.025 433.342 L
345.433 442.689 L
348.842 434.444 L
352.25 426.146 L
355.658 426.737 L
359.067 439.046 L
362.475 431.164 L
365.883 431.436 L
369.292 422.687 L
372.7 427.817 L
376.108 431.652 L
379.517 440.231 L
382.925 429.797 L
386.333 427.188 L
389.742 439.443 L
393.15 442.491 L
396.558 439.788 L
399.967 431.883 L
403.375 450.788 L
406.783 445.382 L
410.192 432.878 L
413.6 448.273 L
417.008 355.627 L
420.417 431.358 L
423.825 427.648 L
427.233 449.317 L
430.642 445.442 L
434.05 425.704 L
437.458 443.636 L
440.867 432.704 L
444.275 420.886 L
447.683 461.09 L
451.092 452.32 L
454.5 439.968 L
457.908 437.564 L
461.317 433.539 L
464.725 446.002 L
468.133 425.349 L
471.542 448.591 L
474.95 436.157 L
478.358 428.609 L
481.767 436.172 L
485.175 431.673 L
488.583 435.752 L
491.992 439.313 L
495.4 441.335 L
498.808 433.468 L
502.217 450.922 L
505.625 422.194 L
509.033 451.824 L
512.442 438.885 L
515.85 439.881 L
519.258 428.369 L
522.667 441.113 L
526.075 438.207 L
529.483 434.647 L
532.892 433.979 L
536.3 437.799 L
539.708 438.291 L
543.117 451.336 L
546.525 440.621 L
549.933 435.322 L
553.342 439.947 L
556.75 444.557 L
560.158 430.494 L
563.567 445.215 L
566.975 443.404 L
570.383 443.034 L
573.792 416.632 L
577.2 427.92 L
580.608 427.735 L
584.017 421.869 L
587.425 414.834 L
590.833 445.325 L
594.242 442.146 L
597.65 426.189 L
601.058 443.902 L
604.467 436.192 L
607.875 430.405 L
S
GR
GS
[0.75 0 0 0.75 0 0.25] CT
1 GC
N
789 475 M
1198 475 L
1198 337 L
789 337 L
cp
f
GR
GS
[0.75 0 0 0.75 0 0.25] CT
0.149 GC
2 setlinecap
1 LJ
0.667 LW
N
789 475 M
1198 475 L
S
GR
GS
[0.75 0 0 0.75 0 0.25] CT
0.149 GC
2 setlinecap
1 LJ
0.667 LW
N
789 337 M
1198 337 L
S
GR
GS
[0.75 0 0 0.75 0 0.25] CT
0.149 GC
2 setlinecap
1 LJ
0.667 LW
N
789 475 M
789 470.91 L
S
GR
GS
[0.75 0 0 0.75 0 0.25] CT
0.149 GC
2 setlinecap
1 LJ
0.667 LW
N
891.25 475 M
891.25 470.91 L
S
GR
GS
[0.75 0 0 0.75 0 0.25] CT
0.149 GC
2 setlinecap
1 LJ
0.667 LW
N
993.5 475 M
993.5 470.91 L
S
GR
GS
[0.75 0 0 0.75 0 0.25] CT
0.149 GC
2 setlinecap
1 LJ
0.667 LW
N
1095.75 475 M
1095.75 470.91 L
S
GR
GS
[0.75 0 0 0.75 0 0.25] CT
0.149 GC
2 setlinecap
1 LJ
0.667 LW
N
1198 475 M
1198 470.91 L
S
GR
GS
[0.75 0 0 0.75 0 0.25] CT
0.149 GC
2 setlinecap
1 LJ
0.667 LW
N
789 337 M
789 341.09 L
S
GR
GS
[0.75 0 0 0.75 0 0.25] CT
0.149 GC
2 setlinecap
1 LJ
0.667 LW
N
891.25 337 M
891.25 341.09 L
S
GR
GS
[0.75 0 0 0.75 0 0.25] CT
0.149 GC
2 setlinecap
1 LJ
0.667 LW
N
993.5 337 M
993.5 341.09 L
S
GR
GS
[0.75 0 0 0.75 0 0.25] CT
0.149 GC
2 setlinecap
1 LJ
0.667 LW
N
1095.75 337 M
1095.75 341.09 L
S
GR
GS
[0.75 0 0 0.75 0 0.25] CT
0.149 GC
2 setlinecap
1 LJ
0.667 LW
N
1198 337 M
1198 341.09 L
S
GR
GS
[0.75 0 0 0.75 591.75 360.49998] CT
0.149 GC
/Helvetica 13.333 F
GS
[1 0 0 1 0 0] CT
-4 14 moveto 
1 -1 scale
(0) t 
GR
GR
GS
[0.75 0 0 0.75 668.4375 360.49998] CT
0.149 GC
/Helvetica 13.333 F
GS
[1 0 0 1 0 0] CT
-4 14 moveto 
1 -1 scale
(5) t 
GR
GR
GS
[0.75 0 0 0.75 745.125 360.49998] CT
0.149 GC
/Helvetica 13.333 F
GS
[1 0 0 1 0 0] CT
-7.5 14 moveto 
1 -1 scale
(10) t 
GR
GR
GS
[0.75 0 0 0.75 821.8125 360.49998] CT
0.149 GC
/Helvetica 13.333 F
GS
[1 0 0 1 0 0] CT
-7.5 14 moveto 
1 -1 scale
(15) t 
GR
GR
GS
[0.75 0 0 0.75 898.5 360.49998] CT
0.149 GC
/Helvetica 13.333 F
GS
[1 0 0 1 0 0] CT
-7.5 14 moveto 
1 -1 scale
(20) t 
GR
GR
GS
[0.75 0 0 0.75 745.12514 374.24999] CT
0.149 GC
/Helvetica 14.667 F
GS
[1 0 0 1 0 0] CT
-30.5 16 moveto 
1 -1 scale
(channels) t 
GR
GR
GS
[0.75 0 0 0.75 0 0.25] CT
0.149 GC
2 setlinecap
1 LJ
0.667 LW
N
789 475 M
789 337 L
S
GR
GS
[0.75 0 0 0.75 0 0.25] CT
0.149 GC
2 setlinecap
1 LJ
0.667 LW
N
1198 475 M
1198 337 L
S
GR
GS
[0.75 0 0 0.75 0 0.25] CT
0.149 GC
2 setlinecap
1 LJ
0.667 LW
N
789 475 M
793.09 475 L
S
GR
GS
[0.75 0 0 0.75 0 0.25] CT
0.149 GC
2 setlinecap
1 LJ
0.667 LW
N
789 440.5 M
793.09 440.5 L
S
GR
GS
[0.75 0 0 0.75 0 0.25] CT
0.149 GC
2 setlinecap
1 LJ
0.667 LW
N
789 406 M
793.09 406 L
S
GR
GS
[0.75 0 0 0.75 0 0.25] CT
0.149 GC
2 setlinecap
1 LJ
0.667 LW
N
789 371.5 M
793.09 371.5 L
S
GR
GS
[0.75 0 0 0.75 0 0.25] CT
0.149 GC
2 setlinecap
1 LJ
0.667 LW
N
789 337 M
793.09 337 L
S
GR
GS
[0.75 0 0 0.75 0 0.25] CT
0.149 GC
2 setlinecap
1 LJ
0.667 LW
N
1198 475 M
1193.91 475 L
S
GR
GS
[0.75 0 0 0.75 0 0.25] CT
0.149 GC
2 setlinecap
1 LJ
0.667 LW
N
1198 440.5 M
1193.91 440.5 L
S
GR
GS
[0.75 0 0 0.75 0 0.25] CT
0.149 GC
2 setlinecap
1 LJ
0.667 LW
N
1198 406 M
1193.91 406 L
S
GR
GS
[0.75 0 0 0.75 0 0.25] CT
0.149 GC
2 setlinecap
1 LJ
0.667 LW
N
1198 371.5 M
1193.91 371.5 L
S
GR
GS
[0.75 0 0 0.75 0 0.25] CT
0.149 GC
2 setlinecap
1 LJ
0.667 LW
N
1198 337 M
1193.91 337 L
S
GR
GS
[0.75 0 0 0.75 587.75002 356.5] CT
0.149 GC
/Helvetica 13.333 F
GS
[1 0 0 1 0 0] CT
-19 5.5 moveto 
1 -1 scale
(0.6) t 
GR
GR
GS
[0.75 0 0 0.75 587.75002 330.625] CT
0.149 GC
/Helvetica 13.333 F
GS
[1 0 0 1 0 0] CT
-19 5.5 moveto 
1 -1 scale
(0.7) t 
GR
GR
GS
[0.75 0 0 0.75 587.75002 304.75] CT
0.149 GC
/Helvetica 13.333 F
GS
[1 0 0 1 0 0] CT
-19 5.5 moveto 
1 -1 scale
(0.8) t 
GR
GR
GS
[0.75 0 0 0.75 587.75002 278.875] CT
0.149 GC
/Helvetica 13.333 F
GS
[1 0 0 1 0 0] CT
-19 5.5 moveto 
1 -1 scale
(0.9) t 
GR
GR
GS
[0.75 0 0 0.75 587.75002 253] CT
0.149 GC
/Helvetica 13.333 F
GS
[1 0 0 1 0 0] CT
-8 5.5 moveto 
1 -1 scale
(1) t 
GR
GR
GS
[0 -0.75 0.75 0 570.50002 304.74995] CT
0.149 GC
/Helvetica 14.667 F
GS
[1 0 0 1 0 0] CT
-11 -4 moveto 
1 -1 scale
(CC) t 
GR
GR
GS
[0.75 0 0 0.75 0 0.25] CT
0 0.447 0.741 RC
1 LJ
0.667 LW
N
809.45 376.908 M
829.9 370.778 L
850.35 379.28 L
870.8 376.765 L
891.25 390.303 L
911.7 379.287 L
932.15 373.261 L
952.6 400.582 L
973.05 384.271 L
993.5 390.547 L
1013.95 393.007 L
1034.4 370.682 L
1054.85 389.074 L
1075.3 386.937 L
1095.75 390.176 L
1116.2 401.722 L
1136.65 378.974 L
1157.1 392.4 L
1177.55 387.353 L
1198 388.636 L
S
GR
GS
[0.75 0 0 0.75 0 0.25] CT
0.851 0.325 0.098 RC
1 LJ
0.667 LW
N
809.45 442.027 M
829.9 417.251 L
850.35 448.637 L
870.8 441.602 L
891.25 424.649 L
911.7 431.796 L
932.15 444.015 L
952.6 447.388 L
973.05 455.559 L
993.5 439.536 L
1013.95 441.605 L
1034.4 438.053 L
1054.85 446.759 L
1075.3 450.841 L
1095.75 448.595 L
1116.2 448.254 L
1136.65 422.86 L
1157.1 445.659 L
1177.55 434.401 L
1198 455.7 L
S
GR
GS
[0.75 0 0 0.75 0 0.25] CT
1 GC
N
1328 475 M
1738 475 L
1738 337 L
1328 337 L
cp
f
GR
GS
[0.75 0 0 0.75 0 0.25] CT
0.149 GC
2 setlinecap
1 LJ
0.667 LW
N
1328 475 M
1738 475 L
S
GR
GS
[0.75 0 0 0.75 0 0.25] CT
0.149 GC
2 setlinecap
1 LJ
0.667 LW
N
1328 337 M
1738 337 L
S
GR
GS
[0.75 0 0 0.75 0 0.25] CT
0.149 GC
2 setlinecap
1 LJ
0.667 LW
N
1328 475 M
1328 470.9 L
S
GR
GS
[0.75 0 0 0.75 0 0.25] CT
0.149 GC
2 setlinecap
1 LJ
0.667 LW
N
1373.556 475 M
1373.556 470.9 L
S
GR
GS
[0.75 0 0 0.75 0 0.25] CT
0.149 GC
2 setlinecap
1 LJ
0.667 LW
N
1419.111 475 M
1419.111 470.9 L
S
GR
GS
[0.75 0 0 0.75 0 0.25] CT
0.149 GC
2 setlinecap
1 LJ
0.667 LW
N
1464.667 475 M
1464.667 470.9 L
S
GR
GS
[0.75 0 0 0.75 0 0.25] CT
0.149 GC
2 setlinecap
1 LJ
0.667 LW
N
1510.222 475 M
1510.222 470.9 L
S
GR
GS
[0.75 0 0 0.75 0 0.25] CT
0.149 GC
2 setlinecap
1 LJ
0.667 LW
N
1555.778 475 M
1555.778 470.9 L
S
GR
GS
[0.75 0 0 0.75 0 0.25] CT
0.149 GC
2 setlinecap
1 LJ
0.667 LW
N
1601.333 475 M
1601.333 470.9 L
S
GR
GS
[0.75 0 0 0.75 0 0.25] CT
0.149 GC
2 setlinecap
1 LJ
0.667 LW
N
1646.889 475 M
1646.889 470.9 L
S
GR
GS
[0.75 0 0 0.75 0 0.25] CT
0.149 GC
2 setlinecap
1 LJ
0.667 LW
N
1692.444 475 M
1692.444 470.9 L
S
GR
GS
[0.75 0 0 0.75 0 0.25] CT
0.149 GC
2 setlinecap
1 LJ
0.667 LW
N
1738 475 M
1738 470.9 L
S
GR
GS
[0.75 0 0 0.75 0 0.25] CT
0.149 GC
2 setlinecap
1 LJ
0.667 LW
N
1328 337 M
1328 341.1 L
S
GR
GS
[0.75 0 0 0.75 0 0.25] CT
0.149 GC
2 setlinecap
1 LJ
0.667 LW
N
1373.556 337 M
1373.556 341.1 L
S
GR
GS
[0.75 0 0 0.75 0 0.25] CT
0.149 GC
2 setlinecap
1 LJ
0.667 LW
N
1419.111 337 M
1419.111 341.1 L
S
GR
GS
[0.75 0 0 0.75 0 0.25] CT
0.149 GC
2 setlinecap
1 LJ
0.667 LW
N
1464.667 337 M
1464.667 341.1 L
S
GR
GS
[0.75 0 0 0.75 0 0.25] CT
0.149 GC
2 setlinecap
1 LJ
0.667 LW
N
1510.222 337 M
1510.222 341.1 L
S
GR
GS
[0.75 0 0 0.75 0 0.25] CT
0.149 GC
2 setlinecap
1 LJ
0.667 LW
N
1555.778 337 M
1555.778 341.1 L
S
GR
GS
[0.75 0 0 0.75 0 0.25] CT
0.149 GC
2 setlinecap
1 LJ
0.667 LW
N
1601.333 337 M
1601.333 341.1 L
S
GR
GS
[0.75 0 0 0.75 0 0.25] CT
0.149 GC
2 setlinecap
1 LJ
0.667 LW
N
1646.889 337 M
1646.889 341.1 L
S
GR
GS
[0.75 0 0 0.75 0 0.25] CT
0.149 GC
2 setlinecap
1 LJ
0.667 LW
N
1692.444 337 M
1692.444 341.1 L
S
GR
GS
[0.75 0 0 0.75 0 0.25] CT
0.149 GC
2 setlinecap
1 LJ
0.667 LW
N
1738 337 M
1738 341.1 L
S
GR
GS
[0.75 0 0 0.75 996 360.49998] CT
0.149 GC
/Helvetica 13.333 F
GS
[1 0 0 1 0 0] CT
-4 14 moveto 
1 -1 scale
(0) t 
GR
GR
GS
[0.75 0 0 0.75 1030.16666 360.49998] CT
0.149 GC
/Helvetica 13.333 F
GS
[1 0 0 1 0 0] CT
-7.5 14 moveto 
1 -1 scale
(10) t 
GR
GR
GS
[0.75 0 0 0.75 1064.33331 360.49998] CT
0.149 GC
/Helvetica 13.333 F
GS
[1 0 0 1 0 0] CT
-7.5 14 moveto 
1 -1 scale
(20) t 
GR
GR
GS
[0.75 0 0 0.75 1098.49997 360.49998] CT
0.149 GC
/Helvetica 13.333 F
GS
[1 0 0 1 0 0] CT
-7.5 14 moveto 
1 -1 scale
(30) t 
GR
GR
GS
[0.75 0 0 0.75 1132.66663 360.49998] CT
0.149 GC
/Helvetica 13.333 F
GS
[1 0 0 1 0 0] CT
-7.5 14 moveto 
1 -1 scale
(40) t 
GR
GR
GS
[0.75 0 0 0.75 1166.83337 360.49998] CT
0.149 GC
/Helvetica 13.333 F
GS
[1 0 0 1 0 0] CT
-7.5 14 moveto 
1 -1 scale
(50) t 
GR
GR
GS
[0.75 0 0 0.75 1201.00003 360.49998] CT
0.149 GC
/Helvetica 13.333 F
GS
[1 0 0 1 0 0] CT
-7.5 14 moveto 
1 -1 scale
(60) t 
GR
GR
GS
[0.75 0 0 0.75 1235.16669 360.49998] CT
0.149 GC
/Helvetica 13.333 F
GS
[1 0 0 1 0 0] CT
-7.5 14 moveto 
1 -1 scale
(70) t 
GR
GR
GS
[0.75 0 0 0.75 1269.33334 360.49998] CT
0.149 GC
/Helvetica 13.333 F
GS
[1 0 0 1 0 0] CT
-7.5 14 moveto 
1 -1 scale
(80) t 
GR
GR
GS
[0.75 0 0 0.75 1303.5 360.49998] CT
0.149 GC
/Helvetica 13.333 F
GS
[1 0 0 1 0 0] CT
-7.5 14 moveto 
1 -1 scale
(90) t 
GR
GR
GS
[0.75 0 0 0.75 1149.75018 374.24999] CT
0.149 GC
/Helvetica 14.667 F
GS
[1 0 0 1 0 0] CT
-30.5 16 moveto 
1 -1 scale
(channels) t 
GR
GR
GS
[0.75 0 0 0.75 0 0.25] CT
0.149 GC
2 setlinecap
1 LJ
0.667 LW
N
1328 475 M
1328 337 L
S
GR
GS
[0.75 0 0 0.75 0 0.25] CT
0.149 GC
2 setlinecap
1 LJ
0.667 LW
N
1738 475 M
1738 337 L
S
GR
GS
[0.75 0 0 0.75 0 0.25] CT
0.149 GC
2 setlinecap
1 LJ
0.667 LW
N
1328 475 M
1332.1 475 L
S
GR
GS
[0.75 0 0 0.75 0 0.25] CT
0.149 GC
2 setlinecap
1 LJ
0.667 LW
N
1328 440.5 M
1332.1 440.5 L
S
GR
GS
[0.75 0 0 0.75 0 0.25] CT
0.149 GC
2 setlinecap
1 LJ
0.667 LW
N
1328 406 M
1332.1 406 L
S
GR
GS
[0.75 0 0 0.75 0 0.25] CT
0.149 GC
2 setlinecap
1 LJ
0.667 LW
N
1328 371.5 M
1332.1 371.5 L
S
GR
GS
[0.75 0 0 0.75 0 0.25] CT
0.149 GC
2 setlinecap
1 LJ
0.667 LW
N
1328 337 M
1332.1 337 L
S
GR
GS
[0.75 0 0 0.75 0 0.25] CT
0.149 GC
2 setlinecap
1 LJ
0.667 LW
N
1738 475 M
1733.9 475 L
S
GR
GS
[0.75 0 0 0.75 0 0.25] CT
0.149 GC
2 setlinecap
1 LJ
0.667 LW
N
1738 440.5 M
1733.9 440.5 L
S
GR
GS
[0.75 0 0 0.75 0 0.25] CT
0.149 GC
2 setlinecap
1 LJ
0.667 LW
N
1738 406 M
1733.9 406 L
S
GR
GS
[0.75 0 0 0.75 0 0.25] CT
0.149 GC
2 setlinecap
1 LJ
0.667 LW
N
1738 371.5 M
1733.9 371.5 L
S
GR
GS
[0.75 0 0 0.75 0 0.25] CT
0.149 GC
2 setlinecap
1 LJ
0.667 LW
N
1738 337 M
1733.9 337 L
S
GR
GS
[0.75 0 0 0.75 991.99997 356.5] CT
0.149 GC
/Helvetica 13.333 F
GS
[1 0 0 1 0 0] CT
-19 5.5 moveto 
1 -1 scale
(0.6) t 
GR
GR
GS
[0.75 0 0 0.75 991.99997 330.625] CT
0.149 GC
/Helvetica 13.333 F
GS
[1 0 0 1 0 0] CT
-19 5.5 moveto 
1 -1 scale
(0.7) t 
GR
GR
GS
[0.75 0 0 0.75 991.99997 304.75] CT
0.149 GC
/Helvetica 13.333 F
GS
[1 0 0 1 0 0] CT
-19 5.5 moveto 
1 -1 scale
(0.8) t 
GR
GR
GS
[0.75 0 0 0.75 991.99997 278.875] CT
0.149 GC
/Helvetica 13.333 F
GS
[1 0 0 1 0 0] CT
-19 5.5 moveto 
1 -1 scale
(0.9) t 
GR
GR
GS
[0.75 0 0 0.75 991.99997 253] CT
0.149 GC
/Helvetica 13.333 F
GS
[1 0 0 1 0 0] CT
-8 5.5 moveto 
1 -1 scale
(1) t 
GR
GR
GS
[0 -0.75 0.75 0 974.74997 304.74995] CT
0.149 GC
/Helvetica 14.667 F
GS
[1 0 0 1 0 0] CT
-11 -4 moveto 
1 -1 scale
(CC) t 
GR
GR
GS
[0.75 0 0 0.75 0 0.25] CT
0 0.447 0.741 RC
1 LJ
0.667 LW
N
1332.556 389.007 M
1337.111 392.031 L
1341.667 382.674 L
1346.222 384.018 L
1350.778 384.483 L
1355.333 381.858 L
1359.889 395.055 L
1364.444 381.953 L
1369 385.955 L
1373.556 391.922 L
1378.111 397.059 L
1382.667 395.815 L
1387.222 381.25 L
1391.778 384.216 L
1396.333 378.699 L
1400.889 395.747 L
1405.444 391.275 L
1410 388.914 L
1414.556 387.41 L
1419.111 395.127 L
1423.667 394.469 L
1428.222 395.156 L
1432.778 398.285 L
1437.333 391.825 L
1441.889 393.111 L
1446.444 392.975 L
1451 378.892 L
1455.556 385.018 L
1460.111 426.349 L
1464.667 391.994 L
1469.222 426.476 L
1473.778 404.535 L
1478.333 403.736 L
1482.889 396.241 L
1487.444 389.822 L
1492 398.805 L
1496.556 396.53 L
1501.111 412.905 L
1505.667 404.148 L
1510.222 397.822 L
1514.778 407.588 L
1519.333 401.903 L
1523.889 422.079 L
1528.444 407.68 L
1533 406.782 L
1537.556 403.547 L
1542.111 398.319 L
1546.667 421.341 L
1551.222 422.757 L
1555.778 411.376 L
1560.333 406.289 L
1564.889 394.121 L
1569.444 400.528 L
1574 402.273 L
1578.556 398.417 L
1583.111 389.292 L
1587.667 409.643 L
1592.222 406.474 L
1596.778 395.06 L
1601.333 402.662 L
1605.889 376.471 L
1610.444 385.01 L
1615 391.832 L
1619.556 399.552 L
1624.111 393.929 L
1628.667 396.325 L
1633.222 385.269 L
1637.778 383.709 L
1642.333 380.895 L
1646.889 389.599 L
1651.444 390.305 L
1656 377.326 L
1660.556 380.63 L
1665.111 380.154 L
1669.667 366.883 L
1674.222 376.82 L
1678.778 379.246 L
1683.333 387.42 L
1687.889 378.208 L
1692.444 384.237 L
1697 389.264 L
1701.556 381.33 L
1706.111 373.805 L
1710.667 390.638 L
1715.222 384.793 L
S
GR
GS
[0.75 0 0 0.75 0 0.25] CT
0.851 0.325 0.098 RC
1 LJ
0.667 LW
N
1332.556 451.629 M
1337.111 429.857 L
1341.667 446.195 L
1346.222 456.406 L
1350.778 439.69 L
1355.333 450.582 L
1359.889 446.017 L
1364.444 441.154 L
1369 438.353 L
1373.556 431.189 L
1378.111 453.734 L
1382.667 439.74 L
1387.222 427.299 L
1391.778 448.759 L
1396.333 406.223 L
1400.889 443.369 L
1405.444 450.738 L
1410 456.584 L
1414.556 450.696 L
1419.111 450.216 L
1423.667 442.513 L
1428.222 432.295 L
1432.778 440.522 L
1437.333 440.126 L
1441.889 451.113 L
1446.444 443.45 L
1451 433.708 L
1455.556 442.586 L
1460.111 443.804 L
1464.667 444.842 L
1469.222 444.596 L
1473.778 447.74 L
1478.333 451.308 L
1482.889 438.906 L
1487.444 442.79 L
1492 444.524 L
1496.556 442.796 L
1501.111 445.116 L
1505.667 449.424 L
1510.222 446.984 L
1514.778 437.363 L
1519.333 437.577 L
1523.889 436.955 L
1528.444 436.698 L
1533 431.734 L
1537.556 434.395 L
1542.111 446.906 L
1546.667 446.855 L
1551.222 454.288 L
1555.778 447.751 L
1560.333 439.556 L
1564.889 444.42 L
1569.444 447.995 L
1574 438.536 L
1578.556 440.902 L
1583.111 420.809 L
1587.667 446.663 L
1592.222 441.763 L
1596.778 436.448 L
1601.333 436.968 L
1605.889 454.572 L
1610.444 422.912 L
1615 439.608 L
1619.556 441.285 L
1624.111 444.261 L
1628.667 430.617 L
1633.222 441.749 L
1637.778 414.062 L
1642.333 411.097 L
1646.889 450.787 L
1651.444 430.788 L
1656 432.402 L
1660.556 428.403 L
1665.111 434.44 L
1669.667 439.914 L
1674.222 440.978 L
1678.778 441.217 L
1683.333 417.417 L
1687.889 435.769 L
1692.444 436.296 L
1697 430.33 L
1701.556 443.429 L
1706.111 427.78 L
1710.667 436.383 L
1715.222 452.186 L
S
GR
GS
[0.75 0 0 0.75 0 0.25] CT
1 GC
N
250 673 M
659 673 L
659 536 L
250 536 L
cp
f
GR
GS
[0.75 0 0 0.75 0 0.25] CT
0.149 GC
2 setlinecap
1 LJ
0.667 LW
N
250 673 M
659 673 L
S
GR
GS
[0.75 0 0 0.75 0 0.25] CT
0.149 GC
2 setlinecap
1 LJ
0.667 LW
N
250 536 M
659 536 L
S
GR
GS
[0.75 0 0 0.75 0 0.25] CT
0.149 GC
2 setlinecap
1 LJ
0.667 LW
N
250 673 M
250 668.91 L
S
GR
GS
[0.75 0 0 0.75 0 0.25] CT
0.149 GC
2 setlinecap
1 LJ
0.667 LW
N
308.429 673 M
308.429 668.91 L
S
GR
GS
[0.75 0 0 0.75 0 0.25] CT
0.149 GC
2 setlinecap
1 LJ
0.667 LW
N
366.857 673 M
366.857 668.91 L
S
GR
GS
[0.75 0 0 0.75 0 0.25] CT
0.149 GC
2 setlinecap
1 LJ
0.667 LW
N
425.286 673 M
425.286 668.91 L
S
GR
GS
[0.75 0 0 0.75 0 0.25] CT
0.149 GC
2 setlinecap
1 LJ
0.667 LW
N
483.714 673 M
483.714 668.91 L
S
GR
GS
[0.75 0 0 0.75 0 0.25] CT
0.149 GC
2 setlinecap
1 LJ
0.667 LW
N
542.143 673 M
542.143 668.91 L
S
GR
GS
[0.75 0 0 0.75 0 0.25] CT
0.149 GC
2 setlinecap
1 LJ
0.667 LW
N
600.571 673 M
600.571 668.91 L
S
GR
GS
[0.75 0 0 0.75 0 0.25] CT
0.149 GC
2 setlinecap
1 LJ
0.667 LW
N
659 673 M
659 668.91 L
S
GR
GS
[0.75 0 0 0.75 0 0.25] CT
0.149 GC
2 setlinecap
1 LJ
0.667 LW
N
250 536 M
250 540.09 L
S
GR
GS
[0.75 0 0 0.75 0 0.25] CT
0.149 GC
2 setlinecap
1 LJ
0.667 LW
N
308.429 536 M
308.429 540.09 L
S
GR
GS
[0.75 0 0 0.75 0 0.25] CT
0.149 GC
2 setlinecap
1 LJ
0.667 LW
N
366.857 536 M
366.857 540.09 L
S
GR
GS
[0.75 0 0 0.75 0 0.25] CT
0.149 GC
2 setlinecap
1 LJ
0.667 LW
N
425.286 536 M
425.286 540.09 L
S
GR
GS
[0.75 0 0 0.75 0 0.25] CT
0.149 GC
2 setlinecap
1 LJ
0.667 LW
N
483.714 536 M
483.714 540.09 L
S
GR
GS
[0.75 0 0 0.75 0 0.25] CT
0.149 GC
2 setlinecap
1 LJ
0.667 LW
N
542.143 536 M
542.143 540.09 L
S
GR
GS
[0.75 0 0 0.75 0 0.25] CT
0.149 GC
2 setlinecap
1 LJ
0.667 LW
N
600.571 536 M
600.571 540.09 L
S
GR
GS
[0.75 0 0 0.75 0 0.25] CT
0.149 GC
2 setlinecap
1 LJ
0.667 LW
N
659 536 M
659 540.09 L
S
GR
GS
[0.75 0 0 0.75 187.5 508.99998] CT
0.149 GC
/Helvetica 13.333 F
GS
[1 0 0 1 0 0] CT
-4 14 moveto 
1 -1 scale
(0) t 
GR
GR
GS
[0.75 0 0 0.75 231.32142 508.99998] CT
0.149 GC
/Helvetica 13.333 F
GS
[1 0 0 1 0 0] CT
-7.5 14 moveto 
1 -1 scale
(20) t 
GR
GR
GS
[0.75 0 0 0.75 275.14286 508.99998] CT
0.149 GC
/Helvetica 13.333 F
GS
[1 0 0 1 0 0] CT
-7.5 14 moveto 
1 -1 scale
(40) t 
GR
GR
GS
[0.75 0 0 0.75 318.96428 508.99998] CT
0.149 GC
/Helvetica 13.333 F
GS
[1 0 0 1 0 0] CT
-7.5 14 moveto 
1 -1 scale
(60) t 
GR
GR
GS
[0.75 0 0 0.75 362.78572 508.99998] CT
0.149 GC
/Helvetica 13.333 F
GS
[1 0 0 1 0 0] CT
-7.5 14 moveto 
1 -1 scale
(80) t 
GR
GR
GS
[0.75 0 0 0.75 406.60716 508.99998] CT
0.149 GC
/Helvetica 13.333 F
GS
[1 0 0 1 0 0] CT
-11 14 moveto 
1 -1 scale
(100) t 
GR
GR
GS
[0.75 0 0 0.75 450.42856 508.99998] CT
0.149 GC
/Helvetica 13.333 F
GS
[1 0 0 1 0 0] CT
-11 14 moveto 
1 -1 scale
(120) t 
GR
GR
GS
[0.75 0 0 0.75 494.25 508.99998] CT
0.149 GC
/Helvetica 13.333 F
GS
[1 0 0 1 0 0] CT
-11 14 moveto 
1 -1 scale
(140) t 
GR
GR
GS
[0.75 0 0 0.75 340.87516 522.74997] CT
0.149 GC
/Helvetica 14.667 F
GS
[1 0 0 1 0 0] CT
-30.5 16 moveto 
1 -1 scale
(channels) t 
GR
GR
GS
[0.75 0 0 0.75 0 0.25] CT
0.149 GC
2 setlinecap
1 LJ
0.667 LW
N
250 673 M
250 536 L
S
GR
GS
[0.75 0 0 0.75 0 0.25] CT
0.149 GC
2 setlinecap
1 LJ
0.667 LW
N
659 673 M
659 536 L
S
GR
GS
[0.75 0 0 0.75 0 0.25] CT
0.149 GC
2 setlinecap
1 LJ
0.667 LW
N
250 673 M
254.09 673 L
S
GR
GS
[0.75 0 0 0.75 0 0.25] CT
0.149 GC
2 setlinecap
1 LJ
0.667 LW
N
250 627.333 M
254.09 627.333 L
S
GR
GS
[0.75 0 0 0.75 0 0.25] CT
0.149 GC
2 setlinecap
1 LJ
0.667 LW
N
250 581.667 M
254.09 581.667 L
S
GR
GS
[0.75 0 0 0.75 0 0.25] CT
0.149 GC
2 setlinecap
1 LJ
0.667 LW
N
250 536 M
254.09 536 L
S
GR
GS
[0.75 0 0 0.75 0 0.25] CT
0.149 GC
2 setlinecap
1 LJ
0.667 LW
N
659 673 M
654.91 673 L
S
GR
GS
[0.75 0 0 0.75 0 0.25] CT
0.149 GC
2 setlinecap
1 LJ
0.667 LW
N
659 627.333 M
654.91 627.333 L
S
GR
GS
[0.75 0 0 0.75 0 0.25] CT
0.149 GC
2 setlinecap
1 LJ
0.667 LW
N
659 581.667 M
654.91 581.667 L
S
GR
GS
[0.75 0 0 0.75 0 0.25] CT
0.149 GC
2 setlinecap
1 LJ
0.667 LW
N
659 536 M
654.91 536 L
S
GR
GS
[0.75 0 0 0.75 183.5 505] CT
0.149 GC
/Helvetica 13.333 F
GS
[1 0 0 1 0 0] CT
-19 5.5 moveto 
1 -1 scale
(0.6) t 
GR
GR
GS
[0.75 0 0 0.75 183.5 470.74998] CT
0.149 GC
/Helvetica 13.333 F
GS
[1 0 0 1 0 0] CT
-19 5.5 moveto 
1 -1 scale
(0.7) t 
GR
GR
GS
[0.75 0 0 0.75 183.5 436.50002] CT
0.149 GC
/Helvetica 13.333 F
GS
[1 0 0 1 0 0] CT
-19 5.5 moveto 
1 -1 scale
(0.8) t 
GR
GR
GS
[0.75 0 0 0.75 183.5 402.25] CT
0.149 GC
/Helvetica 13.333 F
GS
[1 0 0 1 0 0] CT
-19 5.5 moveto 
1 -1 scale
(0.9) t 
GR
GR
GS
[0 -0.75 0.75 0 166.25 453.62495] CT
0.149 GC
/Helvetica 14.667 F
GS
[1 0 0 1 0 0] CT
-11 -4 moveto 
1 -1 scale
(CC) t 
GR
GR
GS
[0.75 0 0 0.75 0 0.25] CT
0 0.447 0.741 RC
1 LJ
0.667 LW
N
252.921 601.344 M
255.843 562.357 L
258.764 603.063 L
261.686 571.615 L
264.607 596.938 L
267.529 566.069 L
270.45 558.031 L
273.371 562.633 L
276.293 581.513 L
279.214 566.339 L
282.136 567.81 L
285.057 601.33 L
287.979 567.887 L
290.9 578.655 L
293.821 564.714 L
296.743 566.123 L
299.664 574.305 L
302.586 570.467 L
305.507 565.041 L
308.429 597.071 L
311.35 560.497 L
314.271 551.763 L
317.193 592.917 L
320.114 586.631 L
323.036 598.898 L
325.957 578.309 L
328.879 585.4 L
331.8 557.421 L
334.721 559.217 L
337.643 599.436 L
340.564 559.968 L
343.486 555.018 L
346.407 562.679 L
349.329 562.514 L
352.25 554.325 L
355.171 595.57 L
358.093 634.246 L
361.014 610.588 L
363.936 633.523 L
366.857 638.148 L
369.779 605.684 L
372.7 615.944 L
375.621 568.221 L
378.543 601.804 L
381.464 622.479 L
384.386 611.461 L
387.307 619.397 L
390.229 608.123 L
393.15 620.37 L
396.071 631.387 L
398.993 614.006 L
401.914 554.977 L
404.836 581.703 L
407.757 591.186 L
410.679 564.863 L
413.6 551.706 L
416.521 587.935 L
419.443 597.329 L
422.364 596.221 L
425.286 609.608 L
428.207 592.992 L
431.129 561.07 L
434.05 598.523 L
436.971 585.781 L
439.893 562.891 L
442.814 586.051 L
445.736 583.644 L
448.657 588.213 L
451.579 599.856 L
454.5 578.844 L
457.421 589.645 L
460.343 572.659 L
463.264 586.695 L
466.186 581.839 L
469.107 583.604 L
472.029 578.577 L
474.95 569.532 L
477.871 592.494 L
480.793 580.993 L
483.714 601.654 L
486.636 579.348 L
489.557 562.997 L
492.479 593.697 L
495.4 584.517 L
498.321 567.031 L
501.243 596.839 L
504.164 565.046 L
507.086 594.701 L
510.007 565.944 L
512.929 597.96 L
515.85 582.723 L
518.771 550.465 L
521.693 598.724 L
524.614 579.804 L
527.536 599.372 L
530.457 581.79 L
533.379 590.771 L
536.3 586.883 L
539.221 574.505 L
542.143 587.503 L
545.064 593.761 L
547.986 603.239 L
550.907 604.467 L
553.829 595.703 L
556.75 587.007 L
559.671 637.833 L
562.593 630.801 L
565.514 627.316 L
568.436 641.394 L
571.357 615.669 L
574.279 624.786 L
577.2 619.18 L
580.121 637.82 L
583.043 566.625 L
585.964 641.971 L
588.886 626.371 L
591.807 595.443 L
594.729 646.321 L
597.65 632.531 L
600.571 599.882 L
603.493 634.31 L
606.414 612.315 L
609.336 583.237 L
612.257 606.481 L
615.179 605.346 L
S
GR
GS
[0.75 0 0 0.75 0 0.25] CT
0.851 0.325 0.098 RC
1 LJ
0.667 LW
N
252.921 640.078 M
255.843 660.744 L
258.764 650.331 L
261.686 660.82 L
264.607 638.093 L
267.529 633.027 L
270.45 651.667 L
273.371 638.857 L
276.293 641.959 L
279.214 648.383 L
282.136 631.592 L
285.057 631.496 L
287.979 634.189 L
290.9 646.493 L
293.821 641.545 L
296.743 626.928 L
299.664 617.434 L
302.586 634.165 L
305.507 643.604 L
308.429 629.922 L
311.35 636.405 L
314.271 634.484 L
317.193 634.529 L
320.114 627.454 L
323.036 635.24 L
325.957 613.059 L
328.879 632.076 L
331.8 636.297 L
334.721 630.187 L
337.643 633.826 L
340.564 618.338 L
343.486 614.499 L
346.407 634.365 L
349.329 619.589 L
352.25 647.208 L
355.171 639.029 L
358.093 640.769 L
361.014 651.195 L
363.936 653.565 L
366.857 640.398 L
369.779 633.936 L
372.7 651.115 L
375.621 654.552 L
378.543 649.691 L
381.464 650.135 L
384.386 659.92 L
387.307 637.537 L
390.229 635.346 L
393.15 633.664 L
396.071 657.312 L
398.993 634.343 L
401.914 626.292 L
404.836 627.284 L
407.757 642.243 L
410.679 626.33 L
413.6 627.763 L
416.521 617.3 L
419.443 627.691 L
422.364 629.11 L
425.286 628.003 L
428.207 632.712 L
431.129 610.37 L
434.05 615.509 L
436.971 605.159 L
439.893 619.327 L
442.814 629.448 L
445.736 624.363 L
448.657 645.207 L
451.579 624.742 L
454.5 611.915 L
457.421 624.185 L
460.343 618.904 L
463.264 621.787 L
466.186 610.4 L
469.107 624.422 L
472.029 623.662 L
474.95 625.188 L
477.871 623.108 L
480.793 600.611 L
483.714 604.288 L
486.636 608.801 L
489.557 620.083 L
492.479 621.769 L
495.4 593.25 L
498.321 613.742 L
501.243 607.97 L
504.164 618.964 L
507.086 616.334 L
510.007 610.262 L
512.929 628.062 L
515.85 617.646 L
518.771 594.256 L
521.693 606.588 L
524.614 624.001 L
527.536 607.175 L
530.457 603.445 L
533.379 620.255 L
536.3 622.562 L
539.221 606.415 L
542.143 619.321 L
545.064 622.823 L
547.986 624.895 L
550.907 613.324 L
553.829 635.68 L
556.75 639.784 L
559.671 653.684 L
562.593 652.179 L
565.514 660.35 L
568.436 645.188 L
571.357 642.386 L
574.279 643.065 L
577.2 635.468 L
580.121 656.868 L
583.043 654.167 L
585.964 633.283 L
588.886 639.289 L
591.807 654.794 L
594.729 655.624 L
597.65 655.744 L
600.571 630.738 L
603.493 649.665 L
606.414 645.068 L
609.336 635.155 L
612.257 633.057 L
615.179 637.527 L
S
GR
GS
[0.75 0 0 0.75 0 0.25] CT
1 GC
N
789 673 M
1198 673 L
1198 536 L
789 536 L
cp
f
GR
GS
[0.75 0 0 0.75 0 0.25] CT
0.149 GC
2 setlinecap
1 LJ
0.667 LW
N
789 673 M
1198 673 L
S
GR
GS
[0.75 0 0 0.75 0 0.25] CT
0.149 GC
2 setlinecap
1 LJ
0.667 LW
N
789 536 M
1198 536 L
S
GR
GS
[0.75 0 0 0.75 0 0.25] CT
0.149 GC
2 setlinecap
1 LJ
0.667 LW
N
789 673 M
789 668.91 L
S
GR
GS
[0.75 0 0 0.75 0 0.25] CT
0.149 GC
2 setlinecap
1 LJ
0.667 LW
N
891.25 673 M
891.25 668.91 L
S
GR
GS
[0.75 0 0 0.75 0 0.25] CT
0.149 GC
2 setlinecap
1 LJ
0.667 LW
N
993.5 673 M
993.5 668.91 L
S
GR
GS
[0.75 0 0 0.75 0 0.25] CT
0.149 GC
2 setlinecap
1 LJ
0.667 LW
N
1095.75 673 M
1095.75 668.91 L
S
GR
GS
[0.75 0 0 0.75 0 0.25] CT
0.149 GC
2 setlinecap
1 LJ
0.667 LW
N
1198 673 M
1198 668.91 L
S
GR
GS
[0.75 0 0 0.75 0 0.25] CT
0.149 GC
2 setlinecap
1 LJ
0.667 LW
N
789 536 M
789 540.09 L
S
GR
GS
[0.75 0 0 0.75 0 0.25] CT
0.149 GC
2 setlinecap
1 LJ
0.667 LW
N
891.25 536 M
891.25 540.09 L
S
GR
GS
[0.75 0 0 0.75 0 0.25] CT
0.149 GC
2 setlinecap
1 LJ
0.667 LW
N
993.5 536 M
993.5 540.09 L
S
GR
GS
[0.75 0 0 0.75 0 0.25] CT
0.149 GC
2 setlinecap
1 LJ
0.667 LW
N
1095.75 536 M
1095.75 540.09 L
S
GR
GS
[0.75 0 0 0.75 0 0.25] CT
0.149 GC
2 setlinecap
1 LJ
0.667 LW
N
1198 536 M
1198 540.09 L
S
GR
GS
[0.75 0 0 0.75 591.75 508.99998] CT
0.149 GC
/Helvetica 13.333 F
GS
[1 0 0 1 0 0] CT
-4 14 moveto 
1 -1 scale
(1) t 
GR
GR
GS
[0.75 0 0 0.75 668.4375 508.99998] CT
0.149 GC
/Helvetica 13.333 F
GS
[1 0 0 1 0 0] CT
-9.5 14 moveto 
1 -1 scale
(1.5) t 
GR
GR
GS
[0.75 0 0 0.75 745.125 508.99998] CT
0.149 GC
/Helvetica 13.333 F
GS
[1 0 0 1 0 0] CT
-4 14 moveto 
1 -1 scale
(2) t 
GR
GR
GS
[0.75 0 0 0.75 821.8125 508.99998] CT
0.149 GC
/Helvetica 13.333 F
GS
[1 0 0 1 0 0] CT
-9.5 14 moveto 
1 -1 scale
(2.5) t 
GR
GR
GS
[0.75 0 0 0.75 898.5 508.99998] CT
0.149 GC
/Helvetica 13.333 F
GS
[1 0 0 1 0 0] CT
-4 14 moveto 
1 -1 scale
(3) t 
GR
GR
GS
[0.75 0 0 0.75 745.12514 522.74997] CT
0.149 GC
/Helvetica 14.667 F
GS
[1 0 0 1 0 0] CT
-30.5 16 moveto 
1 -1 scale
(channels) t 
GR
GR
GS
[0.75 0 0 0.75 0 0.25] CT
0.149 GC
2 setlinecap
1 LJ
0.667 LW
N
789 673 M
789 536 L
S
GR
GS
[0.75 0 0 0.75 0 0.25] CT
0.149 GC
2 setlinecap
1 LJ
0.667 LW
N
1198 673 M
1198 536 L
S
GR
GS
[0.75 0 0 0.75 0 0.25] CT
0.149 GC
2 setlinecap
1 LJ
0.667 LW
N
789 673 M
793.09 673 L
S
GR
GS
[0.75 0 0 0.75 0 0.25] CT
0.149 GC
2 setlinecap
1 LJ
0.667 LW
N
789 627.333 M
793.09 627.333 L
S
GR
GS
[0.75 0 0 0.75 0 0.25] CT
0.149 GC
2 setlinecap
1 LJ
0.667 LW
N
789 581.667 M
793.09 581.667 L
S
GR
GS
[0.75 0 0 0.75 0 0.25] CT
0.149 GC
2 setlinecap
1 LJ
0.667 LW
N
789 536 M
793.09 536 L
S
GR
GS
[0.75 0 0 0.75 0 0.25] CT
0.149 GC
2 setlinecap
1 LJ
0.667 LW
N
1198 673 M
1193.91 673 L
S
GR
GS
[0.75 0 0 0.75 0 0.25] CT
0.149 GC
2 setlinecap
1 LJ
0.667 LW
N
1198 627.333 M
1193.91 627.333 L
S
GR
GS
[0.75 0 0 0.75 0 0.25] CT
0.149 GC
2 setlinecap
1 LJ
0.667 LW
N
1198 581.667 M
1193.91 581.667 L
S
GR
GS
[0.75 0 0 0.75 0 0.25] CT
0.149 GC
2 setlinecap
1 LJ
0.667 LW
N
1198 536 M
1193.91 536 L
S
GR
GS
[0.75 0 0 0.75 587.75002 505] CT
0.149 GC
/Helvetica 13.333 F
GS
[1 0 0 1 0 0] CT
-19 5.5 moveto 
1 -1 scale
(0.6) t 
GR
GR
GS
[0.75 0 0 0.75 587.75002 470.74998] CT
0.149 GC
/Helvetica 13.333 F
GS
[1 0 0 1 0 0] CT
-19 5.5 moveto 
1 -1 scale
(0.7) t 
GR
GR
GS
[0.75 0 0 0.75 587.75002 436.50002] CT
0.149 GC
/Helvetica 13.333 F
GS
[1 0 0 1 0 0] CT
-19 5.5 moveto 
1 -1 scale
(0.8) t 
GR
GR
GS
[0.75 0 0 0.75 587.75002 402.25] CT
0.149 GC
/Helvetica 13.333 F
GS
[1 0 0 1 0 0] CT
-19 5.5 moveto 
1 -1 scale
(0.9) t 
GR
GR
GS
[0 -0.75 0.75 0 570.50002 453.62495] CT
0.149 GC
/Helvetica 14.667 F
GS
[1 0 0 1 0 0] CT
-11 -4 moveto 
1 -1 scale
(CC) t 
GR
GR
GS
[0.75 0 0 0.75 0 0.25] CT
0 0.447 0.741 RC
1 LJ
0.667 LW
N
789 542.219 M
993.5 560.094 L
1198 548.144 L
S
GR
GS
[0.75 0 0 0.75 0 0.25] CT
0.851 0.325 0.098 RC
1 LJ
0.667 LW
N
789 660.761 M
993.5 649.333 L
1198 626.187 L
S
GR
GS
[0.75 0 0 0.75 0 0.25] CT
1 GC
N
1328 673 M
1738 673 L
1738 536 L
1328 536 L
cp
f
GR
GS
[0.75 0 0 0.75 0 0.25] CT
0.149 GC
2 setlinecap
1 LJ
0.667 LW
N
1328 673 M
1738 673 L
S
GR
GS
[0.75 0 0 0.75 0 0.25] CT
0.149 GC
2 setlinecap
1 LJ
0.667 LW
N
1328 536 M
1738 536 L
S
GR
GS
[0.75 0 0 0.75 0 0.25] CT
0.149 GC
2 setlinecap
1 LJ
0.667 LW
N
1328 673 M
1328 668.9 L
S
GR
GS
[0.75 0 0 0.75 0 0.25] CT
0.149 GC
2 setlinecap
1 LJ
0.667 LW
N
1373.556 673 M
1373.556 668.9 L
S
GR
GS
[0.75 0 0 0.75 0 0.25] CT
0.149 GC
2 setlinecap
1 LJ
0.667 LW
N
1419.111 673 M
1419.111 668.9 L
S
GR
GS
[0.75 0 0 0.75 0 0.25] CT
0.149 GC
2 setlinecap
1 LJ
0.667 LW
N
1464.667 673 M
1464.667 668.9 L
S
GR
GS
[0.75 0 0 0.75 0 0.25] CT
0.149 GC
2 setlinecap
1 LJ
0.667 LW
N
1510.222 673 M
1510.222 668.9 L
S
GR
GS
[0.75 0 0 0.75 0 0.25] CT
0.149 GC
2 setlinecap
1 LJ
0.667 LW
N
1555.778 673 M
1555.778 668.9 L
S
GR
GS
[0.75 0 0 0.75 0 0.25] CT
0.149 GC
2 setlinecap
1 LJ
0.667 LW
N
1601.333 673 M
1601.333 668.9 L
S
GR
GS
[0.75 0 0 0.75 0 0.25] CT
0.149 GC
2 setlinecap
1 LJ
0.667 LW
N
1646.889 673 M
1646.889 668.9 L
S
GR
GS
[0.75 0 0 0.75 0 0.25] CT
0.149 GC
2 setlinecap
1 LJ
0.667 LW
N
1692.444 673 M
1692.444 668.9 L
S
GR
GS
[0.75 0 0 0.75 0 0.25] CT
0.149 GC
2 setlinecap
1 LJ
0.667 LW
N
1738 673 M
1738 668.9 L
S
GR
GS
[0.75 0 0 0.75 0 0.25] CT
0.149 GC
2 setlinecap
1 LJ
0.667 LW
N
1328 536 M
1328 540.1 L
S
GR
GS
[0.75 0 0 0.75 0 0.25] CT
0.149 GC
2 setlinecap
1 LJ
0.667 LW
N
1373.556 536 M
1373.556 540.1 L
S
GR
GS
[0.75 0 0 0.75 0 0.25] CT
0.149 GC
2 setlinecap
1 LJ
0.667 LW
N
1419.111 536 M
1419.111 540.1 L
S
GR
GS
[0.75 0 0 0.75 0 0.25] CT
0.149 GC
2 setlinecap
1 LJ
0.667 LW
N
1464.667 536 M
1464.667 540.1 L
S
GR
GS
[0.75 0 0 0.75 0 0.25] CT
0.149 GC
2 setlinecap
1 LJ
0.667 LW
N
1510.222 536 M
1510.222 540.1 L
S
GR
GS
[0.75 0 0 0.75 0 0.25] CT
0.149 GC
2 setlinecap
1 LJ
0.667 LW
N
1555.778 536 M
1555.778 540.1 L
S
GR
GS
[0.75 0 0 0.75 0 0.25] CT
0.149 GC
2 setlinecap
1 LJ
0.667 LW
N
1601.333 536 M
1601.333 540.1 L
S
GR
GS
[0.75 0 0 0.75 0 0.25] CT
0.149 GC
2 setlinecap
1 LJ
0.667 LW
N
1646.889 536 M
1646.889 540.1 L
S
GR
GS
[0.75 0 0 0.75 0 0.25] CT
0.149 GC
2 setlinecap
1 LJ
0.667 LW
N
1692.444 536 M
1692.444 540.1 L
S
GR
GS
[0.75 0 0 0.75 0 0.25] CT
0.149 GC
2 setlinecap
1 LJ
0.667 LW
N
1738 536 M
1738 540.1 L
S
GR
GS
[0.75 0 0 0.75 996 508.99998] CT
0.149 GC
/Helvetica 13.333 F
GS
[1 0 0 1 0 0] CT
-4 14 moveto 
1 -1 scale
(0) t 
GR
GR
GS
[0.75 0 0 0.75 1030.16666 508.99998] CT
0.149 GC
/Helvetica 13.333 F
GS
[1 0 0 1 0 0] CT
-7.5 14 moveto 
1 -1 scale
(10) t 
GR
GR
GS
[0.75 0 0 0.75 1064.33331 508.99998] CT
0.149 GC
/Helvetica 13.333 F
GS
[1 0 0 1 0 0] CT
-7.5 14 moveto 
1 -1 scale
(20) t 
GR
GR
GS
[0.75 0 0 0.75 1098.49997 508.99998] CT
0.149 GC
/Helvetica 13.333 F
GS
[1 0 0 1 0 0] CT
-7.5 14 moveto 
1 -1 scale
(30) t 
GR
GR
GS
[0.75 0 0 0.75 1132.66663 508.99998] CT
0.149 GC
/Helvetica 13.333 F
GS
[1 0 0 1 0 0] CT
-7.5 14 moveto 
1 -1 scale
(40) t 
GR
GR
GS
[0.75 0 0 0.75 1166.83337 508.99998] CT
0.149 GC
/Helvetica 13.333 F
GS
[1 0 0 1 0 0] CT
-7.5 14 moveto 
1 -1 scale
(50) t 
GR
GR
GS
[0.75 0 0 0.75 1201.00003 508.99998] CT
0.149 GC
/Helvetica 13.333 F
GS
[1 0 0 1 0 0] CT
-7.5 14 moveto 
1 -1 scale
(60) t 
GR
GR
GS
[0.75 0 0 0.75 1235.16669 508.99998] CT
0.149 GC
/Helvetica 13.333 F
GS
[1 0 0 1 0 0] CT
-7.5 14 moveto 
1 -1 scale
(70) t 
GR
GR
GS
[0.75 0 0 0.75 1269.33334 508.99998] CT
0.149 GC
/Helvetica 13.333 F
GS
[1 0 0 1 0 0] CT
-7.5 14 moveto 
1 -1 scale
(80) t 
GR
GR
GS
[0.75 0 0 0.75 1303.5 508.99998] CT
0.149 GC
/Helvetica 13.333 F
GS
[1 0 0 1 0 0] CT
-7.5 14 moveto 
1 -1 scale
(90) t 
GR
GR
GS
[0.75 0 0 0.75 1149.75018 522.74997] CT
0.149 GC
/Helvetica 14.667 F
GS
[1 0 0 1 0 0] CT
-30.5 16 moveto 
1 -1 scale
(channels) t 
GR
GR
GS
[0.75 0 0 0.75 0 0.25] CT
0.149 GC
2 setlinecap
1 LJ
0.667 LW
N
1328 673 M
1328 536 L
S
GR
GS
[0.75 0 0 0.75 0 0.25] CT
0.149 GC
2 setlinecap
1 LJ
0.667 LW
N
1738 673 M
1738 536 L
S
GR
GS
[0.75 0 0 0.75 0 0.25] CT
0.149 GC
2 setlinecap
1 LJ
0.667 LW
N
1328 673 M
1332.1 673 L
S
GR
GS
[0.75 0 0 0.75 0 0.25] CT
0.149 GC
2 setlinecap
1 LJ
0.667 LW
N
1328 627.333 M
1332.1 627.333 L
S
GR
GS
[0.75 0 0 0.75 0 0.25] CT
0.149 GC
2 setlinecap
1 LJ
0.667 LW
N
1328 581.667 M
1332.1 581.667 L
S
GR
GS
[0.75 0 0 0.75 0 0.25] CT
0.149 GC
2 setlinecap
1 LJ
0.667 LW
N
1328 536 M
1332.1 536 L
S
GR
GS
[0.75 0 0 0.75 0 0.25] CT
0.149 GC
2 setlinecap
1 LJ
0.667 LW
N
1738 673 M
1733.9 673 L
S
GR
GS
[0.75 0 0 0.75 0 0.25] CT
0.149 GC
2 setlinecap
1 LJ
0.667 LW
N
1738 627.333 M
1733.9 627.333 L
S
GR
GS
[0.75 0 0 0.75 0 0.25] CT
0.149 GC
2 setlinecap
1 LJ
0.667 LW
N
1738 581.667 M
1733.9 581.667 L
S
GR
GS
[0.75 0 0 0.75 0 0.25] CT
0.149 GC
2 setlinecap
1 LJ
0.667 LW
N
1738 536 M
1733.9 536 L
S
GR
GS
[0.75 0 0 0.75 991.99997 505] CT
0.149 GC
/Helvetica 13.333 F
GS
[1 0 0 1 0 0] CT
-19 5.5 moveto 
1 -1 scale
(0.6) t 
GR
GR
GS
[0.75 0 0 0.75 991.99997 470.74998] CT
0.149 GC
/Helvetica 13.333 F
GS
[1 0 0 1 0 0] CT
-19 5.5 moveto 
1 -1 scale
(0.7) t 
GR
GR
GS
[0.75 0 0 0.75 991.99997 436.50002] CT
0.149 GC
/Helvetica 13.333 F
GS
[1 0 0 1 0 0] CT
-19 5.5 moveto 
1 -1 scale
(0.8) t 
GR
GR
GS
[0.75 0 0 0.75 991.99997 402.25] CT
0.149 GC
/Helvetica 13.333 F
GS
[1 0 0 1 0 0] CT
-19 5.5 moveto 
1 -1 scale
(0.9) t 
GR
GR
GS
[0 -0.75 0.75 0 974.74997 453.62495] CT
0.149 GC
/Helvetica 14.667 F
GS
[1 0 0 1 0 0] CT
-11 -4 moveto 
1 -1 scale
(CC) t 
GR
GR
GS
[0.75 0 0 0.75 0 0.25] CT
0 0.447 0.741 RC
1 LJ
0.667 LW
N
1332.556 553.219 M
1337.111 558.374 L
1341.667 550.356 L
1346.222 548.368 L
1350.778 549.688 L
1355.333 542.95 L
1359.889 546.327 L
1364.444 542.124 L
1369 549.314 L
1373.556 542.182 L
1378.111 542.591 L
1382.667 550.238 L
1387.222 545.527 L
1391.778 553.551 L
1396.333 546.988 L
1400.889 563.092 L
1405.444 558.565 L
1410 551.896 L
1414.556 548.062 L
1419.111 549.434 L
1423.667 570.177 L
1428.222 549.505 L
1432.778 569.792 L
1437.333 561.095 L
1441.889 573.85 L
1446.444 576.922 L
1451 587.297 L
1455.556 574.195 L
1460.111 589.063 L
1464.667 559.862 L
1469.222 571.025 L
1473.778 553.825 L
1478.333 556.148 L
1482.889 569.352 L
1487.444 577.142 L
1492 557.445 L
1496.556 569.993 L
1501.111 553.343 L
1505.667 552.71 L
1510.222 556.061 L
1514.778 555.089 L
1519.333 561.162 L
1523.889 560.137 L
1528.444 554.943 L
1533 559.549 L
1537.556 554.512 L
1542.111 549.905 L
1546.667 557.643 L
1551.222 557.392 L
1555.778 549.437 L
1560.333 560.717 L
1564.889 549.558 L
1569.444 560.676 L
1574 554.042 L
1578.556 555.461 L
1583.111 547.573 L
1587.667 564.831 L
1592.222 564.853 L
1596.778 557.838 L
1601.333 555.055 L
1605.889 566.806 L
1610.444 600.656 L
1615 584.337 L
1619.556 572.469 L
1624.111 546.62 L
1628.667 621.939 L
1633.222 606.118 L
1637.778 621.7 L
1642.333 572.033 L
1646.889 585.45 L
1651.444 580.793 L
1656 569.577 L
1660.556 569.333 L
1665.111 556.445 L
1669.667 582.493 L
1674.222 559.27 L
1678.778 616.397 L
1683.333 634.001 L
1687.889 588.301 L
1692.444 568.844 L
1697 611.177 L
1701.556 583.849 L
S
GR
GS
[0.75 0 0 0.75 0 0.25] CT
0.851 0.325 0.098 RC
1 LJ
0.667 LW
N
1332.556 594.368 M
1337.111 587.048 L
1341.667 587.137 L
1346.222 583.054 L
1350.778 571.188 L
1355.333 591.292 L
1359.889 600.92 L
1364.444 588.119 L
1369 595.289 L
1373.556 590.159 L
1378.111 594.064 L
1382.667 610.1 L
1387.222 607.506 L
1391.778 587.445 L
1396.333 625.817 L
1400.889 606.7 L
1405.444 629.563 L
1410 623.442 L
1414.556 580.431 L
1419.111 607.697 L
1423.667 635.145 L
1428.222 607.14 L
1432.778 601.99 L
1437.333 631.738 L
1441.889 642.095 L
1446.444 643.551 L
1451 656.625 L
1455.556 653.233 L
1460.111 645.769 L
1464.667 650.258 L
1469.222 637.107 L
1473.778 623.989 L
1478.333 616.844 L
1482.889 623.043 L
1487.444 619.831 L
1492 623.867 L
1496.556 599.436 L
1501.111 618.14 L
1505.667 612.216 L
1510.222 599.332 L
1514.778 609.567 L
1519.333 603.186 L
1523.889 604.272 L
1528.444 618.644 L
1533 633.483 L
1537.556 613.965 L
1542.111 628.328 L
1546.667 619.635 L
1551.222 619.829 L
1555.778 608.092 L
1560.333 619.542 L
1564.889 620.286 L
1569.444 603.796 L
1574 631.856 L
1578.556 617.297 L
1583.111 596.195 L
1587.667 625.926 L
1592.222 630.496 L
1596.778 624.979 L
1601.333 600.379 L
1605.889 641.693 L
1610.444 658.053 L
1615 658.141 L
1619.556 651.706 L
1624.111 644.12 L
1628.667 661.423 L
1633.222 660.893 L
1637.778 656.958 L
1642.333 665.371 L
1646.889 647.974 L
1651.444 657.871 L
1656 657.95 L
1660.556 659.786 L
1665.111 660.143 L
1669.667 649.221 L
1674.222 647.479 L
1678.778 661.568 L
1683.333 645.95 L
1687.889 652.791 L
1692.444 649.486 L
1697 652.424 L
1701.556 653.552 L
S
GR
GS
[0.75 0 0 0.75 0 0.25] CT
1 GC
N
250 872 M
659 872 L
659 735 L
250 735 L
cp
f
GR
GS
[0.75 0 0 0.75 0 0.25] CT
0.149 GC
2 setlinecap
1 LJ
0.667 LW
N
250 872 M
659 872 L
S
GR
GS
[0.75 0 0 0.75 0 0.25] CT
0.149 GC
2 setlinecap
1 LJ
0.667 LW
N
250 735 M
659 735 L
S
GR
GS
[0.75 0 0 0.75 0 0.25] CT
0.149 GC
2 setlinecap
1 LJ
0.667 LW
N
250 872 M
250 867.91 L
S
GR
GS
[0.75 0 0 0.75 0 0.25] CT
0.149 GC
2 setlinecap
1 LJ
0.667 LW
N
331.8 872 M
331.8 867.91 L
S
GR
GS
[0.75 0 0 0.75 0 0.25] CT
0.149 GC
2 setlinecap
1 LJ
0.667 LW
N
413.6 872 M
413.6 867.91 L
S
GR
GS
[0.75 0 0 0.75 0 0.25] CT
0.149 GC
2 setlinecap
1 LJ
0.667 LW
N
495.4 872 M
495.4 867.91 L
S
GR
GS
[0.75 0 0 0.75 0 0.25] CT
0.149 GC
2 setlinecap
1 LJ
0.667 LW
N
577.2 872 M
577.2 867.91 L
S
GR
GS
[0.75 0 0 0.75 0 0.25] CT
0.149 GC
2 setlinecap
1 LJ
0.667 LW
N
659 872 M
659 867.91 L
S
GR
GS
[0.75 0 0 0.75 0 0.25] CT
0.149 GC
2 setlinecap
1 LJ
0.667 LW
N
250 735 M
250 739.09 L
S
GR
GS
[0.75 0 0 0.75 0 0.25] CT
0.149 GC
2 setlinecap
1 LJ
0.667 LW
N
331.8 735 M
331.8 739.09 L
S
GR
GS
[0.75 0 0 0.75 0 0.25] CT
0.149 GC
2 setlinecap
1 LJ
0.667 LW
N
413.6 735 M
413.6 739.09 L
S
GR
GS
[0.75 0 0 0.75 0 0.25] CT
0.149 GC
2 setlinecap
1 LJ
0.667 LW
N
495.4 735 M
495.4 739.09 L
S
GR
GS
[0.75 0 0 0.75 0 0.25] CT
0.149 GC
2 setlinecap
1 LJ
0.667 LW
N
577.2 735 M
577.2 739.09 L
S
GR
GS
[0.75 0 0 0.75 0 0.25] CT
0.149 GC
2 setlinecap
1 LJ
0.667 LW
N
659 735 M
659 739.09 L
S
GR
GS
[0.75 0 0 0.75 187.5 658.24998] CT
0.149 GC
/Helvetica 13.333 F
GS
[1 0 0 1 0 0] CT
-4 14 moveto 
1 -1 scale
(0) t 
GR
GR
GS
[0.75 0 0 0.75 248.84999 658.24998] CT
0.149 GC
/Helvetica 13.333 F
GS
[1 0 0 1 0 0] CT
-7.5 14 moveto 
1 -1 scale
(20) t 
GR
GR
GS
[0.75 0 0 0.75 310.2 658.24998] CT
0.149 GC
/Helvetica 13.333 F
GS
[1 0 0 1 0 0] CT
-7.5 14 moveto 
1 -1 scale
(40) t 
GR
GR
GS
[0.75 0 0 0.75 371.55 658.24998] CT
0.149 GC
/Helvetica 13.333 F
GS
[1 0 0 1 0 0] CT
-7.5 14 moveto 
1 -1 scale
(60) t 
GR
GR
GS
[0.75 0 0 0.75 432.90001 658.24998] CT
0.149 GC
/Helvetica 13.333 F
GS
[1 0 0 1 0 0] CT
-7.5 14 moveto 
1 -1 scale
(80) t 
GR
GR
GS
[0.75 0 0 0.75 494.25 658.24998] CT
0.149 GC
/Helvetica 13.333 F
GS
[1 0 0 1 0 0] CT
-11 14 moveto 
1 -1 scale
(100) t 
GR
GR
GS
[0.75 0 0 0.75 340.87516 672.00002] CT
0.149 GC
/Helvetica 14.667 F
GS
[1 0 0 1 0 0] CT
-30.5 16 moveto 
1 -1 scale
(channels) t 
GR
GR
GS
[0.75 0 0 0.75 0 0.25] CT
0.149 GC
2 setlinecap
1 LJ
0.667 LW
N
250 872 M
250 735 L
S
GR
GS
[0.75 0 0 0.75 0 0.25] CT
0.149 GC
2 setlinecap
1 LJ
0.667 LW
N
659 872 M
659 735 L
S
GR
GS
[0.75 0 0 0.75 0 0.25] CT
0.149 GC
2 setlinecap
1 LJ
0.667 LW
N
250 872 M
254.09 872 L
S
GR
GS
[0.75 0 0 0.75 0 0.25] CT
0.149 GC
2 setlinecap
1 LJ
0.667 LW
N
250 837.75 M
254.09 837.75 L
S
GR
GS
[0.75 0 0 0.75 0 0.25] CT
0.149 GC
2 setlinecap
1 LJ
0.667 LW
N
250 803.5 M
254.09 803.5 L
S
GR
GS
[0.75 0 0 0.75 0 0.25] CT
0.149 GC
2 setlinecap
1 LJ
0.667 LW
N
250 769.25 M
254.09 769.25 L
S
GR
GS
[0.75 0 0 0.75 0 0.25] CT
0.149 GC
2 setlinecap
1 LJ
0.667 LW
N
250 735 M
254.09 735 L
S
GR
GS
[0.75 0 0 0.75 0 0.25] CT
0.149 GC
2 setlinecap
1 LJ
0.667 LW
N
659 872 M
654.91 872 L
S
GR
GS
[0.75 0 0 0.75 0 0.25] CT
0.149 GC
2 setlinecap
1 LJ
0.667 LW
N
659 837.75 M
654.91 837.75 L
S
GR
GS
[0.75 0 0 0.75 0 0.25] CT
0.149 GC
2 setlinecap
1 LJ
0.667 LW
N
659 803.5 M
654.91 803.5 L
S
GR
GS
[0.75 0 0 0.75 0 0.25] CT
0.149 GC
2 setlinecap
1 LJ
0.667 LW
N
659 769.25 M
654.91 769.25 L
S
GR
GS
[0.75 0 0 0.75 0 0.25] CT
0.149 GC
2 setlinecap
1 LJ
0.667 LW
N
659 735 M
654.91 735 L
S
GR
GS
[0.75 0 0 0.75 183.5 654.25] CT
0.149 GC
/Helvetica 13.333 F
GS
[1 0 0 1 0 0] CT
-19 5.5 moveto 
1 -1 scale
(0.6) t 
GR
GR
GS
[0.75 0 0 0.75 183.5 628.5625] CT
0.149 GC
/Helvetica 13.333 F
GS
[1 0 0 1 0 0] CT
-19 5.5 moveto 
1 -1 scale
(0.7) t 
GR
GR
GS
[0.75 0 0 0.75 183.5 602.875] CT
0.149 GC
/Helvetica 13.333 F
GS
[1 0 0 1 0 0] CT
-19 5.5 moveto 
1 -1 scale
(0.8) t 
GR
GR
GS
[0.75 0 0 0.75 183.5 577.1875] CT
0.149 GC
/Helvetica 13.333 F
GS
[1 0 0 1 0 0] CT
-19 5.5 moveto 
1 -1 scale
(0.9) t 
GR
GR
GS
[0.75 0 0 0.75 183.5 551.5] CT
0.149 GC
/Helvetica 13.333 F
GS
[1 0 0 1 0 0] CT
-8 5.5 moveto 
1 -1 scale
(1) t 
GR
GR
GS
[0 -0.75 0.75 0 166.25 602.87495] CT
0.149 GC
/Helvetica 14.667 F
GS
[1 0 0 1 0 0] CT
-11 -4 moveto 
1 -1 scale
(CC) t 
GR
GR
GS
[0.75 0 0 0.75 0 0.25] CT
0 0.447 0.741 RC
1 LJ
0.667 LW
N
254.09 786.805 M
258.18 767.166 L
262.27 784.208 L
266.36 794.53 L
270.45 768.888 L
274.54 775.69 L
278.63 780.935 L
282.72 768.69 L
286.81 789.423 L
290.9 761.497 L
294.99 768.802 L
299.08 760.508 L
303.17 769.222 L
307.26 778.154 L
311.35 764.554 L
315.44 782.797 L
319.53 784.077 L
323.62 794.606 L
327.71 791.349 L
331.8 785.302 L
335.89 786.602 L
339.98 790.612 L
344.07 789.542 L
348.16 764.053 L
352.25 782.582 L
356.34 783.81 L
360.43 766.916 L
364.52 774.151 L
368.61 793.459 L
372.7 775.718 L
376.79 787.872 L
380.88 820.782 L
384.97 793.661 L
389.06 775.235 L
393.15 788.794 L
397.24 790.347 L
401.33 775.396 L
405.42 800.081 L
409.51 771.845 L
413.6 793.662 L
417.69 776.094 L
421.78 796.119 L
425.87 788.154 L
429.96 778.81 L
434.05 791.875 L
438.14 789.625 L
442.23 812.34 L
446.32 793 L
450.41 784.067 L
454.5 802.093 L
458.59 790.417 L
462.68 808.183 L
466.77 782.304 L
470.86 801.202 L
474.95 778.169 L
479.04 767.2 L
483.13 782.428 L
487.22 787.787 L
491.31 783.26 L
495.4 783.297 L
499.49 776.732 L
503.58 789.878 L
507.67 794.128 L
511.76 778.581 L
515.85 786.987 L
519.94 790.468 L
524.03 784.753 L
528.12 777.9 L
532.21 780.222 L
536.3 791.958 L
540.39 773.504 L
544.48 806.426 L
548.57 790.031 L
552.66 808.336 L
556.75 798.719 L
560.84 786.324 L
564.93 781.597 L
569.02 787.618 L
573.11 784.699 L
577.2 777.801 L
581.29 779.202 L
585.38 804.839 L
589.47 766.836 L
593.56 766.469 L
597.65 812.371 L
601.74 794.918 L
605.83 770.047 L
609.92 788.087 L
614.01 801.247 L
618.1 807.171 L
622.19 772.603 L
626.28 786.674 L
630.37 798.401 L
634.46 775.333 L
638.55 803.659 L
642.64 788.59 L
646.73 776.625 L
650.82 810.581 L
654.91 814.217 L
S
GR
GS
[0.75 0 0 0.75 0 0.25] CT
0.851 0.325 0.098 RC
1 LJ
0.667 LW
N
254.09 841.797 M
258.18 833.707 L
262.27 851.349 L
266.36 839.691 L
270.45 832.304 L
274.54 834.326 L
278.63 838.012 L
282.72 829.766 L
286.81 833.316 L
290.9 842.223 L
294.99 833.284 L
299.08 830.685 L
303.17 821.584 L
307.26 841.198 L
311.35 832.88 L
315.44 826.081 L
319.53 828.36 L
323.62 827.588 L
327.71 828.178 L
331.8 835.983 L
335.89 842.761 L
339.98 819.201 L
344.07 820.597 L
348.16 843.554 L
352.25 849.276 L
356.34 835.406 L
360.43 834.87 L
364.52 835.765 L
368.61 849.631 L
372.7 848.039 L
376.79 829.231 L
380.88 846.849 L
384.97 833.413 L
389.06 841.078 L
393.15 841.388 L
397.24 836.072 L
401.33 846.753 L
405.42 837.275 L
409.51 832.603 L
413.6 838.729 L
417.69 838.707 L
421.78 820.847 L
425.87 834.326 L
429.96 831.407 L
434.05 846.915 L
438.14 826.33 L
442.23 829.281 L
446.32 832.937 L
450.41 821.363 L
454.5 818.774 L
458.59 824.444 L
462.68 818.782 L
466.77 830.762 L
470.86 827.522 L
474.95 824.122 L
479.04 825.677 L
483.13 826.119 L
487.22 824.488 L
491.31 829.085 L
495.4 808.737 L
499.49 826.615 L
503.58 821.172 L
507.67 832.005 L
511.76 825.861 L
515.85 823.411 L
519.94 823.243 L
524.03 829.069 L
528.12 825.479 L
532.21 818.169 L
536.3 812.846 L
540.39 830.644 L
544.48 824.045 L
548.57 829.089 L
552.66 846.261 L
556.75 826.229 L
560.84 830.502 L
564.93 821.243 L
569.02 842.409 L
573.11 817.572 L
577.2 822.683 L
581.29 828.72 L
585.38 797.778 L
589.47 819.439 L
593.56 831.301 L
597.65 839.724 L
601.74 834.059 L
605.83 846.378 L
609.92 821.076 L
614.01 832.803 L
618.1 814.354 L
622.19 836.626 L
626.28 842.288 L
630.37 835.856 L
634.46 831.261 L
638.55 830.96 L
642.64 836.582 L
646.73 831.661 L
650.82 852.144 L
654.91 841.984 L
S
GR
GS
[0.75 0 0 0.75 0 0.25] CT
1 GC
N
789 872 M
1198 872 L
1198 735 L
789 735 L
cp
f
GR
GS
[0.75 0 0 0.75 0 0.25] CT
0.149 GC
2 setlinecap
1 LJ
0.667 LW
N
789 872 M
1198 872 L
S
GR
GS
[0.75 0 0 0.75 0 0.25] CT
0.149 GC
2 setlinecap
1 LJ
0.667 LW
N
789 735 M
1198 735 L
S
GR
GS
[0.75 0 0 0.75 0 0.25] CT
0.149 GC
2 setlinecap
1 LJ
0.667 LW
N
789 872 M
789 867.91 L
S
GR
GS
[0.75 0 0 0.75 0 0.25] CT
0.149 GC
2 setlinecap
1 LJ
0.667 LW
N
840.125 872 M
840.125 867.91 L
S
GR
GS
[0.75 0 0 0.75 0 0.25] CT
0.149 GC
2 setlinecap
1 LJ
0.667 LW
N
891.25 872 M
891.25 867.91 L
S
GR
GS
[0.75 0 0 0.75 0 0.25] CT
0.149 GC
2 setlinecap
1 LJ
0.667 LW
N
942.375 872 M
942.375 867.91 L
S
GR
GS
[0.75 0 0 0.75 0 0.25] CT
0.149 GC
2 setlinecap
1 LJ
0.667 LW
N
993.5 872 M
993.5 867.91 L
S
GR
GS
[0.75 0 0 0.75 0 0.25] CT
0.149 GC
2 setlinecap
1 LJ
0.667 LW
N
1044.625 872 M
1044.625 867.91 L
S
GR
GS
[0.75 0 0 0.75 0 0.25] CT
0.149 GC
2 setlinecap
1 LJ
0.667 LW
N
1095.75 872 M
1095.75 867.91 L
S
GR
GS
[0.75 0 0 0.75 0 0.25] CT
0.149 GC
2 setlinecap
1 LJ
0.667 LW
N
1146.875 872 M
1146.875 867.91 L
S
GR
GS
[0.75 0 0 0.75 0 0.25] CT
0.149 GC
2 setlinecap
1 LJ
0.667 LW
N
1198 872 M
1198 867.91 L
S
GR
GS
[0.75 0 0 0.75 0 0.25] CT
0.149 GC
2 setlinecap
1 LJ
0.667 LW
N
789 735 M
789 739.09 L
S
GR
GS
[0.75 0 0 0.75 0 0.25] CT
0.149 GC
2 setlinecap
1 LJ
0.667 LW
N
840.125 735 M
840.125 739.09 L
S
GR
GS
[0.75 0 0 0.75 0 0.25] CT
0.149 GC
2 setlinecap
1 LJ
0.667 LW
N
891.25 735 M
891.25 739.09 L
S
GR
GS
[0.75 0 0 0.75 0 0.25] CT
0.149 GC
2 setlinecap
1 LJ
0.667 LW
N
942.375 735 M
942.375 739.09 L
S
GR
GS
[0.75 0 0 0.75 0 0.25] CT
0.149 GC
2 setlinecap
1 LJ
0.667 LW
N
993.5 735 M
993.5 739.09 L
S
GR
GS
[0.75 0 0 0.75 0 0.25] CT
0.149 GC
2 setlinecap
1 LJ
0.667 LW
N
1044.625 735 M
1044.625 739.09 L
S
GR
GS
[0.75 0 0 0.75 0 0.25] CT
0.149 GC
2 setlinecap
1 LJ
0.667 LW
N
1095.75 735 M
1095.75 739.09 L
S
GR
GS
[0.75 0 0 0.75 0 0.25] CT
0.149 GC
2 setlinecap
1 LJ
0.667 LW
N
1146.875 735 M
1146.875 739.09 L
S
GR
GS
[0.75 0 0 0.75 0 0.25] CT
0.149 GC
2 setlinecap
1 LJ
0.667 LW
N
1198 735 M
1198 739.09 L
S
GR
GS
[0.75 0 0 0.75 591.75 658.24998] CT
0.149 GC
/Helvetica 13.333 F
GS
[1 0 0 1 0 0] CT
-4 14 moveto 
1 -1 scale
(0) t 
GR
GR
GS
[0.75 0 0 0.75 630.09375 658.24998] CT
0.149 GC
/Helvetica 13.333 F
GS
[1 0 0 1 0 0] CT
-4 14 moveto 
1 -1 scale
(2) t 
GR
GR
GS
[0.75 0 0 0.75 668.4375 658.24998] CT
0.149 GC
/Helvetica 13.333 F
GS
[1 0 0 1 0 0] CT
-4 14 moveto 
1 -1 scale
(4) t 
GR
GR
GS
[0.75 0 0 0.75 706.78125 658.24998] CT
0.149 GC
/Helvetica 13.333 F
GS
[1 0 0 1 0 0] CT
-4 14 moveto 
1 -1 scale
(6) t 
GR
GR
GS
[0.75 0 0 0.75 745.125 658.24998] CT
0.149 GC
/Helvetica 13.333 F
GS
[1 0 0 1 0 0] CT
-4 14 moveto 
1 -1 scale
(8) t 
GR
GR
GS
[0.75 0 0 0.75 783.46875 658.24998] CT
0.149 GC
/Helvetica 13.333 F
GS
[1 0 0 1 0 0] CT
-7.5 14 moveto 
1 -1 scale
(10) t 
GR
GR
GS
[0.75 0 0 0.75 821.8125 658.24998] CT
0.149 GC
/Helvetica 13.333 F
GS
[1 0 0 1 0 0] CT
-7.5 14 moveto 
1 -1 scale
(12) t 
GR
GR
GS
[0.75 0 0 0.75 860.15625 658.24998] CT
0.149 GC
/Helvetica 13.333 F
GS
[1 0 0 1 0 0] CT
-7.5 14 moveto 
1 -1 scale
(14) t 
GR
GR
GS
[0.75 0 0 0.75 898.5 658.24998] CT
0.149 GC
/Helvetica 13.333 F
GS
[1 0 0 1 0 0] CT
-7.5 14 moveto 
1 -1 scale
(16) t 
GR
GR
GS
[0.75 0 0 0.75 745.12514 672.00002] CT
0.149 GC
/Helvetica 14.667 F
GS
[1 0 0 1 0 0] CT
-30.5 16 moveto 
1 -1 scale
(channels) t 
GR
GR
GS
[0.75 0 0 0.75 0 0.25] CT
0.149 GC
2 setlinecap
1 LJ
0.667 LW
N
789 872 M
789 735 L
S
GR
GS
[0.75 0 0 0.75 0 0.25] CT
0.149 GC
2 setlinecap
1 LJ
0.667 LW
N
1198 872 M
1198 735 L
S
GR
GS
[0.75 0 0 0.75 0 0.25] CT
0.149 GC
2 setlinecap
1 LJ
0.667 LW
N
789 872 M
793.09 872 L
S
GR
GS
[0.75 0 0 0.75 0 0.25] CT
0.149 GC
2 setlinecap
1 LJ
0.667 LW
N
789 837.75 M
793.09 837.75 L
S
GR
GS
[0.75 0 0 0.75 0 0.25] CT
0.149 GC
2 setlinecap
1 LJ
0.667 LW
N
789 803.5 M
793.09 803.5 L
S
GR
GS
[0.75 0 0 0.75 0 0.25] CT
0.149 GC
2 setlinecap
1 LJ
0.667 LW
N
789 769.25 M
793.09 769.25 L
S
GR
GS
[0.75 0 0 0.75 0 0.25] CT
0.149 GC
2 setlinecap
1 LJ
0.667 LW
N
789 735 M
793.09 735 L
S
GR
GS
[0.75 0 0 0.75 0 0.25] CT
0.149 GC
2 setlinecap
1 LJ
0.667 LW
N
1198 872 M
1193.91 872 L
S
GR
GS
[0.75 0 0 0.75 0 0.25] CT
0.149 GC
2 setlinecap
1 LJ
0.667 LW
N
1198 837.75 M
1193.91 837.75 L
S
GR
GS
[0.75 0 0 0.75 0 0.25] CT
0.149 GC
2 setlinecap
1 LJ
0.667 LW
N
1198 803.5 M
1193.91 803.5 L
S
GR
GS
[0.75 0 0 0.75 0 0.25] CT
0.149 GC
2 setlinecap
1 LJ
0.667 LW
N
1198 769.25 M
1193.91 769.25 L
S
GR
GS
[0.75 0 0 0.75 0 0.25] CT
0.149 GC
2 setlinecap
1 LJ
0.667 LW
N
1198 735 M
1193.91 735 L
S
GR
GS
[0.75 0 0 0.75 587.75002 654.25] CT
0.149 GC
/Helvetica 13.333 F
GS
[1 0 0 1 0 0] CT
-19 5.5 moveto 
1 -1 scale
(0.6) t 
GR
GR
GS
[0.75 0 0 0.75 587.75002 628.5625] CT
0.149 GC
/Helvetica 13.333 F
GS
[1 0 0 1 0 0] CT
-19 5.5 moveto 
1 -1 scale
(0.7) t 
GR
GR
GS
[0.75 0 0 0.75 587.75002 602.875] CT
0.149 GC
/Helvetica 13.333 F
GS
[1 0 0 1 0 0] CT
-19 5.5 moveto 
1 -1 scale
(0.8) t 
GR
GR
GS
[0.75 0 0 0.75 587.75002 577.1875] CT
0.149 GC
/Helvetica 13.333 F
GS
[1 0 0 1 0 0] CT
-19 5.5 moveto 
1 -1 scale
(0.9) t 
GR
GR
GS
[0.75 0 0 0.75 587.75002 551.5] CT
0.149 GC
/Helvetica 13.333 F
GS
[1 0 0 1 0 0] CT
-8 5.5 moveto 
1 -1 scale
(1) t 
GR
GR
GS
[0 -0.75 0.75 0 570.50002 602.87495] CT
0.149 GC
/Helvetica 14.667 F
GS
[1 0 0 1 0 0] CT
-11 -4 moveto 
1 -1 scale
(CC) t 
GR
GR
GS
[0.75 0 0 0.75 0 0.25] CT
0 0.447 0.741 RC
1 LJ
0.667 LW
N
814.563 773.024 M
840.125 758.108 L
865.688 764.672 L
891.25 762.595 L
916.813 763.288 L
942.375 765.677 L
967.938 763.786 L
993.5 760.575 L
1019.063 764.767 L
1044.625 767.649 L
1070.188 765.141 L
1095.75 769.167 L
1121.313 769.745 L
1146.875 770.867 L
1172.438 770.91 L
1198 765.072 L
S
GR
GS
[0.75 0 0 0.75 0 0.25] CT
0.851 0.325 0.098 RC
1 LJ
0.667 LW
N
814.563 835.792 M
840.125 838.214 L
865.688 800.804 L
891.25 833.702 L
916.813 843.687 L
942.375 824 L
967.938 818.181 L
993.5 852.599 L
1019.063 838.401 L
1044.625 826.098 L
1070.188 845.887 L
1095.75 836.78 L
1121.313 835.778 L
1146.875 839.465 L
1172.438 840.785 L
1198 834.319 L
S
GR
GS
[0.75 0 0 0.75 720 36.7375] CT
/Helvetica 18.667 F
GS
[1 0 0 1 0 0] CT
-241.5 7.5 moveto 
1 -1 scale
(Global Clustering Coefficient / Peaks - Scaled Correlation) t 
GR
GR
GS
[0.75 0 0 0.75 0 0.25] CT
1 GC
N
1328 872 M
1738 872 L
1738 735 L
1328 735 L
cp
f
GR
GS
[0.75 0 0 0.75 0 0.25] CT
0.149 GC
2 setlinecap
1 LJ
0.667 LW
N
1328 872 M
1738 872 L
S
GR
GS
[0.75 0 0 0.75 0 0.25] CT
0.149 GC
2 setlinecap
1 LJ
0.667 LW
N
1328 735 M
1738 735 L
S
GR
GS
[0.75 0 0 0.75 0 0.25] CT
0.149 GC
2 setlinecap
1 LJ
0.667 LW
N
1328 872 M
1328 867.9 L
S
GR
GS
[0.75 0 0 0.75 0 0.25] CT
0.149 GC
2 setlinecap
1 LJ
0.667 LW
N
1410 872 M
1410 867.9 L
S
GR
GS
[0.75 0 0 0.75 0 0.25] CT
0.149 GC
2 setlinecap
1 LJ
0.667 LW
N
1492 872 M
1492 867.9 L
S
GR
GS
[0.75 0 0 0.75 0 0.25] CT
0.149 GC
2 setlinecap
1 LJ
0.667 LW
N
1574 872 M
1574 867.9 L
S
GR
GS
[0.75 0 0 0.75 0 0.25] CT
0.149 GC
2 setlinecap
1 LJ
0.667 LW
N
1656 872 M
1656 867.9 L
S
GR
GS
[0.75 0 0 0.75 0 0.25] CT
0.149 GC
2 setlinecap
1 LJ
0.667 LW
N
1738 872 M
1738 867.9 L
S
GR
GS
[0.75 0 0 0.75 0 0.25] CT
0.149 GC
2 setlinecap
1 LJ
0.667 LW
N
1328 735 M
1328 739.1 L
S
GR
GS
[0.75 0 0 0.75 0 0.25] CT
0.149 GC
2 setlinecap
1 LJ
0.667 LW
N
1410 735 M
1410 739.1 L
S
GR
GS
[0.75 0 0 0.75 0 0.25] CT
0.149 GC
2 setlinecap
1 LJ
0.667 LW
N
1492 735 M
1492 739.1 L
S
GR
GS
[0.75 0 0 0.75 0 0.25] CT
0.149 GC
2 setlinecap
1 LJ
0.667 LW
N
1574 735 M
1574 739.1 L
S
GR
GS
[0.75 0 0 0.75 0 0.25] CT
0.149 GC
2 setlinecap
1 LJ
0.667 LW
N
1656 735 M
1656 739.1 L
S
GR
GS
[0.75 0 0 0.75 0 0.25] CT
0.149 GC
2 setlinecap
1 LJ
0.667 LW
N
1738 735 M
1738 739.1 L
S
GR
GS
[0.75 0 0 0.75 996 658.24998] CT
0.149 GC
/Helvetica 13.333 F
GS
[1 0 0 1 0 0] CT
-4 14 moveto 
1 -1 scale
(0) t 
GR
GR
GS
[0.75 0 0 0.75 1057.5 658.24998] CT
0.149 GC
/Helvetica 13.333 F
GS
[1 0 0 1 0 0] CT
-7.5 14 moveto 
1 -1 scale
(20) t 
GR
GR
GS
[0.75 0 0 0.75 1119 658.24998] CT
0.149 GC
/Helvetica 13.333 F
GS
[1 0 0 1 0 0] CT
-7.5 14 moveto 
1 -1 scale
(40) t 
GR
GR
GS
[0.75 0 0 0.75 1180.5 658.24998] CT
0.149 GC
/Helvetica 13.333 F
GS
[1 0 0 1 0 0] CT
-7.5 14 moveto 
1 -1 scale
(60) t 
GR
GR
GS
[0.75 0 0 0.75 1242 658.24998] CT
0.149 GC
/Helvetica 13.333 F
GS
[1 0 0 1 0 0] CT
-7.5 14 moveto 
1 -1 scale
(80) t 
GR
GR
GS
[0.75 0 0 0.75 1303.5 658.24998] CT
0.149 GC
/Helvetica 13.333 F
GS
[1 0 0 1 0 0] CT
-11 14 moveto 
1 -1 scale
(100) t 
GR
GR
GS
[0.75 0 0 0.75 1149.75018 672.00002] CT
0.149 GC
/Helvetica 14.667 F
GS
[1 0 0 1 0 0] CT
-30.5 16 moveto 
1 -1 scale
(channels) t 
GR
GR
GS
[0.75 0 0 0.75 0 0.25] CT
0.149 GC
2 setlinecap
1 LJ
0.667 LW
N
1328 872 M
1328 735 L
S
GR
GS
[0.75 0 0 0.75 0 0.25] CT
0.149 GC
2 setlinecap
1 LJ
0.667 LW
N
1738 872 M
1738 735 L
S
GR
GS
[0.75 0 0 0.75 0 0.25] CT
0.149 GC
2 setlinecap
1 LJ
0.667 LW
N
1328 872 M
1332.1 872 L
S
GR
GS
[0.75 0 0 0.75 0 0.25] CT
0.149 GC
2 setlinecap
1 LJ
0.667 LW
N
1328 837.75 M
1332.1 837.75 L
S
GR
GS
[0.75 0 0 0.75 0 0.25] CT
0.149 GC
2 setlinecap
1 LJ
0.667 LW
N
1328 803.5 M
1332.1 803.5 L
S
GR
GS
[0.75 0 0 0.75 0 0.25] CT
0.149 GC
2 setlinecap
1 LJ
0.667 LW
N
1328 769.25 M
1332.1 769.25 L
S
GR
GS
[0.75 0 0 0.75 0 0.25] CT
0.149 GC
2 setlinecap
1 LJ
0.667 LW
N
1328 735 M
1332.1 735 L
S
GR
GS
[0.75 0 0 0.75 0 0.25] CT
0.149 GC
2 setlinecap
1 LJ
0.667 LW
N
1738 872 M
1733.9 872 L
S
GR
GS
[0.75 0 0 0.75 0 0.25] CT
0.149 GC
2 setlinecap
1 LJ
0.667 LW
N
1738 837.75 M
1733.9 837.75 L
S
GR
GS
[0.75 0 0 0.75 0 0.25] CT
0.149 GC
2 setlinecap
1 LJ
0.667 LW
N
1738 803.5 M
1733.9 803.5 L
S
GR
GS
[0.75 0 0 0.75 0 0.25] CT
0.149 GC
2 setlinecap
1 LJ
0.667 LW
N
1738 769.25 M
1733.9 769.25 L
S
GR
GS
[0.75 0 0 0.75 0 0.25] CT
0.149 GC
2 setlinecap
1 LJ
0.667 LW
N
1738 735 M
1733.9 735 L
S
GR
GS
[0.75 0 0 0.75 991.99997 654.25] CT
0.149 GC
/Helvetica 13.333 F
GS
[1 0 0 1 0 0] CT
-19 5.5 moveto 
1 -1 scale
(0.6) t 
GR
GR
GS
[0.75 0 0 0.75 991.99997 628.5625] CT
0.149 GC
/Helvetica 13.333 F
GS
[1 0 0 1 0 0] CT
-19 5.5 moveto 
1 -1 scale
(0.7) t 
GR
GR
GS
[0.75 0 0 0.75 991.99997 602.875] CT
0.149 GC
/Helvetica 13.333 F
GS
[1 0 0 1 0 0] CT
-19 5.5 moveto 
1 -1 scale
(0.8) t 
GR
GR
GS
[0.75 0 0 0.75 991.99997 577.1875] CT
0.149 GC
/Helvetica 13.333 F
GS
[1 0 0 1 0 0] CT
-19 5.5 moveto 
1 -1 scale
(0.9) t 
GR
GR
GS
[0.75 0 0 0.75 991.99997 551.5] CT
0.149 GC
/Helvetica 13.333 F
GS
[1 0 0 1 0 0] CT
-8 5.5 moveto 
1 -1 scale
(1) t 
GR
GR
GS
[0 -0.75 0.75 0 974.74997 602.87495] CT
0.149 GC
/Helvetica 14.667 F
GS
[1 0 0 1 0 0] CT
-11 -4 moveto 
1 -1 scale
(CC) t 
GR
GR
GS
[0.75 0 0 0.75 0 0.25] CT
0 0.447 0.741 RC
1 LJ
0.667 LW
N
1332.1 803.299 M
1336.2 789.11 L
1340.3 796.209 L
1344.4 786.865 L
1348.5 782.17 L
1352.6 791.983 L
1356.7 795.748 L
1360.8 795.619 L
1364.9 789.645 L
1369 796.309 L
1373.1 791.235 L
1377.2 783.831 L
1381.3 790.992 L
1385.4 790.018 L
1389.5 784.361 L
1393.6 793.359 L
1397.7 801.957 L
1401.8 791.085 L
1405.9 792.006 L
1410 794.889 L
1414.1 789.63 L
1418.2 792.282 L
1422.3 801.811 L
1426.4 789.558 L
1430.5 785.538 L
1434.6 787.241 L
1438.7 795.167 L
1442.8 788.772 L
1446.9 784.871 L
1451 773.123 L
1455.1 816.185 L
1459.2 807.002 L
1463.3 801.898 L
1467.4 801.638 L
1471.5 792.771 L
1475.6 802.457 L
1479.7 796.186 L
1483.8 802.076 L
1487.9 794.357 L
1492 803.101 L
1496.1 791.64 L
1500.2 806.416 L
1504.3 795.572 L
1508.4 790.721 L
1512.5 790.392 L
1516.6 802.943 L
1520.7 803.965 L
1524.8 810.794 L
1528.9 812.765 L
1533 821.563 L
1537.1 795.455 L
1541.2 793.596 L
1545.3 808.129 L
1549.4 806.341 L
1553.5 811.497 L
1557.6 808.098 L
1561.7 811.736 L
1565.8 787.929 L
1569.9 800.618 L
1574 784.472 L
1578.1 782.715 L
1582.2 786.224 L
1586.3 785.942 L
1590.4 783.253 L
1594.5 775.899 L
1598.6 772.213 L
1602.7 773.424 L
1606.8 769.555 L
1610.9 765.596 L
1615 773.654 L
1619.1 768.049 L
1623.2 769.427 L
1627.3 780.152 L
1631.4 775.853 L
1635.5 777.011 L
1639.6 776.861 L
1643.7 781.678 L
1647.8 780.837 L
1651.9 777.581 L
1656 767.116 L
1660.1 774.374 L
1664.2 776.41 L
1668.3 771.737 L
1672.4 776.176 L
1676.5 789.663 L
1680.6 777.537 L
1684.7 791.158 L
1688.8 785.898 L
1692.9 795.732 L
1697 791.684 L
1701.1 768.047 L
1705.2 764.646 L
1709.3 774.487 L
1713.4 770.368 L
1717.5 774.312 L
S
GR
GS
[0.75 0 0 0.75 0 0.25] CT
0.851 0.325 0.098 RC
1 LJ
0.667 LW
N
1332.1 826.044 M
1336.2 836.794 L
1340.3 826.661 L
1344.4 830.575 L
1348.5 834.211 L
1352.6 828.884 L
1356.7 827.384 L
1360.8 820.584 L
1364.9 832.289 L
1369 837.019 L
1373.1 826.146 L
1377.2 819.136 L
1381.3 824.672 L
1385.4 836.883 L
1389.5 828.923 L
1393.6 832.802 L
1397.7 828.872 L
1401.8 836.197 L
1405.9 818.193 L
1410 834.28 L
1414.1 820.143 L
1418.2 825.965 L
1422.3 825.179 L
1426.4 816.212 L
1430.5 829.91 L
1434.6 835.376 L
1438.7 819.432 L
1442.8 828.006 L
1446.9 819.233 L
1451 818.971 L
1455.1 832.834 L
1459.2 842.812 L
1463.3 844.762 L
1467.4 840.174 L
1471.5 825.162 L
1475.6 829.677 L
1479.7 837.816 L
1483.8 837.901 L
1487.9 813.492 L
1492 840.547 L
1496.1 830.359 L
1500.2 828 L
1504.3 817.854 L
1508.4 821.237 L
1512.5 817.451 L
1516.6 819.733 L
1520.7 837.38 L
1524.8 819.575 L
1528.9 820.662 L
1533 825.43 L
1537.1 824.765 L
1541.2 834.814 L
1545.3 831.114 L
1549.4 816.915 L
1553.5 817.224 L
1557.6 829.774 L
1561.7 823.541 L
1565.8 830.022 L
1569.9 838.232 L
1574 822.093 L
1578.1 833.985 L
1582.2 827.438 L
1586.3 818.105 L
1590.4 830.875 L
1594.5 838.438 L
1598.6 852.939 L
1602.7 827.153 L
1606.8 836.569 L
1610.9 827.043 L
1615 829.149 L
1619.1 833.987 L
1623.2 828.505 L
1627.3 836.972 L
1631.4 833.841 L
1635.5 807.885 L
1639.6 817.535 L
1643.7 808.885 L
1647.8 838.302 L
1651.9 831.464 L
1656 811.174 L
1660.1 831.995 L
1664.2 835.022 L
1668.3 838.281 L
1672.4 823.787 L
1676.5 825.193 L
1680.6 807.335 L
1684.7 831.888 L
1688.8 816.975 L
1692.9 817.408 L
1697 829.755 L
1701.1 827.416 L
1705.2 834.524 L
1709.3 838.166 L
1713.4 848.877 L
1717.5 826.818 L
S
GR
%%Trailer
%%Pages: 1
%%EOF
