%!PS-Adobe-3.0 EPSF-3.0
%%Creator: (MATLAB, The Mathworks, Inc. Version 9.2.0.556344 \(R2017a\). Operating System: Windows 8)
%%Title: D:/home/Faculta/fbnc/Matlab/Plots/metrics_v1/peaks/gcc_peaks_sc.eps
%%CreationDate: 2017-06-29T20:48:16
%%Pages: (atend)
%%BoundingBox: 0 0 1428 730
%%LanguageLevel: 3
%%EndComments
%%BeginProlog
%%BeginResource: procset (Apache XML Graphics Std ProcSet) 1.2 0
%%Version: 1.2 0
%%Copyright: (Copyright 2001-2003,2010 The Apache Software Foundation. License terms: http://www.apache.org/licenses/LICENSE-2.0)
/bd{bind def}bind def
/ld{load def}bd
/GR/grestore ld
/M/moveto ld
/LJ/setlinejoin ld
/C/curveto ld
/f/fill ld
/LW/setlinewidth ld
/GC/setgray ld
/t/show ld
/N/newpath ld
/CT/concat ld
/cp/closepath ld
/S/stroke ld
/L/lineto ld
/CC/setcmykcolor ld
/A/ashow ld
/GS/gsave ld
/RC/setrgbcolor ld
/RM/rmoveto ld
/ML/setmiterlimit ld
/re {4 2 roll M
1 index 0 rlineto
0 exch rlineto
neg 0 rlineto
cp } bd
/_ctm matrix def
/_tm matrix def
/BT { _ctm currentmatrix pop matrix _tm copy pop 0 0 moveto } bd
/ET { _ctm setmatrix } bd
/iTm { _ctm setmatrix _tm concat } bd
/Tm { _tm astore pop iTm 0 0 moveto } bd
/ux 0.0 def
/uy 0.0 def
/F {
  /Tp exch def
  /Tf exch def
  Tf findfont Tp scalefont setfont
  /cf Tf def  /cs Tp def
} bd
/ULS {currentpoint /uy exch def /ux exch def} bd
/ULE {
  /Tcx currentpoint pop def
  gsave
  newpath
  cf findfont cs scalefont dup
  /FontMatrix get 0 get /Ts exch def /FontInfo get dup
  /UnderlinePosition get Ts mul /To exch def
  /UnderlineThickness get Ts mul /Tt exch def
  ux uy To add moveto  Tcx uy To add lineto
  Tt setlinewidth stroke
  grestore
} bd
/OLE {
  /Tcx currentpoint pop def
  gsave
  newpath
  cf findfont cs scalefont dup
  /FontMatrix get 0 get /Ts exch def /FontInfo get dup
  /UnderlinePosition get Ts mul /To exch def
  /UnderlineThickness get Ts mul /Tt exch def
  ux uy To add cs add moveto Tcx uy To add cs add lineto
  Tt setlinewidth stroke
  grestore
} bd
/SOE {
  /Tcx currentpoint pop def
  gsave
  newpath
  cf findfont cs scalefont dup
  /FontMatrix get 0 get /Ts exch def /FontInfo get dup
  /UnderlinePosition get Ts mul /To exch def
  /UnderlineThickness get Ts mul /Tt exch def
  ux uy To add cs 10 mul 26 idiv add moveto Tcx uy To add cs 10 mul 26 idiv add lineto
  Tt setlinewidth stroke
  grestore
} bd
/QT {
/Y22 exch store
/X22 exch store
/Y21 exch store
/X21 exch store
currentpoint
/Y21 load 2 mul add 3 div exch
/X21 load 2 mul add 3 div exch
/X21 load 2 mul /X22 load add 3 div
/Y21 load 2 mul /Y22 load add 3 div
/X22 load /Y22 load curveto
} bd
/SSPD {
dup length /d exch dict def
{
/v exch def
/k exch def
currentpagedevice k known {
/cpdv currentpagedevice k get def
v cpdv ne {
/upd false def
/nullv v type /nulltype eq def
/nullcpdv cpdv type /nulltype eq def
nullv nullcpdv or
{
/upd true def
} {
/sametype v type cpdv type eq def
sametype {
v type /arraytype eq {
/vlen v length def
/cpdvlen cpdv length def
vlen cpdvlen eq {
0 1 vlen 1 sub {
/i exch def
/obj v i get def
/cpdobj cpdv i get def
obj cpdobj ne {
/upd true def
exit
} if
} for
} {
/upd true def
} ifelse
} {
v type /dicttype eq {
v {
/dv exch def
/dk exch def
/cpddv cpdv dk get def
dv cpddv ne {
/upd true def
exit
} if
} forall
} {
/upd true def
} ifelse
} ifelse
} if
} ifelse
upd true eq {
d k v put
} if
} if
} if
} forall
d length 0 gt {
d setpagedevice
} if
} bd
/RE { % /NewFontName [NewEncodingArray] /FontName RE -
  findfont dup length dict begin
  {
    1 index /FID ne
    {def} {pop pop} ifelse
  } forall
  /Encoding exch def
  /FontName 1 index def
  currentdict definefont pop
  end
} bind def
%%EndResource
%%BeginResource: procset (Apache XML Graphics EPS ProcSet) 1.0 0
%%Version: 1.0 0
%%Copyright: (Copyright 2002-2003 The Apache Software Foundation. License terms: http://www.apache.org/licenses/LICENSE-2.0)
/BeginEPSF { %def
/b4_Inc_state save def         % Save state for cleanup
/dict_count countdictstack def % Count objects on dict stack
/op_count count 1 sub def      % Count objects on operand stack
userdict begin                 % Push userdict on dict stack
/showpage { } def              % Redefine showpage, { } = null proc
0 setgray 0 setlinecap         % Prepare graphics state
1 setlinewidth 0 setlinejoin
10 setmiterlimit [ ] 0 setdash newpath
/languagelevel where           % If level not equal to 1 then
{pop languagelevel             % set strokeadjust and
1 ne                           % overprint to their defaults.
{false setstrokeadjust false setoverprint
} if
} if
} bd
/EndEPSF { %def
count op_count sub {pop} repeat            % Clean up stacks
countdictstack dict_count sub {end} repeat
b4_Inc_state restore
} bd
%%EndResource
%FOPBeginFontDict
%%IncludeResource: font Courier-Bold
%%IncludeResource: font Helvetica
%%IncludeResource: font Courier-BoldOblique
%%IncludeResource: font Courier-Oblique
%%IncludeResource: font Times-Roman
%%IncludeResource: font Helvetica-BoldOblique
%%IncludeResource: font Helvetica-Bold
%%IncludeResource: font Helvetica-Oblique
%%IncludeResource: font Times-BoldItalic
%%IncludeResource: font Courier
%%IncludeResource: font Times-Italic
%%IncludeResource: font Times-Bold
%%IncludeResource: font Symbol
%%IncludeResource: font ZapfDingbats
%FOPEndFontDict
%%BeginResource: encoding WinAnsiEncoding
/WinAnsiEncoding [
/.notdef /.notdef /.notdef /.notdef /.notdef
/.notdef /.notdef /.notdef /.notdef /.notdef
/.notdef /.notdef /.notdef /.notdef /.notdef
/.notdef /.notdef /.notdef /.notdef /.notdef
/.notdef /.notdef /.notdef /.notdef /.notdef
/.notdef /.notdef /.notdef /.notdef /.notdef
/.notdef /.notdef /space /exclam /quotedbl
/numbersign /dollar /percent /ampersand /quotesingle
/parenleft /parenright /asterisk /plus /comma
/hyphen /period /slash /zero /one
/two /three /four /five /six
/seven /eight /nine /colon /semicolon
/less /equal /greater /question /at
/A /B /C /D /E
/F /G /H /I /J
/K /L /M /N /O
/P /Q /R /S /T
/U /V /W /X /Y
/Z /bracketleft /backslash /bracketright /asciicircum
/underscore /quoteleft /a /b /c
/d /e /f /g /h
/i /j /k /l /m
/n /o /p /q /r
/s /t /u /v /w
/x /y /z /braceleft /bar
/braceright /asciitilde /bullet /Euro /bullet
/quotesinglbase /florin /quotedblbase /ellipsis /dagger
/daggerdbl /circumflex /perthousand /Scaron /guilsinglleft
/OE /bullet /Zcaron /bullet /bullet
/quoteleft /quoteright /quotedblleft /quotedblright /bullet
/endash /emdash /asciitilde /trademark /scaron
/guilsinglright /oe /bullet /zcaron /Ydieresis
/space /exclamdown /cent /sterling /currency
/yen /brokenbar /section /dieresis /copyright
/ordfeminine /guillemotleft /logicalnot /sfthyphen /registered
/macron /degree /plusminus /twosuperior /threesuperior
/acute /mu /paragraph /middot /cedilla
/onesuperior /ordmasculine /guillemotright /onequarter /onehalf
/threequarters /questiondown /Agrave /Aacute /Acircumflex
/Atilde /Adieresis /Aring /AE /Ccedilla
/Egrave /Eacute /Ecircumflex /Edieresis /Igrave
/Iacute /Icircumflex /Idieresis /Eth /Ntilde
/Ograve /Oacute /Ocircumflex /Otilde /Odieresis
/multiply /Oslash /Ugrave /Uacute /Ucircumflex
/Udieresis /Yacute /Thorn /germandbls /agrave
/aacute /acircumflex /atilde /adieresis /aring
/ae /ccedilla /egrave /eacute /ecircumflex
/edieresis /igrave /iacute /icircumflex /idieresis
/eth /ntilde /ograve /oacute /ocircumflex
/otilde /odieresis /divide /oslash /ugrave
/uacute /ucircumflex /udieresis /yacute /thorn
/ydieresis
] def
%%EndResource
%FOPBeginFontReencode
/Courier-Bold findfont
dup length dict begin
  {1 index /FID ne {def} {pop pop} ifelse} forall
  /Encoding WinAnsiEncoding def
  currentdict
end
/Courier-Bold exch definefont pop
/Helvetica findfont
dup length dict begin
  {1 index /FID ne {def} {pop pop} ifelse} forall
  /Encoding WinAnsiEncoding def
  currentdict
end
/Helvetica exch definefont pop
/Courier-BoldOblique findfont
dup length dict begin
  {1 index /FID ne {def} {pop pop} ifelse} forall
  /Encoding WinAnsiEncoding def
  currentdict
end
/Courier-BoldOblique exch definefont pop
/Courier-Oblique findfont
dup length dict begin
  {1 index /FID ne {def} {pop pop} ifelse} forall
  /Encoding WinAnsiEncoding def
  currentdict
end
/Courier-Oblique exch definefont pop
/Times-Roman findfont
dup length dict begin
  {1 index /FID ne {def} {pop pop} ifelse} forall
  /Encoding WinAnsiEncoding def
  currentdict
end
/Times-Roman exch definefont pop
/Helvetica-BoldOblique findfont
dup length dict begin
  {1 index /FID ne {def} {pop pop} ifelse} forall
  /Encoding WinAnsiEncoding def
  currentdict
end
/Helvetica-BoldOblique exch definefont pop
/Helvetica-Bold findfont
dup length dict begin
  {1 index /FID ne {def} {pop pop} ifelse} forall
  /Encoding WinAnsiEncoding def
  currentdict
end
/Helvetica-Bold exch definefont pop
/Helvetica-Oblique findfont
dup length dict begin
  {1 index /FID ne {def} {pop pop} ifelse} forall
  /Encoding WinAnsiEncoding def
  currentdict
end
/Helvetica-Oblique exch definefont pop
/Times-BoldItalic findfont
dup length dict begin
  {1 index /FID ne {def} {pop pop} ifelse} forall
  /Encoding WinAnsiEncoding def
  currentdict
end
/Times-BoldItalic exch definefont pop
/Courier findfont
dup length dict begin
  {1 index /FID ne {def} {pop pop} ifelse} forall
  /Encoding WinAnsiEncoding def
  currentdict
end
/Courier exch definefont pop
/Times-Italic findfont
dup length dict begin
  {1 index /FID ne {def} {pop pop} ifelse} forall
  /Encoding WinAnsiEncoding def
  currentdict
end
/Times-Italic exch definefont pop
/Times-Bold findfont
dup length dict begin
  {1 index /FID ne {def} {pop pop} ifelse} forall
  /Encoding WinAnsiEncoding def
  currentdict
end
/Times-Bold exch definefont pop
%FOPEndFontReencode
%%EndProlog
%%Page: 1 1
%%PageBoundingBox: 0 0 1428 730
%%BeginPageSetup
[1 0 0 -1 0 730] CT
%%EndPageSetup
GS
[0.75 0 0 0.75 0 0.25] CT
N
0 0 M
1904 0 L
1904 973 L
0 973 L
0 0 L
cp
clip
1 GC
N
0 0 1904 973 re
f
GR
GS
[0.75 0 0 0.75 0 0.25] CT
1 GC
N
0 0 1904 973 re
f
GR
GS
[0.75 0 0 0.75 0 0.25] CT
1 GC
N
248 276 M
654 276 L
654 139 L
248 139 L
cp
f
GR
GS
[0.75 0 0 0.75 0 0.25] CT
0.149 GC
2 setlinecap
1 LJ
0.667 LW
N
248 276 M
654 276 L
S
GR
GS
[0.75 0 0 0.75 0 0.25] CT
0.149 GC
2 setlinecap
1 LJ
0.667 LW
N
248 139 M
654 139 L
S
GR
GS
[0.75 0 0 0.75 0 0.25] CT
0.149 GC
2 setlinecap
1 LJ
0.667 LW
N
248 276 M
248 271.94 L
S
GR
GS
[0.75 0 0 0.75 0 0.25] CT
0.149 GC
2 setlinecap
1 LJ
0.667 LW
N
306 276 M
306 271.94 L
S
GR
GS
[0.75 0 0 0.75 0 0.25] CT
0.149 GC
2 setlinecap
1 LJ
0.667 LW
N
364 276 M
364 271.94 L
S
GR
GS
[0.75 0 0 0.75 0 0.25] CT
0.149 GC
2 setlinecap
1 LJ
0.667 LW
N
422 276 M
422 271.94 L
S
GR
GS
[0.75 0 0 0.75 0 0.25] CT
0.149 GC
2 setlinecap
1 LJ
0.667 LW
N
480 276 M
480 271.94 L
S
GR
GS
[0.75 0 0 0.75 0 0.25] CT
0.149 GC
2 setlinecap
1 LJ
0.667 LW
N
538 276 M
538 271.94 L
S
GR
GS
[0.75 0 0 0.75 0 0.25] CT
0.149 GC
2 setlinecap
1 LJ
0.667 LW
N
596 276 M
596 271.94 L
S
GR
GS
[0.75 0 0 0.75 0 0.25] CT
0.149 GC
2 setlinecap
1 LJ
0.667 LW
N
654 276 M
654 271.94 L
S
GR
GS
[0.75 0 0 0.75 0 0.25] CT
0.149 GC
2 setlinecap
1 LJ
0.667 LW
N
248 139 M
248 143.06 L
S
GR
GS
[0.75 0 0 0.75 0 0.25] CT
0.149 GC
2 setlinecap
1 LJ
0.667 LW
N
306 139 M
306 143.06 L
S
GR
GS
[0.75 0 0 0.75 0 0.25] CT
0.149 GC
2 setlinecap
1 LJ
0.667 LW
N
364 139 M
364 143.06 L
S
GR
GS
[0.75 0 0 0.75 0 0.25] CT
0.149 GC
2 setlinecap
1 LJ
0.667 LW
N
422 139 M
422 143.06 L
S
GR
GS
[0.75 0 0 0.75 0 0.25] CT
0.149 GC
2 setlinecap
1 LJ
0.667 LW
N
480 139 M
480 143.06 L
S
GR
GS
[0.75 0 0 0.75 0 0.25] CT
0.149 GC
2 setlinecap
1 LJ
0.667 LW
N
538 139 M
538 143.06 L
S
GR
GS
[0.75 0 0 0.75 0 0.25] CT
0.149 GC
2 setlinecap
1 LJ
0.667 LW
N
596 139 M
596 143.06 L
S
GR
GS
[0.75 0 0 0.75 0 0.25] CT
0.149 GC
2 setlinecap
1 LJ
0.667 LW
N
654 139 M
654 143.06 L
S
GR
GS
[0.75 0 0 0.75 186 211.25001] CT
0.149 GC
/Helvetica 13.333 F
GS
[1 0 0 1 0 0] CT
-4 14 moveto 
1 -1 scale
(0) t 
GR
GR
GS
[0.75 0 0 0.75 229.5 211.25001] CT
0.149 GC
/Helvetica 13.333 F
GS
[1 0 0 1 0 0] CT
-7.5 14 moveto 
1 -1 scale
(10) t 
GR
GR
GS
[0.75 0 0 0.75 273 211.25001] CT
0.149 GC
/Helvetica 13.333 F
GS
[1 0 0 1 0 0] CT
-7.5 14 moveto 
1 -1 scale
(20) t 
GR
GR
GS
[0.75 0 0 0.75 316.5 211.25001] CT
0.149 GC
/Helvetica 13.333 F
GS
[1 0 0 1 0 0] CT
-7.5 14 moveto 
1 -1 scale
(30) t 
GR
GR
GS
[0.75 0 0 0.75 360 211.25001] CT
0.149 GC
/Helvetica 13.333 F
GS
[1 0 0 1 0 0] CT
-7.5 14 moveto 
1 -1 scale
(40) t 
GR
GR
GS
[0.75 0 0 0.75 403.5 211.25001] CT
0.149 GC
/Helvetica 13.333 F
GS
[1 0 0 1 0 0] CT
-7.5 14 moveto 
1 -1 scale
(50) t 
GR
GR
GS
[0.75 0 0 0.75 447 211.25001] CT
0.149 GC
/Helvetica 13.333 F
GS
[1 0 0 1 0 0] CT
-7.5 14 moveto 
1 -1 scale
(60) t 
GR
GR
GS
[0.75 0 0 0.75 490.5 211.25001] CT
0.149 GC
/Helvetica 13.333 F
GS
[1 0 0 1 0 0] CT
-7.5 14 moveto 
1 -1 scale
(70) t 
GR
GR
GS
[0.75 0 0 0.75 338.25016 224.99999] CT
0.149 GC
/Helvetica 14.667 F
GS
[1 0 0 1 0 0] CT
-16 16 moveto 
1 -1 scale
(trials) t 
GR
GR
GS
[0.75 0 0 0.75 0 0.25] CT
0.149 GC
2 setlinecap
1 LJ
0.667 LW
N
248 276 M
248 139 L
S
GR
GS
[0.75 0 0 0.75 0 0.25] CT
0.149 GC
2 setlinecap
1 LJ
0.667 LW
N
654 276 M
654 139 L
S
GR
GS
[0.75 0 0 0.75 0 0.25] CT
0.149 GC
2 setlinecap
1 LJ
0.667 LW
N
248 276 M
252.06 276 L
S
GR
GS
[0.75 0 0 0.75 0 0.25] CT
0.149 GC
2 setlinecap
1 LJ
0.667 LW
N
248 241.75 M
252.06 241.75 L
S
GR
GS
[0.75 0 0 0.75 0 0.25] CT
0.149 GC
2 setlinecap
1 LJ
0.667 LW
N
248 207.5 M
252.06 207.5 L
S
GR
GS
[0.75 0 0 0.75 0 0.25] CT
0.149 GC
2 setlinecap
1 LJ
0.667 LW
N
248 173.25 M
252.06 173.25 L
S
GR
GS
[0.75 0 0 0.75 0 0.25] CT
0.149 GC
2 setlinecap
1 LJ
0.667 LW
N
248 139 M
252.06 139 L
S
GR
GS
[0.75 0 0 0.75 0 0.25] CT
0.149 GC
2 setlinecap
1 LJ
0.667 LW
N
654 276 M
649.94 276 L
S
GR
GS
[0.75 0 0 0.75 0 0.25] CT
0.149 GC
2 setlinecap
1 LJ
0.667 LW
N
654 241.75 M
649.94 241.75 L
S
GR
GS
[0.75 0 0 0.75 0 0.25] CT
0.149 GC
2 setlinecap
1 LJ
0.667 LW
N
654 207.5 M
649.94 207.5 L
S
GR
GS
[0.75 0 0 0.75 0 0.25] CT
0.149 GC
2 setlinecap
1 LJ
0.667 LW
N
654 173.25 M
649.94 173.25 L
S
GR
GS
[0.75 0 0 0.75 0 0.25] CT
0.149 GC
2 setlinecap
1 LJ
0.667 LW
N
654 139 M
649.94 139 L
S
GR
GS
[0.75 0 0 0.75 182 207.25] CT
0.149 GC
/Helvetica 13.333 F
GS
[1 0 0 1 0 0] CT
-19 5.5 moveto 
1 -1 scale
(0.5) t 
GR
GR
GS
[0.75 0 0 0.75 182 181.56249] CT
0.149 GC
/Helvetica 13.333 F
GS
[1 0 0 1 0 0] CT
-19 5.5 moveto 
1 -1 scale
(0.6) t 
GR
GR
GS
[0.75 0 0 0.75 182 155.875] CT
0.149 GC
/Helvetica 13.333 F
GS
[1 0 0 1 0 0] CT
-19 5.5 moveto 
1 -1 scale
(0.7) t 
GR
GR
GS
[0.75 0 0 0.75 182 130.1875] CT
0.149 GC
/Helvetica 13.333 F
GS
[1 0 0 1 0 0] CT
-19 5.5 moveto 
1 -1 scale
(0.8) t 
GR
GR
GS
[0.75 0 0 0.75 182 104.50001] CT
0.149 GC
/Helvetica 13.333 F
GS
[1 0 0 1 0 0] CT
-19 5.5 moveto 
1 -1 scale
(0.9) t 
GR
GR
GS
[0 -0.75 0.75 0 164.75 155.87495] CT
0.149 GC
/Helvetica 14.667 F
GS
[1 0 0 1 0 0] CT
-17 -4 moveto 
1 -1 scale
(GCC) t 
GR
GR
GS
[0.75 0 0 0.75 288.75 78.25] CT
/Helvetica-Bold 14.667 F
GS
[1 0 0 1 0 0] CT
0 0 moveto 
1 -1 scale
(SEEN \(129_1\)) t 
GR
GR
GS
[0.75 0 0 0.75 0 0.25] CT
0 0.447 0.741 RC
1 LJ
0.667 LW
N
253.8 171.677 M
259.6 176.531 L
265.4 190.829 L
271.2 179.912 L
277 183.802 L
282.8 184.061 L
288.6 158.155 L
294.4 179.021 L
300.2 174.871 L
306 182.678 L
311.8 173.024 L
317.6 183.974 L
323.4 173.74 L
329.2 179.507 L
335 176.633 L
340.8 172.342 L
346.6 168.885 L
352.4 187.597 L
358.2 196.617 L
364 197.306 L
369.8 180.782 L
375.6 164.405 L
381.4 183.512 L
387.2 178.135 L
393 160.057 L
398.8 185.439 L
404.6 181.376 L
410.4 180.023 L
416.2 171.949 L
422 177.137 L
427.8 197.693 L
433.6 184.483 L
439.4 203.863 L
445.2 167.16 L
451 178.676 L
456.8 171.196 L
462.6 186.588 L
468.4 188.841 L
474.2 191.114 L
480 182.553 L
485.8 177.076 L
491.6 180.437 L
497.4 179.574 L
503.2 187.001 L
509 186.005 L
514.8 190.88 L
520.6 185.685 L
526.4 187.07 L
532.2 189.705 L
538 172.413 L
543.8 194.17 L
549.6 193.15 L
555.4 186.969 L
561.2 207.352 L
567 179.371 L
572.8 181.174 L
578.6 182.658 L
584.4 174.759 L
590.2 191.338 L
596 172.379 L
601.8 178.591 L
607.6 185.645 L
613.4 206.902 L
S
GR
GS
[0.75 0 0 0.75 0 0.25] CT
0.851 0.325 0.098 RC
1 LJ
0.667 LW
N
253.8 236.519 M
259.6 242.401 L
265.4 241.567 L
271.2 232.299 L
277 248.564 L
282.8 230.857 L
288.6 227.15 L
294.4 222.131 L
300.2 239.741 L
306 227.994 L
311.8 209.033 L
317.6 226.116 L
323.4 249.76 L
329.2 239.798 L
335 225.371 L
340.8 232.95 L
346.6 253.872 L
352.4 218.834 L
358.2 236.408 L
364 244.924 L
369.8 250.636 L
375.6 237.22 L
381.4 223.859 L
387.2 240.698 L
393 235.767 L
398.8 222.617 L
404.6 233.606 L
410.4 239.116 L
416.2 263.208 L
422 232.44 L
427.8 247.594 L
433.6 234.615 L
439.4 251.46 L
445.2 231.235 L
451 205.458 L
456.8 251.388 L
462.6 248.314 L
468.4 215.063 L
474.2 228.912 L
480 208.928 L
485.8 223.143 L
491.6 229.42 L
497.4 214.125 L
503.2 218.632 L
509 214.963 L
514.8 220.299 L
520.6 226.961 L
526.4 228.752 L
532.2 236.676 L
538 244.065 L
543.8 231.169 L
549.6 242.766 L
555.4 237.328 L
561.2 237.053 L
567 238.484 L
572.8 231.102 L
578.6 226.454 L
584.4 238.177 L
590.2 246.993 L
596 231.327 L
601.8 255.454 L
607.6 238.722 L
613.4 214.865 L
S
GR
GS
[0.75 0 0 0.75 0 0.25] CT
1 GC
N
782 276 M
1188 276 L
1188 139 L
782 139 L
cp
f
GR
GS
[0.75 0 0 0.75 0 0.25] CT
0.149 GC
2 setlinecap
1 LJ
0.667 LW
N
782 276 M
1188 276 L
S
GR
GS
[0.75 0 0 0.75 0 0.25] CT
0.149 GC
2 setlinecap
1 LJ
0.667 LW
N
782 139 M
1188 139 L
S
GR
GS
[0.75 0 0 0.75 0 0.25] CT
0.149 GC
2 setlinecap
1 LJ
0.667 LW
N
782 276 M
782 271.94 L
S
GR
GS
[0.75 0 0 0.75 0 0.25] CT
0.149 GC
2 setlinecap
1 LJ
0.667 LW
N
849.667 276 M
849.667 271.94 L
S
GR
GS
[0.75 0 0 0.75 0 0.25] CT
0.149 GC
2 setlinecap
1 LJ
0.667 LW
N
917.333 276 M
917.333 271.94 L
S
GR
GS
[0.75 0 0 0.75 0 0.25] CT
0.149 GC
2 setlinecap
1 LJ
0.667 LW
N
985 276 M
985 271.94 L
S
GR
GS
[0.75 0 0 0.75 0 0.25] CT
0.149 GC
2 setlinecap
1 LJ
0.667 LW
N
1052.667 276 M
1052.667 271.94 L
S
GR
GS
[0.75 0 0 0.75 0 0.25] CT
0.149 GC
2 setlinecap
1 LJ
0.667 LW
N
1120.333 276 M
1120.333 271.94 L
S
GR
GS
[0.75 0 0 0.75 0 0.25] CT
0.149 GC
2 setlinecap
1 LJ
0.667 LW
N
1188 276 M
1188 271.94 L
S
GR
GS
[0.75 0 0 0.75 0 0.25] CT
0.149 GC
2 setlinecap
1 LJ
0.667 LW
N
782 139 M
782 143.06 L
S
GR
GS
[0.75 0 0 0.75 0 0.25] CT
0.149 GC
2 setlinecap
1 LJ
0.667 LW
N
849.667 139 M
849.667 143.06 L
S
GR
GS
[0.75 0 0 0.75 0 0.25] CT
0.149 GC
2 setlinecap
1 LJ
0.667 LW
N
917.333 139 M
917.333 143.06 L
S
GR
GS
[0.75 0 0 0.75 0 0.25] CT
0.149 GC
2 setlinecap
1 LJ
0.667 LW
N
985 139 M
985 143.06 L
S
GR
GS
[0.75 0 0 0.75 0 0.25] CT
0.149 GC
2 setlinecap
1 LJ
0.667 LW
N
1052.667 139 M
1052.667 143.06 L
S
GR
GS
[0.75 0 0 0.75 0 0.25] CT
0.149 GC
2 setlinecap
1 LJ
0.667 LW
N
1120.333 139 M
1120.333 143.06 L
S
GR
GS
[0.75 0 0 0.75 0 0.25] CT
0.149 GC
2 setlinecap
1 LJ
0.667 LW
N
1188 139 M
1188 143.06 L
S
GR
GS
[0.75 0 0 0.75 586.5 211.25001] CT
0.149 GC
/Helvetica 13.333 F
GS
[1 0 0 1 0 0] CT
-4 14 moveto 
1 -1 scale
(0) t 
GR
GR
GS
[0.75 0 0 0.75 637.25002 211.25001] CT
0.149 GC
/Helvetica 13.333 F
GS
[1 0 0 1 0 0] CT
-7.5 14 moveto 
1 -1 scale
(10) t 
GR
GR
GS
[0.75 0 0 0.75 687.99998 211.25001] CT
0.149 GC
/Helvetica 13.333 F
GS
[1 0 0 1 0 0] CT
-7.5 14 moveto 
1 -1 scale
(20) t 
GR
GR
GS
[0.75 0 0 0.75 738.75 211.25001] CT
0.149 GC
/Helvetica 13.333 F
GS
[1 0 0 1 0 0] CT
-7.5 14 moveto 
1 -1 scale
(30) t 
GR
GR
GS
[0.75 0 0 0.75 789.49997 211.25001] CT
0.149 GC
/Helvetica 13.333 F
GS
[1 0 0 1 0 0] CT
-7.5 14 moveto 
1 -1 scale
(40) t 
GR
GR
GS
[0.75 0 0 0.75 840.25003 211.25001] CT
0.149 GC
/Helvetica 13.333 F
GS
[1 0 0 1 0 0] CT
-7.5 14 moveto 
1 -1 scale
(50) t 
GR
GR
GS
[0.75 0 0 0.75 891 211.25001] CT
0.149 GC
/Helvetica 13.333 F
GS
[1 0 0 1 0 0] CT
-7.5 14 moveto 
1 -1 scale
(60) t 
GR
GR
GS
[0.75 0 0 0.75 738.75014 224.99999] CT
0.149 GC
/Helvetica 14.667 F
GS
[1 0 0 1 0 0] CT
-16 16 moveto 
1 -1 scale
(trials) t 
GR
GR
GS
[0.75 0 0 0.75 0 0.25] CT
0.149 GC
2 setlinecap
1 LJ
0.667 LW
N
782 276 M
782 139 L
S
GR
GS
[0.75 0 0 0.75 0 0.25] CT
0.149 GC
2 setlinecap
1 LJ
0.667 LW
N
1188 276 M
1188 139 L
S
GR
GS
[0.75 0 0 0.75 0 0.25] CT
0.149 GC
2 setlinecap
1 LJ
0.667 LW
N
782 276 M
786.06 276 L
S
GR
GS
[0.75 0 0 0.75 0 0.25] CT
0.149 GC
2 setlinecap
1 LJ
0.667 LW
N
782 230.333 M
786.06 230.333 L
S
GR
GS
[0.75 0 0 0.75 0 0.25] CT
0.149 GC
2 setlinecap
1 LJ
0.667 LW
N
782 184.667 M
786.06 184.667 L
S
GR
GS
[0.75 0 0 0.75 0 0.25] CT
0.149 GC
2 setlinecap
1 LJ
0.667 LW
N
782 139 M
786.06 139 L
S
GR
GS
[0.75 0 0 0.75 0 0.25] CT
0.149 GC
2 setlinecap
1 LJ
0.667 LW
N
1188 276 M
1183.94 276 L
S
GR
GS
[0.75 0 0 0.75 0 0.25] CT
0.149 GC
2 setlinecap
1 LJ
0.667 LW
N
1188 230.333 M
1183.94 230.333 L
S
GR
GS
[0.75 0 0 0.75 0 0.25] CT
0.149 GC
2 setlinecap
1 LJ
0.667 LW
N
1188 184.667 M
1183.94 184.667 L
S
GR
GS
[0.75 0 0 0.75 0 0.25] CT
0.149 GC
2 setlinecap
1 LJ
0.667 LW
N
1188 139 M
1183.94 139 L
S
GR
GS
[0.75 0 0 0.75 582.50002 207.25] CT
0.149 GC
/Helvetica 13.333 F
GS
[1 0 0 1 0 0] CT
-19 5.5 moveto 
1 -1 scale
(0.4) t 
GR
GR
GS
[0.75 0 0 0.75 582.50002 173] CT
0.149 GC
/Helvetica 13.333 F
GS
[1 0 0 1 0 0] CT
-19 5.5 moveto 
1 -1 scale
(0.6) t 
GR
GR
GS
[0.75 0 0 0.75 582.50002 138.74999] CT
0.149 GC
/Helvetica 13.333 F
GS
[1 0 0 1 0 0] CT
-19 5.5 moveto 
1 -1 scale
(0.8) t 
GR
GR
GS
[0.75 0 0 0.75 582.50002 104.5] CT
0.149 GC
/Helvetica 13.333 F
GS
[1 0 0 1 0 0] CT
-8 5.5 moveto 
1 -1 scale
(1) t 
GR
GR
GS
[0 -0.75 0.75 0 565.25002 155.87495] CT
0.149 GC
/Helvetica 14.667 F
GS
[1 0 0 1 0 0] CT
-17 -4 moveto 
1 -1 scale
(GCC) t 
GR
GR
GS
[0.75 0 0 0.75 685.5 76.75] CT
/Helvetica-Bold 14.667 F
GS
[1 0 0 1 0 0] CT
0 0 moveto 
1 -1 scale
(SOMETHING \(129_2\)) t 
GR
GR
GS
[0.75 0 0 0.75 0 0.25] CT
0 0.447 0.741 RC
1 LJ
0.667 LW
N
788.767 173.229 M
795.533 168.512 L
802.3 173.677 L
809.067 174.829 L
815.833 175.775 L
822.6 170.595 L
829.367 174.727 L
836.133 170.682 L
842.9 178.944 L
849.667 178.535 L
856.433 174.348 L
863.2 166.736 L
869.967 173.951 L
876.733 189.039 L
883.5 174.437 L
890.267 181.637 L
897.033 189.246 L
903.8 171.035 L
910.567 189.95 L
917.333 177.679 L
924.1 176.457 L
930.867 190.587 L
937.633 191.209 L
944.4 182.869 L
951.167 173.395 L
957.933 170.078 L
964.7 185.968 L
971.467 184.49 L
978.233 185.648 L
985 187.434 L
991.767 178.333 L
998.533 168.238 L
1005.3 165.672 L
1012.067 175.579 L
1018.833 166.512 L
1025.6 173.675 L
1032.367 175.878 L
1039.133 176.255 L
1045.9 183.174 L
1052.667 191.949 L
1059.433 199.653 L
1066.2 177.588 L
1072.967 182.681 L
1079.733 189.738 L
1086.5 184.986 L
1093.267 181.898 L
1100.033 181.107 L
1106.8 193.235 L
1113.567 184.682 L
1120.333 195.58 L
1127.1 184.141 L
1133.867 186.915 L
S
GR
GS
[0.75 0 0 0.75 0 0.25] CT
0.851 0.325 0.098 RC
1 LJ
0.667 LW
N
788.767 236.43 M
795.533 231.749 L
802.3 215.751 L
809.067 213.528 L
815.833 231.642 L
822.6 222.725 L
829.367 205.761 L
836.133 223.853 L
842.9 217.564 L
849.667 231.964 L
856.433 217.254 L
863.2 222.285 L
869.967 256.406 L
876.733 225.318 L
883.5 214.471 L
890.267 237.304 L
897.033 224.132 L
903.8 228.831 L
910.567 231.655 L
917.333 223.591 L
924.1 222.277 L
930.867 230.386 L
937.633 228.649 L
944.4 221.612 L
951.167 224.778 L
957.933 226.493 L
964.7 221.173 L
971.467 228.147 L
978.233 233.627 L
985 227.487 L
991.767 212.906 L
998.533 215.441 L
1005.3 223.044 L
1012.067 225.983 L
1018.833 248.308 L
1025.6 228.813 L
1032.367 218.026 L
1039.133 227.318 L
1045.9 220.051 L
1052.667 225.767 L
1059.433 234.924 L
1066.2 223.625 L
1072.967 248.33 L
1079.733 230.319 L
1086.5 227.955 L
1093.267 231.607 L
1100.033 218.144 L
1106.8 219.121 L
1113.567 230.748 L
1120.333 231.565 L
1127.1 227.6 L
1133.867 223.465 L
S
GR
GS
[0.75 0 0 0.75 0 0.25] CT
1 GC
N
1218 71 M
1218 35 L
1314 35 L
1314 71 L
cp
f
GR
GS
[0.75 0 0 0.75 948.75 33.89726] CT
/Helvetica 12 F
GS
[1 0 0 1 0 0] CT
0 5 moveto 
1 -1 scale
(stimulus) t 
GR
GR
GS
[0.75 0 0 0.75 0 0.25] CT
0 0.447 0.741 RC
1 LJ
0.667 LW
N
1222 44.863 M
1262 44.863 L
S
GR
GS
[0.75 0 0 0.75 948.75 46.10274] CT
/Helvetica 12 F
GS
[1 0 0 1 0 0] CT
0 5 moveto 
1 -1 scale
(baseline) t 
GR
GR
GS
[0.75 0 0 0.75 0 0.25] CT
0.851 0.325 0.098 RC
1 LJ
0.667 LW
N
1222 61.137 M
1262 61.137 L
S
GR
GS
[0.75 0 0 0.75 0 0.25] CT
0.149 GC
10.0 ML
0.667 LW
N
1218 71 M
1218 35 L
1314 35 L
1314 71 L
cp
S
GR
GS
[0.75 0 0 0.75 0 0.25] CT
1 GC
N
1317 276 M
1723 276 L
1723 139 L
1317 139 L
cp
f
GR
GS
[0.75 0 0 0.75 0 0.25] CT
0.149 GC
2 setlinecap
1 LJ
0.667 LW
N
1317 276 M
1723 276 L
S
GR
GS
[0.75 0 0 0.75 0 0.25] CT
0.149 GC
2 setlinecap
1 LJ
0.667 LW
N
1317 139 M
1723 139 L
S
GR
GS
[0.75 0 0 0.75 0 0.25] CT
0.149 GC
2 setlinecap
1 LJ
0.667 LW
N
1317 276 M
1317 271.94 L
S
GR
GS
[0.75 0 0 0.75 0 0.25] CT
0.149 GC
2 setlinecap
1 LJ
0.667 LW
N
1398.2 276 M
1398.2 271.94 L
S
GR
GS
[0.75 0 0 0.75 0 0.25] CT
0.149 GC
2 setlinecap
1 LJ
0.667 LW
N
1479.4 276 M
1479.4 271.94 L
S
GR
GS
[0.75 0 0 0.75 0 0.25] CT
0.149 GC
2 setlinecap
1 LJ
0.667 LW
N
1560.6 276 M
1560.6 271.94 L
S
GR
GS
[0.75 0 0 0.75 0 0.25] CT
0.149 GC
2 setlinecap
1 LJ
0.667 LW
N
1641.8 276 M
1641.8 271.94 L
S
GR
GS
[0.75 0 0 0.75 0 0.25] CT
0.149 GC
2 setlinecap
1 LJ
0.667 LW
N
1723 276 M
1723 271.94 L
S
GR
GS
[0.75 0 0 0.75 0 0.25] CT
0.149 GC
2 setlinecap
1 LJ
0.667 LW
N
1317 139 M
1317 143.06 L
S
GR
GS
[0.75 0 0 0.75 0 0.25] CT
0.149 GC
2 setlinecap
1 LJ
0.667 LW
N
1398.2 139 M
1398.2 143.06 L
S
GR
GS
[0.75 0 0 0.75 0 0.25] CT
0.149 GC
2 setlinecap
1 LJ
0.667 LW
N
1479.4 139 M
1479.4 143.06 L
S
GR
GS
[0.75 0 0 0.75 0 0.25] CT
0.149 GC
2 setlinecap
1 LJ
0.667 LW
N
1560.6 139 M
1560.6 143.06 L
S
GR
GS
[0.75 0 0 0.75 0 0.25] CT
0.149 GC
2 setlinecap
1 LJ
0.667 LW
N
1641.8 139 M
1641.8 143.06 L
S
GR
GS
[0.75 0 0 0.75 0 0.25] CT
0.149 GC
2 setlinecap
1 LJ
0.667 LW
N
1723 139 M
1723 143.06 L
S
GR
GS
[0.75 0 0 0.75 987.75 211.25001] CT
0.149 GC
/Helvetica 13.333 F
GS
[1 0 0 1 0 0] CT
-4 14 moveto 
1 -1 scale
(0) t 
GR
GR
GS
[0.75 0 0 0.75 1048.64996 211.25001] CT
0.149 GC
/Helvetica 13.333 F
GS
[1 0 0 1 0 0] CT
-7.5 14 moveto 
1 -1 scale
(20) t 
GR
GR
GS
[0.75 0 0 0.75 1109.55002 211.25001] CT
0.149 GC
/Helvetica 13.333 F
GS
[1 0 0 1 0 0] CT
-7.5 14 moveto 
1 -1 scale
(40) t 
GR
GR
GS
[0.75 0 0 0.75 1170.44998 211.25001] CT
0.149 GC
/Helvetica 13.333 F
GS
[1 0 0 1 0 0] CT
-7.5 14 moveto 
1 -1 scale
(60) t 
GR
GR
GS
[0.75 0 0 0.75 1231.35004 211.25001] CT
0.149 GC
/Helvetica 13.333 F
GS
[1 0 0 1 0 0] CT
-7.5 14 moveto 
1 -1 scale
(80) t 
GR
GR
GS
[0.75 0 0 0.75 1292.25 211.25001] CT
0.149 GC
/Helvetica 13.333 F
GS
[1 0 0 1 0 0] CT
-11 14 moveto 
1 -1 scale
(100) t 
GR
GR
GS
[0.75 0 0 0.75 1140.00018 224.99999] CT
0.149 GC
/Helvetica 14.667 F
GS
[1 0 0 1 0 0] CT
-16 16 moveto 
1 -1 scale
(trials) t 
GR
GR
GS
[0.75 0 0 0.75 0 0.25] CT
0.149 GC
2 setlinecap
1 LJ
0.667 LW
N
1317 276 M
1317 139 L
S
GR
GS
[0.75 0 0 0.75 0 0.25] CT
0.149 GC
2 setlinecap
1 LJ
0.667 LW
N
1723 276 M
1723 139 L
S
GR
GS
[0.75 0 0 0.75 0 0.25] CT
0.149 GC
2 setlinecap
1 LJ
0.667 LW
N
1317 276 M
1321.06 276 L
S
GR
GS
[0.75 0 0 0.75 0 0.25] CT
0.149 GC
2 setlinecap
1 LJ
0.667 LW
N
1317 241.75 M
1321.06 241.75 L
S
GR
GS
[0.75 0 0 0.75 0 0.25] CT
0.149 GC
2 setlinecap
1 LJ
0.667 LW
N
1317 207.5 M
1321.06 207.5 L
S
GR
GS
[0.75 0 0 0.75 0 0.25] CT
0.149 GC
2 setlinecap
1 LJ
0.667 LW
N
1317 173.25 M
1321.06 173.25 L
S
GR
GS
[0.75 0 0 0.75 0 0.25] CT
0.149 GC
2 setlinecap
1 LJ
0.667 LW
N
1317 139 M
1321.06 139 L
S
GR
GS
[0.75 0 0 0.75 0 0.25] CT
0.149 GC
2 setlinecap
1 LJ
0.667 LW
N
1723 276 M
1718.94 276 L
S
GR
GS
[0.75 0 0 0.75 0 0.25] CT
0.149 GC
2 setlinecap
1 LJ
0.667 LW
N
1723 241.75 M
1718.94 241.75 L
S
GR
GS
[0.75 0 0 0.75 0 0.25] CT
0.149 GC
2 setlinecap
1 LJ
0.667 LW
N
1723 207.5 M
1718.94 207.5 L
S
GR
GS
[0.75 0 0 0.75 0 0.25] CT
0.149 GC
2 setlinecap
1 LJ
0.667 LW
N
1723 173.25 M
1718.94 173.25 L
S
GR
GS
[0.75 0 0 0.75 0 0.25] CT
0.149 GC
2 setlinecap
1 LJ
0.667 LW
N
1723 139 M
1718.94 139 L
S
GR
GS
[0.75 0 0 0.75 983.74997 207.25] CT
0.149 GC
/Helvetica 13.333 F
GS
[1 0 0 1 0 0] CT
-19 5.5 moveto 
1 -1 scale
(0.5) t 
GR
GR
GS
[0.75 0 0 0.75 983.74997 181.56249] CT
0.149 GC
/Helvetica 13.333 F
GS
[1 0 0 1 0 0] CT
-19 5.5 moveto 
1 -1 scale
(0.6) t 
GR
GR
GS
[0.75 0 0 0.75 983.74997 155.875] CT
0.149 GC
/Helvetica 13.333 F
GS
[1 0 0 1 0 0] CT
-19 5.5 moveto 
1 -1 scale
(0.7) t 
GR
GR
GS
[0.75 0 0 0.75 983.74997 130.1875] CT
0.149 GC
/Helvetica 13.333 F
GS
[1 0 0 1 0 0] CT
-19 5.5 moveto 
1 -1 scale
(0.8) t 
GR
GR
GS
[0.75 0 0 0.75 983.74997 104.50001] CT
0.149 GC
/Helvetica 13.333 F
GS
[1 0 0 1 0 0] CT
-19 5.5 moveto 
1 -1 scale
(0.9) t 
GR
GR
GS
[0 -0.75 0.75 0 966.49997 155.87495] CT
0.149 GC
/Helvetica 14.667 F
GS
[1 0 0 1 0 0] CT
-17 -4 moveto 
1 -1 scale
(GCC) t 
GR
GR
GS
[0.75 0 0 0.75 1092.75 79.75] CT
/Helvetica-Bold 14.667 F
GS
[1 0 0 1 0 0] CT
0 0 moveto 
1 -1 scale
(NOTHING \(129_3\)) t 
GR
GR
GS
[0.75 0 0 0.75 0 0.25] CT
0 0.447 0.741 RC
1 LJ
0.667 LW
N
1321.06 166.906 M
1325.12 160.385 L
1329.18 167.833 L
1333.24 160.438 L
1337.3 167.384 L
1341.36 160.954 L
1345.42 166.982 L
1349.48 167.425 L
1353.54 173.685 L
1357.6 171.93 L
1361.66 175.983 L
1365.72 179.868 L
1369.78 191.636 L
1373.84 170.888 L
1377.9 189.019 L
1381.96 168.401 L
1386.02 168.902 L
1390.08 180.182 L
1394.14 175.257 L
1398.2 172.463 L
1402.26 191.374 L
1406.32 175.031 L
1410.38 160.388 L
1414.44 183.298 L
1418.5 178.192 L
1422.56 178.554 L
1426.62 164.032 L
1430.68 162.412 L
1434.74 174.562 L
1438.8 166.168 L
1442.86 159.566 L
1446.92 163.987 L
1450.98 168.899 L
1455.04 163.011 L
1459.1 173.104 L
1463.16 173.032 L
1467.22 171.956 L
1471.28 165.561 L
1475.34 184.573 L
1479.4 170.295 L
1483.46 184.832 L
1487.52 180.229 L
1491.58 172.557 L
1495.64 170.463 L
1499.7 164.531 L
1503.76 167.239 L
1507.82 175.57 L
1511.88 164.036 L
1515.94 163.367 L
1520 163.109 L
1524.06 170.391 L
1528.12 176.04 L
1532.18 181.616 L
1536.24 170.489 L
1540.3 166.038 L
1544.36 175.326 L
1548.42 181.799 L
1552.48 169.15 L
1556.54 192.929 L
1560.6 177.154 L
1564.66 168.762 L
1568.72 167.861 L
1572.78 155.083 L
1576.84 157.736 L
1580.9 163.593 L
1584.96 161.339 L
1589.02 161.383 L
1593.08 160.559 L
1597.14 158.827 L
1601.2 158.436 L
1605.26 168.299 L
1609.32 157.258 L
1613.38 168.118 L
1617.44 157.097 L
1621.5 173.614 L
1625.56 167.419 L
1629.62 162.73 L
1633.68 168.065 L
1637.74 165.69 L
1641.8 163.429 L
1645.86 162.506 L
1649.92 158.902 L
1653.98 158.111 L
1658.04 165.599 L
1662.1 160.935 L
1666.16 164.66 L
1670.22 163.153 L
1674.28 162.407 L
1678.34 144.482 L
1682.4 152.496 L
1686.46 157.236 L
1690.52 178.246 L
1694.58 161.278 L
1698.64 166.235 L
1702.7 153.976 L
S
GR
GS
[0.75 0 0 0.75 0 0.25] CT
0.851 0.325 0.098 RC
1 LJ
0.667 LW
N
1321.06 239.695 M
1325.12 237.28 L
1329.18 262.403 L
1333.24 234.136 L
1337.3 233.351 L
1341.36 245.468 L
1345.42 238.203 L
1349.48 239.9 L
1353.54 245.273 L
1357.6 256.869 L
1361.66 247.026 L
1365.72 236.736 L
1369.78 232.828 L
1373.84 239.588 L
1377.9 235.601 L
1381.96 255.971 L
1386.02 215.9 L
1390.08 246.691 L
1394.14 230.781 L
1398.2 217.201 L
1402.26 219.184 L
1406.32 242.796 L
1410.38 244.479 L
1414.44 250.32 L
1418.5 236.828 L
1422.56 217.802 L
1426.62 241.045 L
1430.68 230.074 L
1434.74 243.002 L
1438.8 219.78 L
1442.86 233.295 L
1446.92 250.26 L
1450.98 233.182 L
1455.04 223.787 L
1459.1 241.45 L
1463.16 238.439 L
1467.22 230.982 L
1471.28 235.938 L
1475.34 214.98 L
1479.4 229.546 L
1483.46 236.01 L
1487.52 251.048 L
1491.58 235.046 L
1495.64 222.925 L
1499.7 222.219 L
1503.76 221.952 L
1507.82 239.149 L
1511.88 243.232 L
1515.94 217.544 L
1520 233.963 L
1524.06 234.749 L
1528.12 244.916 L
1532.18 271.446 L
1536.24 216.33 L
1540.3 218.001 L
1544.36 246.952 L
1548.42 248.613 L
1552.48 241.79 L
1556.54 252.034 L
1560.6 220.666 L
1564.66 227.413 L
1568.72 231.956 L
1572.78 250.673 L
1576.84 239 L
1580.9 213.508 L
1584.96 213.507 L
1589.02 225.94 L
1593.08 233.752 L
1597.14 232.589 L
1601.2 228.318 L
1605.26 218.918 L
1609.32 250.183 L
1613.38 231.718 L
1617.44 229.038 L
1621.5 243.59 L
1625.56 236.192 L
1629.62 220.13 L
1633.68 224.465 L
1637.74 244.757 L
1641.8 220.156 L
1645.86 225.694 L
1649.92 222.576 L
1653.98 222.511 L
1658.04 221.435 L
1662.1 223.069 L
1666.16 215.882 L
1670.22 216.821 L
1674.28 236.53 L
1678.34 242.079 L
1682.4 233.321 L
1686.46 225.972 L
1690.52 244.433 L
1694.58 261.49 L
1698.64 250.739 L
1702.7 249.964 L
S
GR
GS
[0.75 0 0 0.75 0 0.25] CT
1 GC
N
248 475 M
654 475 L
654 337 L
248 337 L
cp
f
GR
GS
[0.75 0 0 0.75 0 0.25] CT
0.149 GC
2 setlinecap
1 LJ
0.667 LW
N
248 475 M
654 475 L
S
GR
GS
[0.75 0 0 0.75 0 0.25] CT
0.149 GC
2 setlinecap
1 LJ
0.667 LW
N
248 337 M
654 337 L
S
GR
GS
[0.75 0 0 0.75 0 0.25] CT
0.149 GC
2 setlinecap
1 LJ
0.667 LW
N
248 475 M
248 470.94 L
S
GR
GS
[0.75 0 0 0.75 0 0.25] CT
0.149 GC
2 setlinecap
1 LJ
0.667 LW
N
315.667 475 M
315.667 470.94 L
S
GR
GS
[0.75 0 0 0.75 0 0.25] CT
0.149 GC
2 setlinecap
1 LJ
0.667 LW
N
383.333 475 M
383.333 470.94 L
S
GR
GS
[0.75 0 0 0.75 0 0.25] CT
0.149 GC
2 setlinecap
1 LJ
0.667 LW
N
451 475 M
451 470.94 L
S
GR
GS
[0.75 0 0 0.75 0 0.25] CT
0.149 GC
2 setlinecap
1 LJ
0.667 LW
N
518.667 475 M
518.667 470.94 L
S
GR
GS
[0.75 0 0 0.75 0 0.25] CT
0.149 GC
2 setlinecap
1 LJ
0.667 LW
N
586.333 475 M
586.333 470.94 L
S
GR
GS
[0.75 0 0 0.75 0 0.25] CT
0.149 GC
2 setlinecap
1 LJ
0.667 LW
N
654 475 M
654 470.94 L
S
GR
GS
[0.75 0 0 0.75 0 0.25] CT
0.149 GC
2 setlinecap
1 LJ
0.667 LW
N
248 337 M
248 341.06 L
S
GR
GS
[0.75 0 0 0.75 0 0.25] CT
0.149 GC
2 setlinecap
1 LJ
0.667 LW
N
315.667 337 M
315.667 341.06 L
S
GR
GS
[0.75 0 0 0.75 0 0.25] CT
0.149 GC
2 setlinecap
1 LJ
0.667 LW
N
383.333 337 M
383.333 341.06 L
S
GR
GS
[0.75 0 0 0.75 0 0.25] CT
0.149 GC
2 setlinecap
1 LJ
0.667 LW
N
451 337 M
451 341.06 L
S
GR
GS
[0.75 0 0 0.75 0 0.25] CT
0.149 GC
2 setlinecap
1 LJ
0.667 LW
N
518.667 337 M
518.667 341.06 L
S
GR
GS
[0.75 0 0 0.75 0 0.25] CT
0.149 GC
2 setlinecap
1 LJ
0.667 LW
N
586.333 337 M
586.333 341.06 L
S
GR
GS
[0.75 0 0 0.75 0 0.25] CT
0.149 GC
2 setlinecap
1 LJ
0.667 LW
N
654 337 M
654 341.06 L
S
GR
GS
[0.75 0 0 0.75 186 360.50001] CT
0.149 GC
/Helvetica 13.333 F
GS
[1 0 0 1 0 0] CT
-4 14 moveto 
1 -1 scale
(0) t 
GR
GR
GS
[0.75 0 0 0.75 236.74999 360.50001] CT
0.149 GC
/Helvetica 13.333 F
GS
[1 0 0 1 0 0] CT
-7.5 14 moveto 
1 -1 scale
(20) t 
GR
GR
GS
[0.75 0 0 0.75 287.50001 360.50001] CT
0.149 GC
/Helvetica 13.333 F
GS
[1 0 0 1 0 0] CT
-7.5 14 moveto 
1 -1 scale
(40) t 
GR
GR
GS
[0.75 0 0 0.75 338.25 360.50001] CT
0.149 GC
/Helvetica 13.333 F
GS
[1 0 0 1 0 0] CT
-7.5 14 moveto 
1 -1 scale
(60) t 
GR
GR
GS
[0.75 0 0 0.75 389.00002 360.50001] CT
0.149 GC
/Helvetica 13.333 F
GS
[1 0 0 1 0 0] CT
-7.5 14 moveto 
1 -1 scale
(80) t 
GR
GR
GS
[0.75 0 0 0.75 439.74998 360.50001] CT
0.149 GC
/Helvetica 13.333 F
GS
[1 0 0 1 0 0] CT
-11 14 moveto 
1 -1 scale
(100) t 
GR
GR
GS
[0.75 0 0 0.75 490.5 360.50001] CT
0.149 GC
/Helvetica 13.333 F
GS
[1 0 0 1 0 0] CT
-11 14 moveto 
1 -1 scale
(120) t 
GR
GR
GS
[0.75 0 0 0.75 338.25014 374.24999] CT
0.149 GC
/Helvetica 14.667 F
GS
[1 0 0 1 0 0] CT
-16 16 moveto 
1 -1 scale
(trials) t 
GR
GR
GS
[0.75 0 0 0.75 0 0.25] CT
0.149 GC
2 setlinecap
1 LJ
0.667 LW
N
248 475 M
248 337 L
S
GR
GS
[0.75 0 0 0.75 0 0.25] CT
0.149 GC
2 setlinecap
1 LJ
0.667 LW
N
654 475 M
654 337 L
S
GR
GS
[0.75 0 0 0.75 0 0.25] CT
0.149 GC
2 setlinecap
1 LJ
0.667 LW
N
248 475 M
252.06 475 L
S
GR
GS
[0.75 0 0 0.75 0 0.25] CT
0.149 GC
2 setlinecap
1 LJ
0.667 LW
N
248 440.5 M
252.06 440.5 L
S
GR
GS
[0.75 0 0 0.75 0 0.25] CT
0.149 GC
2 setlinecap
1 LJ
0.667 LW
N
248 406 M
252.06 406 L
S
GR
GS
[0.75 0 0 0.75 0 0.25] CT
0.149 GC
2 setlinecap
1 LJ
0.667 LW
N
248 371.5 M
252.06 371.5 L
S
GR
GS
[0.75 0 0 0.75 0 0.25] CT
0.149 GC
2 setlinecap
1 LJ
0.667 LW
N
248 337 M
252.06 337 L
S
GR
GS
[0.75 0 0 0.75 0 0.25] CT
0.149 GC
2 setlinecap
1 LJ
0.667 LW
N
654 475 M
649.94 475 L
S
GR
GS
[0.75 0 0 0.75 0 0.25] CT
0.149 GC
2 setlinecap
1 LJ
0.667 LW
N
654 440.5 M
649.94 440.5 L
S
GR
GS
[0.75 0 0 0.75 0 0.25] CT
0.149 GC
2 setlinecap
1 LJ
0.667 LW
N
654 406 M
649.94 406 L
S
GR
GS
[0.75 0 0 0.75 0 0.25] CT
0.149 GC
2 setlinecap
1 LJ
0.667 LW
N
654 371.5 M
649.94 371.5 L
S
GR
GS
[0.75 0 0 0.75 0 0.25] CT
0.149 GC
2 setlinecap
1 LJ
0.667 LW
N
654 337 M
649.94 337 L
S
GR
GS
[0.75 0 0 0.75 182 356.5] CT
0.149 GC
/Helvetica 13.333 F
GS
[1 0 0 1 0 0] CT
-19 5.5 moveto 
1 -1 scale
(0.5) t 
GR
GR
GS
[0.75 0 0 0.75 182 330.625] CT
0.149 GC
/Helvetica 13.333 F
GS
[1 0 0 1 0 0] CT
-19 5.5 moveto 
1 -1 scale
(0.6) t 
GR
GR
GS
[0.75 0 0 0.75 182 304.75] CT
0.149 GC
/Helvetica 13.333 F
GS
[1 0 0 1 0 0] CT
-19 5.5 moveto 
1 -1 scale
(0.7) t 
GR
GR
GS
[0.75 0 0 0.75 182 278.875] CT
0.149 GC
/Helvetica 13.333 F
GS
[1 0 0 1 0 0] CT
-19 5.5 moveto 
1 -1 scale
(0.8) t 
GR
GR
GS
[0.75 0 0 0.75 182 253] CT
0.149 GC
/Helvetica 13.333 F
GS
[1 0 0 1 0 0] CT
-19 5.5 moveto 
1 -1 scale
(0.9) t 
GR
GR
GS
[0 -0.75 0.75 0 164.75 304.74995] CT
0.149 GC
/Helvetica 14.667 F
GS
[1 0 0 1 0 0] CT
-17 -4 moveto 
1 -1 scale
(GCC) t 
GR
GR
GS
[0.75 0 0 0.75 0 0.25] CT
0 0.447 0.741 RC
1 LJ
0.667 LW
N
251.383 357.255 M
254.767 370.213 L
258.15 385.766 L
261.533 386.547 L
264.917 390.336 L
268.3 359.852 L
271.683 390.154 L
275.067 365.267 L
278.45 398.678 L
281.833 395.929 L
285.217 372.478 L
288.6 401.073 L
291.983 403.478 L
295.367 408.669 L
298.75 386.429 L
302.133 410.382 L
305.517 373.587 L
308.9 393.211 L
312.283 401.799 L
315.667 394.59 L
319.05 382.614 L
322.433 414.803 L
325.817 422.457 L
329.2 379.274 L
332.583 401.352 L
335.967 384.286 L
339.35 398.194 L
342.733 408.651 L
346.117 395.377 L
349.5 353.738 L
352.883 408.312 L
356.267 379.967 L
359.65 409.305 L
363.033 396.351 L
366.417 388.382 L
369.8 387.735 L
373.183 417.545 L
376.567 397.634 L
379.95 395.924 L
383.333 418.198 L
386.717 412.474 L
390.1 408.487 L
393.483 403.565 L
396.867 423.383 L
400.25 400.512 L
403.633 410.141 L
407.017 399.809 L
410.4 412.951 L
413.783 376.994 L
417.167 406.794 L
420.55 409.494 L
423.933 381.1 L
427.317 402.412 L
430.7 403.497 L
434.083 421.009 L
437.467 411.024 L
440.85 411.256 L
444.233 423 L
447.617 427.471 L
451 442.084 L
454.383 447.868 L
457.767 419.141 L
461.15 415.314 L
464.533 420.934 L
467.917 405.266 L
471.3 406.293 L
474.683 410.905 L
478.067 406.386 L
481.45 429.018 L
484.833 448.081 L
488.217 417.202 L
491.6 391.571 L
494.983 428.4 L
498.367 389.714 L
501.75 439.566 L
505.133 422.488 L
508.517 403.824 L
511.9 405.005 L
515.283 422.853 L
518.667 419.652 L
522.05 403.926 L
525.433 439.835 L
528.817 404.084 L
532.2 395.547 L
535.583 412.097 L
538.967 401.009 L
542.35 439.467 L
545.733 397.042 L
549.117 415.111 L
552.5 381.568 L
555.883 405.376 L
559.267 405.215 L
562.65 409.456 L
566.033 397.822 L
569.417 403.828 L
572.8 398.335 L
576.183 413.375 L
579.567 402.481 L
582.95 401.955 L
586.333 400.002 L
589.717 398.406 L
593.1 404.95 L
596.483 415.669 L
599.867 418.662 L
603.25 411.322 L
S
GR
GS
[0.75 0 0 0.75 0 0.25] CT
0.851 0.325 0.098 RC
1 LJ
0.667 LW
N
251.383 399.97 M
254.767 464.625 L
258.15 417.946 L
261.533 438.36 L
264.917 433.857 L
268.3 454.354 L
271.683 446.17 L
275.067 450.354 L
278.45 450.546 L
281.833 440.986 L
285.217 449.63 L
288.6 443.318 L
291.983 437.048 L
295.367 447.135 L
298.75 431.672 L
302.133 441.568 L
305.517 454.184 L
308.9 457.6 L
312.283 450.781 L
315.667 437.034 L
319.05 436.469 L
322.433 439.805 L
325.817 449.416 L
329.2 443.939 L
332.583 452.463 L
335.967 450.089 L
339.35 442.46 L
342.733 453.409 L
346.117 447.407 L
349.5 429.609 L
352.883 442.174 L
356.267 439.128 L
359.65 434.768 L
363.033 439.973 L
366.417 433.943 L
369.8 431.674 L
373.183 444.508 L
376.567 441.379 L
379.95 446.239 L
383.333 449.657 L
386.717 438.056 L
390.1 455.547 L
393.483 445.469 L
396.867 435.795 L
400.25 458.57 L
403.633 450.651 L
407.017 445.859 L
410.4 457.24 L
413.783 396.513 L
417.167 443.777 L
420.55 442.877 L
423.933 451.275 L
427.317 452.097 L
430.7 436.186 L
434.083 449.319 L
437.467 450.06 L
440.85 429.488 L
444.233 460.042 L
447.617 457.311 L
451 455.11 L
454.383 447.561 L
457.767 443.989 L
461.15 455.952 L
464.533 435.916 L
467.917 450.812 L
471.3 462.189 L
474.683 455.015 L
478.067 441.087 L
481.45 454.354 L
484.833 461.092 L
488.217 442.487 L
491.6 461.287 L
494.983 461.489 L
498.367 456.957 L
501.75 436.683 L
505.133 453.209 L
508.517 450.14 L
511.9 455.894 L
515.283 451.296 L
518.667 450.382 L
522.05 460.342 L
525.433 446.828 L
528.817 445.338 L
532.2 442.145 L
535.583 468.966 L
538.967 461.094 L
542.35 441.413 L
545.733 437.58 L
549.117 444.538 L
552.5 446.83 L
555.883 441.444 L
559.267 459.522 L
562.65 449.027 L
566.033 451.52 L
569.417 459.214 L
572.8 463.941 L
576.183 452.101 L
579.567 445.678 L
582.95 427.303 L
586.333 451.162 L
589.717 453.676 L
593.1 443.84 L
596.483 446.383 L
599.867 460.526 L
603.25 451.049 L
S
GR
GS
[0.75 0 0 0.75 0 0.25] CT
1 GC
N
782 475 M
1188 475 L
1188 337 L
782 337 L
cp
f
GR
GS
[0.75 0 0 0.75 0 0.25] CT
0.149 GC
2 setlinecap
1 LJ
0.667 LW
N
782 475 M
1188 475 L
S
GR
GS
[0.75 0 0 0.75 0 0.25] CT
0.149 GC
2 setlinecap
1 LJ
0.667 LW
N
782 337 M
1188 337 L
S
GR
GS
[0.75 0 0 0.75 0 0.25] CT
0.149 GC
2 setlinecap
1 LJ
0.667 LW
N
782 475 M
782 470.94 L
S
GR
GS
[0.75 0 0 0.75 0 0.25] CT
0.149 GC
2 setlinecap
1 LJ
0.667 LW
N
883.5 475 M
883.5 470.94 L
S
GR
GS
[0.75 0 0 0.75 0 0.25] CT
0.149 GC
2 setlinecap
1 LJ
0.667 LW
N
985 475 M
985 470.94 L
S
GR
GS
[0.75 0 0 0.75 0 0.25] CT
0.149 GC
2 setlinecap
1 LJ
0.667 LW
N
1086.5 475 M
1086.5 470.94 L
S
GR
GS
[0.75 0 0 0.75 0 0.25] CT
0.149 GC
2 setlinecap
1 LJ
0.667 LW
N
1188 475 M
1188 470.94 L
S
GR
GS
[0.75 0 0 0.75 0 0.25] CT
0.149 GC
2 setlinecap
1 LJ
0.667 LW
N
782 337 M
782 341.06 L
S
GR
GS
[0.75 0 0 0.75 0 0.25] CT
0.149 GC
2 setlinecap
1 LJ
0.667 LW
N
883.5 337 M
883.5 341.06 L
S
GR
GS
[0.75 0 0 0.75 0 0.25] CT
0.149 GC
2 setlinecap
1 LJ
0.667 LW
N
985 337 M
985 341.06 L
S
GR
GS
[0.75 0 0 0.75 0 0.25] CT
0.149 GC
2 setlinecap
1 LJ
0.667 LW
N
1086.5 337 M
1086.5 341.06 L
S
GR
GS
[0.75 0 0 0.75 0 0.25] CT
0.149 GC
2 setlinecap
1 LJ
0.667 LW
N
1188 337 M
1188 341.06 L
S
GR
GS
[0.75 0 0 0.75 586.5 360.50001] CT
0.149 GC
/Helvetica 13.333 F
GS
[1 0 0 1 0 0] CT
-4 14 moveto 
1 -1 scale
(0) t 
GR
GR
GS
[0.75 0 0 0.75 662.625 360.50001] CT
0.149 GC
/Helvetica 13.333 F
GS
[1 0 0 1 0 0] CT
-4 14 moveto 
1 -1 scale
(5) t 
GR
GR
GS
[0.75 0 0 0.75 738.75 360.50001] CT
0.149 GC
/Helvetica 13.333 F
GS
[1 0 0 1 0 0] CT
-7.5 14 moveto 
1 -1 scale
(10) t 
GR
GR
GS
[0.75 0 0 0.75 814.875 360.50001] CT
0.149 GC
/Helvetica 13.333 F
GS
[1 0 0 1 0 0] CT
-7.5 14 moveto 
1 -1 scale
(15) t 
GR
GR
GS
[0.75 0 0 0.75 891 360.50001] CT
0.149 GC
/Helvetica 13.333 F
GS
[1 0 0 1 0 0] CT
-7.5 14 moveto 
1 -1 scale
(20) t 
GR
GR
GS
[0.75 0 0 0.75 738.75014 374.24999] CT
0.149 GC
/Helvetica 14.667 F
GS
[1 0 0 1 0 0] CT
-16 16 moveto 
1 -1 scale
(trials) t 
GR
GR
GS
[0.75 0 0 0.75 0 0.25] CT
0.149 GC
2 setlinecap
1 LJ
0.667 LW
N
782 475 M
782 337 L
S
GR
GS
[0.75 0 0 0.75 0 0.25] CT
0.149 GC
2 setlinecap
1 LJ
0.667 LW
N
1188 475 M
1188 337 L
S
GR
GS
[0.75 0 0 0.75 0 0.25] CT
0.149 GC
2 setlinecap
1 LJ
0.667 LW
N
782 475 M
786.06 475 L
S
GR
GS
[0.75 0 0 0.75 0 0.25] CT
0.149 GC
2 setlinecap
1 LJ
0.667 LW
N
782 440.5 M
786.06 440.5 L
S
GR
GS
[0.75 0 0 0.75 0 0.25] CT
0.149 GC
2 setlinecap
1 LJ
0.667 LW
N
782 406 M
786.06 406 L
S
GR
GS
[0.75 0 0 0.75 0 0.25] CT
0.149 GC
2 setlinecap
1 LJ
0.667 LW
N
782 371.5 M
786.06 371.5 L
S
GR
GS
[0.75 0 0 0.75 0 0.25] CT
0.149 GC
2 setlinecap
1 LJ
0.667 LW
N
782 337 M
786.06 337 L
S
GR
GS
[0.75 0 0 0.75 0 0.25] CT
0.149 GC
2 setlinecap
1 LJ
0.667 LW
N
1188 475 M
1183.94 475 L
S
GR
GS
[0.75 0 0 0.75 0 0.25] CT
0.149 GC
2 setlinecap
1 LJ
0.667 LW
N
1188 440.5 M
1183.94 440.5 L
S
GR
GS
[0.75 0 0 0.75 0 0.25] CT
0.149 GC
2 setlinecap
1 LJ
0.667 LW
N
1188 406 M
1183.94 406 L
S
GR
GS
[0.75 0 0 0.75 0 0.25] CT
0.149 GC
2 setlinecap
1 LJ
0.667 LW
N
1188 371.5 M
1183.94 371.5 L
S
GR
GS
[0.75 0 0 0.75 0 0.25] CT
0.149 GC
2 setlinecap
1 LJ
0.667 LW
N
1188 337 M
1183.94 337 L
S
GR
GS
[0.75 0 0 0.75 582.50002 356.5] CT
0.149 GC
/Helvetica 13.333 F
GS
[1 0 0 1 0 0] CT
-19 5.5 moveto 
1 -1 scale
(0.5) t 
GR
GR
GS
[0.75 0 0 0.75 582.50002 330.625] CT
0.149 GC
/Helvetica 13.333 F
GS
[1 0 0 1 0 0] CT
-19 5.5 moveto 
1 -1 scale
(0.6) t 
GR
GR
GS
[0.75 0 0 0.75 582.50002 304.75] CT
0.149 GC
/Helvetica 13.333 F
GS
[1 0 0 1 0 0] CT
-19 5.5 moveto 
1 -1 scale
(0.7) t 
GR
GR
GS
[0.75 0 0 0.75 582.50002 278.875] CT
0.149 GC
/Helvetica 13.333 F
GS
[1 0 0 1 0 0] CT
-19 5.5 moveto 
1 -1 scale
(0.8) t 
GR
GR
GS
[0.75 0 0 0.75 582.50002 253] CT
0.149 GC
/Helvetica 13.333 F
GS
[1 0 0 1 0 0] CT
-19 5.5 moveto 
1 -1 scale
(0.9) t 
GR
GR
GS
[0 -0.75 0.75 0 565.25002 304.74995] CT
0.149 GC
/Helvetica 14.667 F
GS
[1 0 0 1 0 0] CT
-17 -4 moveto 
1 -1 scale
(GCC) t 
GR
GR
GS
[0.75 0 0 0.75 0 0.25] CT
0 0.447 0.741 RC
1 LJ
0.667 LW
N
802.3 352.316 M
822.6 346.05 L
842.9 357.67 L
863.2 355.395 L
883.5 373.493 L
903.8 359.215 L
924.1 348.335 L
944.4 383.973 L
964.7 362.081 L
985 372.897 L
1005.3 373.749 L
1025.6 345.945 L
1045.9 368.204 L
1066.2 368.66 L
1086.5 369.507 L
1106.8 383.925 L
1127.1 357.066 L
1147.4 374.309 L
1167.7 368.766 L
1188 367.498 L
S
GR
GS
[0.75 0 0 0.75 0 0.25] CT
0.851 0.325 0.098 RC
1 LJ
0.667 LW
N
802.3 441.466 M
822.6 409.697 L
842.9 457.401 L
863.2 438.74 L
883.5 420.148 L
903.8 439.105 L
924.1 442.873 L
944.4 444.985 L
964.7 454.087 L
985 437.482 L
1005.3 440.825 L
1025.6 430.809 L
1045.9 442.377 L
1066.2 446.665 L
1086.5 448.71 L
1106.8 444.519 L
1127.1 426.419 L
1147.4 436.199 L
1167.7 431.978 L
1188 466.349 L
S
GR
GS
[0.75 0 0 0.75 0 0.25] CT
1 GC
N
1317 475 M
1723 475 L
1723 337 L
1317 337 L
cp
f
GR
GS
[0.75 0 0 0.75 0 0.25] CT
0.149 GC
2 setlinecap
1 LJ
0.667 LW
N
1317 475 M
1723 475 L
S
GR
GS
[0.75 0 0 0.75 0 0.25] CT
0.149 GC
2 setlinecap
1 LJ
0.667 LW
N
1317 337 M
1723 337 L
S
GR
GS
[0.75 0 0 0.75 0 0.25] CT
0.149 GC
2 setlinecap
1 LJ
0.667 LW
N
1317 475 M
1317 470.94 L
S
GR
GS
[0.75 0 0 0.75 0 0.25] CT
0.149 GC
2 setlinecap
1 LJ
0.667 LW
N
1362.111 475 M
1362.111 470.94 L
S
GR
GS
[0.75 0 0 0.75 0 0.25] CT
0.149 GC
2 setlinecap
1 LJ
0.667 LW
N
1407.222 475 M
1407.222 470.94 L
S
GR
GS
[0.75 0 0 0.75 0 0.25] CT
0.149 GC
2 setlinecap
1 LJ
0.667 LW
N
1452.333 475 M
1452.333 470.94 L
S
GR
GS
[0.75 0 0 0.75 0 0.25] CT
0.149 GC
2 setlinecap
1 LJ
0.667 LW
N
1497.444 475 M
1497.444 470.94 L
S
GR
GS
[0.75 0 0 0.75 0 0.25] CT
0.149 GC
2 setlinecap
1 LJ
0.667 LW
N
1542.556 475 M
1542.556 470.94 L
S
GR
GS
[0.75 0 0 0.75 0 0.25] CT
0.149 GC
2 setlinecap
1 LJ
0.667 LW
N
1587.667 475 M
1587.667 470.94 L
S
GR
GS
[0.75 0 0 0.75 0 0.25] CT
0.149 GC
2 setlinecap
1 LJ
0.667 LW
N
1632.778 475 M
1632.778 470.94 L
S
GR
GS
[0.75 0 0 0.75 0 0.25] CT
0.149 GC
2 setlinecap
1 LJ
0.667 LW
N
1677.889 475 M
1677.889 470.94 L
S
GR
GS
[0.75 0 0 0.75 0 0.25] CT
0.149 GC
2 setlinecap
1 LJ
0.667 LW
N
1723 475 M
1723 470.94 L
S
GR
GS
[0.75 0 0 0.75 0 0.25] CT
0.149 GC
2 setlinecap
1 LJ
0.667 LW
N
1317 337 M
1317 341.06 L
S
GR
GS
[0.75 0 0 0.75 0 0.25] CT
0.149 GC
2 setlinecap
1 LJ
0.667 LW
N
1362.111 337 M
1362.111 341.06 L
S
GR
GS
[0.75 0 0 0.75 0 0.25] CT
0.149 GC
2 setlinecap
1 LJ
0.667 LW
N
1407.222 337 M
1407.222 341.06 L
S
GR
GS
[0.75 0 0 0.75 0 0.25] CT
0.149 GC
2 setlinecap
1 LJ
0.667 LW
N
1452.333 337 M
1452.333 341.06 L
S
GR
GS
[0.75 0 0 0.75 0 0.25] CT
0.149 GC
2 setlinecap
1 LJ
0.667 LW
N
1497.444 337 M
1497.444 341.06 L
S
GR
GS
[0.75 0 0 0.75 0 0.25] CT
0.149 GC
2 setlinecap
1 LJ
0.667 LW
N
1542.556 337 M
1542.556 341.06 L
S
GR
GS
[0.75 0 0 0.75 0 0.25] CT
0.149 GC
2 setlinecap
1 LJ
0.667 LW
N
1587.667 337 M
1587.667 341.06 L
S
GR
GS
[0.75 0 0 0.75 0 0.25] CT
0.149 GC
2 setlinecap
1 LJ
0.667 LW
N
1632.778 337 M
1632.778 341.06 L
S
GR
GS
[0.75 0 0 0.75 0 0.25] CT
0.149 GC
2 setlinecap
1 LJ
0.667 LW
N
1677.889 337 M
1677.889 341.06 L
S
GR
GS
[0.75 0 0 0.75 0 0.25] CT
0.149 GC
2 setlinecap
1 LJ
0.667 LW
N
1723 337 M
1723 341.06 L
S
GR
GS
[0.75 0 0 0.75 987.75 360.50001] CT
0.149 GC
/Helvetica 13.333 F
GS
[1 0 0 1 0 0] CT
-4 14 moveto 
1 -1 scale
(0) t 
GR
GR
GS
[0.75 0 0 0.75 1021.58331 360.50001] CT
0.149 GC
/Helvetica 13.333 F
GS
[1 0 0 1 0 0] CT
-7.5 14 moveto 
1 -1 scale
(10) t 
GR
GR
GS
[0.75 0 0 0.75 1055.41663 360.50001] CT
0.149 GC
/Helvetica 13.333 F
GS
[1 0 0 1 0 0] CT
-7.5 14 moveto 
1 -1 scale
(20) t 
GR
GR
GS
[0.75 0 0 0.75 1089.25003 360.50001] CT
0.149 GC
/Helvetica 13.333 F
GS
[1 0 0 1 0 0] CT
-7.5 14 moveto 
1 -1 scale
(30) t 
GR
GR
GS
[0.75 0 0 0.75 1123.08334 360.50001] CT
0.149 GC
/Helvetica 13.333 F
GS
[1 0 0 1 0 0] CT
-7.5 14 moveto 
1 -1 scale
(40) t 
GR
GR
GS
[0.75 0 0 0.75 1156.91666 360.50001] CT
0.149 GC
/Helvetica 13.333 F
GS
[1 0 0 1 0 0] CT
-7.5 14 moveto 
1 -1 scale
(50) t 
GR
GR
GS
[0.75 0 0 0.75 1190.74997 360.50001] CT
0.149 GC
/Helvetica 13.333 F
GS
[1 0 0 1 0 0] CT
-7.5 14 moveto 
1 -1 scale
(60) t 
GR
GR
GS
[0.75 0 0 0.75 1224.58337 360.50001] CT
0.149 GC
/Helvetica 13.333 F
GS
[1 0 0 1 0 0] CT
-7.5 14 moveto 
1 -1 scale
(70) t 
GR
GR
GS
[0.75 0 0 0.75 1258.41669 360.50001] CT
0.149 GC
/Helvetica 13.333 F
GS
[1 0 0 1 0 0] CT
-7.5 14 moveto 
1 -1 scale
(80) t 
GR
GR
GS
[0.75 0 0 0.75 1292.25 360.50001] CT
0.149 GC
/Helvetica 13.333 F
GS
[1 0 0 1 0 0] CT
-7.5 14 moveto 
1 -1 scale
(90) t 
GR
GR
GS
[0.75 0 0 0.75 1140.00018 374.24999] CT
0.149 GC
/Helvetica 14.667 F
GS
[1 0 0 1 0 0] CT
-16 16 moveto 
1 -1 scale
(trials) t 
GR
GR
GS
[0.75 0 0 0.75 0 0.25] CT
0.149 GC
2 setlinecap
1 LJ
0.667 LW
N
1317 475 M
1317 337 L
S
GR
GS
[0.75 0 0 0.75 0 0.25] CT
0.149 GC
2 setlinecap
1 LJ
0.667 LW
N
1723 475 M
1723 337 L
S
GR
GS
[0.75 0 0 0.75 0 0.25] CT
0.149 GC
2 setlinecap
1 LJ
0.667 LW
N
1317 475 M
1321.06 475 L
S
GR
GS
[0.75 0 0 0.75 0 0.25] CT
0.149 GC
2 setlinecap
1 LJ
0.667 LW
N
1317 440.5 M
1321.06 440.5 L
S
GR
GS
[0.75 0 0 0.75 0 0.25] CT
0.149 GC
2 setlinecap
1 LJ
0.667 LW
N
1317 406 M
1321.06 406 L
S
GR
GS
[0.75 0 0 0.75 0 0.25] CT
0.149 GC
2 setlinecap
1 LJ
0.667 LW
N
1317 371.5 M
1321.06 371.5 L
S
GR
GS
[0.75 0 0 0.75 0 0.25] CT
0.149 GC
2 setlinecap
1 LJ
0.667 LW
N
1317 337 M
1321.06 337 L
S
GR
GS
[0.75 0 0 0.75 0 0.25] CT
0.149 GC
2 setlinecap
1 LJ
0.667 LW
N
1723 475 M
1718.94 475 L
S
GR
GS
[0.75 0 0 0.75 0 0.25] CT
0.149 GC
2 setlinecap
1 LJ
0.667 LW
N
1723 440.5 M
1718.94 440.5 L
S
GR
GS
[0.75 0 0 0.75 0 0.25] CT
0.149 GC
2 setlinecap
1 LJ
0.667 LW
N
1723 406 M
1718.94 406 L
S
GR
GS
[0.75 0 0 0.75 0 0.25] CT
0.149 GC
2 setlinecap
1 LJ
0.667 LW
N
1723 371.5 M
1718.94 371.5 L
S
GR
GS
[0.75 0 0 0.75 0 0.25] CT
0.149 GC
2 setlinecap
1 LJ
0.667 LW
N
1723 337 M
1718.94 337 L
S
GR
GS
[0.75 0 0 0.75 983.74997 356.5] CT
0.149 GC
/Helvetica 13.333 F
GS
[1 0 0 1 0 0] CT
-19 5.5 moveto 
1 -1 scale
(0.5) t 
GR
GR
GS
[0.75 0 0 0.75 983.74997 330.625] CT
0.149 GC
/Helvetica 13.333 F
GS
[1 0 0 1 0 0] CT
-19 5.5 moveto 
1 -1 scale
(0.6) t 
GR
GR
GS
[0.75 0 0 0.75 983.74997 304.75] CT
0.149 GC
/Helvetica 13.333 F
GS
[1 0 0 1 0 0] CT
-19 5.5 moveto 
1 -1 scale
(0.7) t 
GR
GR
GS
[0.75 0 0 0.75 983.74997 278.875] CT
0.149 GC
/Helvetica 13.333 F
GS
[1 0 0 1 0 0] CT
-19 5.5 moveto 
1 -1 scale
(0.8) t 
GR
GR
GS
[0.75 0 0 0.75 983.74997 253] CT
0.149 GC
/Helvetica 13.333 F
GS
[1 0 0 1 0 0] CT
-19 5.5 moveto 
1 -1 scale
(0.9) t 
GR
GR
GS
[0 -0.75 0.75 0 966.49997 304.74995] CT
0.149 GC
/Helvetica 14.667 F
GS
[1 0 0 1 0 0] CT
-17 -4 moveto 
1 -1 scale
(GCC) t 
GR
GR
GS
[0.75 0 0 0.75 0 0.25] CT
0 0.447 0.741 RC
1 LJ
0.667 LW
N
1321.511 374.562 M
1326.022 373.336 L
1330.533 364.613 L
1335.044 363.428 L
1339.556 361.983 L
1344.067 364.161 L
1348.578 374.225 L
1353.089 361.577 L
1357.6 363.461 L
1362.111 374.955 L
1366.622 385.271 L
1371.133 374.714 L
1375.644 357.994 L
1380.156 361.395 L
1384.667 357.658 L
1389.178 375.293 L
1393.689 372.609 L
1398.2 371.936 L
1402.711 365.831 L
1407.222 378.029 L
1411.733 379.131 L
1416.244 377.291 L
1420.756 382.864 L
1425.267 372.348 L
1429.778 378.75 L
1434.289 372.808 L
1438.8 356.517 L
1443.311 366.156 L
1447.822 416.895 L
1452.333 372.072 L
1456.844 427.285 L
1461.356 391.473 L
1465.867 385.65 L
1470.378 377.583 L
1474.889 370.006 L
1479.4 389.393 L
1483.911 381.575 L
1488.422 403.79 L
1492.933 387.814 L
1497.444 383.428 L
1501.956 388.717 L
1506.467 392.66 L
1510.978 410.387 L
1515.489 398.144 L
1520 395.417 L
1524.511 388.807 L
1529.022 382.93 L
1533.533 430.573 L
1538.044 422.691 L
1542.556 400.877 L
1547.067 395.553 L
1551.578 378.71 L
1556.089 381.958 L
1560.6 388.712 L
1565.111 380.637 L
1569.622 368.159 L
1574.133 399.752 L
1578.644 396.44 L
1583.156 379.484 L
1587.667 392.066 L
1592.178 355.729 L
1596.689 368.228 L
1601.2 376.468 L
1605.711 386.405 L
1610.222 373.892 L
1614.733 381.578 L
1619.244 363.539 L
1623.756 365.572 L
1628.267 360.134 L
1632.778 375.677 L
1637.289 377.61 L
1641.8 353.831 L
1646.311 359.343 L
1650.822 358.733 L
1655.333 340.287 L
1659.844 353.471 L
1664.356 360.274 L
1668.867 369.385 L
1673.378 355.053 L
1677.889 364.951 L
1682.4 373.962 L
1686.911 362.729 L
1691.422 351.781 L
1695.933 371.885 L
1700.444 363.867 L
S
GR
GS
[0.75 0 0 0.75 0 0.25] CT
0.851 0.325 0.098 RC
1 LJ
0.667 LW
N
1321.511 449.938 M
1326.022 449.19 L
1330.533 441.347 L
1335.044 443.067 L
1339.556 437.955 L
1344.067 453.212 L
1348.578 453.69 L
1353.089 445.263 L
1357.6 464.549 L
1362.111 421.149 L
1366.622 455.33 L
1371.133 429.231 L
1375.644 417.523 L
1380.156 446.062 L
1384.667 400.029 L
1389.178 441.462 L
1393.689 444.908 L
1398.2 450.413 L
1402.711 456.802 L
1407.222 458.967 L
1411.733 441.556 L
1416.244 434.451 L
1420.756 445.298 L
1425.267 433.982 L
1429.778 447.605 L
1434.289 452.212 L
1438.8 425.642 L
1443.311 439.886 L
1447.822 445.852 L
1452.333 448.727 L
1456.844 441.848 L
1461.356 449.367 L
1465.867 445.605 L
1470.378 445.774 L
1474.889 451.564 L
1479.4 444.885 L
1483.911 446.988 L
1488.422 439.445 L
1492.933 455.214 L
1497.444 445.435 L
1501.956 438.876 L
1506.467 466.214 L
1510.978 434.01 L
1515.489 450.367 L
1520 440.014 L
1524.511 433.959 L
1529.022 448.45 L
1533.533 444.749 L
1538.044 448.578 L
1542.556 447.479 L
1547.067 441.846 L
1551.578 446.686 L
1556.089 447.73 L
1560.6 446.764 L
1565.111 436.121 L
1569.622 450.526 L
1574.133 445.388 L
1578.644 444.07 L
1583.156 431.784 L
1587.667 458.065 L
1592.178 454.512 L
1596.689 428.018 L
1601.2 464.421 L
1605.711 431.785 L
1610.222 432.061 L
1614.733 434.64 L
1619.244 434.708 L
1623.756 423.554 L
1628.267 407.461 L
1632.778 444.543 L
1637.289 423.413 L
1641.8 431.274 L
1646.311 425.246 L
1650.822 432.698 L
1655.333 439.382 L
1659.844 454.823 L
1664.356 444.774 L
1668.867 412.064 L
1673.378 434.606 L
1677.889 434.685 L
1682.4 438.48 L
1686.911 438.108 L
1691.422 423.585 L
1695.933 436.611 L
1700.444 452.198 L
S
GR
GS
[0.75 0 0 0.75 0 0.25] CT
1 GC
N
248 673 M
654 673 L
654 536 L
248 536 L
cp
f
GR
GS
[0.75 0 0 0.75 0 0.25] CT
0.149 GC
2 setlinecap
1 LJ
0.667 LW
N
248 673 M
654 673 L
S
GR
GS
[0.75 0 0 0.75 0 0.25] CT
0.149 GC
2 setlinecap
1 LJ
0.667 LW
N
248 536 M
654 536 L
S
GR
GS
[0.75 0 0 0.75 0 0.25] CT
0.149 GC
2 setlinecap
1 LJ
0.667 LW
N
248 673 M
248 668.94 L
S
GR
GS
[0.75 0 0 0.75 0 0.25] CT
0.149 GC
2 setlinecap
1 LJ
0.667 LW
N
306 673 M
306 668.94 L
S
GR
GS
[0.75 0 0 0.75 0 0.25] CT
0.149 GC
2 setlinecap
1 LJ
0.667 LW
N
364 673 M
364 668.94 L
S
GR
GS
[0.75 0 0 0.75 0 0.25] CT
0.149 GC
2 setlinecap
1 LJ
0.667 LW
N
422 673 M
422 668.94 L
S
GR
GS
[0.75 0 0 0.75 0 0.25] CT
0.149 GC
2 setlinecap
1 LJ
0.667 LW
N
480 673 M
480 668.94 L
S
GR
GS
[0.75 0 0 0.75 0 0.25] CT
0.149 GC
2 setlinecap
1 LJ
0.667 LW
N
538 673 M
538 668.94 L
S
GR
GS
[0.75 0 0 0.75 0 0.25] CT
0.149 GC
2 setlinecap
1 LJ
0.667 LW
N
596 673 M
596 668.94 L
S
GR
GS
[0.75 0 0 0.75 0 0.25] CT
0.149 GC
2 setlinecap
1 LJ
0.667 LW
N
654 673 M
654 668.94 L
S
GR
GS
[0.75 0 0 0.75 0 0.25] CT
0.149 GC
2 setlinecap
1 LJ
0.667 LW
N
248 536 M
248 540.06 L
S
GR
GS
[0.75 0 0 0.75 0 0.25] CT
0.149 GC
2 setlinecap
1 LJ
0.667 LW
N
306 536 M
306 540.06 L
S
GR
GS
[0.75 0 0 0.75 0 0.25] CT
0.149 GC
2 setlinecap
1 LJ
0.667 LW
N
364 536 M
364 540.06 L
S
GR
GS
[0.75 0 0 0.75 0 0.25] CT
0.149 GC
2 setlinecap
1 LJ
0.667 LW
N
422 536 M
422 540.06 L
S
GR
GS
[0.75 0 0 0.75 0 0.25] CT
0.149 GC
2 setlinecap
1 LJ
0.667 LW
N
480 536 M
480 540.06 L
S
GR
GS
[0.75 0 0 0.75 0 0.25] CT
0.149 GC
2 setlinecap
1 LJ
0.667 LW
N
538 536 M
538 540.06 L
S
GR
GS
[0.75 0 0 0.75 0 0.25] CT
0.149 GC
2 setlinecap
1 LJ
0.667 LW
N
596 536 M
596 540.06 L
S
GR
GS
[0.75 0 0 0.75 0 0.25] CT
0.149 GC
2 setlinecap
1 LJ
0.667 LW
N
654 536 M
654 540.06 L
S
GR
GS
[0.75 0 0 0.75 186 508.99998] CT
0.149 GC
/Helvetica 13.333 F
GS
[1 0 0 1 0 0] CT
-4 14 moveto 
1 -1 scale
(0) t 
GR
GR
GS
[0.75 0 0 0.75 229.5 508.99998] CT
0.149 GC
/Helvetica 13.333 F
GS
[1 0 0 1 0 0] CT
-7.5 14 moveto 
1 -1 scale
(20) t 
GR
GR
GS
[0.75 0 0 0.75 273 508.99998] CT
0.149 GC
/Helvetica 13.333 F
GS
[1 0 0 1 0 0] CT
-7.5 14 moveto 
1 -1 scale
(40) t 
GR
GR
GS
[0.75 0 0 0.75 316.5 508.99998] CT
0.149 GC
/Helvetica 13.333 F
GS
[1 0 0 1 0 0] CT
-7.5 14 moveto 
1 -1 scale
(60) t 
GR
GR
GS
[0.75 0 0 0.75 360 508.99998] CT
0.149 GC
/Helvetica 13.333 F
GS
[1 0 0 1 0 0] CT
-7.5 14 moveto 
1 -1 scale
(80) t 
GR
GR
GS
[0.75 0 0 0.75 403.5 508.99998] CT
0.149 GC
/Helvetica 13.333 F
GS
[1 0 0 1 0 0] CT
-11 14 moveto 
1 -1 scale
(100) t 
GR
GR
GS
[0.75 0 0 0.75 447 508.99998] CT
0.149 GC
/Helvetica 13.333 F
GS
[1 0 0 1 0 0] CT
-11 14 moveto 
1 -1 scale
(120) t 
GR
GR
GS
[0.75 0 0 0.75 490.5 508.99998] CT
0.149 GC
/Helvetica 13.333 F
GS
[1 0 0 1 0 0] CT
-11 14 moveto 
1 -1 scale
(140) t 
GR
GR
GS
[0.75 0 0 0.75 338.25016 522.75002] CT
0.149 GC
/Helvetica 14.667 F
GS
[1 0 0 1 0 0] CT
-16 16 moveto 
1 -1 scale
(trials) t 
GR
GR
GS
[0.75 0 0 0.75 0 0.25] CT
0.149 GC
2 setlinecap
1 LJ
0.667 LW
N
248 673 M
248 536 L
S
GR
GS
[0.75 0 0 0.75 0 0.25] CT
0.149 GC
2 setlinecap
1 LJ
0.667 LW
N
654 673 M
654 536 L
S
GR
GS
[0.75 0 0 0.75 0 0.25] CT
0.149 GC
2 setlinecap
1 LJ
0.667 LW
N
248 673 M
252.06 673 L
S
GR
GS
[0.75 0 0 0.75 0 0.25] CT
0.149 GC
2 setlinecap
1 LJ
0.667 LW
N
248 627.333 M
252.06 627.333 L
S
GR
GS
[0.75 0 0 0.75 0 0.25] CT
0.149 GC
2 setlinecap
1 LJ
0.667 LW
N
248 581.667 M
252.06 581.667 L
S
GR
GS
[0.75 0 0 0.75 0 0.25] CT
0.149 GC
2 setlinecap
1 LJ
0.667 LW
N
248 536 M
252.06 536 L
S
GR
GS
[0.75 0 0 0.75 0 0.25] CT
0.149 GC
2 setlinecap
1 LJ
0.667 LW
N
654 673 M
649.94 673 L
S
GR
GS
[0.75 0 0 0.75 0 0.25] CT
0.149 GC
2 setlinecap
1 LJ
0.667 LW
N
654 627.333 M
649.94 627.333 L
S
GR
GS
[0.75 0 0 0.75 0 0.25] CT
0.149 GC
2 setlinecap
1 LJ
0.667 LW
N
654 581.667 M
649.94 581.667 L
S
GR
GS
[0.75 0 0 0.75 0 0.25] CT
0.149 GC
2 setlinecap
1 LJ
0.667 LW
N
654 536 M
649.94 536 L
S
GR
GS
[0.75 0 0 0.75 182 505] CT
0.149 GC
/Helvetica 13.333 F
GS
[1 0 0 1 0 0] CT
-19 5.5 moveto 
1 -1 scale
(0.4) t 
GR
GR
GS
[0.75 0 0 0.75 182 470.74998] CT
0.149 GC
/Helvetica 13.333 F
GS
[1 0 0 1 0 0] CT
-19 5.5 moveto 
1 -1 scale
(0.6) t 
GR
GR
GS
[0.75 0 0 0.75 182 436.50002] CT
0.149 GC
/Helvetica 13.333 F
GS
[1 0 0 1 0 0] CT
-19 5.5 moveto 
1 -1 scale
(0.8) t 
GR
GR
GS
[0.75 0 0 0.75 182 402.25] CT
0.149 GC
/Helvetica 13.333 F
GS
[1 0 0 1 0 0] CT
-8 5.5 moveto 
1 -1 scale
(1) t 
GR
GR
GS
[0 -0.75 0.75 0 164.75 453.62495] CT
0.149 GC
/Helvetica 14.667 F
GS
[1 0 0 1 0 0] CT
-17 -4 moveto 
1 -1 scale
(GCC) t 
GR
GR
GS
[0.75 0 0 0.75 0 0.25] CT
0 0.447 0.741 RC
1 LJ
0.667 LW
N
250.9 605.634 M
253.8 582.912 L
256.7 603.21 L
259.6 586.02 L
262.5 600.987 L
265.4 584.642 L
268.3 579.673 L
271.2 581.627 L
274.1 592.937 L
277 583.243 L
279.9 584.348 L
282.8 604.477 L
285.7 585.901 L
288.6 590.028 L
291.5 583.968 L
294.4 591.287 L
297.3 592.332 L
300.2 585.884 L
303.1 582.876 L
306 599.903 L
308.9 583.294 L
311.8 577.523 L
314.7 600.697 L
317.6 595.898 L
320.5 605.502 L
323.4 592.968 L
326.3 595.548 L
329.2 584.633 L
332.1 582.559 L
335 604.178 L
337.9 583.093 L
340.8 581.179 L
343.7 587.559 L
346.6 584.337 L
349.5 581.233 L
352.4 602.311 L
355.3 628.84 L
358.2 607.365 L
361.1 625.429 L
364 627.543 L
366.9 610.544 L
369.8 612.883 L
372.7 584.267 L
375.6 601.977 L
378.5 620.718 L
381.4 613.605 L
384.3 616.098 L
387.2 611.326 L
390.1 616.617 L
393 619.788 L
395.9 614.586 L
398.8 579.74 L
401.7 593.025 L
404.6 601.365 L
407.5 582.501 L
410.4 577.972 L
413.3 597.649 L
416.2 603.788 L
419.1 607.905 L
422 607.851 L
424.9 601.159 L
427.8 583.65 L
430.7 603.641 L
433.6 608.029 L
436.5 582.51 L
439.4 600.734 L
442.3 595.129 L
445.2 598.713 L
448.1 605.858 L
451 602.617 L
453.9 598.008 L
456.8 593.072 L
459.7 601.016 L
462.6 598.196 L
465.5 593.848 L
468.4 591.238 L
471.3 587.176 L
474.2 600.401 L
477.1 594.367 L
480 606.927 L
482.9 596.604 L
485.8 583.42 L
488.7 604.028 L
491.6 596.036 L
494.5 591.501 L
497.4 610.158 L
500.3 589.71 L
503.2 601.255 L
506.1 585.582 L
509 601.337 L
511.9 595.325 L
514.8 575.671 L
517.7 603.658 L
520.6 591.947 L
523.5 603.234 L
526.4 598.038 L
529.3 598.928 L
532.2 599.537 L
535.1 596.756 L
538 602.122 L
540.9 605.78 L
543.8 607.459 L
546.7 604.509 L
549.6 605.152 L
552.5 595.615 L
555.4 624.097 L
558.3 622.139 L
561.2 616.46 L
564.1 628.053 L
567 618.628 L
569.9 624.094 L
572.8 614.564 L
575.7 625.243 L
578.6 580.543 L
581.5 628.441 L
584.4 623.008 L
587.3 603.702 L
590.2 628.452 L
593.1 629.643 L
596 604.728 L
598.9 623.241 L
601.8 611.178 L
604.7 591.562 L
607.6 607.197 L
610.5 608.834 L
S
GR
GS
[0.75 0 0 0.75 0 0.25] CT
0.851 0.325 0.098 RC
1 LJ
0.667 LW
N
250.9 644.829 M
253.8 645.135 L
256.7 640.147 L
259.6 648.933 L
262.5 625.447 L
265.4 640.319 L
268.3 640.527 L
271.2 634.962 L
274.1 634.592 L
277 638.555 L
279.9 636.941 L
282.8 624.757 L
285.7 630.921 L
288.6 632.733 L
291.5 632.354 L
294.4 623.264 L
297.3 611.885 L
300.2 624.433 L
303.1 628.881 L
306 622.19 L
308.9 628.366 L
311.8 621.926 L
314.7 633.142 L
317.6 624.802 L
320.5 622.692 L
323.4 614.477 L
326.3 625.945 L
329.2 640.494 L
332.1 623.728 L
335 627.466 L
337.9 619.261 L
340.8 612.3 L
343.7 635.005 L
346.6 616.477 L
349.5 635.345 L
352.4 642.905 L
355.3 634.746 L
358.2 646.075 L
361.1 636.229 L
364 638.446 L
366.9 633.287 L
369.8 633.291 L
372.7 637.448 L
375.6 639.386 L
378.5 636.515 L
381.4 639.646 L
384.3 629.419 L
387.2 621.154 L
390.1 635.713 L
393 641.072 L
395.9 624.407 L
398.8 621.43 L
401.7 626.459 L
404.6 625.368 L
407.5 617.827 L
410.4 631.697 L
413.3 617.232 L
416.2 625.449 L
419.1 634.979 L
422 620.383 L
424.9 635.667 L
427.8 615.973 L
430.7 627.537 L
433.6 608.424 L
436.5 615.942 L
439.4 620.093 L
442.3 623.924 L
445.2 629.202 L
448.1 625.876 L
451 617.075 L
453.9 616.025 L
456.8 618.681 L
459.7 620.661 L
462.6 612.223 L
465.5 624.699 L
468.4 616.419 L
471.3 625.715 L
474.2 613.696 L
477.1 619.163 L
480 610.416 L
482.9 612.41 L
485.8 617.533 L
488.7 616.426 L
491.6 606.512 L
494.5 614.476 L
497.4 617.636 L
500.3 612.8 L
503.2 614.918 L
506.1 613.389 L
509 621.966 L
511.9 617.321 L
514.8 608.903 L
517.7 607.681 L
520.6 623.326 L
523.5 613.393 L
526.4 608.553 L
529.3 620.052 L
532.2 624.454 L
535.1 627.957 L
538 628.961 L
540.9 624.141 L
543.8 622.353 L
546.7 615.076 L
549.6 638.203 L
552.5 649.255 L
555.4 632.523 L
558.3 633.156 L
561.2 634.967 L
564.1 633.504 L
567 643.803 L
569.9 638.306 L
572.8 630.847 L
575.7 634.407 L
578.6 635.745 L
581.5 634.884 L
584.4 654.924 L
587.3 645.117 L
590.2 639.116 L
593.1 634.731 L
596 635.977 L
598.9 639.361 L
601.8 638.698 L
604.7 625.145 L
607.6 627.42 L
610.5 628.494 L
S
GR
GS
[0.75 0 0 0.75 0 0.25] CT
1 GC
N
782 673 M
1188 673 L
1188 536 L
782 536 L
cp
f
GR
GS
[0.75 0 0 0.75 0 0.25] CT
0.149 GC
2 setlinecap
1 LJ
0.667 LW
N
782 673 M
1188 673 L
S
GR
GS
[0.75 0 0 0.75 0 0.25] CT
0.149 GC
2 setlinecap
1 LJ
0.667 LW
N
782 536 M
1188 536 L
S
GR
GS
[0.75 0 0 0.75 0 0.25] CT
0.149 GC
2 setlinecap
1 LJ
0.667 LW
N
782 673 M
782 668.94 L
S
GR
GS
[0.75 0 0 0.75 0 0.25] CT
0.149 GC
2 setlinecap
1 LJ
0.667 LW
N
883.5 673 M
883.5 668.94 L
S
GR
GS
[0.75 0 0 0.75 0 0.25] CT
0.149 GC
2 setlinecap
1 LJ
0.667 LW
N
985 673 M
985 668.94 L
S
GR
GS
[0.75 0 0 0.75 0 0.25] CT
0.149 GC
2 setlinecap
1 LJ
0.667 LW
N
1086.5 673 M
1086.5 668.94 L
S
GR
GS
[0.75 0 0 0.75 0 0.25] CT
0.149 GC
2 setlinecap
1 LJ
0.667 LW
N
1188 673 M
1188 668.94 L
S
GR
GS
[0.75 0 0 0.75 0 0.25] CT
0.149 GC
2 setlinecap
1 LJ
0.667 LW
N
782 536 M
782 540.06 L
S
GR
GS
[0.75 0 0 0.75 0 0.25] CT
0.149 GC
2 setlinecap
1 LJ
0.667 LW
N
883.5 536 M
883.5 540.06 L
S
GR
GS
[0.75 0 0 0.75 0 0.25] CT
0.149 GC
2 setlinecap
1 LJ
0.667 LW
N
985 536 M
985 540.06 L
S
GR
GS
[0.75 0 0 0.75 0 0.25] CT
0.149 GC
2 setlinecap
1 LJ
0.667 LW
N
1086.5 536 M
1086.5 540.06 L
S
GR
GS
[0.75 0 0 0.75 0 0.25] CT
0.149 GC
2 setlinecap
1 LJ
0.667 LW
N
1188 536 M
1188 540.06 L
S
GR
GS
[0.75 0 0 0.75 586.5 508.99998] CT
0.149 GC
/Helvetica 13.333 F
GS
[1 0 0 1 0 0] CT
-4 14 moveto 
1 -1 scale
(1) t 
GR
GR
GS
[0.75 0 0 0.75 662.625 508.99998] CT
0.149 GC
/Helvetica 13.333 F
GS
[1 0 0 1 0 0] CT
-9.5 14 moveto 
1 -1 scale
(1.5) t 
GR
GR
GS
[0.75 0 0 0.75 738.75 508.99998] CT
0.149 GC
/Helvetica 13.333 F
GS
[1 0 0 1 0 0] CT
-4 14 moveto 
1 -1 scale
(2) t 
GR
GR
GS
[0.75 0 0 0.75 814.875 508.99998] CT
0.149 GC
/Helvetica 13.333 F
GS
[1 0 0 1 0 0] CT
-9.5 14 moveto 
1 -1 scale
(2.5) t 
GR
GR
GS
[0.75 0 0 0.75 891 508.99998] CT
0.149 GC
/Helvetica 13.333 F
GS
[1 0 0 1 0 0] CT
-4 14 moveto 
1 -1 scale
(3) t 
GR
GR
GS
[0.75 0 0 0.75 738.75014 522.75002] CT
0.149 GC
/Helvetica 14.667 F
GS
[1 0 0 1 0 0] CT
-16 16 moveto 
1 -1 scale
(trials) t 
GR
GR
GS
[0.75 0 0 0.75 0 0.25] CT
0.149 GC
2 setlinecap
1 LJ
0.667 LW
N
782 673 M
782 536 L
S
GR
GS
[0.75 0 0 0.75 0 0.25] CT
0.149 GC
2 setlinecap
1 LJ
0.667 LW
N
1188 673 M
1188 536 L
S
GR
GS
[0.75 0 0 0.75 0 0.25] CT
0.149 GC
2 setlinecap
1 LJ
0.667 LW
N
782 673 M
786.06 673 L
S
GR
GS
[0.75 0 0 0.75 0 0.25] CT
0.149 GC
2 setlinecap
1 LJ
0.667 LW
N
782 638.75 M
786.06 638.75 L
S
GR
GS
[0.75 0 0 0.75 0 0.25] CT
0.149 GC
2 setlinecap
1 LJ
0.667 LW
N
782 604.5 M
786.06 604.5 L
S
GR
GS
[0.75 0 0 0.75 0 0.25] CT
0.149 GC
2 setlinecap
1 LJ
0.667 LW
N
782 570.25 M
786.06 570.25 L
S
GR
GS
[0.75 0 0 0.75 0 0.25] CT
0.149 GC
2 setlinecap
1 LJ
0.667 LW
N
782 536 M
786.06 536 L
S
GR
GS
[0.75 0 0 0.75 0 0.25] CT
0.149 GC
2 setlinecap
1 LJ
0.667 LW
N
1188 673 M
1183.94 673 L
S
GR
GS
[0.75 0 0 0.75 0 0.25] CT
0.149 GC
2 setlinecap
1 LJ
0.667 LW
N
1188 638.75 M
1183.94 638.75 L
S
GR
GS
[0.75 0 0 0.75 0 0.25] CT
0.149 GC
2 setlinecap
1 LJ
0.667 LW
N
1188 604.5 M
1183.94 604.5 L
S
GR
GS
[0.75 0 0 0.75 0 0.25] CT
0.149 GC
2 setlinecap
1 LJ
0.667 LW
N
1188 570.25 M
1183.94 570.25 L
S
GR
GS
[0.75 0 0 0.75 0 0.25] CT
0.149 GC
2 setlinecap
1 LJ
0.667 LW
N
1188 536 M
1183.94 536 L
S
GR
GS
[0.75 0 0 0.75 582.50002 505] CT
0.149 GC
/Helvetica 13.333 F
GS
[1 0 0 1 0 0] CT
-19 5.5 moveto 
1 -1 scale
(0.5) t 
GR
GR
GS
[0.75 0 0 0.75 582.50002 479.3125] CT
0.149 GC
/Helvetica 13.333 F
GS
[1 0 0 1 0 0] CT
-19 5.5 moveto 
1 -1 scale
(0.6) t 
GR
GR
GS
[0.75 0 0 0.75 582.50002 453.625] CT
0.149 GC
/Helvetica 13.333 F
GS
[1 0 0 1 0 0] CT
-19 5.5 moveto 
1 -1 scale
(0.7) t 
GR
GR
GS
[0.75 0 0 0.75 582.50002 427.9375] CT
0.149 GC
/Helvetica 13.333 F
GS
[1 0 0 1 0 0] CT
-19 5.5 moveto 
1 -1 scale
(0.8) t 
GR
GR
GS
[0.75 0 0 0.75 582.50002 402.25] CT
0.149 GC
/Helvetica 13.333 F
GS
[1 0 0 1 0 0] CT
-19 5.5 moveto 
1 -1 scale
(0.9) t 
GR
GR
GS
[0 -0.75 0.75 0 565.25002 453.62495] CT
0.149 GC
/Helvetica 14.667 F
GS
[1 0 0 1 0 0] CT
-17 -4 moveto 
1 -1 scale
(GCC) t 
GR
GR
GS
[0.75 0 0 0.75 0 0.25] CT
0 0.447 0.741 RC
1 LJ
0.667 LW
N
782 550 M
985 568.56 L
1188 555.904 L
S
GR
GS
[0.75 0 0 0.75 0 0.25] CT
0.851 0.325 0.098 RC
1 LJ
0.667 LW
N
782 658.445 M
985 655.331 L
1188 651.741 L
S
GR
GS
[0.75 0 0 0.75 0 0.25] CT
1 GC
N
1317 673 M
1723 673 L
1723 536 L
1317 536 L
cp
f
GR
GS
[0.75 0 0 0.75 0 0.25] CT
0.149 GC
2 setlinecap
1 LJ
0.667 LW
N
1317 673 M
1723 673 L
S
GR
GS
[0.75 0 0 0.75 0 0.25] CT
0.149 GC
2 setlinecap
1 LJ
0.667 LW
N
1317 536 M
1723 536 L
S
GR
GS
[0.75 0 0 0.75 0 0.25] CT
0.149 GC
2 setlinecap
1 LJ
0.667 LW
N
1317 673 M
1317 668.94 L
S
GR
GS
[0.75 0 0 0.75 0 0.25] CT
0.149 GC
2 setlinecap
1 LJ
0.667 LW
N
1362.111 673 M
1362.111 668.94 L
S
GR
GS
[0.75 0 0 0.75 0 0.25] CT
0.149 GC
2 setlinecap
1 LJ
0.667 LW
N
1407.222 673 M
1407.222 668.94 L
S
GR
GS
[0.75 0 0 0.75 0 0.25] CT
0.149 GC
2 setlinecap
1 LJ
0.667 LW
N
1452.333 673 M
1452.333 668.94 L
S
GR
GS
[0.75 0 0 0.75 0 0.25] CT
0.149 GC
2 setlinecap
1 LJ
0.667 LW
N
1497.444 673 M
1497.444 668.94 L
S
GR
GS
[0.75 0 0 0.75 0 0.25] CT
0.149 GC
2 setlinecap
1 LJ
0.667 LW
N
1542.556 673 M
1542.556 668.94 L
S
GR
GS
[0.75 0 0 0.75 0 0.25] CT
0.149 GC
2 setlinecap
1 LJ
0.667 LW
N
1587.667 673 M
1587.667 668.94 L
S
GR
GS
[0.75 0 0 0.75 0 0.25] CT
0.149 GC
2 setlinecap
1 LJ
0.667 LW
N
1632.778 673 M
1632.778 668.94 L
S
GR
GS
[0.75 0 0 0.75 0 0.25] CT
0.149 GC
2 setlinecap
1 LJ
0.667 LW
N
1677.889 673 M
1677.889 668.94 L
S
GR
GS
[0.75 0 0 0.75 0 0.25] CT
0.149 GC
2 setlinecap
1 LJ
0.667 LW
N
1723 673 M
1723 668.94 L
S
GR
GS
[0.75 0 0 0.75 0 0.25] CT
0.149 GC
2 setlinecap
1 LJ
0.667 LW
N
1317 536 M
1317 540.06 L
S
GR
GS
[0.75 0 0 0.75 0 0.25] CT
0.149 GC
2 setlinecap
1 LJ
0.667 LW
N
1362.111 536 M
1362.111 540.06 L
S
GR
GS
[0.75 0 0 0.75 0 0.25] CT
0.149 GC
2 setlinecap
1 LJ
0.667 LW
N
1407.222 536 M
1407.222 540.06 L
S
GR
GS
[0.75 0 0 0.75 0 0.25] CT
0.149 GC
2 setlinecap
1 LJ
0.667 LW
N
1452.333 536 M
1452.333 540.06 L
S
GR
GS
[0.75 0 0 0.75 0 0.25] CT
0.149 GC
2 setlinecap
1 LJ
0.667 LW
N
1497.444 536 M
1497.444 540.06 L
S
GR
GS
[0.75 0 0 0.75 0 0.25] CT
0.149 GC
2 setlinecap
1 LJ
0.667 LW
N
1542.556 536 M
1542.556 540.06 L
S
GR
GS
[0.75 0 0 0.75 0 0.25] CT
0.149 GC
2 setlinecap
1 LJ
0.667 LW
N
1587.667 536 M
1587.667 540.06 L
S
GR
GS
[0.75 0 0 0.75 0 0.25] CT
0.149 GC
2 setlinecap
1 LJ
0.667 LW
N
1632.778 536 M
1632.778 540.06 L
S
GR
GS
[0.75 0 0 0.75 0 0.25] CT
0.149 GC
2 setlinecap
1 LJ
0.667 LW
N
1677.889 536 M
1677.889 540.06 L
S
GR
GS
[0.75 0 0 0.75 0 0.25] CT
0.149 GC
2 setlinecap
1 LJ
0.667 LW
N
1723 536 M
1723 540.06 L
S
GR
GS
[0.75 0 0 0.75 987.75 508.99998] CT
0.149 GC
/Helvetica 13.333 F
GS
[1 0 0 1 0 0] CT
-4 14 moveto 
1 -1 scale
(0) t 
GR
GR
GS
[0.75 0 0 0.75 1021.58331 508.99998] CT
0.149 GC
/Helvetica 13.333 F
GS
[1 0 0 1 0 0] CT
-7.5 14 moveto 
1 -1 scale
(10) t 
GR
GR
GS
[0.75 0 0 0.75 1055.41663 508.99998] CT
0.149 GC
/Helvetica 13.333 F
GS
[1 0 0 1 0 0] CT
-7.5 14 moveto 
1 -1 scale
(20) t 
GR
GR
GS
[0.75 0 0 0.75 1089.25003 508.99998] CT
0.149 GC
/Helvetica 13.333 F
GS
[1 0 0 1 0 0] CT
-7.5 14 moveto 
1 -1 scale
(30) t 
GR
GR
GS
[0.75 0 0 0.75 1123.08334 508.99998] CT
0.149 GC
/Helvetica 13.333 F
GS
[1 0 0 1 0 0] CT
-7.5 14 moveto 
1 -1 scale
(40) t 
GR
GR
GS
[0.75 0 0 0.75 1156.91666 508.99998] CT
0.149 GC
/Helvetica 13.333 F
GS
[1 0 0 1 0 0] CT
-7.5 14 moveto 
1 -1 scale
(50) t 
GR
GR
GS
[0.75 0 0 0.75 1190.74997 508.99998] CT
0.149 GC
/Helvetica 13.333 F
GS
[1 0 0 1 0 0] CT
-7.5 14 moveto 
1 -1 scale
(60) t 
GR
GR
GS
[0.75 0 0 0.75 1224.58337 508.99998] CT
0.149 GC
/Helvetica 13.333 F
GS
[1 0 0 1 0 0] CT
-7.5 14 moveto 
1 -1 scale
(70) t 
GR
GR
GS
[0.75 0 0 0.75 1258.41669 508.99998] CT
0.149 GC
/Helvetica 13.333 F
GS
[1 0 0 1 0 0] CT
-7.5 14 moveto 
1 -1 scale
(80) t 
GR
GR
GS
[0.75 0 0 0.75 1292.25 508.99998] CT
0.149 GC
/Helvetica 13.333 F
GS
[1 0 0 1 0 0] CT
-7.5 14 moveto 
1 -1 scale
(90) t 
GR
GR
GS
[0.75 0 0 0.75 1140.00018 522.75002] CT
0.149 GC
/Helvetica 14.667 F
GS
[1 0 0 1 0 0] CT
-16 16 moveto 
1 -1 scale
(trials) t 
GR
GR
GS
[0.75 0 0 0.75 0 0.25] CT
0.149 GC
2 setlinecap
1 LJ
0.667 LW
N
1317 673 M
1317 536 L
S
GR
GS
[0.75 0 0 0.75 0 0.25] CT
0.149 GC
2 setlinecap
1 LJ
0.667 LW
N
1723 673 M
1723 536 L
S
GR
GS
[0.75 0 0 0.75 0 0.25] CT
0.149 GC
2 setlinecap
1 LJ
0.667 LW
N
1317 673 M
1321.06 673 L
S
GR
GS
[0.75 0 0 0.75 0 0.25] CT
0.149 GC
2 setlinecap
1 LJ
0.667 LW
N
1317 638.75 M
1321.06 638.75 L
S
GR
GS
[0.75 0 0 0.75 0 0.25] CT
0.149 GC
2 setlinecap
1 LJ
0.667 LW
N
1317 604.5 M
1321.06 604.5 L
S
GR
GS
[0.75 0 0 0.75 0 0.25] CT
0.149 GC
2 setlinecap
1 LJ
0.667 LW
N
1317 570.25 M
1321.06 570.25 L
S
GR
GS
[0.75 0 0 0.75 0 0.25] CT
0.149 GC
2 setlinecap
1 LJ
0.667 LW
N
1317 536 M
1321.06 536 L
S
GR
GS
[0.75 0 0 0.75 0 0.25] CT
0.149 GC
2 setlinecap
1 LJ
0.667 LW
N
1723 673 M
1718.94 673 L
S
GR
GS
[0.75 0 0 0.75 0 0.25] CT
0.149 GC
2 setlinecap
1 LJ
0.667 LW
N
1723 638.75 M
1718.94 638.75 L
S
GR
GS
[0.75 0 0 0.75 0 0.25] CT
0.149 GC
2 setlinecap
1 LJ
0.667 LW
N
1723 604.5 M
1718.94 604.5 L
S
GR
GS
[0.75 0 0 0.75 0 0.25] CT
0.149 GC
2 setlinecap
1 LJ
0.667 LW
N
1723 570.25 M
1718.94 570.25 L
S
GR
GS
[0.75 0 0 0.75 0 0.25] CT
0.149 GC
2 setlinecap
1 LJ
0.667 LW
N
1723 536 M
1718.94 536 L
S
GR
GS
[0.75 0 0 0.75 983.74997 505] CT
0.149 GC
/Helvetica 13.333 F
GS
[1 0 0 1 0 0] CT
-19 5.5 moveto 
1 -1 scale
(0.5) t 
GR
GR
GS
[0.75 0 0 0.75 983.74997 479.3125] CT
0.149 GC
/Helvetica 13.333 F
GS
[1 0 0 1 0 0] CT
-19 5.5 moveto 
1 -1 scale
(0.6) t 
GR
GR
GS
[0.75 0 0 0.75 983.74997 453.625] CT
0.149 GC
/Helvetica 13.333 F
GS
[1 0 0 1 0 0] CT
-19 5.5 moveto 
1 -1 scale
(0.7) t 
GR
GR
GS
[0.75 0 0 0.75 983.74997 427.9375] CT
0.149 GC
/Helvetica 13.333 F
GS
[1 0 0 1 0 0] CT
-19 5.5 moveto 
1 -1 scale
(0.8) t 
GR
GR
GS
[0.75 0 0 0.75 983.74997 402.25] CT
0.149 GC
/Helvetica 13.333 F
GS
[1 0 0 1 0 0] CT
-19 5.5 moveto 
1 -1 scale
(0.9) t 
GR
GR
GS
[0 -0.75 0.75 0 966.49997 453.62495] CT
0.149 GC
/Helvetica 14.667 F
GS
[1 0 0 1 0 0] CT
-17 -4 moveto 
1 -1 scale
(GCC) t 
GR
GR
GS
[0.75 0 0 0.75 0 0.25] CT
0 0.447 0.741 RC
1 LJ
0.667 LW
N
1321.511 564.972 M
1326.022 569.188 L
1330.533 565.563 L
1335.044 562.895 L
1339.556 566.211 L
1344.067 569.568 L
1348.578 560.681 L
1353.089 553.078 L
1357.6 561.954 L
1362.111 555.366 L
1366.622 557.933 L
1371.133 569.388 L
1375.644 558.366 L
1380.156 567.131 L
1384.667 559.112 L
1389.178 577.864 L
1393.689 569.495 L
1398.2 565.931 L
1402.711 560.762 L
1407.222 562.039 L
1411.733 574.872 L
1416.244 561.368 L
1420.756 577.167 L
1425.267 576.886 L
1429.778 582.624 L
1434.289 588.52 L
1438.8 589.398 L
1443.311 578.225 L
1447.822 598.133 L
1452.333 567.108 L
1456.844 579.633 L
1461.356 562.909 L
1465.867 565.525 L
1470.378 576.243 L
1474.889 587.933 L
1479.4 569.724 L
1483.911 577.229 L
1488.422 571.408 L
1492.933 572.485 L
1497.444 563.84 L
1501.956 568.828 L
1506.467 572.88 L
1510.978 571.49 L
1515.489 569.487 L
1520 571.296 L
1524.511 572.51 L
1529.022 571.397 L
1533.533 567.798 L
1538.044 569.201 L
1542.556 569.333 L
1547.067 570.703 L
1551.578 563.725 L
1556.089 576.102 L
1560.6 565.481 L
1565.111 566.34 L
1569.622 566.511 L
1574.133 575.171 L
1578.644 573.235 L
1583.156 574.384 L
1587.667 570.699 L
1592.178 576.331 L
1596.689 602.61 L
1601.2 592.886 L
1605.711 578.99 L
1610.222 554.684 L
1614.733 620.032 L
1619.244 611.717 L
1623.756 618.731 L
1628.267 577.226 L
1632.778 591.179 L
1637.289 584.84 L
1641.8 584.8 L
1646.311 577.856 L
1650.822 566.127 L
1655.333 588.073 L
1659.844 567.868 L
1664.356 624.128 L
1668.867 630.901 L
1673.378 593.743 L
1677.889 576.198 L
1682.4 616 L
1686.911 588.899 L
S
GR
GS
[0.75 0 0 0.75 0 0.25] CT
0.851 0.325 0.098 RC
1 LJ
0.667 LW
N
1321.511 601.629 M
1326.022 607.109 L
1330.533 594.45 L
1335.044 597.269 L
1339.556 582.597 L
1344.067 621.908 L
1348.578 604.267 L
1353.089 604.382 L
1357.6 609.013 L
1362.111 604.423 L
1366.622 606.652 L
1371.133 611.657 L
1375.644 610.848 L
1380.156 592.377 L
1384.667 627.232 L
1389.178 622.087 L
1393.689 638.758 L
1398.2 626.398 L
1402.711 587.819 L
1407.222 611.649 L
1411.733 634.14 L
1416.244 608.101 L
1420.756 622.058 L
1425.267 637.7 L
1429.778 644.638 L
1434.289 645.178 L
1438.8 653.307 L
1443.311 653.692 L
1447.822 645.284 L
1452.333 651.219 L
1456.844 636.928 L
1461.356 639.434 L
1465.867 624.184 L
1470.378 629.078 L
1474.889 632.667 L
1479.4 638.094 L
1483.911 603.316 L
1488.422 616.408 L
1492.933 617.712 L
1497.444 621.835 L
1501.956 614.746 L
1506.467 607.248 L
1510.978 611.292 L
1515.489 622.251 L
1520 647.461 L
1524.511 623.119 L
1529.022 627.583 L
1533.533 628.306 L
1538.044 619.995 L
1542.556 619.527 L
1547.067 627.381 L
1551.578 621.529 L
1556.089 615.652 L
1560.6 635.625 L
1565.111 618.777 L
1569.622 607.371 L
1574.133 631.269 L
1578.644 651.561 L
1583.156 628.49 L
1587.667 605.345 L
1592.178 648.293 L
1596.689 656.856 L
1601.2 670.515 L
1605.711 670.44 L
1610.222 651.477 L
1614.733 665.456 L
1619.244 654.17 L
1623.756 665.885 L
1628.267 664.486 L
1632.778 651.909 L
1637.289 657.255 L
1641.8 652.838 L
1646.311 650.384 L
1650.822 653.729 L
1655.333 655.773 L
1659.844 651.621 L
1664.356 657.866 L
1668.867 652.008 L
1673.378 652.359 L
1677.889 643.231 L
1682.4 656.363 L
1686.911 652.158 L
S
GR
GS
[0.75 0 0 0.75 0 0.25] CT
1 GC
N
248 872 M
654 872 L
654 735 L
248 735 L
cp
f
GR
GS
[0.75 0 0 0.75 0 0.25] CT
0.149 GC
2 setlinecap
1 LJ
0.667 LW
N
248 872 M
654 872 L
S
GR
GS
[0.75 0 0 0.75 0 0.25] CT
0.149 GC
2 setlinecap
1 LJ
0.667 LW
N
248 735 M
654 735 L
S
GR
GS
[0.75 0 0 0.75 0 0.25] CT
0.149 GC
2 setlinecap
1 LJ
0.667 LW
N
248 872 M
248 867.94 L
S
GR
GS
[0.75 0 0 0.75 0 0.25] CT
0.149 GC
2 setlinecap
1 LJ
0.667 LW
N
329.2 872 M
329.2 867.94 L
S
GR
GS
[0.75 0 0 0.75 0 0.25] CT
0.149 GC
2 setlinecap
1 LJ
0.667 LW
N
410.4 872 M
410.4 867.94 L
S
GR
GS
[0.75 0 0 0.75 0 0.25] CT
0.149 GC
2 setlinecap
1 LJ
0.667 LW
N
491.6 872 M
491.6 867.94 L
S
GR
GS
[0.75 0 0 0.75 0 0.25] CT
0.149 GC
2 setlinecap
1 LJ
0.667 LW
N
572.8 872 M
572.8 867.94 L
S
GR
GS
[0.75 0 0 0.75 0 0.25] CT
0.149 GC
2 setlinecap
1 LJ
0.667 LW
N
654 872 M
654 867.94 L
S
GR
GS
[0.75 0 0 0.75 0 0.25] CT
0.149 GC
2 setlinecap
1 LJ
0.667 LW
N
248 735 M
248 739.06 L
S
GR
GS
[0.75 0 0 0.75 0 0.25] CT
0.149 GC
2 setlinecap
1 LJ
0.667 LW
N
329.2 735 M
329.2 739.06 L
S
GR
GS
[0.75 0 0 0.75 0 0.25] CT
0.149 GC
2 setlinecap
1 LJ
0.667 LW
N
410.4 735 M
410.4 739.06 L
S
GR
GS
[0.75 0 0 0.75 0 0.25] CT
0.149 GC
2 setlinecap
1 LJ
0.667 LW
N
491.6 735 M
491.6 739.06 L
S
GR
GS
[0.75 0 0 0.75 0 0.25] CT
0.149 GC
2 setlinecap
1 LJ
0.667 LW
N
572.8 735 M
572.8 739.06 L
S
GR
GS
[0.75 0 0 0.75 0 0.25] CT
0.149 GC
2 setlinecap
1 LJ
0.667 LW
N
654 735 M
654 739.06 L
S
GR
GS
[0.75 0 0 0.75 186 658.24998] CT
0.149 GC
/Helvetica 13.333 F
GS
[1 0 0 1 0 0] CT
-4 14 moveto 
1 -1 scale
(0) t 
GR
GR
GS
[0.75 0 0 0.75 246.90001 658.24998] CT
0.149 GC
/Helvetica 13.333 F
GS
[1 0 0 1 0 0] CT
-7.5 14 moveto 
1 -1 scale
(20) t 
GR
GR
GS
[0.75 0 0 0.75 307.8 658.24998] CT
0.149 GC
/Helvetica 13.333 F
GS
[1 0 0 1 0 0] CT
-7.5 14 moveto 
1 -1 scale
(40) t 
GR
GR
GS
[0.75 0 0 0.75 368.7 658.24998] CT
0.149 GC
/Helvetica 13.333 F
GS
[1 0 0 1 0 0] CT
-7.5 14 moveto 
1 -1 scale
(60) t 
GR
GR
GS
[0.75 0 0 0.75 429.59999 658.24998] CT
0.149 GC
/Helvetica 13.333 F
GS
[1 0 0 1 0 0] CT
-7.5 14 moveto 
1 -1 scale
(80) t 
GR
GR
GS
[0.75 0 0 0.75 490.5 658.24998] CT
0.149 GC
/Helvetica 13.333 F
GS
[1 0 0 1 0 0] CT
-11 14 moveto 
1 -1 scale
(100) t 
GR
GR
GS
[0.75 0 0 0.75 338.25014 672.00002] CT
0.149 GC
/Helvetica 14.667 F
GS
[1 0 0 1 0 0] CT
-16 16 moveto 
1 -1 scale
(trials) t 
GR
GR
GS
[0.75 0 0 0.75 0 0.25] CT
0.149 GC
2 setlinecap
1 LJ
0.667 LW
N
248 872 M
248 735 L
S
GR
GS
[0.75 0 0 0.75 0 0.25] CT
0.149 GC
2 setlinecap
1 LJ
0.667 LW
N
654 872 M
654 735 L
S
GR
GS
[0.75 0 0 0.75 0 0.25] CT
0.149 GC
2 setlinecap
1 LJ
0.667 LW
N
248 872 M
252.06 872 L
S
GR
GS
[0.75 0 0 0.75 0 0.25] CT
0.149 GC
2 setlinecap
1 LJ
0.667 LW
N
248 826.333 M
252.06 826.333 L
S
GR
GS
[0.75 0 0 0.75 0 0.25] CT
0.149 GC
2 setlinecap
1 LJ
0.667 LW
N
248 780.667 M
252.06 780.667 L
S
GR
GS
[0.75 0 0 0.75 0 0.25] CT
0.149 GC
2 setlinecap
1 LJ
0.667 LW
N
248 735 M
252.06 735 L
S
GR
GS
[0.75 0 0 0.75 0 0.25] CT
0.149 GC
2 setlinecap
1 LJ
0.667 LW
N
654 872 M
649.94 872 L
S
GR
GS
[0.75 0 0 0.75 0 0.25] CT
0.149 GC
2 setlinecap
1 LJ
0.667 LW
N
654 826.333 M
649.94 826.333 L
S
GR
GS
[0.75 0 0 0.75 0 0.25] CT
0.149 GC
2 setlinecap
1 LJ
0.667 LW
N
654 780.667 M
649.94 780.667 L
S
GR
GS
[0.75 0 0 0.75 0 0.25] CT
0.149 GC
2 setlinecap
1 LJ
0.667 LW
N
654 735 M
649.94 735 L
S
GR
GS
[0.75 0 0 0.75 182 654.25] CT
0.149 GC
/Helvetica 13.333 F
GS
[1 0 0 1 0 0] CT
-19 5.5 moveto 
1 -1 scale
(0.4) t 
GR
GR
GS
[0.75 0 0 0.75 182 619.99998] CT
0.149 GC
/Helvetica 13.333 F
GS
[1 0 0 1 0 0] CT
-19 5.5 moveto 
1 -1 scale
(0.6) t 
GR
GR
GS
[0.75 0 0 0.75 182 585.75002] CT
0.149 GC
/Helvetica 13.333 F
GS
[1 0 0 1 0 0] CT
-19 5.5 moveto 
1 -1 scale
(0.8) t 
GR
GR
GS
[0.75 0 0 0.75 182 551.5] CT
0.149 GC
/Helvetica 13.333 F
GS
[1 0 0 1 0 0] CT
-8 5.5 moveto 
1 -1 scale
(1) t 
GR
GR
GS
[0 -0.75 0.75 0 164.75 602.87495] CT
0.149 GC
/Helvetica 14.667 F
GS
[1 0 0 1 0 0] CT
-17 -4 moveto 
1 -1 scale
(GCC) t 
GR
GR
GS
[0.75 0 0 0.75 0 0.25] CT
0 0.447 0.741 RC
1 LJ
0.667 LW
N
252.06 776.916 M
256.12 761.767 L
260.18 776.981 L
264.24 785.445 L
268.3 762.406 L
272.36 770.453 L
276.42 774.06 L
280.48 762.627 L
284.54 779.451 L
288.6 756.435 L
292.66 762.553 L
296.72 755.765 L
300.78 763.005 L
304.84 771.565 L
308.9 759.004 L
312.96 776.056 L
317.02 775.469 L
321.08 784.462 L
325.14 781.791 L
329.2 776.148 L
333.26 777.511 L
337.32 781.824 L
341.38 778.006 L
345.44 758.765 L
349.5 777.756 L
353.56 774.913 L
357.62 761.701 L
361.68 766.769 L
365.74 782.733 L
369.8 767.841 L
373.86 781.144 L
377.92 807.635 L
381.98 783.718 L
386.04 768.88 L
390.1 781.132 L
394.16 781.875 L
398.22 768.648 L
402.28 789.916 L
406.34 764.666 L
410.4 783.311 L
414.46 768.754 L
418.52 784.98 L
422.58 779.424 L
426.64 773.416 L
430.7 783.292 L
434.76 781.449 L
438.82 799.709 L
442.88 782.933 L
446.94 775.379 L
451 792.182 L
455.06 783.424 L
459.12 797.912 L
463.18 775.32 L
467.24 788.868 L
471.3 774.265 L
475.36 761.666 L
479.42 775.012 L
483.48 781.006 L
487.54 773.859 L
491.6 776.155 L
495.66 769.655 L
499.72 783.619 L
503.78 785.776 L
507.84 772.717 L
511.9 781.954 L
515.96 783.306 L
520.02 776.67 L
524.08 770.474 L
528.14 775.932 L
532.2 782.547 L
536.26 767.579 L
540.32 798.103 L
544.38 782.249 L
548.44 799.135 L
552.5 790.396 L
556.56 777.998 L
560.62 772.376 L
564.68 780.956 L
568.74 778.782 L
572.8 770.695 L
576.86 772.286 L
580.92 792.272 L
584.98 760.411 L
589.04 760.54 L
593.1 798.277 L
597.16 785.324 L
601.22 764.323 L
605.28 778.684 L
609.34 791.409 L
613.4 804.199 L
617.46 765.334 L
621.52 777.121 L
625.58 788.875 L
629.64 769.346 L
633.7 793.281 L
637.76 778.517 L
641.82 769.175 L
645.88 800.799 L
649.94 798.841 L
S
GR
GS
[0.75 0 0 0.75 0 0.25] CT
0.851 0.325 0.098 RC
1 LJ
0.667 LW
N
252.06 829.846 M
256.12 822.51 L
260.18 832.817 L
264.24 830.728 L
268.3 822.372 L
272.36 826.462 L
276.42 820.457 L
280.48 819.043 L
284.54 815.319 L
288.6 827.523 L
292.66 824.703 L
296.72 833.033 L
300.78 813.548 L
304.84 825.266 L
308.9 823.586 L
312.96 816.13 L
317.02 815.248 L
321.08 812.408 L
325.14 811.856 L
329.2 836.315 L
333.26 825.461 L
337.32 811.798 L
341.38 809.267 L
345.44 832.788 L
349.5 829.302 L
353.56 820.193 L
357.62 825.263 L
361.68 823.717 L
365.74 831.327 L
369.8 827.946 L
373.86 822.96 L
377.92 828.273 L
381.98 826.091 L
386.04 826.309 L
390.1 835.525 L
394.16 828.319 L
398.22 826.677 L
402.28 819.304 L
406.34 832.267 L
410.4 823.781 L
414.46 827.473 L
418.52 821.373 L
422.58 825.01 L
426.64 812.958 L
430.7 832.416 L
434.76 829.771 L
438.82 815.375 L
442.88 821.813 L
446.94 811.613 L
451 803.548 L
455.06 809.77 L
459.12 810.21 L
463.18 822.678 L
467.24 814.852 L
471.3 832.16 L
475.36 815.824 L
479.42 812.413 L
483.48 814.172 L
487.54 811.919 L
491.6 811.019 L
495.66 817.544 L
499.72 806.659 L
503.78 818.863 L
507.84 813.139 L
511.9 811.397 L
515.96 812.474 L
520.02 816.742 L
524.08 818.032 L
528.14 812.194 L
532.2 805.602 L
536.26 814.535 L
540.32 812.427 L
544.38 825.19 L
548.44 824.988 L
552.5 820.334 L
556.56 816.305 L
560.62 817.976 L
564.68 821.641 L
568.74 814.226 L
572.8 820.574 L
576.86 820.061 L
580.92 796.4 L
584.98 818.234 L
589.04 816.786 L
593.1 821.572 L
597.16 828.42 L
601.22 830.046 L
605.28 812.184 L
609.34 825.688 L
613.4 816.226 L
617.46 823.786 L
621.52 830.054 L
625.58 817.905 L
629.64 824.004 L
633.7 831.261 L
637.76 819.549 L
641.82 831.675 L
645.88 834.465 L
649.94 824.567 L
S
GR
GS
[0.75 0 0 0.75 0 0.25] CT
1 GC
N
782 872 M
1188 872 L
1188 735 L
782 735 L
cp
f
GR
GS
[0.75 0 0 0.75 0 0.25] CT
0.149 GC
2 setlinecap
1 LJ
0.667 LW
N
782 872 M
1188 872 L
S
GR
GS
[0.75 0 0 0.75 0 0.25] CT
0.149 GC
2 setlinecap
1 LJ
0.667 LW
N
782 735 M
1188 735 L
S
GR
GS
[0.75 0 0 0.75 0 0.25] CT
0.149 GC
2 setlinecap
1 LJ
0.667 LW
N
782 872 M
782 867.94 L
S
GR
GS
[0.75 0 0 0.75 0 0.25] CT
0.149 GC
2 setlinecap
1 LJ
0.667 LW
N
832.75 872 M
832.75 867.94 L
S
GR
GS
[0.75 0 0 0.75 0 0.25] CT
0.149 GC
2 setlinecap
1 LJ
0.667 LW
N
883.5 872 M
883.5 867.94 L
S
GR
GS
[0.75 0 0 0.75 0 0.25] CT
0.149 GC
2 setlinecap
1 LJ
0.667 LW
N
934.25 872 M
934.25 867.94 L
S
GR
GS
[0.75 0 0 0.75 0 0.25] CT
0.149 GC
2 setlinecap
1 LJ
0.667 LW
N
985 872 M
985 867.94 L
S
GR
GS
[0.75 0 0 0.75 0 0.25] CT
0.149 GC
2 setlinecap
1 LJ
0.667 LW
N
1035.75 872 M
1035.75 867.94 L
S
GR
GS
[0.75 0 0 0.75 0 0.25] CT
0.149 GC
2 setlinecap
1 LJ
0.667 LW
N
1086.5 872 M
1086.5 867.94 L
S
GR
GS
[0.75 0 0 0.75 0 0.25] CT
0.149 GC
2 setlinecap
1 LJ
0.667 LW
N
1137.25 872 M
1137.25 867.94 L
S
GR
GS
[0.75 0 0 0.75 0 0.25] CT
0.149 GC
2 setlinecap
1 LJ
0.667 LW
N
1188 872 M
1188 867.94 L
S
GR
GS
[0.75 0 0 0.75 0 0.25] CT
0.149 GC
2 setlinecap
1 LJ
0.667 LW
N
782 735 M
782 739.06 L
S
GR
GS
[0.75 0 0 0.75 0 0.25] CT
0.149 GC
2 setlinecap
1 LJ
0.667 LW
N
832.75 735 M
832.75 739.06 L
S
GR
GS
[0.75 0 0 0.75 0 0.25] CT
0.149 GC
2 setlinecap
1 LJ
0.667 LW
N
883.5 735 M
883.5 739.06 L
S
GR
GS
[0.75 0 0 0.75 0 0.25] CT
0.149 GC
2 setlinecap
1 LJ
0.667 LW
N
934.25 735 M
934.25 739.06 L
S
GR
GS
[0.75 0 0 0.75 0 0.25] CT
0.149 GC
2 setlinecap
1 LJ
0.667 LW
N
985 735 M
985 739.06 L
S
GR
GS
[0.75 0 0 0.75 0 0.25] CT
0.149 GC
2 setlinecap
1 LJ
0.667 LW
N
1035.75 735 M
1035.75 739.06 L
S
GR
GS
[0.75 0 0 0.75 0 0.25] CT
0.149 GC
2 setlinecap
1 LJ
0.667 LW
N
1086.5 735 M
1086.5 739.06 L
S
GR
GS
[0.75 0 0 0.75 0 0.25] CT
0.149 GC
2 setlinecap
1 LJ
0.667 LW
N
1137.25 735 M
1137.25 739.06 L
S
GR
GS
[0.75 0 0 0.75 0 0.25] CT
0.149 GC
2 setlinecap
1 LJ
0.667 LW
N
1188 735 M
1188 739.06 L
S
GR
GS
[0.75 0 0 0.75 586.5 658.24998] CT
0.149 GC
/Helvetica 13.333 F
GS
[1 0 0 1 0 0] CT
-4 14 moveto 
1 -1 scale
(0) t 
GR
GR
GS
[0.75 0 0 0.75 624.5625 658.24998] CT
0.149 GC
/Helvetica 13.333 F
GS
[1 0 0 1 0 0] CT
-4 14 moveto 
1 -1 scale
(2) t 
GR
GR
GS
[0.75 0 0 0.75 662.625 658.24998] CT
0.149 GC
/Helvetica 13.333 F
GS
[1 0 0 1 0 0] CT
-4 14 moveto 
1 -1 scale
(4) t 
GR
GR
GS
[0.75 0 0 0.75 700.6875 658.24998] CT
0.149 GC
/Helvetica 13.333 F
GS
[1 0 0 1 0 0] CT
-4 14 moveto 
1 -1 scale
(6) t 
GR
GR
GS
[0.75 0 0 0.75 738.75 658.24998] CT
0.149 GC
/Helvetica 13.333 F
GS
[1 0 0 1 0 0] CT
-4 14 moveto 
1 -1 scale
(8) t 
GR
GR
GS
[0.75 0 0 0.75 776.8125 658.24998] CT
0.149 GC
/Helvetica 13.333 F
GS
[1 0 0 1 0 0] CT
-7.5 14 moveto 
1 -1 scale
(10) t 
GR
GR
GS
[0.75 0 0 0.75 814.875 658.24998] CT
0.149 GC
/Helvetica 13.333 F
GS
[1 0 0 1 0 0] CT
-7.5 14 moveto 
1 -1 scale
(12) t 
GR
GR
GS
[0.75 0 0 0.75 852.9375 658.24998] CT
0.149 GC
/Helvetica 13.333 F
GS
[1 0 0 1 0 0] CT
-7.5 14 moveto 
1 -1 scale
(14) t 
GR
GR
GS
[0.75 0 0 0.75 891 658.24998] CT
0.149 GC
/Helvetica 13.333 F
GS
[1 0 0 1 0 0] CT
-7.5 14 moveto 
1 -1 scale
(16) t 
GR
GR
GS
[0.75 0 0 0.75 738.75014 672.00002] CT
0.149 GC
/Helvetica 14.667 F
GS
[1 0 0 1 0 0] CT
-16 16 moveto 
1 -1 scale
(trials) t 
GR
GR
GS
[0.75 0 0 0.75 0 0.25] CT
0.149 GC
2 setlinecap
1 LJ
0.667 LW
N
782 872 M
782 735 L
S
GR
GS
[0.75 0 0 0.75 0 0.25] CT
0.149 GC
2 setlinecap
1 LJ
0.667 LW
N
1188 872 M
1188 735 L
S
GR
GS
[0.75 0 0 0.75 0 0.25] CT
0.149 GC
2 setlinecap
1 LJ
0.667 LW
N
782 872 M
786.06 872 L
S
GR
GS
[0.75 0 0 0.75 0 0.25] CT
0.149 GC
2 setlinecap
1 LJ
0.667 LW
N
782 826.333 M
786.06 826.333 L
S
GR
GS
[0.75 0 0 0.75 0 0.25] CT
0.149 GC
2 setlinecap
1 LJ
0.667 LW
N
782 780.667 M
786.06 780.667 L
S
GR
GS
[0.75 0 0 0.75 0 0.25] CT
0.149 GC
2 setlinecap
1 LJ
0.667 LW
N
782 735 M
786.06 735 L
S
GR
GS
[0.75 0 0 0.75 0 0.25] CT
0.149 GC
2 setlinecap
1 LJ
0.667 LW
N
1188 872 M
1183.94 872 L
S
GR
GS
[0.75 0 0 0.75 0 0.25] CT
0.149 GC
2 setlinecap
1 LJ
0.667 LW
N
1188 826.333 M
1183.94 826.333 L
S
GR
GS
[0.75 0 0 0.75 0 0.25] CT
0.149 GC
2 setlinecap
1 LJ
0.667 LW
N
1188 780.667 M
1183.94 780.667 L
S
GR
GS
[0.75 0 0 0.75 0 0.25] CT
0.149 GC
2 setlinecap
1 LJ
0.667 LW
N
1188 735 M
1183.94 735 L
S
GR
GS
[0.75 0 0 0.75 582.50002 654.25] CT
0.149 GC
/Helvetica 13.333 F
GS
[1 0 0 1 0 0] CT
-19 5.5 moveto 
1 -1 scale
(0.4) t 
GR
GR
GS
[0.75 0 0 0.75 582.50002 619.99998] CT
0.149 GC
/Helvetica 13.333 F
GS
[1 0 0 1 0 0] CT
-19 5.5 moveto 
1 -1 scale
(0.6) t 
GR
GR
GS
[0.75 0 0 0.75 582.50002 585.75002] CT
0.149 GC
/Helvetica 13.333 F
GS
[1 0 0 1 0 0] CT
-19 5.5 moveto 
1 -1 scale
(0.8) t 
GR
GR
GS
[0.75 0 0 0.75 582.50002 551.5] CT
0.149 GC
/Helvetica 13.333 F
GS
[1 0 0 1 0 0] CT
-8 5.5 moveto 
1 -1 scale
(1) t 
GR
GR
GS
[0 -0.75 0.75 0 565.25002 602.87495] CT
0.149 GC
/Helvetica 14.667 F
GS
[1 0 0 1 0 0] CT
-17 -4 moveto 
1 -1 scale
(GCC) t 
GR
GR
GS
[0.75 0 0 0.75 0 0.25] CT
0 0.447 0.741 RC
1 LJ
0.667 LW
N
807.375 764.58 M
832.75 753.967 L
858.125 759.292 L
883.5 756.917 L
908.875 757.899 L
934.25 760.105 L
959.625 757.962 L
985 755.844 L
1010.375 759.71 L
1035.75 763.186 L
1061.125 759.545 L
1086.5 764.443 L
1111.875 763.384 L
1137.25 763.872 L
1162.625 764.103 L
1188 759.453 L
S
GR
GS
[0.75 0 0 0.75 0 0.25] CT
0.851 0.325 0.098 RC
1 LJ
0.667 LW
N
807.375 831.114 M
832.75 823.554 L
858.125 793.622 L
883.5 820.028 L
908.875 828.442 L
934.25 810.018 L
959.625 823.895 L
985 831.306 L
1010.375 825.909 L
1035.75 816.277 L
1061.125 833.599 L
1086.5 834.24 L
1111.875 815.562 L
1137.25 825.327 L
1162.625 833.6 L
1188 819.249 L
S
GR
GS
[0.75 0 0 0.75 714 36.7375] CT
/Helvetica 18.667 F
GS
[1 0 0 1 0 0] CT
-241.5 7.5 moveto 
1 -1 scale
(Global Clustering Coefficient / Peaks - Scaled Correlation) t 
GR
GR
GS
[0.75 0 0 0.75 0 0.25] CT
1 GC
N
1317 872 M
1723 872 L
1723 735 L
1317 735 L
cp
f
GR
GS
[0.75 0 0 0.75 0 0.25] CT
0.149 GC
2 setlinecap
1 LJ
0.667 LW
N
1317 872 M
1723 872 L
S
GR
GS
[0.75 0 0 0.75 0 0.25] CT
0.149 GC
2 setlinecap
1 LJ
0.667 LW
N
1317 735 M
1723 735 L
S
GR
GS
[0.75 0 0 0.75 0 0.25] CT
0.149 GC
2 setlinecap
1 LJ
0.667 LW
N
1317 872 M
1317 867.94 L
S
GR
GS
[0.75 0 0 0.75 0 0.25] CT
0.149 GC
2 setlinecap
1 LJ
0.667 LW
N
1398.2 872 M
1398.2 867.94 L
S
GR
GS
[0.75 0 0 0.75 0 0.25] CT
0.149 GC
2 setlinecap
1 LJ
0.667 LW
N
1479.4 872 M
1479.4 867.94 L
S
GR
GS
[0.75 0 0 0.75 0 0.25] CT
0.149 GC
2 setlinecap
1 LJ
0.667 LW
N
1560.6 872 M
1560.6 867.94 L
S
GR
GS
[0.75 0 0 0.75 0 0.25] CT
0.149 GC
2 setlinecap
1 LJ
0.667 LW
N
1641.8 872 M
1641.8 867.94 L
S
GR
GS
[0.75 0 0 0.75 0 0.25] CT
0.149 GC
2 setlinecap
1 LJ
0.667 LW
N
1723 872 M
1723 867.94 L
S
GR
GS
[0.75 0 0 0.75 0 0.25] CT
0.149 GC
2 setlinecap
1 LJ
0.667 LW
N
1317 735 M
1317 739.06 L
S
GR
GS
[0.75 0 0 0.75 0 0.25] CT
0.149 GC
2 setlinecap
1 LJ
0.667 LW
N
1398.2 735 M
1398.2 739.06 L
S
GR
GS
[0.75 0 0 0.75 0 0.25] CT
0.149 GC
2 setlinecap
1 LJ
0.667 LW
N
1479.4 735 M
1479.4 739.06 L
S
GR
GS
[0.75 0 0 0.75 0 0.25] CT
0.149 GC
2 setlinecap
1 LJ
0.667 LW
N
1560.6 735 M
1560.6 739.06 L
S
GR
GS
[0.75 0 0 0.75 0 0.25] CT
0.149 GC
2 setlinecap
1 LJ
0.667 LW
N
1641.8 735 M
1641.8 739.06 L
S
GR
GS
[0.75 0 0 0.75 0 0.25] CT
0.149 GC
2 setlinecap
1 LJ
0.667 LW
N
1723 735 M
1723 739.06 L
S
GR
GS
[0.75 0 0 0.75 987.75 658.24998] CT
0.149 GC
/Helvetica 13.333 F
GS
[1 0 0 1 0 0] CT
-4 14 moveto 
1 -1 scale
(0) t 
GR
GR
GS
[0.75 0 0 0.75 1048.64996 658.24998] CT
0.149 GC
/Helvetica 13.333 F
GS
[1 0 0 1 0 0] CT
-7.5 14 moveto 
1 -1 scale
(20) t 
GR
GR
GS
[0.75 0 0 0.75 1109.55002 658.24998] CT
0.149 GC
/Helvetica 13.333 F
GS
[1 0 0 1 0 0] CT
-7.5 14 moveto 
1 -1 scale
(40) t 
GR
GR
GS
[0.75 0 0 0.75 1170.44998 658.24998] CT
0.149 GC
/Helvetica 13.333 F
GS
[1 0 0 1 0 0] CT
-7.5 14 moveto 
1 -1 scale
(60) t 
GR
GR
GS
[0.75 0 0 0.75 1231.35004 658.24998] CT
0.149 GC
/Helvetica 13.333 F
GS
[1 0 0 1 0 0] CT
-7.5 14 moveto 
1 -1 scale
(80) t 
GR
GR
GS
[0.75 0 0 0.75 1292.25 658.24998] CT
0.149 GC
/Helvetica 13.333 F
GS
[1 0 0 1 0 0] CT
-11 14 moveto 
1 -1 scale
(100) t 
GR
GR
GS
[0.75 0 0 0.75 1140.00018 672.00002] CT
0.149 GC
/Helvetica 14.667 F
GS
[1 0 0 1 0 0] CT
-16 16 moveto 
1 -1 scale
(trials) t 
GR
GR
GS
[0.75 0 0 0.75 0 0.25] CT
0.149 GC
2 setlinecap
1 LJ
0.667 LW
N
1317 872 M
1317 735 L
S
GR
GS
[0.75 0 0 0.75 0 0.25] CT
0.149 GC
2 setlinecap
1 LJ
0.667 LW
N
1723 872 M
1723 735 L
S
GR
GS
[0.75 0 0 0.75 0 0.25] CT
0.149 GC
2 setlinecap
1 LJ
0.667 LW
N
1317 872 M
1321.06 872 L
S
GR
GS
[0.75 0 0 0.75 0 0.25] CT
0.149 GC
2 setlinecap
1 LJ
0.667 LW
N
1317 837.75 M
1321.06 837.75 L
S
GR
GS
[0.75 0 0 0.75 0 0.25] CT
0.149 GC
2 setlinecap
1 LJ
0.667 LW
N
1317 803.5 M
1321.06 803.5 L
S
GR
GS
[0.75 0 0 0.75 0 0.25] CT
0.149 GC
2 setlinecap
1 LJ
0.667 LW
N
1317 769.25 M
1321.06 769.25 L
S
GR
GS
[0.75 0 0 0.75 0 0.25] CT
0.149 GC
2 setlinecap
1 LJ
0.667 LW
N
1317 735 M
1321.06 735 L
S
GR
GS
[0.75 0 0 0.75 0 0.25] CT
0.149 GC
2 setlinecap
1 LJ
0.667 LW
N
1723 872 M
1718.94 872 L
S
GR
GS
[0.75 0 0 0.75 0 0.25] CT
0.149 GC
2 setlinecap
1 LJ
0.667 LW
N
1723 837.75 M
1718.94 837.75 L
S
GR
GS
[0.75 0 0 0.75 0 0.25] CT
0.149 GC
2 setlinecap
1 LJ
0.667 LW
N
1723 803.5 M
1718.94 803.5 L
S
GR
GS
[0.75 0 0 0.75 0 0.25] CT
0.149 GC
2 setlinecap
1 LJ
0.667 LW
N
1723 769.25 M
1718.94 769.25 L
S
GR
GS
[0.75 0 0 0.75 0 0.25] CT
0.149 GC
2 setlinecap
1 LJ
0.667 LW
N
1723 735 M
1718.94 735 L
S
GR
GS
[0.75 0 0 0.75 983.74997 654.25] CT
0.149 GC
/Helvetica 13.333 F
GS
[1 0 0 1 0 0] CT
-19 5.5 moveto 
1 -1 scale
(0.5) t 
GR
GR
GS
[0.75 0 0 0.75 983.74997 628.5625] CT
0.149 GC
/Helvetica 13.333 F
GS
[1 0 0 1 0 0] CT
-19 5.5 moveto 
1 -1 scale
(0.6) t 
GR
GR
GS
[0.75 0 0 0.75 983.74997 602.875] CT
0.149 GC
/Helvetica 13.333 F
GS
[1 0 0 1 0 0] CT
-19 5.5 moveto 
1 -1 scale
(0.7) t 
GR
GR
GS
[0.75 0 0 0.75 983.74997 577.1875] CT
0.149 GC
/Helvetica 13.333 F
GS
[1 0 0 1 0 0] CT
-19 5.5 moveto 
1 -1 scale
(0.8) t 
GR
GR
GS
[0.75 0 0 0.75 983.74997 551.5] CT
0.149 GC
/Helvetica 13.333 F
GS
[1 0 0 1 0 0] CT
-19 5.5 moveto 
1 -1 scale
(0.9) t 
GR
GR
GS
[0 -0.75 0.75 0 966.49997 602.87495] CT
0.149 GC
/Helvetica 14.667 F
GS
[1 0 0 1 0 0] CT
-17 -4 moveto 
1 -1 scale
(GCC) t 
GR
GR
GS
[0.75 0 0 0.75 0 0.25] CT
0 0.447 0.741 RC
1 LJ
0.667 LW
N
1321.06 793.94 M
1325.12 771.377 L
1329.18 777.843 L
1333.24 767.877 L
1337.3 763.415 L
1341.36 771.416 L
1345.42 779.464 L
1349.48 774.958 L
1353.54 768.035 L
1357.6 775.912 L
1361.66 774.782 L
1365.72 762.973 L
1369.78 773.271 L
1373.84 767.69 L
1377.9 760.343 L
1381.96 776.053 L
1386.02 784.795 L
1390.08 775.055 L
1394.14 776.568 L
1398.2 779.377 L
1402.26 773.059 L
1406.32 774.505 L
1410.38 784.631 L
1414.44 770.559 L
1418.5 770.026 L
1422.56 766.628 L
1426.62 776.66 L
1430.68 773.578 L
1434.74 763.691 L
1438.8 751.551 L
1442.86 806.288 L
1446.92 793.219 L
1450.98 791.67 L
1455.04 783.164 L
1459.1 774.626 L
1463.16 786.375 L
1467.22 777.731 L
1471.28 786.926 L
1475.34 775.719 L
1479.4 788.254 L
1483.46 771.341 L
1487.52 797.636 L
1491.58 776.369 L
1495.64 775.114 L
1499.7 774.668 L
1503.76 800.182 L
1507.82 789.406 L
1511.88 799.342 L
1515.94 799.228 L
1520 812.925 L
1524.06 773.897 L
1528.12 779.968 L
1532.18 797.071 L
1536.24 794.484 L
1540.3 802.966 L
1544.36 791.57 L
1548.42 796.198 L
1552.48 770.187 L
1556.54 781.825 L
1560.6 762.531 L
1564.66 761.483 L
1568.72 765.079 L
1572.78 763.737 L
1576.84 762.886 L
1580.9 751.634 L
1584.96 746.271 L
1589.02 746.473 L
1593.08 744.206 L
1597.14 737.759 L
1601.2 748.415 L
1605.26 741.643 L
1609.32 742.197 L
1613.38 755.94 L
1617.44 752.238 L
1621.5 752.129 L
1625.56 751.785 L
1629.62 756.55 L
1633.68 757.802 L
1637.74 753.331 L
1641.8 738.856 L
1645.86 749.098 L
1649.92 750.386 L
1653.98 746.363 L
1658.04 752.307 L
1662.1 770.669 L
1666.16 752.702 L
1670.22 769.639 L
1674.28 761.04 L
1678.34 780.433 L
1682.4 774.28 L
1686.46 740.703 L
1690.52 737.357 L
1694.58 749.101 L
1698.64 746.359 L
1702.7 748.248 L
S
GR
GS
[0.75 0 0 0.75 0 0.25] CT
0.851 0.325 0.098 RC
1 LJ
0.667 LW
N
1321.06 822.536 M
1325.12 832.378 L
1329.18 827.507 L
1333.24 818.44 L
1337.3 835.664 L
1341.36 827.163 L
1345.42 821.15 L
1349.48 842.73 L
1353.54 818.795 L
1357.6 828.088 L
1361.66 817.677 L
1365.72 808.534 L
1369.78 814.983 L
1373.84 823.135 L
1377.9 824.802 L
1381.96 831.829 L
1386.02 816.75 L
1390.08 828.537 L
1394.14 807.506 L
1398.2 825.767 L
1402.26 811.128 L
1406.32 820.114 L
1410.38 814.11 L
1414.44 805.944 L
1418.5 830.527 L
1422.56 822.202 L
1426.62 814.746 L
1430.68 818.131 L
1434.74 806.112 L
1438.8 820.715 L
1442.86 821.978 L
1446.92 842.09 L
1450.98 837.538 L
1455.04 833.552 L
1459.1 841.659 L
1463.16 851.949 L
1467.22 829.031 L
1471.28 831.741 L
1475.34 800.131 L
1479.4 830.38 L
1483.46 824.3 L
1487.52 817.608 L
1491.58 820.702 L
1495.64 810.199 L
1499.7 814.233 L
1503.76 829.645 L
1507.82 830.781 L
1511.88 816.327 L
1515.94 819.788 L
1520 831.492 L
1524.06 812.534 L
1528.12 835.429 L
1532.18 821.037 L
1536.24 814.694 L
1540.3 799.241 L
1544.36 826.037 L
1548.42 823.809 L
1552.48 827.159 L
1556.54 832.903 L
1560.6 815.361 L
1564.66 822.359 L
1568.72 832.068 L
1572.78 827.773 L
1576.84 822.073 L
1580.9 839.169 L
1584.96 840.411 L
1589.02 819.196 L
1593.08 833.985 L
1597.14 836.341 L
1601.2 825.878 L
1605.26 841.646 L
1609.32 842.217 L
1613.38 827.695 L
1617.44 833.322 L
1621.5 798.581 L
1625.56 820.078 L
1629.62 808.786 L
1633.68 836.13 L
1637.74 837.282 L
1641.8 805.479 L
1645.86 823.823 L
1649.92 836.241 L
1653.98 829.909 L
1658.04 819.519 L
1662.1 830.02 L
1666.16 812.593 L
1670.22 836.923 L
1674.28 807.87 L
1678.34 816.029 L
1682.4 819.158 L
1686.46 817.017 L
1690.52 838.784 L
1694.58 828.695 L
1698.64 845.122 L
1702.7 822.824 L
S
GR
GS
[0.75 0 0 0.75 0 0.25] CT
10.0 ML
0.667 LW
N
38.596 222 M
38.596 196 L
128.917 196 L
128.917 222 L
cp
S
GR
GS
[0.75 0 0 0.75 33.94675 150.24999] CT
/Helvetica 13.333 F
GS
[1 0 0 1 0 0] CT
0 14 moveto 
1 -1 scale
(SUBJECT 1) t 
GR
GR
GS
[0.75 0 0 0.75 0 0.25] CT
10.0 ML
0.667 LW
N
49.504 814 M
49.504 788 L
139.825 788 L
139.825 814 L
cp
S
GR
GS
[0.75 0 0 0.75 42.128 594.25] CT
/Helvetica 13.333 F
GS
[1 0 0 1 0 0] CT
0 14 moveto 
1 -1 scale
(SUBJECT 4) t 
GR
GR
GS
[0.75 0 0 0.75 0 0.25] CT
10.0 ML
0.667 LW
N
49.504 615 M
49.504 589 L
139.825 589 L
139.825 615 L
cp
S
GR
GS
[0.75 0 0 0.75 42.128 445] CT
/Helvetica 13.333 F
GS
[1 0 0 1 0 0] CT
0 14 moveto 
1 -1 scale
(SUBJECT 3) t 
GR
GR
GS
[0.75 0 0 0.75 0 0.25] CT
10.0 ML
0.667 LW
N
42.562 418 M
42.562 392 L
132.883 392 L
132.883 418 L
cp
S
GR
GS
[0.75 0 0 0.75 36.92175 297.25] CT
/Helvetica 13.333 F
GS
[1 0 0 1 0 0] CT
0 14 moveto 
1 -1 scale
(SUBJECT 2) t 
GR
GR
%%Trailer
%%Pages: 1
%%EOF
