40.139144504467154
40.151877998202345
42.0327160335051
38.09286377330591
39.439262298303206
36.12611390901039
0.
43.49568209325064
44.07309898339424
43.72595724855163
44.25115511594835
44.37587148604281
47.8228736813525
48.04446429923766
44.3780842591233
44.346315516039176
44.43872838973939
42.36798214447933
39.509247249748356
39.27483831933501
45.63458172416484
46.16087879419147
47.60184343484355
47.9432938780968
42.98754419685097
47.42008486975459
42.89269549554823
47.2683926667438
45.01504063336366
43.85233902866367
44.85713964820863
44.348892311065214
39.35637341434658
40.88574669795065
43.827941887740586
44.82914266431092
39.96392978661389
39.73319492519306
40.29615740124148
40.528838236209126
43.28824839882392
38.86900346751404
39.97868963379769
40.093360755680386
44.6309487991827
40.80083099297453
38.67148284777227
46.405301102498356
46.497666050664385
42.304079319403456
42.05964470565907
43.11376857070487
45.78993302709092
44.573347438736306
48.07748069721911
46.28629779933657
43.96708709279117
39.90127510548769
45.687919128037244
40.036182746524595
49.04110533746311
44.15841238309505
47.48517667371769
48.703621791205364
40.92301095284838
44.21738604688098
43.77598851926427
39.94522620372096
47.42497922885535
47.59164953894348
48.9049891566168
41.733619563987546
39.88737687230105
37.957790003685666
44.521483554732136
43.211846553175306
43.146289707332286
44.38234188776433
38.25043973002043
31.669666600499284
45.247399350193525
45.78306481656134
45.81507994560378
47.6691350688803
45.71688420817079
42.36493597049826
44.476298867831126
44.22497691532189
44.411987588253915
45.436353621647115
47.33576997970193
44.16896706849482
45.32506242952373
43.793686980195524
44.49963069555541
46.7025899420172
42.74381088175315
44.59690397453552
46.082255303537856
46.13204566347697
47.89712325677741
47.84413832050998
47.292297758471996
46.79946585670164
46.438009342819655
49.8971821699884
50.41578728025233
46.35588673931956
44.97489276944934
42.633264269309976
38.60956610526287
41.475953802916855
40.84882142966573
44.173791153179224
41.12277060947232
41.63947756469633
43.80847053472301
42.36953631818598
43.877602452873624
45.24243228793341
44.03117113030936
44.25986054818986
43.61040287325575
43.32059379779956
41.428676968791585
41.30451274737927
41.25391419612911
40.838313205766184