0.5759347429642997
0.57057929467544
0.57344757839524
0.5666353185257726
0.5660695039828771
0.5867185158905869
0.
0.5958081994194222
0.5959477458299985
0.5945020036265624
0.595760615999801
0.5959940060823143
0.6080195339881674
0.6093694715531813
0.601150305481782
0.601562941815249
0.6011754570064813
0.5900229906313804
0.5605782551262072
0.5781365721760026
0.5902407455679833
0.5899449307124852
0.6114683237910984
0.6114314808165642
0.6021208554372821
0.611511073226395
0.6027233352251598
0.6023433557317567
0.584348181157322
0.5801702378259326
0.5791506024347913
0.5611316096521056
0.5725172378258694
0.5737604084982364
0.5722649437491035
0.5825088607227856
0.5828136971134794
0.5840124340385502
0.5828751848584599
0.5827824732813097
0.5892799004091431
0.5925187906765693
0.5878530109651042
0.5908094488417704
0.5920991944610658
0.5932394445019261
0.5800688190473468
0.592802368526997
0.6049724847156692
0.5818481953759622
0.5780489679275946
0.5926337806651908
0.5977412543610646
0.6040127232285604
0.6038890795247311
0.5802859368523021
0.5858177429448975
0.5845121426553377
0.5870509304527145
0.609460268209868
0.5945806942793253
0.6062829380387382
0.6042248371798984
0.6160023216816245
0.5801743582428694
0.6095133724633206
0.6079379105725421
0.6032311843761395
0.6073569907053443
0.5944996523397373
0.5852494331881137
0.5874769088010895
0.5888395569628302
0.5777761121542885
0.6093852888829533
0.600242992024298
0.5940613021755422
0.5856850724657843
0.5807370923882276
0.5737159590978246
0.5899198513504289
0.5919219773678847
0.5925759035978916
0.5999133517065165
0.6018950304593236
0.6073778010778585
0.6029332882274296
0.6007052904132507
0.5965966634111535
0.5980276039839633
0.5994166589589552
0.5913636043613396
0.5840631863455826
0.5927034877553584
0.5937536195337294
0.5993238947073408
0.5884953647491766
0.5968566886426265
0.5931975090108287
0.5915421983380903
0.593536144941397
0.5932354499550524
0.5911581652151577
0.5945010411579297
0.5905681403606531
0.5997674334006878
0.5990408710335978
0.5975322176422745
0.5982882681148076
0.5765863343351286
0.5762586454569654
0.5655194694177335
0.5717724559892481
0.5840051609171784
0.5927199939840706
0.599616853245868
0.5877870508675829
0.5856042085507942
0.5891145259287921
0.5916687068110588
0.5870922511055625
0.5894002813006277
0.5865585492700923
0.5815081044766197
0.5894740710574589
0.5902018322914875
0.5903817867006511
0.5892304211195729