0.6216272991394758
0.5015348360953714
0.49177675735340504
0.6137955394218171
0.6503774854209354
0.5665262655423955
0.5188890726280446
0.5876254026608233
0.5771165372812749
0.5689807243184428
0.7022378331651603
0.5814100045978685
0.6260800927389166
0.5703031553040745
0.5754643216553467
0.6116411489830076
0.4259471329453703
0.6502671910200386
0.642475374385877
0.5603021994371857
0.5461987879122849
0.6120527931380653
0.5571186892563834
0.5621095641604429
0.5714725483340589
0.661140405792894
0.599491447352693
0.5937713708725425
0.5005834732055165
0.6368387268744742
0.54848023329662
0.5860913732057873
0.5692047619153051
0.5651230827401155
0.5834550775643073
0.5654819069456665
0.6215623103359907
0.6681160942624742
0.5750542293375267
0.6213002957146936
0.6320016843620875
0.6248844333985994
0.6546056121352282
0.5331120896086876
0.5729730355225676
0.6146583882345726
0.6527015514128607
0.5970324264331502
0.6298414423798546
0.5807277692240191
0.6116327657746369
0.5517054606630012
0.6590523006600487
0.5914186619971725
0.5331699489334247
0.5655251788389708
0.5851506115116566
0.5963333580482927
0.5639998428220865
0.6169493343461666
0.5681596391395164
0.5240604614248532
0.5791634167164647