0.33801904931309457
0.3364180341409618
0.33494398248364526
0.335944563898126
0.35584362596068536
0.3750312639913812
0.36709951232535704
0.35015258579615166
0.3481588863635661
0.3332945384766502
0.335526612746429
0.3457030208654062
0.3513048137182513
0.3317826800617466
0.33168542371089255
0.3400877175090752
0.3375471783022469
0.3525966177773026
0.34616648407922723
0.3292481977852943
0.3156329859610075
0.31158229422723316
0.33120214777730794
0.3315986982098429
0.33417734907709773
0.32749744711177836
0.3258466638594323
0.3221842304068977
0.31391176537393195
0.3193472518575701
0.3326463489373696
0.3300915263477291
0.3427715844580389
0.34021468176165165
0.3445085961672205
0.3243233555433171
0.31568187992163976
0.3212897158018812
0.3241460974672965
0.33322888450332705
0.3318389200374248
0.3292347515434388
0.32422985700126056
0.3215426431567775
0.323042761334769
0.3356161062353091
0.33957826297914306
0.34844309731323714
0.34730619090838044
0.34866756240287733
0.3427104668254381
0.3557208737817384
0.3723060321027533
0.36376695797944547
0.38888708694706564
0.3656244374183555
0.3743681511210389
0.3538147368384567
0.34700484396464915
0.3758294863291803
0.37786606391631605
0.37386861786359127
0.36537457732447304
0.36669703204079135
0.3375772367703968
0.3403198393577556
0.34744570898107147
0.33134620602919596
0.35144928179949647
0.3605617276558329
0.3602350291265907
0.35085228124798795
0.3345128400823222
0.32936808238724025
0.325532421351039
0.31915279563458365
0.3188868127176113
0.3220229540791464
0.3370710584899237
0.33737071382100636
0.3372977113164455
0.32767802239496285
0.3200705154145784
0.31293891359360704
0.3056539337899787
0.31378706036374987
0.3268044784018561
0.31219554497418456
0.3138742923073261
0.3127708090685206
0.3233218364365466
0.32993942020184497
0.33006229931956693
0.3266941252286778
0.3313675957699948
0.3175108799332989
0.32596659347579937
0.33162322496050595
0.3204769644634154
0.3148035878857243
0.33127180111359733
0.33780877711739543
0.3345339756696446
0.3550627700747205
0.35461043204686626
0.3539740817478735
0.3303571717634712
0.3369164313341482
0.3396373092354648
0.3322372943403435
0.34004412675459417
0.3486403299225995
0.3697951585032664
0.36013315948164915
0.3601099591661341
0.3756538700491163
0.356571907110657
0.3651155612442033
0.36013668524051634
0.3535011190502766
0.35152745728804924
0.36197078803166166
0.38288371543008304
0.36957918734484724
0.3521207583962405
0.3381791248485478
0.32998831406135976
0.3294347518102