0.23909584278728133
0.2575758233501174
0.2231393551812804
0.17201175117071857
0.22666871451324883
0.18968113826560376
0.21446602188801286
0.19941746590865642
0.26209184799583524
0.21214309683100754
0.24515876318188934
0.2110014338678603
0.20285792263915442
0.18258475840198407
0.1932385597909478
0.2074978652740664
0.18723728047755972
0.22564704654538262
0.19513595284097435
0.22310721541813167
0.28929940490684813
0.3060743222673573
0.24153986892379692
0.2296856167008083
0.2653207453244572
0.255679204372648
0.27414875942359074
0.33365306485854923
0.3168194426450244
0.23006934480857383
0.26608012310682233
0.22878353592109318
0.21964013388359246
0.24890937444001704
0.2971430214087517
0.2026167669023704
0.291885177791645
0.22932552714472612
0.23939998206397878
0.15084394797939432
0.21186755731909937
0.2425266667837239
0.1912293563525334
0.2735365636324089
0.25055692821058057
0.23964278789483384
0.236190419061538
0.2249513795119319
0.25317684141188673
0.23112770195768914
0.22462427142341282
0.24939658223495167
0.22688244872949107
0.23274387920082376
0.2174733817704419
0.17486233524633185
0.22514335133829114
0.22794508739784242
0.25896675814937636
0.21618262071478875
0.2643177966535703
0.31619692298455543
0.28892055167977565
0.2394822086327679
0.2093361718537899
0.26859250935986567
0.3829542367449278
0.35337381451070743
0.2725974932326864
0.2821245312945543
0.26791913774834414
0.31819543904469627
0.28282152962142815
0.1964911065805796
0.2964935536957485
0.25987271003269213
0.3455577893415868
0.37829154343505716
0.31917620263904084
0.2759069323211678
0.32718258682767287
0.24561980684191423