-0.04682699877565463
-0.02478548082173133
-0.011285780566841227
-0.07061822349328287
-0.05948999172950933
-0.1806965879804997
-0.03742962988259733
-0.056931335275425675
-0.10711372589592702
-0.21238728492549808
-0.08720600977872066
-0.06540654606746549
-0.20176128806717708
-0.06929736136104868
-0.030371017024492356
-0.0640489479821942
-0.10742858911418929
-0.11165501475882646
-0.09966888053775101
-0.10418771322988538
-0.19502773212664054
-0.12504339504034218
-0.06511560162116961
-0.18371680325510134
-0.054737325248226144
-0.140413660952454
-0.09818355422367966
-0.08117317996961465
0.0280208992523154
-0.0632777351105381
-0.05440565636997312
-0.09217616688136938
-0.029420604964180763
-0.1424521847644034
-0.01750812386013839
-0.05118831527566298
-0.20804594964721412
-0.009624586592058669
-0.17143848494072916
0.01276451271535477
-0.0872439863145454
0.0041684969415314395
-0.034242821994922845
-0.11891169981540449
-0.06999420514880657
-0.03714967278686949
-0.08314721051420096
-0.07066695835640435
-0.07955858530649892
-0.07326794795905567
-0.06659512687835982
-0.12799346199251163
-0.025552571899587408
-0.05632653058888328
-0.2519324680684202
-0.061383082059516945
-0.12766041748138338
-0.0510664383247624
-0.12767585459899888
-0.2912279937200066
-0.0073041449514697
-0.09603671005828361
-0.0949235406349545
-0.1067651731501791
-0.08574457072389904
-0.12425136283215424
-0.10897892883279128
-0.05482259423449376
-0.08785364024887413
-0.03979220017975573
-0.15559116625125904
0.0015591590171526815
-0.12528626177208793
-0.18143789125578721
-0.11452997505292432
-0.06385666527084728
-0.05587941123728497
-0.11882583625309723
-0.1395905052751168
-0.17686765147444455
0.02988881129169493
-0.12247904591078294
-0.09628512103128918
-0.13747026126421366
-0.09339037752242402
-0.16698519722087898
-0.08748734161699713
-0.08362874038592306
-0.0739155293814881
-0.10313906445732943
-0.047356808584015975
-0.02611041585160757
-0.013103702972059145
-0.0849001018874541
-0.048953999674497414