-0.07245001564810094
-0.0903143796319719
-0.06249544850056758
-0.20534324375253543
-0.15591608988907094
-0.17231627370579733
-0.16004416825152593
-0.11154545688109266
-0.15020206255876836
-0.10821444714860302
-0.10382934178362128
-0.016223837216514037
-0.14341747167350832
-0.17149985622507477
-0.15063669476548835
-0.09021025641513014
-0.08655645795525653
-0.15867982268939151
-0.04562255817913753
-0.18361389268093395
-0.05379321642800427
-0.1058087318412453
-0.1451274591198983
-0.15858346089418066
-0.06915124624520456
-0.07692862604041596
-0.11504623285301022
-0.20667776361551365
-0.018117982620331558
-0.2148179673097069
-0.05685183852154165
-0.14517095078706763
-0.10146674702491257
-0.03001533488932311
-0.04216496593421829
-0.20213477852179612
-0.1763539639481609
-0.14262843720650065
-0.17793443451556015
-0.17234650003366128
-0.07956402062252484
-0.08547134517478214
-0.10093315955834851
-0.2040970620366022
0.032651439255789734
-0.10194972811891125
-0.13795107083922162
-0.1257251952094688
-0.1586875659952043
-0.1179429583241705
-0.09113244040220617
-0.13477925369484628
-0.10938783909464475
0.050477973285018525
-0.14045296578040695
-0.14922521359032864
-0.06155741405843886
0.015085179956213734
-0.1120197655362867
-0.11049057497388044
-0.13272247357082187
-0.04443229501739164
-0.01502978030775052
-0.18954722592217482
-0.05777717241325051
-0.12311264249257818
0.0038965482507147486
-0.12149707252585057
-0.17299306583788196
-0.11169698714848873
-0.07800953892637495
-0.0648303675140045
-0.17109598248929728
-0.1463875799787146
-0.0762875252127886
-0.1389813685084556
-0.2681703646673318
-0.13871900405185728
-0.11876688888682793
-0.17914710763929118
-0.11295183248433878
-0.09755811571044005
-0.1284641847788922
-0.007529379749407431
-0.12352922770800505
-0.0742555669333021
-0.10970682430039443
-0.06419185407700696
-0.06521407700804206
-0.08369059127583585
-0.08641964678104484
-0.20736472749826917
-0.15774335868998154
-0.06794278291430136
-0.05026449013365505