115.47437510926142
171.1488514530385
266.7694178547451
229.33409161918075
135.92264581953728
295.2509463013878
0.
27.046988932318904
27.902790561554067
27.42423482211492
27.87374165355356
28.13203648561468
25.70820349100448
25.165600564156204
26.197545553715727
24.278982655621544
26.611382672683625
71.01998941685083
152.95140292555283
112.06013653649882
39.69072383241836
36.5479554580543
18.677345103117638
19.030077692045086
38.62214837250869
18.350860933074078
37.68467239163404
34.5321972050474
36.592742306070896
46.8043995196284
87.10380240706367
121.07028370520598
133.38511987769425
149.9772790405932
103.90574686571325
92.49020533804334
42.545910683962404
42.059073274955
43.21468187166721
41.854932343475895
54.669524727237125
95.77500587298908
92.0412253450547
92.24992358741316
104.10561257910938
411.5662644360573
290.17656784120885
128.71058366305087
106.3382138796913
96.21349087249075
98.4330208402142
102.54397657613887
106.08129115430499
104.54193052538456
113.80520808968566
148.47972317344042
219.87402217723377
409.2064822474139
118.44212553064581
137.46448387975886
75.88631460906788
90.64601254212569
83.25019746655788
63.46695386891616
127.24599764261959
95.1658610709761
55.255649004392794
89.35019340055808
78.74977057780121
69.30938658054917
65.21557665817966
303.8806811926338
289.6426824183149
263.43389367942376
47.4205570140167
40.22708966894402
60.415038412273795
86.36087196862982
310.6006128865999
516.3993527353882
57.43218553951643
38.620320846438545
34.5452866218202
30.88950842411489
33.28177248482291
47.271555797821726
63.66015297870415
60.00709820572569
34.39446195687888
35.234063029131896
31.339268358829916
48.53833595925913
95.60744931718168
69.42577809838157
70.35721310099919
55.060602783454925
104.38424371625476
85.62546397946677
51.64557009253405
52.30435188269556
60.20925848172336
66.20664473093765
64.03948918945436
83.27372783862475
82.11230977345353
53.97500559604059
54.3401376689537
77.62006942152023
76.43034374775024
137.95124243354638
156.1788013641758
205.48715929502094
168.31495232935583
166.66019276071194
140.70574807071137
163.80709076345713
103.66397687337627
138.14355175775984
179.05597519393348
114.54452487581013
74.06138240703126
75.57748348250293
75.2687243859137
148.67785258780626
54.83773041264079
54.498828630867976
56.55084140709454
55.92102909258569