0.1250795728648761
0.12710870515285225
0.1423000230489658
0.14899962582314788
0.13653911287856857
0.1477661440282837
0.
0.11074394635771265
0.11122114082902415
0.11315343151507402
0.11223811740208309
0.11120860235866058
0.11363450517606315
0.1146584167834518
0.11382086335047087
0.11434091661892423
0.11227915163861553
0.12936509007078975
0.14796546052586318
0.13036606435029643
0.12398932295502264
0.11524213233573387
0.09819214628455554
0.09821866959917944
0.1235499741041719
0.09719984526586667
0.1241410629210495
0.11806806038309645
0.12397258655183466
0.13728695393416995
0.13664251031013674
0.14355583914568687
0.11504603227955956
0.12061449199849497
0.12882109490871915
0.12926700102838903
0.13783635689887866
0.13421072594042302
0.13057111034604962
0.1332416440816163
0.12563271369751314
0.1353323789031329
0.1375295568711797
0.1357834349939885
0.13454843325938182
0.14159443882197256
0.12766567002301898
0.12648492813951104
0.11522084209354311
0.11434439717107855
0.11542231864079562
0.11674074635423681
0.12161435094654469
0.12688909341627327
0.12396522872511652
0.13366311240385825
0.12357336415271479
0.13827838863293662
0.1248733892331503
0.12201293237577865
0.12330874609818954
0.1252953063185884
0.12275830645673275
0.12431780251824856
0.11633820184685173
0.11902590651423588
0.1240676685641399
0.12442637850742728
0.1201007400024208
0.11374337938866297
0.10581208735210332
0.13121923525983464
0.13873293925730815
0.1498627756706748
0.11573498501150933
0.12258665409754081
0.13380485355187308
0.1425964480873897
0.13048462449688195
0.12640368980454475
0.12698806636370172
0.11730646300449776
0.11904585417276502
0.11453286748688914
0.11528752083064771
0.11877645508575936
0.1206281499717747
0.11448717078100185
0.11597787286886703
0.11225456382992093
0.11041679737725624
0.11795106118691488
0.12944186666138546
0.1145964986055462
0.1136570594008036
0.10964900767107977
0.1084856406263587
0.11316609642769336
0.11208866691584293
0.10979391302409992
0.10170076670104565
0.11030625609589538
0.1087649289369663
0.11397598671684497
0.11478704090029666
0.10717772269125606
0.1070309507184667
0.11044727234728266
0.11823961719791207
0.11123452008596431
0.10958751921370129
0.11699886444973094
0.11578075348916723
0.1160991892069116
0.11904279034846293
0.121472376737566
0.12419484782844925
0.12989935118153037
0.12791735935084966
0.11172884834577528
0.1092321944325784
0.11134372405575511
0.11134289023725208
0.11787626845159935
0.09768733158043663
0.09823054348998192
0.09972134377913464
0.1006511115044125