0.11406804135293713
0.12798492856956603
0.1280292187442857
0.13313857906312646
0.13612110183575932
0.14088997746030438
0.
0.09735867703670553
0.10061403896489296
0.1003086973425396
0.09999593528711435
0.09953587273867197
0.09658740269498836
0.0927971777892385
0.10770114434326303
0.10699387379421452
0.11086213074161015
0.13200303229817814
0.14056852632144431
0.13455704230845955
0.11369608873590181
0.11024091467827057
0.1011006830569794
0.10353149746755544
0.11787132118136011
0.10230629274954811
0.11690886503145533
0.111509123385365
0.10214945034675749
0.11559924130921609
0.13309289912400152
0.1322152281954737
0.11185496153706574
0.11805456990385668
0.11831746691992533
0.1208231399952831
0.12833047470112502
0.1279734634049907
0.12507756830622213
0.12322905155044256
0.11365330444707
0.12313014546676432
0.122676760050605
0.12166534690488728
0.12567343153501045
0.13891817280007457
0.14898205040189375
0.13775541601044092
0.1279333515993216
0.11268944438095974
0.11696903628727183
0.11346894690225805
0.1091770282742783
0.11000364449654335
0.12781781905791428
0.14030592284166601
0.1301424981058739
0.1322960814410657
0.12743003194385258
0.1207342966434881
0.12971903085904785
0.1261301376414925
0.11584572234193233
0.11381564917754078
0.10326799980948437
0.10858116652231514
0.12008608837783356
0.117431675343066
0.13224771268524707
0.11775936487961729
0.11134230463563818
0.1299914227055327
0.13233835152787368
0.14210884651141523
0.11092249800650353
0.11430166285721266
0.12565327763339523
0.1403847814622944
0.13067617008939866
0.1181540342175602
0.1290072982430007
0.12621898544262042
0.12309202583881142
0.11379096418597426
0.10639229490004785
0.1036161434811604
0.10563331173856041
0.10847905432052658
0.11043245405372346
0.10821168555297937
0.11180982575804845
0.121384994654109
0.12760199104296338
0.1089148480247383
0.10950563785679651
0.11565693740805605
0.10229223411861238
0.10472876177903219
0.10483143608501856
0.10314507245493348
0.10534707893662373
0.10599790346877024
0.10312366628921137
0.10810607547750616
0.11302639270024695
0.10375169265611696
0.10639825636460946
0.10722779758653525
0.10516272774574356
0.10971204049471903
0.11379786214817622
0.12183150466807878
0.12210758836906511
0.10925689535852526
0.11276463339910252
0.1263493852181824
0.1138008481463255
0.11229475031174775
0.11039841780502632
0.09674939887667218
0.10590790124049362
0.10522629041305762
0.10870524352263465
0.12086955562113803
0.09584805395090545
0.09547911884854825
0.09570224667958653
0.0958737951503328