0.3472585073287839
0.37035266766339986
0.3652428773133844
0.35648974447584003
0.3603867234952056
0.36832270954238416
0.37803619711839004
0.3596468499963262
0.34525485553386875
0.3462652403419442
0.3560664976049591
0.35554127090187854
0.38231159851583574
0.37607046540602773
0.366579408727395
0.340507385138085
0.31667566762732996
0.36936792131065277
0.30456080810668035
0.31922265820369905
0.3437365085996797
0.38502542233885517
0.3829812562226743
0.39931987782990647
0.35936764844264607
0.33440796908087783
0.30056052709214276
0.34695273734359805
0.3334386137134809
0.32621506422175817
0.3441382616243668
0.3236174382314139
0.373683000499449
0.32003768224594076
0.32438475855650917
0.3070993368566331
0.3165866677288932
0.3584702884812771
0.33077293558621856
0.33149875360613956
0.29492033595356615
0.32407683056074876
0.3221449342793998
0.30989939202046196
0.3183660506336771
0.3243896989537696
0.3421449958861001
0.32637455137842514
0.35565715575875595
0.3179666190873246
0.3582428931959587
0.32643990692567126
0.30629245974370656
0.2975621647976597
0.303401299724521
0.30000283115020193
0.36552675441117305
0.36007324063262924
0.35489024964672633
0.31212781247040605
0.37347253038381295
0.37356687510891545
0.376775995094252
0.3919123058449859
0.3270239520073289
0.3346109099333679
0.3647488379627899
0.34650264613698256
0.3326517752092046
0.3419069622784023
0.3099762098541288
0.3727625394951814
0.34185214421773374
0.3346528062039215
0.34109136253768696
0.3375579200274584
0.3346990605251932
0.3459728471783499
0.3380207281926614
0.3421642431746089
0.3210479116743359
0.33855221290135956
0.3558534268032766
0.3248008145351021
0.31661692657139656
0.30095549203756633
0.29524881596489133
0.3427304762987382
0.3506122432077652
0.3279310536764569
0.35826123477530447
0.36395575652790707
0.3389171606351509
0.37944244960275947
0.3903104742408734