0.33643569153050795
0.328002903261635
0.3345681449564197
0.33176844348642975
0.3387713489261058
0.34139830178661407
0.
0.3447199629831793
0.34971187533506043
0.34627604351769414
0.3478010328283846
0.34565009183405443
0.3584532967759448
0.3548127321880809
0.3559476038319281
0.35510543950837725
0.35832492933173193
0.33603573223628025
0.33632909503137215
0.34616040561066996
0.353805442038066
0.3563600477314772
0.3632417741528432
0.36132916001935395
0.3536031184373027
0.35844924188191857
0.35288923598832145
0.3507033584485291
0.3482195365521731
0.3468368251500711
0.3366028577276307
0.33475751658914227
0.3283025830436321
0.33301088715041066
0.325953910920852
0.32651100528969373
0.34104558137131025
0.342445149549938
0.3434177841549333
0.3485784555463257
0.3522230294385608
0.3436726395655207
0.34453548573603227
0.3403644052937861
0.3412382630293373
0.3433569138614371
0.3385181461207832
0.32553524720177907
0.3343466564566226
0.33009329832112494
0.3288283166899165
0.328728133510659
0.33961570875346686
0.3385865769172307
0.3215104505646928
0.3257416236153076
0.3330899167600857
0.3436193353266654
0.33547794632210665
0.34197140362517536
0.32742269178925376
0.33896968570544594
0.3461762252741245
0.33911043913101563
0.33471514517251294
0.34324756397142203
0.339790220712946
0.34745082288972423
0.34077580381748884
0.3412728942894865
0.3357790499656331
0.35796899783043024
0.35396492232743915
0.34335725848754894
0.34293395978385083
0.3470636551437362
0.34437649542094123
0.3379378545038467
0.3480820951221439
0.3499979100719769
0.35681125826078924
0.35696240365252957
0.3534767002830575
0.3506009217161928
0.3554020694013034
0.34976454448986416
0.34949427468094985
0.3581302199353469
0.3562365643409818
0.3557497378575825
0.352656553759426
0.3559064924880264
0.35297124246594147
0.3554345173633858
0.3551368896804558
0.3597454220086355
0.3417531775279235
0.3438393118768826
0.3557445742283674
0.35668406029237754
0.35457594034491935
0.3431575830484857
0.3435121130926079
0.33902519809143006
0.3394283936721675
0.34894494876141874
0.34662904814338336
0.3470094631192941
0.34516516848811574
0.32737979906795933
0.3287634183731075
0.31896162446170473
0.3240050249852165
0.33304545481310605
0.33382110253702985
0.34344168501994427
0.34047988627663844
0.33702080321989875
0.3377707427945755
0.3338239430078026
0.3329537171074432
0.3303044222123339
0.329942103204644
0.33226554900173483
0.336454138860941
0.3386176300048134
0.3338524779152311
0.3378864868452115