0.154011890512421
0.14145637594202637
0.1867798109202197
0.160650511284154
0.15110130380064546
0.1460569774179266
0.16175105052541017
0.14104174365824812
0.1784449098071649
0.19433600548663402
0.15212496025009714
0.11529137603304034
0.16465275859583126
0.22961349210255655
0.14449191148685733
0.19678649739447218
0.19805277656878192
0.1637750544951101
0.2219747320328941
0.17057190212336587
0.17797097749082805
0.22184690672059565
0.2377924688471502
0.22072209982426114
0.16064160370564926
0.13760976929367408
0.19868597827484927
0.2080023218170996
0.21386270817860653
0.22341998605738725
0.18937939782782975
0.14851151892625494
0.14410503996830992
0.1853894090254237
0.15050287493439926
0.1475623102131439
0.18506372231209997
0.17047827406328245
0.19917767380747145
0.2303375255128114
0.27381099376071455
0.17012804767657302
0.20739048710742158
0.22586783449179165
0.20387125983924145
0.21803722345934884
0.18936040964551323
0.2316998487311899
0.21897855034402336
0.26088445155616
0.21580385773866528
0.22858288818337716