40.85464661112222
40.03676819757195
41.82027482319755
41.856596423566195
43.63531566270372
44.39440160930461
46.98663335391353
44.78184292868146
44.588909354044624
44.68426499012502
43.95173791807594
44.572550115503944
43.43708967970561
46.98601660535937
48.44063044414409
49.17968665453181
48.744025724458865
46.31895301013292
42.34371404047276
46.731633636379975
50.4553761188862
49.29490227285706
48.471937751724695
48.95395392677775
49.05315092508936
45.94908283454638
45.803105234597446
46.25918103993858
45.91963745073759
45.969604222685305
45.81431068094776
42.66782627231851
43.17053200724445
42.75302620011231
45.581597359848665
45.82092934719672
43.20590794351539
43.100531256144755
42.77359322591017
42.483879319349136
42.080252078798196
39.5484019425553
43.547545901283115
46.31636581232584
45.82860426763037
35.02986528184291
41.04216902781012
41.38217032932434
46.6897437089387
46.72328811513802
43.23239578628659
43.93213720809097
44.85648449652427
45.10251805320362
45.79208230046655
39.07338312074883
39.11118427010609
38.86811994028857
38.091752300759204
43.65761579928701
44.17393291840709
48.44537152849102
47.527020414433686
47.81140357376283
43.611847585197836
44.03730735496676
48.48342538507814
46.35454334396678
45.974057690882276
43.209787124167484
40.941154965281065
40.19706843921399
41.22921312357325
47.15083999229149
49.06087132753657
51.07217961559299
50.93566338723856
49.670385277968144
50.06708295825606
44.05672490256958
47.25394918542276
51.31072099411008
52.633493677571295
51.45454413953437
44.189995662081024
48.614322826384985
45.40626746578529
45.25844100652663
47.60207607096661
47.44333132363
48.75347764570433
45.13329428181359
38.425102558705284
40.97567233927959
40.4399393314711
42.95698555720777
42.7643210447734
42.66552829161893
44.494580788592295
44.164739662174526
42.28491771887841
42.38546802460674
43.95766372476778
43.6804242560982
42.32969757450894
43.158034186897716
42.75612275080611
43.53647550552656
42.93746534474706
40.77832578612588
41.01565086060408
40.818929164838956
39.74270369338685
40.77498745688477
40.805563626138444
41.60210045224146
42.38745756542164
41.74689365182981
39.0913873590238
39.664105452199244
44.166654113039144
44.639616089733
44.060970814686016
42.2483868298216
46.110627129455956
47.019124365737476
47.07932337378473
43.11238104710731