38.45613488705868
38.77115251078479
38.417080360342986
39.32984420079139
41.25586726522427
41.52300081650416
45.740566105064524
43.492639802798486
43.42342109615022
43.32846786706269
42.8515008252261
42.34597753912633
39.700794238132026
48.045666584734825
49.24510786334957
49.018895724991104
48.715898011965415
45.28380967306487
40.19330232845854
45.824051424692506
49.87290910932975
48.97667317348811
47.640961583612516
48.08883749272193
48.04190385343012
45.183190576133825
45.54262257545102
45.28275696474322
45.37204885362415
45.788502268304335
44.48767360288278
42.42931270230848
44.02152048856514
39.30011374965077
42.527981920889445
43.19454443484234
41.49542217980928
41.01359636741521
41.07820023684477
40.892636971569296
40.668349978645416
36.75179468361755
40.483086443889725
43.11832187274063
43.22275819970612
33.842226290231686
37.71331791330856
36.971807673382926
40.90027981039452
41.054109524420845
40.72163505252443
43.573425568561554
43.57741312647084
43.73593559704532
44.04798304909776
36.8428626260944
37.129555604091955
36.76053132035995
37.27140891006835
41.586182221131246
41.07608658980382
44.24877244265515
44.92658907638722
44.88161893777504
44.0417069327823
43.96887225040094
49.500410655515246
48.51327570305096
48.48249318860588
45.29172467245712
42.986200720109444
37.535854940978396
41.30051604042584
44.2350602127236
48.98135750074498
51.59937845098573
52.56945294957923
49.43247229523127
49.29046427091321
44.25198801745223
45.87801232959674
49.61092731380238
50.50491745294987
51.07602505605302
44.29299418453212
46.66224473033369
44.77292527395005
42.8413348818666
45.617571656225785
45.16233787977021
46.450518484629995
40.74263664741886
36.4988581142059
37.3633221467803
37.96644276672596
42.206661765967645
41.70661961481804
42.18824258851362
43.27698207920453
43.34829946550911
40.72778606639732
39.865552439857915
41.656503728031176
41.647975139013006
42.625955857384625
41.988997420198245
42.144056878662504
43.594875929184425
42.76416815709058
39.019871681553184
39.34903939390301
38.4498657062898
40.06799955759485
37.97528809085895
40.77921456569265
41.380074363230044
41.46806677948257
40.54384970803754
39.49701620677466
39.199956303667214
42.525216032531645
43.0382565850415
44.25107336021073
41.878766605506016
45.973762704023926
44.844392545998446
45.41764329467947
38.61187302601112