2.254919744055039
2.2545487015619936
2.2519861760703406
2.23110608984475
2.2060236641839897
2.2173277423652853
2.179869742488401
2.253310799923682
2.256318373508814
2.2718077592191044
2.2765546242112755
2.2698582543100283
2.374158909671388
2.3223234918536653
2.270325596637074
2.1704644210230537
2.162405496052712
2.2062730041543324
2.2456351560238224
2.179603260503308
2.163340598825407
2.217520956978562
2.2587217595349123
2.2524177056589694
2.2568761785573237
2.227668171655405
2.238397264194463
2.223126612964475
2.221861324794541
2.216952604203287
2.2020169640545304
2.259158457558214
2.270127912783352
2.24769175938407
2.2278635385915044
2.2328099942424227
2.27922496028227
2.2817420903070222
2.282441280801825
2.2769541885394164
2.280980392576082
2.3824280104596895
2.3166436755455053
2.2647964144370207
2.257617550434148
2.4041634640713005
2.3565774695914006
2.3329111809771974
2.2598126241428997
2.2560396731126855
2.2504535419000136
2.2664062935062876
2.263127647066122
2.266190568797246
2.274420179198511
2.3547673372162627
2.3501618329986647
2.3465844274838523
2.361077655191705
2.3540824401295315
2.3602872280473797
2.3350536795914203
2.231973029453526
2.2347310252322155
2.2276101460916617
2.2190637787212206
2.1790815894349764
2.2393951930403175
2.2460918586402063
2.340251948799557
2.3365762310024922
2.37932691120066
2.3716482749733
2.301051062389827
2.1608064149247954
2.139756862910279
2.144221338612152
2.213428809344197
2.2205733790250637
2.3116730860725236
2.2468056180717024
2.183229803588458
2.1494723247519114
2.1359499171186416
2.2728747725182847
2.1619281228940475
2.1968378068679018
2.1855217010698587
2.164322470067525
2.1733792049309564
2.1757143170166175
2.29258104645672
2.352214469775196
2.3404241243312147
2.3358260213288853
2.263965271482283
2.2460602171162227
2.2248996504619205
2.176755144944864
2.180339827324951
2.2591124813984265
2.3006978094409996
2.3178455602715493
2.274771099612188
2.276149239013963
2.265424580960018
2.280932508349875
2.2628034097100596
2.22024617451298
2.265381655632807
2.271069933178777
2.237847682311825
2.256025519265835
2.2862610287677363
2.2637226855825126
2.271522396343646
2.307659142101936
2.3408296792537855
2.4094143358036395
2.3310485923742235
2.2868596075937933
2.2826029259369114
2.2428497083614167
2.2407225652720024
2.1964732001450593
2.1981368845843936
2.1935780219930456
2.365690886799337