0.5771737684579548
0.6110899797218048
0.7381141012419964
0.6251548051315408
0.5886620296290571
0.6679195288020312
0.6078673015751762
0.5777274918209813
0.6000836257466494
0.6411358401865629
0.5663297629389231
0.5656771687713745
0.6455988304740583
0.6034844575786514
0.5679923625350699
0.6274971198008658