0.8703495478358753
0.9169637875253058
0.8934997516478944
0.9038502857886285
0.8995958700040307
0.8899884035619133
0.8993476702216089
0.908691314619437
0.8917631976036937
0.8759690216388786
0.8924484112350575
0.8709614017025518
0.8754181216832384
0.8736236210908054
0.872315395565157
0.8927805360060104