0.08420813982136005
0.1483740559192943
0.10475601942773571
0.11099075745257916
0.10424579984669341
0.15830528509192274
0.13932962947596786
0.12320711049092142
0.09235564878282886
0.09596432030377872
0.11334880576105143
0.11478900563160811
0.07399227578230058
0.07760586056559017
0.08789056716825557
0.07905486736144059
0.09224643182603241
0.077294074138827
0.09010031451189729
0.06961172716235967
0.07697806778009066
0.08548240894369069
0.08322013084764784
0.06227530449009212
0.1247046520940753
0.12343067293257642
0.08360655274645643
0.08708528182377773
0.05559540394915611
0.07936323439297122
0.10590646796450608
0.12699198476266849
0.07663158757966634
0.09809749153345979
0.09040671186824252
0.09926915282585286
0.09977677181504425
0.15681485496178685
0.1510392399732942
0.10261928589418669
0.10744017475388748
0.13520986382699626
0.14624198559791735
0.1275539012188914
0.09272326459095483
0.13397167639196958
0.1531680473096185
0.0851604722610611
0.06718432668605788
0.11393504221224807
0.10141522449538742
0.12061685563469497
0.10121704883513188
0.10327842135295409
0.09107745741273159
0.10201777560092817
0.08855455236921955
0.10746611313717888
0.09466777809634297
0.10153765711903968
0.12058106376529001
0.12087987418373854
0.13514150581340018
0.1196768500532418
0.0977711793732487
0.1011034485694694
0.11321432516224857
0.14343890288156916
0.09643192771035564
0.10511596611827931
0.1189160719288919
0.13702643755137953
0.09381578382451457
0.09149056321374513
0.13867766317631586
0.08128049291118356
0.1790524882603916
0.16701985412184928
0.1258716942095038
0.09921328730200578
0.15007738777792404
0.09081994306541831