43.62665503614347
42.75079890889081
47.063967144649475
39.01626999323052
53.98691173307908
57.3455127557559
59.6252112751359
51.944859466606445
55.00583223038281
52.10271676144332
51.240082165441834
44.023338853514645
45.129367304662146
45.764962250121904
47.75088926593075
46.09793127362629
51.3721040824257
51.9385682241237
42.757680941790035
54.70848056093057
51.46221897407595
53.65482853851222
46.415115962145435
47.2436210496553
47.63197356354992
54.00860890117144
51.74623786411335
49.08394656504875
57.50289342440358
52.87650541049018
54.00600902190905
51.00644049987835
46.12755657167213
49.381535423361164
50.8057237862735
61.05971216186871
71.4067753214115
61.93730156730181
48.04888146641484
53.07059647669792
53.218272053250146
42.40552034463009
57.592379400859706
54.7879320153503
56.678953871179125
43.3579437230909
43.89950613353585
47.99605689423548
56.09144263054677
61.49523543854848
50.70459408921233
43.895156421020474
44.90272940450632
46.3275233874929
50.60913560986269
57.82255112192991
48.14737098393755
37.08166467373582
47.12727367594926
49.2651123364876
66.02941608294259
55.11478003642871
49.38365616167088
50.5849093250072
41.67576139834753
45.45549801048856
44.21407175064716
50.372310158345215
55.13899149285206
53.153056422759406
51.15328761186724
46.84745228069298
45.566990302815796
49.07083783830234
50.962192513702746
44.471934062682124
44.65330096964273
49.69190932647588
48.36017900792213
50.3677063941405
54.81979019464181
47.54170661403455
53.05387018304437
53.761851533514175
50.30717334876522
50.43249829231861
44.39290133184544
55.49841786227071
60.96128916382677
55.1242002908488
51.92027741470472
49.25607456325382
49.309023781887824
43.461838833264196
42.08332270154722
47.76427217919934
56.41220487002171
55.624217737573375
57.773086815810174
54.18711211824514
52.06021650170511
48.543079757341026
44.98558331887956
42.423948510531865
43.84592619899297
42.96977767406683
63.13474872900784
57.34152572432195
58.65115208561909
50.5827611257738
55.01827827183818
59.855476307262734
60.20355406966318
64.54027594077318
63.574653951853584
69.76133585299968
51.54349450168255
46.870000247714344
48.1244853061098
53.04099502948706
56.021055333982645
60.535978271527554
61.67423755938413
67.24483474857874
55.03212775544466
51.289965729515785
56.78501456986044
44.92383562719426