2.2898366252628546
2.2518971043342892
2.2828846739834523
2.262081303384219
2.2336011213753637
2.211956844063454
2.210167181162467
2.2083740269945897
2.203956336020825
2.275093440102283
2.2921680436387417
2.2992307026948553
2.2834538287889825
2.2645478261490517
2.264081660727522
2.2724178017504286
2.2632449301976894
2.2186017163065896
2.3225269989162958
2.2734570866574098
2.2362293555029784
2.2229220068873645
2.2379283725472523
2.248365731051726
2.2432392813864364
2.236225499780019
2.2331522746075883
2.2101349969400172
2.192976682869276
2.223354524517048
2.2304881754465775
2.22069400378915
2.261011096652631
2.2338459652174265
2.265786402085381
2.196012809386362
2.216050204570976
2.196840202077944
2.2621986752231082
2.2167588362523043
2.2092509279698764
2.267773041172801
2.2007267979398524
2.188649482532718
2.186504096017467
2.304603366444903
2.2427391617561416
2.197963907924305
2.1994589603718704
2.1989158040974615
2.2131102340967073
2.223741559294827
2.2542981880836392
2.203058597574356
2.209635505518851
2.206200245026016
2.230226044923371
2.32518588384494
2.25397084159154
2.238318069088191
2.231204938621158
2.208910275417147
2.194419014401224
2.180881023099156
2.2702892308501132
2.1767061726594035
2.2480968787270554
2.221068894323515
2.314568322618963
2.2823539815371254
2.2689596650110384
2.390526898346797
2.3476832596759363
2.3372008911236315
2.173100555381668
2.1792050541918613
2.178035271462456
2.231855396402631
2.2999094985680317
2.337999526072518
2.269700426442887
2.204319809093271
2.178526347505439
2.1616896786072166
2.189019074888682
2.2057495964020624
2.2210456668555865
2.225492532206199
2.2251280920305034
2.2116433729201077
2.21517238722239
2.2635226978792966
2.2664488145221617
2.3747931793426456
2.406235087702219
2.3566645324994995
2.2512733677347367
2.2177282706182124
2.247407172086149
2.30907347632562
2.436450881668114
2.4027852088436097
2.364393553155663
2.4312872941966353
2.4244645624341494
2.425803460065299
2.3569908420315646
2.222126573182628
2.210758998360311
2.196634055483033
2.2608425012637494
2.225633463961758
2.212305249211087
2.205470464928833
2.260859905362769
2.3146788089700525
2.3077067412849757
2.3649061579103274
2.3057219268505316
2.298170196085737
2.3000409605173293
2.2999755057649494
2.29355008477758
2.248273933781668
2.301527782601403
2.312398549001131
2.3330362260264543
2.3395875953141902