0.6950355605089924
0.7945439301860224
0.705650685269032
0.7809336294143199
0.7153840838287262
0.7869685106869356
0.8087298209436575
0.8001733307429848
0.7506414461820642
0.7930947458109807
0.7882584306593334
0.7001005244154564
0.7814547152785474
0.7633830102582655
0.7899194893864595
0.7578652919842287
0.7532925999041098
0.7815285948329778
0.7947025234679276
0.7201329065794999
0.7928712201830985
0.8181461038323282
0.7166550386408244
0.7376742114758047
0.695611182671723
0.7505063800833441
0.7392071132672265
0.7870108088831859
0.7960929497249225
0.7014106086639798
0.7937541140041675
0.8021344645985597
0.7741947922373585
0.7883071191069474
0.8019009390921276
0.7095880839170373
0.5934014652450106
0.6874547782887348
0.6083392479989569
0.599079763879157
0.6735290285542115
0.6632870481078247
0.7886115992970123
0.71104861252178
0.6289727036165461
0.6601228076141571
0.6492058232609065
0.6701056898828842
0.6469317228578058
0.6330459186887173
0.6558284433309158
0.8084388999317649
0.7502574571317581
0.7137321412525833
0.796344461549066
0.8161830348210564
0.7300029580612647
0.7031180208912885
0.685085533700039
0.6853256886666379
0.7146330292054899
0.7913137741721159
0.7037629170887779
0.6845465783458506
0.7963084084364674
0.7164920281326411
0.741041755432467
0.7253466068283563
0.6940510445223528
0.7082464001733371
0.7284311675535565
0.7500503868948152
0.7152591281027401
0.7276098526108662
0.7466519177790419
0.7580835772143295
0.7758719079207202
0.7179528387478358
0.7443796110170454
0.6893707835066611
0.7345831696727142
0.7923192463046727
0.702066779970035
0.7370698273455161
0.7569285178437466
0.675218612796906
0.7647721277711266
0.7142101225972107
0.7828524849127895
0.7138514880314587
0.7401818320915439
0.826256934011636
0.7036892206587019
0.7549750452392526
0.7055438932125807
0.7283027643360588
0.7244021158066513
0.7217375059420646
0.7339169159282548
0.7104166469256062
0.6943956998352026
0.6870387144731444
0.6999589891476662
0.6971438523162661
0.7389120035481589
0.6141721291501302
0.6227494265544206
0.647621012333738
0.5968475100653104
0.6381262364176504
0.6141872441317513
0.6559243015051586
0.6091540620546807
0.8049201088770342
0.5951470186021965
0.6189425147984696
0.7034944873266734
0.5951027353598535
0.5898832277321046
0.6990013906402267
0.6179232972030052
0.670755053188973
0.7566648216941602
0.6881900550482742
0.6810196707739011