0.7050931123310987
0.688663324597569
0.7267986052468325
0.7162617123685552
0.761318560483069
0.6445019008155805
0.6975520934921219
0.6970463391988714
0.6825411159171227
0.6958006436531928
0.6925298326771696
0.6771313467199073
0.6779861723680315
0.7323161133615385
0.6321082988367515
0.6472846074070627
0.5962477435332708
0.6336487401203088
0.7462699944573052
0.676572514943988
0.6120072123403227
0.6869589972097403
0.6405930869500012
0.6018628766653387
0.5818363555379071
0.5798257485759652
0.5567236611384376
0.5549939124681746
0.5799796594165069
0.56392312445737
0.6035798405596663
0.5950485269394402
0.6400177648781725
0.6232166760411
0.6137538314468651
0.599644992667063
0.6994583664955685
0.6640004000512877
0.6586244495222418
0.6424123524059411
0.6663966096314814
0.6872251799629416
0.6782117609555179
0.6471723964777605
0.5698236702930929
0.6421935345381682
0.6313099006694464
0.6272991445859792
0.6532338628893057
0.6496987271828311
0.6311728614768288
0.6476954850730968
0.6622621838340579
0.6058843559313389
0.6571000838469853
0.6869972035362572
0.6193432812131792
0.5597205411241939
0.626843346805372
0.69403576790923
0.5705580179390243
0.5473317519619821
0.5080626335880303
0.5078531590701947
0.5622939346345525
0.5218872182345622
0.5545974938707263
0.5212743365863431
0.5251816453777884
0.561662133390353
0.546514118882712
0.5577764751751103
0.5660592909889541
0.5558304592707117
0.55037303062687
0.5608597225112419
0.5444179975226654
0.5615290151599975
0.5586273757983533
0.5862009537609484
0.5482531813228348
0.5599388296574008