4
5
41
47
55
56
57
58
59
60
68
69
70
71
72
78
79
80
81
82
91
92
93
94
95
114
115
118
120
121
122
123
35
41
47
60
67
68
69
72
73
76
77
79
80
81
82
83
90
91
92
93
94
95
100
105
106
116
117
118
119
120
121
122
14
15
16
20
21
28
29
47
61
62
67
74
75
76
79
83
84
85
88
95
98
99
101
102
105
106
107
116
119
120
121
122
124
125
126
127
7
8
9
10
11
27
41
46
47
62
65
105
106
107
114
117
118
119
127
24
25
26
27
37
44
48
49
50
86
24
26
27
33
36
37
38
39
49
50
52
79
103
104
118
41
42
43
103
111
112
123
41
42
43
103
104
111
112
123
36
41
42
43
103
104
111
112
123
41
42
43
103
104
111
112
123
36
41
42
43
111
112
123
3
31
112
117
119
120
121
122
123
3
31
112
117
118
119
120
121
122
123
43
111
112
115
116
117
123
3
43
111
112
115
116
117
123
3
43
111
112
115
117
123
0
1
24
26
32
36
37
38
39
40
49
50
64
96
116
118
22
24
26
40
53
63
64
65
74
86
96
97
103
104
121
122
0
32
45
47
51
53
54
56
64
96
110
121
122
123
1
57
110
123
1
32
57
110
123
3
5
46
57
117
118
119
120
121
122
123
3
5
46
57
117
118
119
120
121
122
123
3
47
56
57
117
119
124
125
126
127
3
5
46
57
117
118
119
120
121
122
123
3
45
47
56
57
117
119
124
125
126
127
2
56
57
124
125
126
127
5
32
51
57
111
112
0
1
5
32
51
53
57
64
110
111
112
0
5
7
8
9
10
11
12
13
54
62
63
64
65
66
74
85
86
87
96
109
110
112
7
8
9
10
11
14
15
16
22
23
25
62
65
66
67
74
75
84
85
86
87
96
97
103
104
109
113
123
4
5
20
41
42
45
56
57
78
79
80
81
82
90
91
92
95
112
113
114
123
20
21
27
28
29
45
56
57
67
68
73
76
77
81
84
88
112
113
5
14
15
16
22
23
25
57
59
67
68
74
75
78
84
85
86
87
96
109
110
111
0
4
5
12
13
14
15
16
17
22
23
25
59
60
63
65
66
67
68
74
75
84
85
86
87
96
110
111
2
3
4
7
8
10
12
13
32
33
52
53
54
55
56
124
125
126
127
2
3
7
8
9
10
11
12
13
32
33
52
53
54
55
56
124
125
126
127
3
4
7
8
9
10
11
12
13
33
52
54
55
56
58
124
125
126
127
3
4
7
8
9
10
11
13
33
49
52
54
55
56
124
125
126
127
3
4
7
8
9
10
11
12
13
15
16
33
49
50
54
55
56
57
119
124
125
126
127
2
4
12
13
14
15
16
17
55
58
60
64
65
71
85
86
118
0
1
2
3
4
12
13
14
15
16
17
51
55
58
59
60
62
63
64
65
71
74
85
86
0
1
2
3
4
12
13
17
32
58
59
60
62
63
64
65
66
68
71
79
86
103
104
0
1
2
14
15
16
17
22
23
25
32
59
61
62
63
64
65
66
67
68
69
72
74
85
86
96
110
0
1
2
3
5
12
18
20
21
22
23
25
28
29
30
31
52
53
54
61
62
64
65
66
71
74
75
77
78
79
84
85
86
95
96
102
103
104
112
118
119
121
123
0
1
2
18
19
20
21
32
59
60
63
64
65
66
69
73
74
75
76
80
85
86
103
104
18
64
65
69
71
73
75
76
80
84
85
86
0
19
20
21
24
26
27
73
75
76
79
85
86
96
110
111
20
21
24
26
27
45
57
72
73
76
83
84
87
97
109
20
21
24
26
27
57
73
76
83
84
85
87
97
109
4
5
41
43
45
57
70
78
79
80
81
82
90
91
92
95
108
112
113
4
18
19
28
29
57
71
78
79
80
81
82
83
87
88
89
90
91
92
95
98
99
111
112
113
3
28
38
39
40
57
71
78
80
81
82
83
87
88
89
90
91
92
111
2
3
18
28
29
57
79
80
81
82
83
84
85
87
88
89
90
91
92
96
97
110
111
1
2
3
18
28
29
30
31
45
57
78
80
81
82
83
84
85
86
87
88
89
90
91
92
93
94
95
96
110
1
2
3
18
28
29
30
31
41
42
43
45
46
57
73
80
81
82
83
84
85
86
87
88
89
90
91
95
101
104
110
1
5
8
10
11
12
13
30
31
35
36
37
38
39
48
68
69
70
72
73
78
81
82
85
86
87
88
89
96
97
98
99
100
105
106
107
108
109
110
111
114
116
119
120
121
122
124
125
126
127
32
33
34
35
36
64
85
88
89
93
94
95
101
102
103
104
1
32
33
41
45
57
64
79
86
87
88
89
96
99
103
104
31
34
45
57
79
87
88
89
98
99
100
101
102
103
104
110
3
30
31
35
41
42
43
57
87
88
89
90
93
94
97
98
99
100
108
109
110
41
57
79
87
88
89
91
92
93
94
97
99
101
107
108
109
110
3
31
41
45
57
92
93
94
111
4
5
35
55
56
57
71
78
79
80
81
82
91
92
93
94
95
100
105
106
123
57
71
78
79
92
93
94
105
112
113
123
2
34
57
93
94
95
97
98
99
108
109
41
42
43
45
46
57
87
92
93
94
95
96
97
98
99
107
108
109
45
46
87
88
89
90
93
95
98
99
100
32
33
34
45
49
50
64
79
101
102
103
104
32
33
41
42
43
44
45
49
50
64
89
101
102
103
104
118
40
44
48
49
51
57
62
63
66
67
68
74
75
76
77
100
117
119
32
33
34
35
45
46
48
50
52
64
71
79
107
0
32
34
51
64
67
71
79
86
87
88
89
93
94
96
97
101
102
103
104
107
3
57
92
93
94
99
108
111
44
57
99
103
104
105
106
107
108
0
34
35
44
57
79
96
97
98
99
100
103
105
106
107
108
34
44
46
47
48
49
50
57
78
79
97
98
99
107
1
35
36
37
38
39
40
44
46
47
48
49
50
54
56
63
67
73
74
76
79
103
116
117
118
33
41
42
44
46
47
49
53
55
56
57
61
63
66
67
68
74
75
83
84
100
103
104
115
116
45
48
57
116
117
45
46
47
48
49
50
116
117
33
45
46
47
48
50
105
118
33
45
46
47
48
57
103
104
118
46
48
57
101
102
103
104
111
115
116
3
5
71
79
111
112
114
116
123
3
5
58
70
71
78
79
92
93
94
112
114
116
123
3
4
5
69
70
71
72
78
79
112
116
117
118
120
121
122
123
5
69
70
103
104
111
112
116
117
118
120
121
122
123
2
5
33
69
111
112
116
117
118
123
45
46
47
57
116
45
46
59
60
61
68
69
73
113
114
115
116
45
46
47
56
59
60
61
68
69
73
87
98
99
100
105
106
107
116
117
118
5
32
45
46
56
57
59
60
69
72
105
106
115
119
123
5
32
45
46
56
57
59
60
68
69
72
105
106
115
5
59
60
61
62
63
69
70
72
73
111
112
121
123
4
5
56
58
60
68
69
70
71
72
78
79
80
81
82
91
92
93
94
115
116
117
118
119
120
121
122
123
4
5
33
53
60
68
69
70
72
78
79
80
81
82
91
92
93
94
103
104
117
118
119
120
121
122
5
32
51
62
63
69
70
71
72
73
78
79
103
104
5
32
51
63
69
70
71
72
73
78
79
103
104
2
5
32
45
59
62
63
65
66
67
69
70
72
73
74
77
78
101
102
103
104
111
118
5
45
46
55
57
59
72
75
76
77
85
87
88
89
96
97
98
99
105
106
107
108
114
124
125
126
127
5
46
55
56
57
59
72
75
76
77
85
87
88
89
96
97
98
99
105
106
107
108
124
125
126
127
11
56
57
72
77
89
112
117
7
11
57
72
76
77
89
112
117
32
66
67
72
74
77
79
80
81
91
103
104
117
118
119
4
32
65
72
74
77
79
80
81
82
91
103
104
117
119
4
32
51
63
65
66
74
78
79
80
81
82
91
93
94
103
104
117
119
3
4
33
52
63
68
72
73
77
78
79
80
81
82
91
92
93
94
103
104
118
119
17
19
33
52
53
63
74
75
76
77
79
83
90
91
93
94
95
103
104
118
119
124
125
126
127
53
66
67
72
75
76
77
79
80
81
82
83
90
91
92
95
101
102
103
104
116
117
118
119
124
125
126
127
20
21
49
65
103
104
117
118
119
124
125
126
127
20
21
34
49
50
64
100
17
18
19
63
74
75
79
83
84
90
93
94
101
102
103
104
126
7
9
10
17
18
64
79
83
84
90
93
94
102
103
104
1
2
3
7
8
9
10
11
18
19
64
85
86
88
89
90
92
95
101
102
103
104
3
4
5
7
8
9
10
11
16
45
71
82
83
95
97
108
109
111
112
113
114
120
121
122
123
4
5
7
8
9
10
11
17
19
20
21
28
30
31
37
38
39
40
41
45
55
57
58
79
82
83
90
91
95
98
99
100
108
109
112
113
114
115
120
121
122
123
2
4
12
14
15
16
18
19
20
21
24
26
27
36
37
38
39
40
42
43
56
57
71
79
80
81
90
91
95
98
99
106
107
112
113
114
115
116
123
18
19
20
21
27
28
29
38
39
78
79
91
92
94
100
112
113
114
115
123
18
19
20
21
79
93
94
98
99
100
105
106
110
20
21
29
79
93
94
98
99
100
105
106
110
20
21
31
45
79
93
94
98
99
100
105
110
30
33
100
101
102
103
104
3
28
29
30
31
113
114
115
3
28
29
30
31
113
114
115
3
28
29
30
31
114
115
28
29
30
31
113
114
115
