0.5600025732607701
0.47651590996580045
0.47504639081363387
0.455695468455269
0.4194228866593865
0.40976466922795224
0.31725100181037486
0.3464525867453896
0.4306618249324614
0.5784648893596748
0.3868463268832811
0.4576621061800437
0.3057461054111386
0.4264405007164158
0.3492001969956146
0.4176744783996098
0.4172096232415483
0.43910426110156797
0.37525095232082273
0.4277484660284753
0.3864333804453188
0.3363768954457657
0.3846473333807549
0.5076368023337118
0.38981364651021283
0.38630823763451505
0.3261022589590812
0.3639158393631552
0.5411645368376279
0.4443770298055455
0.26932628939773434
0.5222677737334459
0.3334554350158693
0.48573470589562107
0.5228808998021113
0.4402644565466756
0.3271703546116834
0.2904378834380532
0.5069307426563656
0.31219189904683153
0.39484963225022895
0.5206141559624834
0.4258051986521578
0.35048462204409636
0.3383836104382831
0.42792014536338624
0.45576670678287173
0.4750937011550837
0.3196134282607571
0.4400450503714184
0.4389776916788722
0.4066618888745868
0.4435130788712692
0.41802167807993834
0.37200213193561893
0.4825489820167608
0.48161195140658586
0.4989732030027542
0.31216754240768757
0.47625752796688886
0.3874138462762203
0.5192688297441566
0.39036638103537485
0.38102239728230525
0.3089252563248012
0.4216460228861692
0.42314975689189693
0.44357017441263985
0.29904796800396943
0.37557222714590616
0.43043288008240344
0.4819836632737696
0.314349767094113
0.5009486311474434
0.47241443116439386
0.4228652256451048
0.41740218802744644
0.3919860098371817
0.22576408730152872
0.3014178471800885
0.47488551190981515
0.45566095325884626
0.4012859710347355
0.4450512705726995
0.45642186777373833
0.36575816087376806
0.516746644826524
0.40043883427852855
0.4043927072306174
0.4355597203839622
0.4832825582612617
0.43500922531547226
0.41681329388006955
0.45275562763185456
0.5488246442089432
0.4491541153135282
0.3293193083505881
0.34671860473875843
0.4177472661752115
0.3810972396271497
0.4453830794616323
0.4185686671470212
0.4413399941747905
0.308188841702543
0.4202322194080445
0.427975617330043
0.39991034372364226
0.5569705533077816
0.37828099229896484
0.38350336967436083
0.3214387428563554
0.36814661807142174
0.42154583934207396
0.36557343774445117
0.465306982157429
0.4033666981291987
0.543296074384702
0.4301363373352066
0.40606497243223544
0.3804673188300919
0.46061752164841824
0.44677249088386084
0.2205589786652331
0.38286377514568737
0.40249215028443597