0.6394129588586966
0.5739940441603719
0.5804140127388535
0.6265663810666741
0.5675762268382549
0.6484637058902455
0.5492322021350273
0.5760786953594927
0.5765844881872898
0.6274870011645645
0.6043495390434166
0.593172297367708
0.5943567502143325
0.7424066814385546
0.6690344212729669
0.5787801914344796
0.6252994470361498
0.601573014069737
0.5613519836726567
0.5808920559514383
0.5561885033661316
0.651343617815377
0.5555585823639979
0.6908730608085154
0.6058411492342396
0.5990326439332212
0.6554951392321634
0.5755573905862923
0.613008557854501
0.5675538799167182
0.6913837859424921
0.565153024911032
0.6493088142041852
0.6916776101353841
0.6516311885666044
0.6745868803204808
0.6160620484818614
0.6448969755392215
0.6431077299065789
0.5995121698064249
0.5838921688760165
0.5592686181539422
0.5811384876805438
0.5723575380754092
0.6086431375335264
0.6446745183383473
0.6002536671445903
0.5953703223127628
0.5644060567285135
0.6826659641728134
0.599818961615552
0.6456534128271448
0.665730962332748
0.6406405451448041
0.5878552073924824
0.6685341916001113
0.6077106139933365
0.5798680278884463
0.6763777175652322
0.6789302769818529
0.6955019570969364
0.5979301363916748
0.6158284059081225
0.6256329928761479
0.6549518892278808
0.5822951684134203
0.695033070243755
0.620948891275507
0.5900493261350837
0.6589247442581586
0.687307339518518
0.6725375368764035
0.6270001375452753
0.6507152712221335
0.6294039546683105
0.6818656456665506
0.6196986425927129
0.580218427934164
0.6356203341628155
0.6062037474413479
0.6195287033120164
0.6272760601246486