0.6865363186077761
0.6880534596244411
0.6874396987013837
0.6797797696535126
0.5382171377804895
0.517678323684216
0.5420598211964323
0.5803754450471786
0.5801958082109381
0.6355002298108028
0.6810742012025034
0.7613798491814947
0.7426820085530382
0.648056989656584
0.6465014790599861
0.6952166617880602
0.644404674716001
0.5750423090952184
0.730150067616984
0.6342279615597722
0.6354508312321053
0.6595899399510615
0.7019115232893609
0.7025462439112946
0.7035524457229119
0.7019229953979789
0.7014466234921162
0.7294156286386345
0.6827082948526081
0.6354998262934117
0.6307842641949672
0.5021214501954613
0.6634665523180543
0.5998810070556277
0.6524495734971612
0.5381820151411427
0.6165606398411441
0.6488684433940582
0.7165237080493638
0.6616942238106287
0.6607383661360503
0.7874259845062949
0.6480610849292311
0.5790060058426777
0.5683257412357028
0.5901513138762883
0.535025979023156
0.5391697338076534
0.5261232834713109
0.5398441192483647
0.5412007822501991
0.5942131823753035
0.7367189053404342
0.5961675071219845
0.5718951060095865
0.5592418174749184
0.6025313448305089
0.6979131740223998
0.5735653968990695
0.6103398190140961
0.5398496834018964
0.5424710139266434
0.5495574172352801
0.5505106678069457
0.6891036957378076
0.5709654627917723
0.7353853338658858
0.6394494681940949
0.6597997180647003
0.6140760673455025
0.6064671651606321
0.6190982655186237
0.6613337057594012
0.614404517934897
0.6137921004703865
0.6253424787860297
0.6231727835354014
0.6383642401996876
0.6790908225992967
0.6467945516514497
0.7131191265718115
0.6607536254161536
0.6455996985340698
0.6338829460510533
0.6367258585484431
0.641436069514271
0.5893816382364223
0.614862705354591
0.6302944637351479
0.632092320799169
0.6428767305437704
0.6626867976068143
0.6676049291248457
0.7102752272496388
0.6403116438185471
0.6646490575561824
0.6072114251884488
0.5894688292903882
0.6361489415970455
0.6357019130144629
0.6525557716186646
0.6150311726748628
0.6377261231490803
0.7466474535577645
0.7537476651452515
0.7477936151168768
0.6058384528135391
0.5719520257897782
0.5692320785865922
0.5654786946864556
0.6243762720941356
0.548893420273922
0.5241963489648357
0.5598960867749646
0.5748223633223509
0.5873221780477975
0.7046081383864933
0.6428848144095203
0.631281778902212
0.7081704114912383
0.7107196257935294
0.629930798161927
0.574936427984049
0.5421250374182242
0.5809511140070794
0.6285772062194634
0.5990851664212788
0.7913868140226088