0.6461241799609355
0.5868625039676274
0.5932864322006821
0.6193691005571775
0.5982593836319158
0.6546010399511062
0.6190897339603704
0.6134596602716572
0.6574902706847937
0.66144797871076
0.6470173478294197
0.5966974999758987
0.5835599007869082
0.6072503917409419
0.620160050024123
0.6280010928913765
0.5966577313329058
0.6249223795024841
0.6109927777310589
0.6525676119551126
0.624108542214655
0.6320203602431476
0.6414567641475732
0.6603893265590696
0.6803469575448703
0.6709371088414943
0.6220927363347073
0.6426536399078241
0.6187772422307984
0.6326064087392553
0.6406229573795396
0.6745426536001385
0.6193687517295788
0.6587796327019242
0.6391728232508344
0.6685887110525512
0.6263761292989009
0.6322597215876237
0.6836723823399519
0.6024857222884826
0.5883185361861296
0.6422145712853713
0.6040917527926326
0.5946870134910088
0.6729378833728095
0.6332940169141085
0.6420312491716851
0.6486739553467666
0.5592378465144996
0.6158430432258385
0.716358083332816
0.6327090243145473
0.5934311628367651
0.6620790314588769
0.6550991580037363
0.6632755795887342
0.5896981433941063
0.669678027859569
0.6247845391737776
0.6471029156910469
0.6340837046618173
0.6359486205951428
0.6298798518780312
0.656267588085611
0.6880129711957597
0.6457566729081299
0.6779800812751535
0.6030111689556144
0.6026457898387562
0.7104812048198572
0.5931243773697557
0.5940211019662355
0.6977002073156374
0.6389518816501405
0.61540145914117
0.6379802073455503
0.6525114407945135
0.6202536011735937
0.6015495340370761
0.597437430139918
0.655700613957299
0.6684146099306428
0.632261383288948
0.6995785708074267
0.6357228715901168
0.6346227966985983
0.6092403581884632
0.6117396598593243
0.6796298619852947
0.6416471441214582
0.6668192589424186
0.6460020953427769
0.6658952034992971
0.6261680309391372
0.6451933346612634
0.5904314031531431
0.6533952914045088
0.5694993920865276
0.6099854712911053
0.5770041884070971
0.616839410873778
0.6010970138081897
0.6406104365082439
0.6095399759463382
0.6561982381675323
0.5923813746415311
0.5762728786652203
0.611331085606091
0.6635911439755673
0.6352122390210047
0.6043763866310291
0.5538976198763286
0.5707372776778601
0.6143769103448734
0.5869867153929579
0.6415030929264202
0.6470800300716277
0.6724989020596145
0.6025943585455674
0.6531788600261448
0.6352361781610795
0.6741652707280328
0.6462449427844524
0.6447195841519081
0.6967889879417298