0.8675728182614729
0.8681697414848611
0.8647659708647243
0.8615914891942833
0.9489893606800711
0.9221357247313405
0.9236378772439147
0.9242941317102139
0.9262900232680061
0.9224842828610418
0.9174900148933297
0.9203226093679259
0.9276716641191722
0.9280179268909456
0.9277892309166704
0.9437958162909068
0.9427680284901843
0.9476834430340605
0.8871071307689256
0.8829203291426134
0.9673156234472812
0.9671123039987575
0.9629872640827297
0.9667308642540655
0.9617852728036207
0.9036816854494476
0.945855351462001
0.9437115878690723
0.9431055984731115
0.9442079827521396
0.9493975064868101
0.948272501893228
0.8378831083286221
0.8649260228641775
0.8329109255473369
0.
0.9345635909183847
0.9354557529902083
0.9340141122899366
0.9352435923042922
0.934975957370873
0.8577882161069957
0.868335460956919
0.8509171908119131
0.8575347196402203
0.7566488050192207
0.8054967313973452
0.8069810241801317
0.821835828534817
0.8132142174054235
0.8212730641119685
0.8661584032823728
0.869637801584688
0.8691863458863512
0.7859682069758634
0.7476959806342582
0.6620334462441883
0.6137052763928065
0.7125623987421463
0.7139188078977694
0.7199226173308318
0.9067464397262713
0.9115251744622686
0.915707361927034
0.866801612581075
0.9519482225977346
0.9684088468187422
0.9684233072030797
0.8307523732622091
0.7400138158726183
0.7396404564604933
0.6522216236045959
0.6670862827237195
0.8153016337446939
1.0001504691872913
0.9876309678160881
0.9908966525211503
0.9522773643430704
0.867302728296936
0.6572955691444677
0.8052110569305205
0.9298433675714646
0.9648866193819253
0.9765263830544532
0.9752156080866798
0.9806435992543221
0.9577911203263234
0.9762733267228894
0.9814884034902618
0.9735410393030833
0.9743398254400735
0.8314120532961131
0.8258703431548106
0.734270295604895
0.8109658914780384
0.
0.9030883617451638
0.9459718507408904
0.9524830815268143
0.9504105648262753
0.9510436826171679
0.9536429839516889
0.5551514990840335
0.7514837038241629
0.6775361474769539
0.8144247442430724
0.8433195309556268
0.9446321852854427
0.9460133349650405
0.8834484700981546
0.8523449469885821
0.8723100157309963
0.8796114294463537
0.8854482501966504
0.8400851325184655
0.8043109056997942
0.7968069253565321
0.7337835370924715
0.6767917936168534
0.7624702812113737
0.8018634951991376
0.8342797583967005
0.879755831916585
0.8816896452777503
0.9176122756083569
0.9162941122501209
0.8434118748853412
0.8120904959558352