0.6178403755868545
0.6805258926613774
0.8102611927314232
0.8010552797381838
0.6131455954564279
0.632169401206002
0.7005912857378038
0.5833894500561168
0.6258341437242212
0.6735908853061103
0.6099278635186335
0.6707510685935274
0.6983823816020269
0.6681528849256402
0.7388632600476371
0.6230589608873321
0.5761403121725222
0.6904626919205359
0.6104851839791599
0.6812321137335754
0.853477088948787
0.7473990741201653
0.6544952165904094
0.6725269618758108
0.7240835432089343
0.6861911324750412
0.7867581970915003
0.6086402821316614
0.6393007836045811
0.6116213057271664
0.7154669260700389
0.5718798389594302
0.5994865822062704
0.6908388397356927
0.6208799568458762
0.610722319420145
0.7082127351664255
0.6613261865143059
0.6836184741904692
0.7809247240347778
0.7164730445955351
0.6364526311583489
0.6760353871447585
0.6534812580176776
0.7612639074321317
0.6550171481473689
0.732176833395053
0.581500940520205
0.7946050628045986
0.6739756814383681
0.5796309192200557
0.6225082751011402
0.679646770933078
0.6687086388839206
0.7562141204051577
0.6244290439439282
0.7969714091987795
0.6070421063629715
0.6193940895088007
0.599704444282274
0.6724353931765872
0.6305499279943372
0.6099410449278309
0.6675077323783167
0.6550048041598372
0.6891915916729455
0.7028012138864707
0.6072676056338028
0.6622436018701187
0.7868135914159479
0.611949406412959
0.6509974776427425
0.6477950794703173
0.6148031496062992
0.6471012959205268
0.6553991393054007
0.6288515596355192
0.8154230631917172
0.632527641361903
0.5939419840803462
0.6813777146522496
0.6779084009219701
0.6022160157501946
0.6711446422906638
0.6104872689151866
0.6831381844038872
0.6605109677419355
0.5649517565100771
0.6119648737650933
0.6277695338484368
0.6164709885996257
0.6787377296753083
0.577633198522947
0.6422261379628426
0.8223681091437448
0.7142764533329011
0.724610008286198
0.6986738111185532
0.8730908620243334
0.6056893413868594
0.6289546663648198
0.6239995904506749
0.5838605838605838
0.672606279494368
0.6536183199635466