0.6898387941128161
0.6852097968411189
0.6917175199752471
0.6871511876055698
0.7287497872599797
0.7970505276310624
0.7924337088128706
0.7947972222670735
0.79683783400632
0.7942275531069392
0.7938098453415429
0.7963288618432884
0.789618802355338
0.7926614411126327
0.8001110218832685
0.7436617972751137
0.748297295824624
0.7526792593162513
0.6683803167662351
0.6749797380585559
0.7184321706183873
0.714698434156333
0.7145313494933946
0.7115567866068283
0.719165847400912
0.7815330507990903
0.7392728749797397
0.7384700363071064
0.739466621896751
0.7365713358769506
0.7361227465029362
0.7346540177925273
0.7376434830479979
0.6255012289165123
0.6053993063232816
0.
0.7656285811022505
0.7671898270868928
0.7699795340525111
0.7702611748836994
0.769074002741885
0.7867956162804046
0.7727805488685285
0.7118965098181569
0.7087697863968722
0.6192214682270851
0.6040604262861503
0.5973265289947756
0.5529426313503353
0.5611911914216288
0.5890353468940225
0.5965087587019362
0.5994872249983279
0.5964911488623251
0.586251194321401
0.6313322550201382
0.7704285222824653
0.48218508090573814
0.7094415624968181
0.7125443716643157
0.7058602315197167
0.6889362330360566
0.682975274068182
0.6844702324996085
0.695959451427001
0.5963516097584829
0.682245515000782
0.6894759679743108
0.720038712641083
0.7956898853551936
0.8052746799404646
0.9418308085151516
0.9187780385533382
0.7135260068498049
0.6303870782041922
0.6582149144232909
0.6582655220771461
0.6526134121270706
0.643211113526549
0.7523584773342685
0.7446079108848648
0.687872756239753
0.6658314943615862
0.6731642352739057
0.6781471458930133
0.6459255286585853
0.6398037252752549
0.6302838429099301
0.6639281758310276
0.6697914218629013
0.6379358892753402
0.7665836586019303
0.7721054546064144
0.8013057758896871
0.7340528214444391
0.
0.65569132653519
0.625367248070781
0.6819957201591073
0.6775527118575468
0.6801259096254832
0.6827855587287498
0.5937856042382192
0.6316223345847176
0.7173221222763586
0.5810691257376134
0.6781667756425921
0.6205690392244516
0.616964248284375
0.6471908939075858
0.6866213005387984
0.6044347120673674
0.5874219623261381
0.6030279101243228
0.6109300275222646
0.6027403538629189
0.5436504092425578
0.6717125962279613
0.850756889575684
0.6682963133953438
0.5864357479168217
0.5559898363930957
0.5608177241064355
0.5728704431633445
0.7630682017130258
0.7574659915038915
0.799825311780614
0.8292034162610457