0.7053777808334134
0.7008261115594565
0.7077173416712654
0.7030803506984001
0.6794296127818262
0.7596737033841722
0.7615070249380068
0.7598049062682517
0.7654546050771247
0.7741397740308424
0.7862058953062655
0.7834452128261643
0.7740637619241723
0.7708891964089806
0.769066831005363
0.702453306580845
0.7070718020086006
0.7036675305531697
0.65440519986189
0.6547715953750456
0.717178913884677
0.7128691305247714
0.7167145636103375
0.7142929016270667
0.7177429052578086
0.7887582692612806
0.7498276889632196
0.7500159685511635
0.745223008816599
0.7441215485784091
0.737615852086569
0.741196217660305
0.7746926112501754
0.5797855848051431
0.5766073229649636
0.
0.7537598561131956
0.7529992581586898
0.7547114038921378
0.750704783507265
0.7511940125946596
0.826889018824331
0.8012877776637528
0.6833231515073387
0.6847625584435639
0.6189918605161439
0.5541660211549505
0.5583395838201191
0.524471256220697
0.5778872056267804
0.5970191702689939
0.5863572708348448
0.5874334514077738
0.5905299484646748
0.5631678917675415
0.5329870609550915
0.8060899395060882
0.3438074851254861
0.7093841668740383
0.7070815314751364
0.7102209869784539
0.694313226122394
0.6966855680932831
0.6959304462428503
0.6931912475137249
0.5923190041998242
0.7003551839070609
0.6988766252730697
0.6914642358977623
0.6965156859540187
0.7044280613677004
0.9429932132088195
0.9000704267783303
0.6258619883148041
0.6538048403853871
0.6754172757752375
0.6724181335341108
0.6727915647946437
0.6753416449231565
0.756972602391857
0.8390059239432702
0.6888843971911013
0.6765117398826057
0.6828300185048161
0.7032858968030534
0.6829509385225714
0.6350601752615314
0.6546844042294415
0.6908791944834873
0.6696824702661653
0.6556617593567743
0.8156848281563023
0.8245984276696413
0.7678782643617611
0.6894058117410805
0.
0.6469371437051353
0.6235239302546214
0.6994252117126819
0.698095842072937
0.6988291457552406
0.6988723964504177
0.41387309038030723
0.6443357832046398
0.7778083693061034
0.5514628022443085
0.6601919069369351
0.5902029443292333
0.592475201530966
0.6396007583002354
0.7409833144818733
0.5594615612844593
0.5842129262470901
0.5673797317417744
0.5939682059922796
0.5780645528713156
0.5396433732402854
0.636277730110842
0.8491821144306517
0.6461418142432322
0.5278469099462316
0.5217700416870762
0.5410671590447956
0.5332341871484465
0.7327521237621717
0.7324928597791973
0.7844754340129957
0.7899634308413803