0.6781574246621307
0.6860084934316207
0.678559881688559
0.6878108628629985
0.7422544118895966
0.7588964344139978
0.771425723730862
0.7692790041381552
0.7731049705075697
0.7751594631224483
0.780198743502804
0.7793008958303412
0.7710665666164842
0.7794213698351108
0.7688748356656525
0.7812064574451907
0.7673093311963692
0.769149347827632
0.6529744364597007
0.6455265059705636
0.7074368675989384
0.7115319006450259
0.7043506528324088
0.7230812109009156
0.70439110748412
0.788436509416748
0.7206249794611765
0.727187871707943
0.7330519946157666
0.7101288751590176
0.6983472272529533
0.7151824672306774
0.7539427486499395
0.6166101013195107
0.6243041124030235
0.
0.7620354815892588
0.757017104283017
0.7636354347388757
0.761968848653729
0.7665106521731254
0.7813635732033388
0.7822047308024287
0.7279608251860574
0.7438683501676636
0.6313498350484381
0.5839361682004378
0.5733472171674899
0.5590278635545564
0.5244310798134328
0.5799824330191602
0.6147150350978898
0.6080599938001143
0.6013719187487722
0.5928326864573292
0.5103094595463017
0.8205465210062466
0.33535976378855636
0.7095365174041643
0.7096464646464646
0.6916151626151625
0.6594975279118895
0.6553747206028572
0.6580257006981594
0.6903080530502284
0.6138195166841397
0.682763970869201
0.6796431581092034
0.6853298055902942
0.7412602092520957
0.7387889509352491
0.938701680672269
0.9053668630220355
0.6589125367233697
0.634494353328779
0.665138273901417
0.6715705307763556
0.676043178008236
0.6695194083132989
0.607571465708742
0.7872102296429948
0.6731974525135374
0.6560900362712024
0.6802060797682816
0.7014008310515979
0.6477584789847658
0.6241393365635103
0.6429089556801673
0.6557230521091864
0.6712770464623161
0.6453858033900804
0.8229790755873352
0.816879602801534
0.6886669561481646
0.6115343528545116
0.
0.6447930679810108
0.6352424136339104
0.6681266222676445
0.6683304816387443
0.6696629132448856
0.6650313826722087
0.3942471743255507
0.6267924179710233
0.7467975627246727
0.6033847589911048
0.6261607084356072
0.6013280275743017
0.604890413021847
0.6265758092957316
0.7124072687270305
0.5848341855656097
0.5806975963502089
0.5738173716194631
0.5799565050443345
0.5781531114741228
0.554280018072893
0.6381986512298056
0.8756977697461535
0.6906910696291222
0.6086056577449562
0.5642184262415396
0.5819379659677336
0.5730079011135265
0.7237864696563735
0.7266066643370768
0.8440720784953414
0.8922539823996364