42.604479987453225
41.016694740114986
32.12814400256765
58.08053261775552
85.90936324998458
17.21635539860443
0.
34.68464035384251
35.012189301143266
33.81879134876753
33.715016435353014
34.61303299894717
29.554697538096562
29.857771321814973
56.601814944647536
56.909344632630734
56.92788526872977
91.37766925812882
57.27043180582706
37.61203118354052
58.1679975272075
59.91871602549619
52.708051144386154
49.919816864860714
36.67653466346906
50.83264800190819
36.72265211463052
55.89062367710195
74.14739827650382
78.69887438850064
76.3533467856312
62.46125259128494
49.147579035183036
56.743970506434884
74.72855554749113
83.34927833590774
35.79788833565992
35.946548142590856
34.09564069097737
33.36181439421324
29.339742538201126
51.44422447750529
53.02734744128641
52.36475222858465
87.73467261488817
9.248297440013557
84.91286706425957
78.57340162451031
63.20029164272929
49.28070570000894
49.078527666497266
75.27080521390901
51.43063399848568
51.35597582367008
63.46275215950228
52.43663155948867
31.254796722698494
37.679803400774134
55.57569980640163
34.77379080038647
90.33713970717494
25.93064973106368
44.032356092308994
97.53074773241639
42.48711255315519
54.87808894630916
72.13469874586693
51.25891873213402
55.309760640543466
66.50347358614697
86.6603355376667
50.2403872157944
15.269128296211834
9.01847165532848
91.81919084135292
91.55243625399606
96.87296951764486
77.48648491775238
7.833739273682292
2.040815076646941
91.23619046322627
80.26085960644154
79.35478756932369
86.97135487837275
81.12005054486795
69.7380047863066
68.15000828706954
70.29998508403764
82.31941957203985
85.31711105949876
83.46667677402745
57.06442523719674
41.049285785617556
38.45278555377682
37.94496806893348
64.51833091203851
60.538194870628985
85.62784655408917
66.2266727269315
67.35011457750223
65.87424998393257
39.875949058155136
38.526342402662614
34.85828517530611
34.38437874716591
69.26000691124615
69.30292304128164
66.08787686366873
84.62442096671379
65.85210857618783
47.60788792340532
71.53522234414605
70.57441151071879
39.58821962942171
44.62756182499063
30.720436328366908
53.33956424779581
31.84183122560549
35.911020294230674
78.03751571278062
59.925549190503425
60.505421165223474
59.81653973111524
49.07565734246558
46.88595417463473
45.03593735095866
44.33446863597285
42.760488315029534