0.6398487939581541
0.6415916465250379
0.6334540118102324
0.582974874618195
0.5982878384252869
0.5445878201904657
0.
0.7364204468663524
0.7411909377781174
0.7432481891329087
0.7469132373517466
0.7449541803323798
0.7516028607968974
0.7508851160499647
0.7056249352796669
0.7066145164790194
0.7033239005584083
0.6207739904605651
0.6399782688350752
0.7200741310315629
0.6921621621467624
0.685632088581424
0.7399895936259027
0.7421009858373054
0.721080270986884
0.7366098260298495
0.7184906345563501
0.7108902561173833
0.6369080986310847
0.6357306451032276
0.6332272408228633
0.6067958369446507
0.6082211652818553
0.5630760444053343
0.5852846237362059
0.6096193428320932
0.6914104999375823
0.6936095590007442
0.7022356515636745
0.7041467094797131
0.7519278802619571
0.8007124413471821
0.816179513451604
0.8218770434438336
0.7401253292135813
0.4826530612244897
0.623608903804982
0.5250104028649021
0.5381971159365416
0.592138201559141
0.5916021472973431
0.5724019051241296
0.5854276259324128
0.5442184817055798
0.497390960402364
0.5435630669490216
0.6727556652240072
0.42897621528815344
0.6156702768205208
0.6043838654948818
0.550156152296853
0.6383236329401016
0.6689379020908998
0.602816950316108
0.637545765694537
0.6784631773692323
0.6761185316284742
0.6770303219915528
0.6117672642036862
0.5546187356288486
0.5599713187657879
0.6733489947264181
0.7771039726386179
0.8320377480271128
0.6381208417153674
0.6380084905711365
0.6316674079335564
0.6375789605693213
0.8380534467952343
0.8829581684317901
0.6196447142677016
0.6192313851896241
0.6156344769868922
0.6333557837019722
0.6557881420068609
0.6553263933520282
0.6442478353961415
0.6595309977746253
0.6422139161627185
0.6283293780690958
0.6216437880064961
0.6636270202074014
0.6880186220665303
0.6991433948796854
0.6961277094883392
0.6589372121584697
0.6334656283282213
0.604513129198406
0.6847781596748085
0.6840203953559166
0.6537044446667896
0.6721067731718112
0.6770623414516547
0.6559722793468198
0.6571223719238551
0.6027716934019224
0.6037306308985692
0.6260245714292002
0.6089773369765578
0.5853475465940682
0.6212984870399128
0.5215899207816054
0.519858067598779
0.639819692188858
0.5599756978745726
0.6582118725156465
0.5702203429896431
0.6591742639403293
0.6436554597027392
0.596710721749232
0.5872676535081337
0.5890716049635482
0.5908449571933534
0.5887965665838153
0.6893323079873468
0.696129897109774
0.6996509522311924
0.69850718616686