0.6695108848881404
0.6443129041720465
0.6045660642740712
0.5732382884314645
0.5702763329546487
0.5860086728627439
0.
0.7196104260325181
0.7190837513002981
0.7235393990938712
0.7289078636444157
0.7275151061513816
0.7401409887479687
0.7378861547219961
0.6646432903294935
0.6627725793951562
0.6662448616477559
0.5834487957933008
0.6088347259983908
0.6749160813434005
0.6412880059827698
0.6361014858406301
0.6940594621086881
0.6981324879210975
0.7134512980696335
0.696127364221735
0.7113093226270905
0.6508720014159481
0.6122880312394474
0.6200874551663205
0.5994211438798368
0.5787552465714402
0.6182348193603702
0.5605098924470725
0.5548494207503931
0.5914930675436832
0.6985297455916442
0.6987806004140608
0.7058930314183469
0.7075263288118957
0.7473511677106572
0.7382737398484468
0.7553575057003713
0.7617589047964446
0.7239485868095199
0.5915721844293271
0.6183750422795609
0.5254178042365958
0.5393708795830894
0.6012524271130649
0.5971113370867955
0.6000558758932201
0.6004349044577323
0.5863029308651598
0.5425382050817874
0.5520078575444948
0.6646718584165446
0.37397452893969924
0.6005027438106672
0.6018423830944469
0.5581551390178553
0.626764690093305
0.6581753824611124
0.6069119113641362
0.6676518882911633
0.6537172072375464
0.638672377173008
0.690646643527077
0.6185313816646818
0.5891905953289905
0.5309844100792106
0.5318873062639835
0.6285827910559467
0.772393251999706
0.6312075628837391
0.6264859058667679
0.6458549934175477
0.656287317912169
0.7697046493145909
0.5216187777995109
0.6376125217474093
0.6151395905303284
0.6109372165511677
0.6109390475842855
0.6158518120667047
0.636548834057731
0.6430989883457588
0.6411708033196226
0.6167653768415484
0.6086100986727103
0.6015713792304163
0.6502670093045848
0.7317062354999605
0.7092844700987923
0.7160592984653121
0.6357773351068293
0.6537174839511092
0.622918600533472
0.6385036961125677
0.6360770502808046
0.629388623613848
0.6641043341166626
0.6677826398119191
0.6336808054983409
0.6310630006432232
0.5857255741750264
0.5872268922844549
0.619895345099707
0.6184778971659772
0.5786034626545173
0.6299966320510042
0.5348220352095102
0.5238806085678781
0.6170478282831168
0.5605314776467334
0.6455228234565935
0.5835600576911341
0.628434157878161
0.6556220796035837
0.6017689700664709
0.5970639556406199
0.5998355022692586
0.5954379622880064
0.5856764552745298
0.6998686898585582
0.7012632862525388
0.7070093415489862
0.7043824981338944