2.3407441381506673
2.3607234275564877
2.378499375782929
2.341568953839972
2.348752612214174
2.408061532034482
0.
2.4695341182517394
2.457623544729825
2.4713893362993082
2.474259661482944
2.47390128606029
2.544323707747099
2.5456788970637283
2.3771372009831953
2.386033400525156
2.3867512446879005
2.3544158842592293
2.333520174147239
2.3751196416499143
2.310940702751393
2.3103032239144348
2.4584750253891086
2.4615669198014483
2.5134503195843707
2.4813487130087912
2.521098583148016
2.364203896987406
2.2663671560153253
2.2838654773655875
2.2879880211692125
2.332437170076608
2.34819327906735
2.324630836588517
2.3231245634905675
2.3384453628008757
2.3968253626087024
2.385255384055291
2.411665753853394
2.422267947291652
2.5204473497845017
2.4709599705080976
2.4701625885595813
2.455566636822332
2.4223761659050638
2.7118314243082535
2.542914911308379
2.467667547246759
2.3859496589467826
2.335535680355989
2.332261864414929
2.31858131949498
2.328546171398451
2.3261689999582624
2.3848664591752846
2.4599775216712287
2.5188925221976124
2.566716256271326
2.467427985582396
2.5267699614511727
2.4339546231618345
2.4273877311886225
2.350672894113784
2.2676199140329714
2.3349140226877907
2.3168885773781267
2.289655148010213
2.3932728443638034
2.4780060715736445
2.513838750140161
2.511571203863873
2.5691038465397527
2.589937121616654
2.6565200960062207
2.2819456085939733
2.272682500527045
2.3454651742889325
2.45853258851366
2.6792178348623024
2.5681561622891267
2.4230784787992015
2.372003197204953
2.352991099938595
2.2615251315895692
2.2582518857199934
2.284943044272369
2.3133231738705
2.3040585303748697
2.257077777665929
2.2496602384182722
2.294214420719139
2.37950570319516
2.513276140064564
2.4496563471983634
2.462014603477987
2.345710278788831
2.3354739243965676
2.318352027987622
2.296194774792221
2.3086517109544835
2.3685956236135204
2.4790822028593635
2.4750646022857477
2.426263064634868
2.431106030508338
2.4049859016872115
2.388359400099066
2.329711805405107
2.2979195757251816
2.3221442504338845
2.3752967137796857
2.3295589002872985
2.3420113074083786
2.3377872389734686
2.370709495836218
2.393860226060665
2.3894132569844793
2.4260135477143856
2.489459963805545
2.4428419991634533
2.372396695876889
2.380382282419254
2.3704297495515996
2.3461740372492152
2.4348571500633045
2.4388157202198784
2.4374142081897774
2.4352632132982412