0.5913010424645817
0.5891165864403479
0.5992291032588712
0.5986309363970624
0.6047621643033612
0.6142158758055596
0.
0.620520374569132
0.6194461090281522
0.620305546248121
0.6199891162227109
0.6195058910112672
0.6302079414770507
0.630505795004982
0.6254858012907663
0.6263659282410385
0.62537202443365
0.6206905166406728
0.6041187174499825
0.6211892957541683
0.6327162908020054
0.6329847879262772
0.6338073937028552
0.6335015788088646
0.6248942181203171
0.6343499697254102
0.6243984969013676
0.6233081215275703
0.6174417013705078
0.6192879080786758
0.6125774056623117
0.6021579448815156
0.5941345377452825
0.598731496721026
0.6050951268471096
0.6117460746827234
0.6109555717387468
0.6102300689944704
0.6103344755455145
0.6110363296889523
0.6133480864653637
0.6088902645886597
0.610809956814286
0.6128912486362244
0.6128885051906486
0.6238687889152338
0.6010954585767779
0.6088087892607
0.6074802349620251
0.5999112590545762
0.6001245128512992
0.6003317781155367
0.605845474953506
0.6045985463336966
0.6085643322827093
0.6052002133326821
0.6122262403914205
0.617644672180906
0.617295344351662
0.6190251901441709
0.6162450723793157
0.6193550057784684
0.6117576739552713
0.6122693332489411
0.5932616345513493
0.6106925138267697
0.6217463719775098
0.6327574188336305
0.6291191344528435
0.6248661702941382
0.6242512869952537
0.6213328504185739
0.6320314028986214
0.6268623953926452
0.6237472136021178
0.6282058092358671
0.6273432471655469
0.6290424636290529
0.6282294125557277
0.6226038816089994
0.6287310464487582
0.6290339070330888
0.6296017761617687
0.6297647276325007
0.6269169968543886
0.6222113673803535
0.6153458195431029
0.6189222378697966
0.6252333681029532
0.6264242798681545
0.6272918921197503
0.628341121688571
0.6252813396130213
0.6259461522971603
0.6275651079503384
0.6260667557575936
0.5979495938083811
0.607480436183739
0.6213822833356728
0.6215536237530503
0.6266692173437697
0.6197930983855464
0.6220650125456105
0.6195518820319798
0.6185922987867412
0.6190693076228669
0.6148994659042378
0.6114634906888217
0.6014204874396598
0.600449147674432
0.588004060702185
0.5911715689748229
0.5947462048248233
0.6023012591473111
0.6019898957871724
0.6051596696059425
0.6050079961036422
0.6051172158753259
0.6144079287801676
0.609871277863179
0.5947792790196879
0.5965333338183499
0.598041688770016
0.5956495726034475
0.6105718970144961
0.6118852390295806
0.6101257325002543
0.6106579047829798