0.6097510496756436
0.6010719750686059
0.6104884542750734
0.6055082615000111
0.613897428317304
0.6191837047511423
0.
0.6186397645602993
0.6183480839118163
0.6178849567894956
0.6191942391240247
0.6165874406681099
0.6372367147375482
0.6370321928929686
0.6296786341288032
0.6286468205958139
0.6301291670571338
0.6209516705591122
0.606909132165384
0.6161420144912337
0.6285356993758231
0.6303632524425048
0.6432586122140775
0.6424055296271456
0.6337056787420494
0.643028252971351
0.6332412617533677
0.632214974707887
0.6291646517577483
0.627386483677782
0.6214598040341611
0.6157956425941592
0.6068262481845905
0.6084294828496146
0.6095870333483788
0.6149791611727937
0.6215032732963485
0.6203380877548182
0.6218777476867071
0.6228937826870035
0.6300685039167246
0.6215285819410955
0.618057721600292
0.6188215189416609
0.6206731159116332
0.6266489883158871
0.6154760653273215
0.6109434142833243
0.611779387418231
0.6035336895931265
0.6024399440479687
0.6109945038536618
0.6113871547623339
0.6153811690202005
0.6090279196106897
0.6039827265836866
0.6098361842522451
0.626451467113609
0.6186623197499326
0.6198787910507972
0.6155911503829404
0.6246846125751331
0.6271490443811966
0.6260315692863773
0.6126777042814583
0.6235570599833383
0.6238991552247652
0.62212259128703
0.6221120135367121
0.6291445780123484
0.6267705495325302
0.6382744894920012
0.6317923966491438
0.6270213446793482
0.6270094938236587
0.6298345676048639
0.6241016161766464
0.6237310572938914
0.6317625159458037
0.6310066319498796
0.6305519346761538
0.6316925457811805
0.6312875633350615
0.6339865745741271
0.6348476313694852
0.630809443114
0.6307319136034052
0.6352799105712413
0.6348525612529887
0.6346675917908474
0.6350858937417766
0.6336323375067917
0.6337101537031097
0.6330630286543095
0.6325160192213788
0.6394475946568049
0.6166882832416096
0.6233638734920474
0.6331395339976003
0.6323019872720316
0.6333524642300432
0.6283922219114226
0.6293902087896799
0.6229553335107244
0.6246509084938369
0.6265390567265315
0.627055630665679
0.6236616604410294
0.623074034449847
0.6052644843999557
0.6005668763168319
0.5957612797046801
0.5986256065139458
0.6072932524801115
0.6107145483495648
0.6212815404426267
0.6174314657445757
0.6169153592358566
0.6160638851015632
0.6145284798561906
0.6046280562964479
0.6055466667848776
0.604001812823792
0.607508835687735
0.6145247100440031
0.6132163235119823
0.6130667089375847
0.6130790761020453