-0.21169322858686887
-0.2523679065438129
-0.20560368165817533
-0.16324827909482523
-0.04399384539299906
-0.10024886585942785
-0.17878853781905374
0.007614562643306193
-0.07078361927716358
-0.19668024343210763
-0.1440138452319648
-0.07150868614925864
-0.23661571684411398
-0.24554725757566273
-0.21323258623994326
-0.2789443485122036
-0.19435994771598025
-0.07001026399720575
-0.03586873905502665
-0.17466062071817132
-0.0753824335051467
-0.2687338483637274
-0.2064788995184168
-0.11282548155916781
-0.1429948647072131
-0.1656799203333858
-0.17596770332714728
-0.1790425923549512
-0.22088672157345723
-0.29196068982127804
-0.06974622040724208
-0.1211285261921268
-0.07651892471285958
-0.14271573740257437
-0.18640972223712096
-0.11400577186354892
-0.1589172271106846
-0.23146432576104653
-0.14292505458375132
-0.19990163551754644
-0.17704391886296997
-0.21534698659797072
0.015285614632316313
-0.13603977930058309
-0.05160479941518235
-0.09063307133956536
-0.29706168265462657
-0.008209452253894066
-0.10191315236131178
-0.229691679457811
-0.1381901481551122
-0.10105661659494895
-0.177205932885236
-0.028285899620587644
0.02368530717440569
-0.33751079290117225
-0.06875948697497988
-0.058750045624547276
-0.33890678339084
-0.12411030846033241
-0.23223916000028125
-0.2048567070866902
-0.14024439455559082