111.80398611022727
143.55582235654558
196.89986373729315
146.92475597376296
108.97171165756734
292.11353617079743
0.
29.652729137468352
29.616293821257134
29.385212805519295
29.161202719630168
29.325514497971497
24.574894126159723
25.080553114348607
30.319508037042247
28.626915902371966
29.448798176074476
63.79295364517349
94.76761154666005
80.06211845113357
39.204293766739326
34.894204833146745
23.010913929076622
22.70976045205852
33.43598408863915
22.294856880105648
33.21019991944968
40.93672823149635
33.39502658684655
39.36418134393641
66.90113748353161
78.10806214408261
124.44864418537796
134.72425500835035
102.09657663448698
91.09058918322029
41.80094447183644
42.47221481335187
40.62271534963103
39.687997832533775
49.2198976363167
82.19631669300094
74.30906651921336
75.85439423757164
87.6115857084512
358.82116698849933
324.86893823106084
219.43487874348227
167.64328716637917
121.77205779292996
120.84832507508895
121.86024286905102
126.63708371671797
152.39131752694811
154.61751702488408
198.11244522395646
221.30952165160747
310.1351260237855
144.4272086276856
208.81153267574962
102.6020140475016
104.43870573804564
139.63320784948698
76.92186416404684
112.05990324003056
113.34552738438553
51.91363992867726
57.4491232732778
55.428948408939
63.25278121946366
71.39530805453786
134.95161819987592
100.61756210487356
85.86207839628813
48.36220654912814
38.32901242542236
33.15264259171112
36.26861798925549
104.93881856369276
215.6387532727497
32.50813871062134
25.798046525228692
24.177890940824238
28.06384144513667
33.26230200128835
50.23143719282088
66.92071879485601
52.76325180857303
30.091713860501265
26.669165727018363
23.77390602694509
38.55157736459179
64.50343877887238
52.629305270399136
53.38176620272971
43.00780861099245
98.18808566322973
81.27844950950401
40.33358220235059
42.705654161298234
48.69357039283967
74.46119437891518
73.86025325264376
102.67718073504514
100.64270482852913
62.522211146206644
63.40873487435166
100.01471717202398
93.77341894458323
139.35940767827415
135.5392582271989
166.69110090642195
171.40121909322139
194.52695366859285
203.49005796813864
199.6307049106633
165.59338152771457
238.08185837803697
210.31732136905688
160.93273978132783
122.8544640265066
120.7063987506469
122.02900527409223
198.40103682863756
48.750853794676836
47.352144561349675
46.78855029783612
48.4521225061719