%!PS-Adobe-3.0 EPSF-3.0
%%Creator: (MATLAB, The Mathworks, Inc. Version 9.2.0.556344 \(R2017a\). Operating System: Windows 8)
%%Title: D:/home/Faculta/fbnc/Matlab/Plots/apl/apl_PEAKS_SC_PEARSON.eps
%%CreationDate: 2017-06-29T20:47:18
%%Pages: (atend)
%%BoundingBox: 0 0 1428 730
%%LanguageLevel: 3
%%EndComments
%%BeginProlog
%%BeginResource: procset (Apache XML Graphics Std ProcSet) 1.2 0
%%Version: 1.2 0
%%Copyright: (Copyright 2001-2003,2010 The Apache Software Foundation. License terms: http://www.apache.org/licenses/LICENSE-2.0)
/bd{bind def}bind def
/ld{load def}bd
/GR/grestore ld
/M/moveto ld
/LJ/setlinejoin ld
/C/curveto ld
/f/fill ld
/LW/setlinewidth ld
/GC/setgray ld
/t/show ld
/N/newpath ld
/CT/concat ld
/cp/closepath ld
/S/stroke ld
/L/lineto ld
/CC/setcmykcolor ld
/A/ashow ld
/GS/gsave ld
/RC/setrgbcolor ld
/RM/rmoveto ld
/ML/setmiterlimit ld
/re {4 2 roll M
1 index 0 rlineto
0 exch rlineto
neg 0 rlineto
cp } bd
/_ctm matrix def
/_tm matrix def
/BT { _ctm currentmatrix pop matrix _tm copy pop 0 0 moveto } bd
/ET { _ctm setmatrix } bd
/iTm { _ctm setmatrix _tm concat } bd
/Tm { _tm astore pop iTm 0 0 moveto } bd
/ux 0.0 def
/uy 0.0 def
/F {
  /Tp exch def
  /Tf exch def
  Tf findfont Tp scalefont setfont
  /cf Tf def  /cs Tp def
} bd
/ULS {currentpoint /uy exch def /ux exch def} bd
/ULE {
  /Tcx currentpoint pop def
  gsave
  newpath
  cf findfont cs scalefont dup
  /FontMatrix get 0 get /Ts exch def /FontInfo get dup
  /UnderlinePosition get Ts mul /To exch def
  /UnderlineThickness get Ts mul /Tt exch def
  ux uy To add moveto  Tcx uy To add lineto
  Tt setlinewidth stroke
  grestore
} bd
/OLE {
  /Tcx currentpoint pop def
  gsave
  newpath
  cf findfont cs scalefont dup
  /FontMatrix get 0 get /Ts exch def /FontInfo get dup
  /UnderlinePosition get Ts mul /To exch def
  /UnderlineThickness get Ts mul /Tt exch def
  ux uy To add cs add moveto Tcx uy To add cs add lineto
  Tt setlinewidth stroke
  grestore
} bd
/SOE {
  /Tcx currentpoint pop def
  gsave
  newpath
  cf findfont cs scalefont dup
  /FontMatrix get 0 get /Ts exch def /FontInfo get dup
  /UnderlinePosition get Ts mul /To exch def
  /UnderlineThickness get Ts mul /Tt exch def
  ux uy To add cs 10 mul 26 idiv add moveto Tcx uy To add cs 10 mul 26 idiv add lineto
  Tt setlinewidth stroke
  grestore
} bd
/QT {
/Y22 exch store
/X22 exch store
/Y21 exch store
/X21 exch store
currentpoint
/Y21 load 2 mul add 3 div exch
/X21 load 2 mul add 3 div exch
/X21 load 2 mul /X22 load add 3 div
/Y21 load 2 mul /Y22 load add 3 div
/X22 load /Y22 load curveto
} bd
/SSPD {
dup length /d exch dict def
{
/v exch def
/k exch def
currentpagedevice k known {
/cpdv currentpagedevice k get def
v cpdv ne {
/upd false def
/nullv v type /nulltype eq def
/nullcpdv cpdv type /nulltype eq def
nullv nullcpdv or
{
/upd true def
} {
/sametype v type cpdv type eq def
sametype {
v type /arraytype eq {
/vlen v length def
/cpdvlen cpdv length def
vlen cpdvlen eq {
0 1 vlen 1 sub {
/i exch def
/obj v i get def
/cpdobj cpdv i get def
obj cpdobj ne {
/upd true def
exit
} if
} for
} {
/upd true def
} ifelse
} {
v type /dicttype eq {
v {
/dv exch def
/dk exch def
/cpddv cpdv dk get def
dv cpddv ne {
/upd true def
exit
} if
} forall
} {
/upd true def
} ifelse
} ifelse
} if
} ifelse
upd true eq {
d k v put
} if
} if
} if
} forall
d length 0 gt {
d setpagedevice
} if
} bd
/RE { % /NewFontName [NewEncodingArray] /FontName RE -
  findfont dup length dict begin
  {
    1 index /FID ne
    {def} {pop pop} ifelse
  } forall
  /Encoding exch def
  /FontName 1 index def
  currentdict definefont pop
  end
} bind def
%%EndResource
%%BeginResource: procset (Apache XML Graphics EPS ProcSet) 1.0 0
%%Version: 1.0 0
%%Copyright: (Copyright 2002-2003 The Apache Software Foundation. License terms: http://www.apache.org/licenses/LICENSE-2.0)
/BeginEPSF { %def
/b4_Inc_state save def         % Save state for cleanup
/dict_count countdictstack def % Count objects on dict stack
/op_count count 1 sub def      % Count objects on operand stack
userdict begin                 % Push userdict on dict stack
/showpage { } def              % Redefine showpage, { } = null proc
0 setgray 0 setlinecap         % Prepare graphics state
1 setlinewidth 0 setlinejoin
10 setmiterlimit [ ] 0 setdash newpath
/languagelevel where           % If level not equal to 1 then
{pop languagelevel             % set strokeadjust and
1 ne                           % overprint to their defaults.
{false setstrokeadjust false setoverprint
} if
} if
} bd
/EndEPSF { %def
count op_count sub {pop} repeat            % Clean up stacks
countdictstack dict_count sub {end} repeat
b4_Inc_state restore
} bd
%%EndResource
%FOPBeginFontDict
%%IncludeResource: font Courier-Bold
%%IncludeResource: font Helvetica
%%IncludeResource: font Courier-BoldOblique
%%IncludeResource: font Courier-Oblique
%%IncludeResource: font Times-Roman
%%IncludeResource: font Helvetica-BoldOblique
%%IncludeResource: font Helvetica-Bold
%%IncludeResource: font Helvetica-Oblique
%%IncludeResource: font Times-BoldItalic
%%IncludeResource: font Courier
%%IncludeResource: font Times-Italic
%%IncludeResource: font Times-Bold
%%IncludeResource: font Symbol
%%IncludeResource: font ZapfDingbats
%FOPEndFontDict
%%BeginResource: encoding WinAnsiEncoding
/WinAnsiEncoding [
/.notdef /.notdef /.notdef /.notdef /.notdef
/.notdef /.notdef /.notdef /.notdef /.notdef
/.notdef /.notdef /.notdef /.notdef /.notdef
/.notdef /.notdef /.notdef /.notdef /.notdef
/.notdef /.notdef /.notdef /.notdef /.notdef
/.notdef /.notdef /.notdef /.notdef /.notdef
/.notdef /.notdef /space /exclam /quotedbl
/numbersign /dollar /percent /ampersand /quotesingle
/parenleft /parenright /asterisk /plus /comma
/hyphen /period /slash /zero /one
/two /three /four /five /six
/seven /eight /nine /colon /semicolon
/less /equal /greater /question /at
/A /B /C /D /E
/F /G /H /I /J
/K /L /M /N /O
/P /Q /R /S /T
/U /V /W /X /Y
/Z /bracketleft /backslash /bracketright /asciicircum
/underscore /quoteleft /a /b /c
/d /e /f /g /h
/i /j /k /l /m
/n /o /p /q /r
/s /t /u /v /w
/x /y /z /braceleft /bar
/braceright /asciitilde /bullet /Euro /bullet
/quotesinglbase /florin /quotedblbase /ellipsis /dagger
/daggerdbl /circumflex /perthousand /Scaron /guilsinglleft
/OE /bullet /Zcaron /bullet /bullet
/quoteleft /quoteright /quotedblleft /quotedblright /bullet
/endash /emdash /asciitilde /trademark /scaron
/guilsinglright /oe /bullet /zcaron /Ydieresis
/space /exclamdown /cent /sterling /currency
/yen /brokenbar /section /dieresis /copyright
/ordfeminine /guillemotleft /logicalnot /sfthyphen /registered
/macron /degree /plusminus /twosuperior /threesuperior
/acute /mu /paragraph /middot /cedilla
/onesuperior /ordmasculine /guillemotright /onequarter /onehalf
/threequarters /questiondown /Agrave /Aacute /Acircumflex
/Atilde /Adieresis /Aring /AE /Ccedilla
/Egrave /Eacute /Ecircumflex /Edieresis /Igrave
/Iacute /Icircumflex /Idieresis /Eth /Ntilde
/Ograve /Oacute /Ocircumflex /Otilde /Odieresis
/multiply /Oslash /Ugrave /Uacute /Ucircumflex
/Udieresis /Yacute /Thorn /germandbls /agrave
/aacute /acircumflex /atilde /adieresis /aring
/ae /ccedilla /egrave /eacute /ecircumflex
/edieresis /igrave /iacute /icircumflex /idieresis
/eth /ntilde /ograve /oacute /ocircumflex
/otilde /odieresis /divide /oslash /ugrave
/uacute /ucircumflex /udieresis /yacute /thorn
/ydieresis
] def
%%EndResource
%FOPBeginFontReencode
/Courier-Bold findfont
dup length dict begin
  {1 index /FID ne {def} {pop pop} ifelse} forall
  /Encoding WinAnsiEncoding def
  currentdict
end
/Courier-Bold exch definefont pop
/Helvetica findfont
dup length dict begin
  {1 index /FID ne {def} {pop pop} ifelse} forall
  /Encoding WinAnsiEncoding def
  currentdict
end
/Helvetica exch definefont pop
/Courier-BoldOblique findfont
dup length dict begin
  {1 index /FID ne {def} {pop pop} ifelse} forall
  /Encoding WinAnsiEncoding def
  currentdict
end
/Courier-BoldOblique exch definefont pop
/Courier-Oblique findfont
dup length dict begin
  {1 index /FID ne {def} {pop pop} ifelse} forall
  /Encoding WinAnsiEncoding def
  currentdict
end
/Courier-Oblique exch definefont pop
/Times-Roman findfont
dup length dict begin
  {1 index /FID ne {def} {pop pop} ifelse} forall
  /Encoding WinAnsiEncoding def
  currentdict
end
/Times-Roman exch definefont pop
/Helvetica-BoldOblique findfont
dup length dict begin
  {1 index /FID ne {def} {pop pop} ifelse} forall
  /Encoding WinAnsiEncoding def
  currentdict
end
/Helvetica-BoldOblique exch definefont pop
/Helvetica-Bold findfont
dup length dict begin
  {1 index /FID ne {def} {pop pop} ifelse} forall
  /Encoding WinAnsiEncoding def
  currentdict
end
/Helvetica-Bold exch definefont pop
/Helvetica-Oblique findfont
dup length dict begin
  {1 index /FID ne {def} {pop pop} ifelse} forall
  /Encoding WinAnsiEncoding def
  currentdict
end
/Helvetica-Oblique exch definefont pop
/Times-BoldItalic findfont
dup length dict begin
  {1 index /FID ne {def} {pop pop} ifelse} forall
  /Encoding WinAnsiEncoding def
  currentdict
end
/Times-BoldItalic exch definefont pop
/Courier findfont
dup length dict begin
  {1 index /FID ne {def} {pop pop} ifelse} forall
  /Encoding WinAnsiEncoding def
  currentdict
end
/Courier exch definefont pop
/Times-Italic findfont
dup length dict begin
  {1 index /FID ne {def} {pop pop} ifelse} forall
  /Encoding WinAnsiEncoding def
  currentdict
end
/Times-Italic exch definefont pop
/Times-Bold findfont
dup length dict begin
  {1 index /FID ne {def} {pop pop} ifelse} forall
  /Encoding WinAnsiEncoding def
  currentdict
end
/Times-Bold exch definefont pop
%FOPEndFontReencode
%%EndProlog
%%Page: 1 1
%%PageBoundingBox: 0 0 1428 730
%%BeginPageSetup
[1 0 0 -1 0 730] CT
%%EndPageSetup
GS
[0.75 0 0 0.75 0 0.25] CT
N
0 0 M
1904 0 L
1904 973 L
0 973 L
0 0 L
cp
clip
1 GC
N
0 0 1904 973 re
f
GR
GS
[0.75 0 0 0.75 0 0.25] CT
1 GC
N
0 0 1904 973 re
f
GR
GS
[0.75 0 0 0.75 0 0.25] CT
1 GC
N
248 405 M
546 405 L
546 73 L
248 73 L
cp
f
GR
GS
[0.75 0 0 0.75 0 0.25] CT
0.873 GC
1 LJ
0.667 LW
N
297.667 405 M
297.667 73 L
S
GR
GS
[0.75 0 0 0.75 0 0.25] CT
0.873 GC
1 LJ
0.667 LW
N
397 405 M
397 73 L
S
GR
GS
[0.75 0 0 0.75 0 0.25] CT
0.873 GC
1 LJ
0.667 LW
N
496.333 405 M
496.333 73 L
S
GR
GS
[0.75 0 0 0.75 0 0.25] CT
0.873 GC
1 LJ
0.667 LW
N
546 405 M
248 405 L
S
GR
GS
[0.75 0 0 0.75 0 0.25] CT
0.873 GC
1 LJ
0.667 LW
N
546 363.5 M
248 363.5 L
S
GR
GS
[0.75 0 0 0.75 0 0.25] CT
0.873 GC
1 LJ
0.667 LW
N
546 322 M
248 322 L
S
GR
GS
[0.75 0 0 0.75 0 0.25] CT
0.873 GC
1 LJ
0.667 LW
N
546 280.5 M
248 280.5 L
S
GR
GS
[0.75 0 0 0.75 0 0.25] CT
0.873 GC
1 LJ
0.667 LW
N
546 239 M
248 239 L
S
GR
GS
[0.75 0 0 0.75 0 0.25] CT
0.873 GC
1 LJ
0.667 LW
N
546 197.5 M
248 197.5 L
S
GR
GS
[0.75 0 0 0.75 0 0.25] CT
0.873 GC
1 LJ
0.667 LW
N
546 156 M
248 156 L
S
GR
GS
[0.75 0 0 0.75 0 0.25] CT
0.873 GC
1 LJ
0.667 LW
N
546 114.5 M
248 114.5 L
S
GR
GS
[0.75 0 0 0.75 0 0.25] CT
0.873 GC
1 LJ
0.667 LW
N
546 73 M
248 73 L
S
GR
GS
[0.75 0 0 0.75 297.75027 52.93752] CT
/Helvetica-Bold 14.667 F
GS
[1 0 0 1 0 0] CT
-31.5 -4 moveto 
1 -1 scale
(Subject1) t 
GR
GR
GS
[0.75 0 0 0.75 0 0.25] CT
0.149 GC
1 LJ
0.667 LW
N
248 405 M
546 405 L
S
GR
GS
[0.75 0 0 0.75 0 0.25] CT
1 0 0 RC
N
272.833 405 M
322.5 405 L
322.5 116.603 L
272.833 116.603 L
cp
f
GR
GS
[0.75 0 0 0.75 0 0.25] CT
1 0 0 RC
N
372.167 405 M
421.833 405 L
421.833 153.406 L
372.167 153.406 L
cp
f
GR
GS
[0.75 0 0 0.75 0 0.25] CT
1 0 0 RC
N
471.5 405 M
521.167 405 L
521.167 130.993 L
471.5 130.993 L
cp
f
GR
GS
[0.75 0 0 0.75 0 0.25] CT
10.0 ML
0.667 LW
N
272.833 405 M
272.833 116.603 L
322.5 116.603 L
322.5 405 L
cp
S
GR
GS
[0.75 0 0 0.75 0 0.25] CT
10.0 ML
0.667 LW
N
372.167 405 M
372.167 153.406 L
421.833 153.406 L
421.833 405 L
cp
S
GR
GS
[0.75 0 0 0.75 0 0.25] CT
10.0 ML
0.667 LW
N
471.5 405 M
471.5 130.993 L
521.167 130.993 L
521.167 405 L
cp
S
GR
GS
[0.75 0 0 0.75 0 0.25] CT
N
282.767 405 M
312.567 405 L
312.567 105.089 L
282.767 105.089 L
cp
f
GR
GS
[0.75 0 0 0.75 0 0.25] CT
N
382.1 405 M
411.9 405 L
411.9 86.71 L
382.1 86.71 L
cp
f
GR
GS
[0.75 0 0 0.75 0 0.25] CT
N
481.433 405 M
511.233 405 L
511.233 75.4 L
481.433 75.4 L
cp
f
GR
GS
[0.75 0 0 0.75 0 0.25] CT
10.0 ML
0.667 LW
N
282.767 405 M
282.767 105.089 L
312.567 105.089 L
312.567 405 L
cp
S
GR
GS
[0.75 0 0 0.75 0 0.25] CT
10.0 ML
0.667 LW
N
382.1 405 M
382.1 86.71 L
411.9 86.71 L
411.9 405 L
cp
S
GR
GS
[0.75 0 0 0.75 0 0.25] CT
10.0 ML
0.667 LW
N
481.433 405 M
481.433 75.4 L
511.233 75.4 L
511.233 405 L
cp
S
GR
GS
[0.75 0 0 0.75 0 0.25] CT
0.149 GC
2 setlinecap
1 LJ
0.667 LW
N
248 405 M
546 405 L
S
GR
GS
[0.75 0 0 0.75 0 0.25] CT
0.149 GC
2 setlinecap
1 LJ
0.667 LW
N
248 73 M
546 73 L
S
GR
GS
[0.75 0 0 0.75 0 0.25] CT
0.149 GC
2 setlinecap
1 LJ
0.667 LW
N
297.667 405 M
297.667 401.68 L
S
GR
GS
[0.75 0 0 0.75 0 0.25] CT
0.149 GC
2 setlinecap
1 LJ
0.667 LW
N
397 405 M
397 401.68 L
S
GR
GS
[0.75 0 0 0.75 0 0.25] CT
0.149 GC
2 setlinecap
1 LJ
0.667 LW
N
496.333 405 M
496.333 401.68 L
S
GR
GS
[0.75 0 0 0.75 0 0.25] CT
0.149 GC
2 setlinecap
1 LJ
0.667 LW
N
297.667 73 M
297.667 76.32 L
S
GR
GS
[0.75 0 0 0.75 0 0.25] CT
0.149 GC
2 setlinecap
1 LJ
0.667 LW
N
397 73 M
397 76.32 L
S
GR
GS
[0.75 0 0 0.75 0 0.25] CT
0.149 GC
2 setlinecap
1 LJ
0.667 LW
N
496.333 73 M
496.333 76.32 L
S
GR
GS
[0.75 0 0 0.75 223.24999 308.00001] CT
0.149 GC
/Helvetica 13.333 F
GS
[1 0 0 1 0 0] CT
-18 14 moveto 
1 -1 scale
(SEEN) t 
GR
GR
GS
[0.75 0 0 0.75 297.75 308.00001] CT
0.149 GC
/Helvetica 13.333 F
GS
[1 0 0 1 0 0] CT
-38 14 moveto 
1 -1 scale
(UNCERTAIN) t 
GR
GR
GS
[0.75 0 0 0.75 372.25001 308.00001] CT
0.149 GC
/Helvetica 13.333 F
GS
[1 0 0 1 0 0] CT
-33.5 14 moveto 
1 -1 scale
(NOT SEEN) t 
GR
GR
GS
[0.75 0 0 0.75 0 0.25] CT
0.149 GC
2 setlinecap
1 LJ
0.667 LW
N
248 405 M
248 73 L
S
GR
GS
[0.75 0 0 0.75 0 0.25] CT
0.149 GC
2 setlinecap
1 LJ
0.667 LW
N
546 405 M
546 73 L
S
GR
GS
[0.75 0 0 0.75 0 0.25] CT
0.149 GC
2 setlinecap
1 LJ
0.667 LW
N
248 405 M
251.32 405 L
S
GR
GS
[0.75 0 0 0.75 0 0.25] CT
0.149 GC
2 setlinecap
1 LJ
0.667 LW
N
248 363.5 M
251.32 363.5 L
S
GR
GS
[0.75 0 0 0.75 0 0.25] CT
0.149 GC
2 setlinecap
1 LJ
0.667 LW
N
248 322 M
251.32 322 L
S
GR
GS
[0.75 0 0 0.75 0 0.25] CT
0.149 GC
2 setlinecap
1 LJ
0.667 LW
N
248 280.5 M
251.32 280.5 L
S
GR
GS
[0.75 0 0 0.75 0 0.25] CT
0.149 GC
2 setlinecap
1 LJ
0.667 LW
N
248 239 M
251.32 239 L
S
GR
GS
[0.75 0 0 0.75 0 0.25] CT
0.149 GC
2 setlinecap
1 LJ
0.667 LW
N
248 197.5 M
251.32 197.5 L
S
GR
GS
[0.75 0 0 0.75 0 0.25] CT
0.149 GC
2 setlinecap
1 LJ
0.667 LW
N
248 156 M
251.32 156 L
S
GR
GS
[0.75 0 0 0.75 0 0.25] CT
0.149 GC
2 setlinecap
1 LJ
0.667 LW
N
248 114.5 M
251.32 114.5 L
S
GR
GS
[0.75 0 0 0.75 0 0.25] CT
0.149 GC
2 setlinecap
1 LJ
0.667 LW
N
248 73 M
251.32 73 L
S
GR
GS
[0.75 0 0 0.75 0 0.25] CT
0.149 GC
2 setlinecap
1 LJ
0.667 LW
N
546 405 M
542.68 405 L
S
GR
GS
[0.75 0 0 0.75 0 0.25] CT
0.149 GC
2 setlinecap
1 LJ
0.667 LW
N
546 363.5 M
542.68 363.5 L
S
GR
GS
[0.75 0 0 0.75 0 0.25] CT
0.149 GC
2 setlinecap
1 LJ
0.667 LW
N
546 322 M
542.68 322 L
S
GR
GS
[0.75 0 0 0.75 0 0.25] CT
0.149 GC
2 setlinecap
1 LJ
0.667 LW
N
546 280.5 M
542.68 280.5 L
S
GR
GS
[0.75 0 0 0.75 0 0.25] CT
0.149 GC
2 setlinecap
1 LJ
0.667 LW
N
546 239 M
542.68 239 L
S
GR
GS
[0.75 0 0 0.75 0 0.25] CT
0.149 GC
2 setlinecap
1 LJ
0.667 LW
N
546 197.5 M
542.68 197.5 L
S
GR
GS
[0.75 0 0 0.75 0 0.25] CT
0.149 GC
2 setlinecap
1 LJ
0.667 LW
N
546 156 M
542.68 156 L
S
GR
GS
[0.75 0 0 0.75 0 0.25] CT
0.149 GC
2 setlinecap
1 LJ
0.667 LW
N
546 114.5 M
542.68 114.5 L
S
GR
GS
[0.75 0 0 0.75 0 0.25] CT
0.149 GC
2 setlinecap
1 LJ
0.667 LW
N
546 73 M
542.68 73 L
S
GR
GS
[0.75 0 0 0.75 182 304] CT
0.149 GC
/Helvetica 13.333 F
GS
[1 0 0 1 0 0] CT
-8 5.5 moveto 
1 -1 scale
(0) t 
GR
GR
GS
[0.75 0 0 0.75 182 272.875] CT
0.149 GC
/Helvetica 13.333 F
GS
[1 0 0 1 0 0] CT
-26 5.5 moveto 
1 -1 scale
(0.02) t 
GR
GR
GS
[0.75 0 0 0.75 182 241.75] CT
0.149 GC
/Helvetica 13.333 F
GS
[1 0 0 1 0 0] CT
-26 5.5 moveto 
1 -1 scale
(0.04) t 
GR
GR
GS
[0.75 0 0 0.75 182 210.625] CT
0.149 GC
/Helvetica 13.333 F
GS
[1 0 0 1 0 0] CT
-26 5.5 moveto 
1 -1 scale
(0.06) t 
GR
GR
GS
[0.75 0 0 0.75 182 179.5] CT
0.149 GC
/Helvetica 13.333 F
GS
[1 0 0 1 0 0] CT
-26 5.5 moveto 
1 -1 scale
(0.08) t 
GR
GR
GS
[0.75 0 0 0.75 182 148.375] CT
0.149 GC
/Helvetica 13.333 F
GS
[1 0 0 1 0 0] CT
-19 5.5 moveto 
1 -1 scale
(0.1) t 
GR
GR
GS
[0.75 0 0 0.75 182 117.25] CT
0.149 GC
/Helvetica 13.333 F
GS
[1 0 0 1 0 0] CT
-26 5.5 moveto 
1 -1 scale
(0.12) t 
GR
GR
GS
[0.75 0 0 0.75 182 86.125] CT
0.149 GC
/Helvetica 13.333 F
GS
[1 0 0 1 0 0] CT
-26 5.5 moveto 
1 -1 scale
(0.14) t 
GR
GR
GS
[0.75 0 0 0.75 182 55.00001] CT
0.149 GC
/Helvetica 13.333 F
GS
[1 0 0 1 0 0] CT
-26 5.5 moveto 
1 -1 scale
(0.16) t 
GR
GR
GS
[0 -0.75 0.75 0 159.5 179.49989] CT
0.149 GC
/Helvetica 14.667 F
GS
[1 0 0 1 0 0] CT
-70.5 -4 moveto 
1 -1 scale
(Average Path Length) t 
GR
GR
GS
[0.75 0 0 0.75 0 0.25] CT
1 GC
N
924 487 M
924 450 L
1022 450 L
1022 487 L
cp
f
GR
GS
[0.75 0 0 0.75 728.25 345.35275] CT
/Helvetica 12 F
GS
[1 0 0 1 0 0] CT
0 5 moveto 
1 -1 scale
(Stimulus) t 
GR
GR
GS
[0.75 0 0 0.75 0 0.25] CT
1 0 0 RC
N
928 466.371 M
928 453.903 L
968 453.903 L
968 466.371 L
cp
f
GR
GS
[0.75 0 0 0.75 0 0.25] CT
10.0 ML
0.667 LW
N
928 466.371 M
928 453.903 L
968 453.903 L
968 466.371 L
cp
S
GR
GS
[0.75 0 0 0.75 728.25 357.89725] CT
/Helvetica 12 F
GS
[1 0 0 1 0 0] CT
0 5 moveto 
1 -1 scale
(Baseline) t 
GR
GR
GS
[0.75 0 0 0.75 0 0.25] CT
N
928 483.097 M
928 470.629 L
968 470.629 L
968 483.097 L
cp
f
GR
GS
[0.75 0 0 0.75 0 0.25] CT
10.0 ML
0.667 LW
N
928 483.097 M
928 470.629 L
968 470.629 L
968 483.097 L
cp
S
GR
GS
[0.75 0 0 0.75 0 0.25] CT
0.149 GC
10.0 ML
0.667 LW
N
924 487 M
924 450 L
1022 450 L
1022 487 L
cp
S
GR
GS
[0.75 0 0 0.75 0 0.25] CT
1 GC
N
640 405 M
938 405 L
938 73 L
640 73 L
cp
f
GR
GS
[0.75 0 0 0.75 0 0.25] CT
0.873 GC
1 LJ
0.667 LW
N
689.667 405 M
689.667 73 L
S
GR
GS
[0.75 0 0 0.75 0 0.25] CT
0.873 GC
1 LJ
0.667 LW
N
789 405 M
789 73 L
S
GR
GS
[0.75 0 0 0.75 0 0.25] CT
0.873 GC
1 LJ
0.667 LW
N
888.333 405 M
888.333 73 L
S
GR
GS
[0.75 0 0 0.75 0 0.25] CT
0.873 GC
1 LJ
0.667 LW
N
938 405 M
640 405 L
S
GR
GS
[0.75 0 0 0.75 0 0.25] CT
0.873 GC
1 LJ
0.667 LW
N
938 363.5 M
640 363.5 L
S
GR
GS
[0.75 0 0 0.75 0 0.25] CT
0.873 GC
1 LJ
0.667 LW
N
938 322 M
640 322 L
S
GR
GS
[0.75 0 0 0.75 0 0.25] CT
0.873 GC
1 LJ
0.667 LW
N
938 280.5 M
640 280.5 L
S
GR
GS
[0.75 0 0 0.75 0 0.25] CT
0.873 GC
1 LJ
0.667 LW
N
938 239 M
640 239 L
S
GR
GS
[0.75 0 0 0.75 0 0.25] CT
0.873 GC
1 LJ
0.667 LW
N
938 197.5 M
640 197.5 L
S
GR
GS
[0.75 0 0 0.75 0 0.25] CT
0.873 GC
1 LJ
0.667 LW
N
938 156 M
640 156 L
S
GR
GS
[0.75 0 0 0.75 0 0.25] CT
0.873 GC
1 LJ
0.667 LW
N
938 114.5 M
640 114.5 L
S
GR
GS
[0.75 0 0 0.75 0 0.25] CT
0.873 GC
1 LJ
0.667 LW
N
938 73 M
640 73 L
S
GR
GS
[0.75 0 0 0.75 591.75055 52.93752] CT
/Helvetica-Bold 14.667 F
GS
[1 0 0 1 0 0] CT
-31.5 -4 moveto 
1 -1 scale
(Subject2) t 
GR
GR
GS
[0.75 0 0 0.75 0 0.25] CT
0.149 GC
1 LJ
0.667 LW
N
640 405 M
938 405 L
S
GR
GS
[0.75 0 0 0.75 0 0.25] CT
1 0 0 RC
N
664.833 405 M
714.5 405 L
714.5 131.549 L
664.833 131.549 L
cp
f
GR
GS
[0.75 0 0 0.75 0 0.25] CT
1 0 0 RC
N
764.167 405 M
813.833 405 L
813.833 176.054 L
764.167 176.054 L
cp
f
GR
GS
[0.75 0 0 0.75 0 0.25] CT
1 0 0 RC
N
863.5 405 M
913.167 405 L
913.167 165.086 L
863.5 165.086 L
cp
f
GR
GS
[0.75 0 0 0.75 0 0.25] CT
10.0 ML
0.667 LW
N
664.833 405 M
664.833 131.549 L
714.5 131.549 L
714.5 405 L
cp
S
GR
GS
[0.75 0 0 0.75 0 0.25] CT
10.0 ML
0.667 LW
N
764.167 405 M
764.167 176.054 L
813.833 176.054 L
813.833 405 L
cp
S
GR
GS
[0.75 0 0 0.75 0 0.25] CT
10.0 ML
0.667 LW
N
863.5 405 M
863.5 165.086 L
913.167 165.086 L
913.167 405 L
cp
S
GR
GS
[0.75 0 0 0.75 0 0.25] CT
N
674.767 405 M
704.567 405 L
704.567 99.203 L
674.767 99.203 L
cp
f
GR
GS
[0.75 0 0 0.75 0 0.25] CT
N
774.1 405 M
803.9 405 L
803.9 101.254 L
774.1 101.254 L
cp
f
GR
GS
[0.75 0 0 0.75 0 0.25] CT
N
873.433 405 M
903.233 405 L
903.233 86.486 L
873.433 86.486 L
cp
f
GR
GS
[0.75 0 0 0.75 0 0.25] CT
10.0 ML
0.667 LW
N
674.767 405 M
674.767 99.203 L
704.567 99.203 L
704.567 405 L
cp
S
GR
GS
[0.75 0 0 0.75 0 0.25] CT
10.0 ML
0.667 LW
N
774.1 405 M
774.1 101.254 L
803.9 101.254 L
803.9 405 L
cp
S
GR
GS
[0.75 0 0 0.75 0 0.25] CT
10.0 ML
0.667 LW
N
873.433 405 M
873.433 86.486 L
903.233 86.486 L
903.233 405 L
cp
S
GR
GS
[0.75 0 0 0.75 0 0.25] CT
0.149 GC
2 setlinecap
1 LJ
0.667 LW
N
640 405 M
938 405 L
S
GR
GS
[0.75 0 0 0.75 0 0.25] CT
0.149 GC
2 setlinecap
1 LJ
0.667 LW
N
640 73 M
938 73 L
S
GR
GS
[0.75 0 0 0.75 0 0.25] CT
0.149 GC
2 setlinecap
1 LJ
0.667 LW
N
689.667 405 M
689.667 401.68 L
S
GR
GS
[0.75 0 0 0.75 0 0.25] CT
0.149 GC
2 setlinecap
1 LJ
0.667 LW
N
789 405 M
789 401.68 L
S
GR
GS
[0.75 0 0 0.75 0 0.25] CT
0.149 GC
2 setlinecap
1 LJ
0.667 LW
N
888.333 405 M
888.333 401.68 L
S
GR
GS
[0.75 0 0 0.75 0 0.25] CT
0.149 GC
2 setlinecap
1 LJ
0.667 LW
N
689.667 73 M
689.667 76.32 L
S
GR
GS
[0.75 0 0 0.75 0 0.25] CT
0.149 GC
2 setlinecap
1 LJ
0.667 LW
N
789 73 M
789 76.32 L
S
GR
GS
[0.75 0 0 0.75 0 0.25] CT
0.149 GC
2 setlinecap
1 LJ
0.667 LW
N
888.333 73 M
888.333 76.32 L
S
GR
GS
[0.75 0 0 0.75 517.25002 308.00001] CT
0.149 GC
/Helvetica 13.333 F
GS
[1 0 0 1 0 0] CT
-18 14 moveto 
1 -1 scale
(SEEN) t 
GR
GR
GS
[0.75 0 0 0.75 591.75 308.00001] CT
0.149 GC
/Helvetica 13.333 F
GS
[1 0 0 1 0 0] CT
-38 14 moveto 
1 -1 scale
(UNCERTAIN) t 
GR
GR
GS
[0.75 0 0 0.75 666.24998 308.00001] CT
0.149 GC
/Helvetica 13.333 F
GS
[1 0 0 1 0 0] CT
-33.5 14 moveto 
1 -1 scale
(NOT SEEN) t 
GR
GR
GS
[0.75 0 0 0.75 0 0.25] CT
0.149 GC
2 setlinecap
1 LJ
0.667 LW
N
640 405 M
640 73 L
S
GR
GS
[0.75 0 0 0.75 0 0.25] CT
0.149 GC
2 setlinecap
1 LJ
0.667 LW
N
938 405 M
938 73 L
S
GR
GS
[0.75 0 0 0.75 0 0.25] CT
0.149 GC
2 setlinecap
1 LJ
0.667 LW
N
640 405 M
643.32 405 L
S
GR
GS
[0.75 0 0 0.75 0 0.25] CT
0.149 GC
2 setlinecap
1 LJ
0.667 LW
N
640 363.5 M
643.32 363.5 L
S
GR
GS
[0.75 0 0 0.75 0 0.25] CT
0.149 GC
2 setlinecap
1 LJ
0.667 LW
N
640 322 M
643.32 322 L
S
GR
GS
[0.75 0 0 0.75 0 0.25] CT
0.149 GC
2 setlinecap
1 LJ
0.667 LW
N
640 280.5 M
643.32 280.5 L
S
GR
GS
[0.75 0 0 0.75 0 0.25] CT
0.149 GC
2 setlinecap
1 LJ
0.667 LW
N
640 239 M
643.32 239 L
S
GR
GS
[0.75 0 0 0.75 0 0.25] CT
0.149 GC
2 setlinecap
1 LJ
0.667 LW
N
640 197.5 M
643.32 197.5 L
S
GR
GS
[0.75 0 0 0.75 0 0.25] CT
0.149 GC
2 setlinecap
1 LJ
0.667 LW
N
640 156 M
643.32 156 L
S
GR
GS
[0.75 0 0 0.75 0 0.25] CT
0.149 GC
2 setlinecap
1 LJ
0.667 LW
N
640 114.5 M
643.32 114.5 L
S
GR
GS
[0.75 0 0 0.75 0 0.25] CT
0.149 GC
2 setlinecap
1 LJ
0.667 LW
N
640 73 M
643.32 73 L
S
GR
GS
[0.75 0 0 0.75 0 0.25] CT
0.149 GC
2 setlinecap
1 LJ
0.667 LW
N
938 405 M
934.68 405 L
S
GR
GS
[0.75 0 0 0.75 0 0.25] CT
0.149 GC
2 setlinecap
1 LJ
0.667 LW
N
938 363.5 M
934.68 363.5 L
S
GR
GS
[0.75 0 0 0.75 0 0.25] CT
0.149 GC
2 setlinecap
1 LJ
0.667 LW
N
938 322 M
934.68 322 L
S
GR
GS
[0.75 0 0 0.75 0 0.25] CT
0.149 GC
2 setlinecap
1 LJ
0.667 LW
N
938 280.5 M
934.68 280.5 L
S
GR
GS
[0.75 0 0 0.75 0 0.25] CT
0.149 GC
2 setlinecap
1 LJ
0.667 LW
N
938 239 M
934.68 239 L
S
GR
GS
[0.75 0 0 0.75 0 0.25] CT
0.149 GC
2 setlinecap
1 LJ
0.667 LW
N
938 197.5 M
934.68 197.5 L
S
GR
GS
[0.75 0 0 0.75 0 0.25] CT
0.149 GC
2 setlinecap
1 LJ
0.667 LW
N
938 156 M
934.68 156 L
S
GR
GS
[0.75 0 0 0.75 0 0.25] CT
0.149 GC
2 setlinecap
1 LJ
0.667 LW
N
938 114.5 M
934.68 114.5 L
S
GR
GS
[0.75 0 0 0.75 0 0.25] CT
0.149 GC
2 setlinecap
1 LJ
0.667 LW
N
938 73 M
934.68 73 L
S
GR
GS
[0.75 0 0 0.75 476.00002 304] CT
0.149 GC
/Helvetica 13.333 F
GS
[1 0 0 1 0 0] CT
-8 5.5 moveto 
1 -1 scale
(0) t 
GR
GR
GS
[0.75 0 0 0.75 476.00002 272.875] CT
0.149 GC
/Helvetica 13.333 F
GS
[1 0 0 1 0 0] CT
-26 5.5 moveto 
1 -1 scale
(0.02) t 
GR
GR
GS
[0.75 0 0 0.75 476.00002 241.75] CT
0.149 GC
/Helvetica 13.333 F
GS
[1 0 0 1 0 0] CT
-26 5.5 moveto 
1 -1 scale
(0.04) t 
GR
GR
GS
[0.75 0 0 0.75 476.00002 210.625] CT
0.149 GC
/Helvetica 13.333 F
GS
[1 0 0 1 0 0] CT
-26 5.5 moveto 
1 -1 scale
(0.06) t 
GR
GR
GS
[0.75 0 0 0.75 476.00002 179.5] CT
0.149 GC
/Helvetica 13.333 F
GS
[1 0 0 1 0 0] CT
-26 5.5 moveto 
1 -1 scale
(0.08) t 
GR
GR
GS
[0.75 0 0 0.75 476.00002 148.375] CT
0.149 GC
/Helvetica 13.333 F
GS
[1 0 0 1 0 0] CT
-19 5.5 moveto 
1 -1 scale
(0.1) t 
GR
GR
GS
[0.75 0 0 0.75 476.00002 117.25] CT
0.149 GC
/Helvetica 13.333 F
GS
[1 0 0 1 0 0] CT
-26 5.5 moveto 
1 -1 scale
(0.12) t 
GR
GR
GS
[0.75 0 0 0.75 476.00002 86.125] CT
0.149 GC
/Helvetica 13.333 F
GS
[1 0 0 1 0 0] CT
-26 5.5 moveto 
1 -1 scale
(0.14) t 
GR
GR
GS
[0.75 0 0 0.75 476.00002 55.00001] CT
0.149 GC
/Helvetica 13.333 F
GS
[1 0 0 1 0 0] CT
-26 5.5 moveto 
1 -1 scale
(0.16) t 
GR
GR
GS
[0 -0.75 0.75 0 453.50002 179.49989] CT
0.149 GC
/Helvetica 14.667 F
GS
[1 0 0 1 0 0] CT
-70.5 -4 moveto 
1 -1 scale
(Average Path Length) t 
GR
GR
GS
[0.75 0 0 0.75 0 0.25] CT
1 GC
N
1032 405 M
1331 405 L
1331 73 L
1032 73 L
cp
f
GR
GS
[0.75 0 0 0.75 0 0.25] CT
0.873 GC
1 LJ
0.667 LW
N
1081.833 405 M
1081.833 73 L
S
GR
GS
[0.75 0 0 0.75 0 0.25] CT
0.873 GC
1 LJ
0.667 LW
N
1181.5 405 M
1181.5 73 L
S
GR
GS
[0.75 0 0 0.75 0 0.25] CT
0.873 GC
1 LJ
0.667 LW
N
1281.167 405 M
1281.167 73 L
S
GR
GS
[0.75 0 0 0.75 0 0.25] CT
0.873 GC
1 LJ
0.667 LW
N
1331 405 M
1032 405 L
S
GR
GS
[0.75 0 0 0.75 0 0.25] CT
0.873 GC
1 LJ
0.667 LW
N
1331 368.111 M
1032 368.111 L
S
GR
GS
[0.75 0 0 0.75 0 0.25] CT
0.873 GC
1 LJ
0.667 LW
N
1331 331.222 M
1032 331.222 L
S
GR
GS
[0.75 0 0 0.75 0 0.25] CT
0.873 GC
1 LJ
0.667 LW
N
1331 294.333 M
1032 294.333 L
S
GR
GS
[0.75 0 0 0.75 0 0.25] CT
0.873 GC
1 LJ
0.667 LW
N
1331 257.444 M
1032 257.444 L
S
GR
GS
[0.75 0 0 0.75 0 0.25] CT
0.873 GC
1 LJ
0.667 LW
N
1331 220.556 M
1032 220.556 L
S
GR
GS
[0.75 0 0 0.75 0 0.25] CT
0.873 GC
1 LJ
0.667 LW
N
1331 183.667 M
1032 183.667 L
S
GR
GS
[0.75 0 0 0.75 0 0.25] CT
0.873 GC
1 LJ
0.667 LW
N
1331 146.778 M
1032 146.778 L
S
GR
GS
[0.75 0 0 0.75 0 0.25] CT
0.873 GC
1 LJ
0.667 LW
N
1331 109.889 M
1032 109.889 L
S
GR
GS
[0.75 0 0 0.75 0 0.25] CT
0.873 GC
1 LJ
0.667 LW
N
1331 73 M
1032 73 L
S
GR
GS
[0.75 0 0 0.75 886.12582 52.93749] CT
/Helvetica-Bold 14.667 F
GS
[1 0 0 1 0 0] CT
-31.5 -4 moveto 
1 -1 scale
(Subject3) t 
GR
GR
GS
[0.75 0 0 0.75 0 0.25] CT
0.149 GC
1 LJ
0.667 LW
N
1032 405 M
1331 405 L
S
GR
GS
[0.75 0 0 0.75 0 0.25] CT
1 0 0 RC
N
1056.917 405 M
1106.75 405 L
1106.75 153.018 L
1056.917 153.018 L
cp
f
GR
GS
[0.75 0 0 0.75 0 0.25] CT
1 0 0 RC
N
1156.583 405 M
1206.417 405 L
1206.417 238.109 L
1156.583 238.109 L
cp
f
GR
GS
[0.75 0 0 0.75 0 0.25] CT
1 0 0 RC
N
1256.25 405 M
1306.083 405 L
1306.083 190.944 L
1256.25 190.944 L
cp
f
GR
GS
[0.75 0 0 0.75 0 0.25] CT
10.0 ML
0.667 LW
N
1056.917 405 M
1056.917 153.018 L
1106.75 153.018 L
1106.75 405 L
cp
S
GR
GS
[0.75 0 0 0.75 0 0.25] CT
10.0 ML
0.667 LW
N
1156.583 405 M
1156.583 238.109 L
1206.417 238.109 L
1206.417 405 L
cp
S
GR
GS
[0.75 0 0 0.75 0 0.25] CT
10.0 ML
0.667 LW
N
1256.25 405 M
1256.25 190.944 L
1306.083 190.944 L
1306.083 405 L
cp
S
GR
GS
[0.75 0 0 0.75 0 0.25] CT
N
1066.883 405 M
1096.783 405 L
1096.783 99.583 L
1066.883 99.583 L
cp
f
GR
GS
[0.75 0 0 0.75 0 0.25] CT
N
1166.55 405 M
1196.45 405 L
1196.45 202.182 L
1166.55 202.182 L
cp
f
GR
GS
[0.75 0 0 0.75 0 0.25] CT
N
1266.217 405 M
1296.117 405 L
1296.117 116.468 L
1266.217 116.468 L
cp
f
GR
GS
[0.75 0 0 0.75 0 0.25] CT
10.0 ML
0.667 LW
N
1066.883 405 M
1066.883 99.583 L
1096.783 99.583 L
1096.783 405 L
cp
S
GR
GS
[0.75 0 0 0.75 0 0.25] CT
10.0 ML
0.667 LW
N
1166.55 405 M
1166.55 202.182 L
1196.45 202.182 L
1196.45 405 L
cp
S
GR
GS
[0.75 0 0 0.75 0 0.25] CT
10.0 ML
0.667 LW
N
1266.217 405 M
1266.217 116.468 L
1296.117 116.468 L
1296.117 405 L
cp
S
GR
GS
[0.75 0 0 0.75 0 0.25] CT
0.149 GC
2 setlinecap
1 LJ
0.667 LW
N
1032 405 M
1331 405 L
S
GR
GS
[0.75 0 0 0.75 0 0.25] CT
0.149 GC
2 setlinecap
1 LJ
0.667 LW
N
1032 73 M
1331 73 L
S
GR
GS
[0.75 0 0 0.75 0 0.25] CT
0.149 GC
2 setlinecap
1 LJ
0.667 LW
N
1081.833 405 M
1081.833 401.68 L
S
GR
GS
[0.75 0 0 0.75 0 0.25] CT
0.149 GC
2 setlinecap
1 LJ
0.667 LW
N
1181.5 405 M
1181.5 401.68 L
S
GR
GS
[0.75 0 0 0.75 0 0.25] CT
0.149 GC
2 setlinecap
1 LJ
0.667 LW
N
1281.167 405 M
1281.167 401.68 L
S
GR
GS
[0.75 0 0 0.75 0 0.25] CT
0.149 GC
2 setlinecap
1 LJ
0.667 LW
N
1081.833 73 M
1081.833 76.32 L
S
GR
GS
[0.75 0 0 0.75 0 0.25] CT
0.149 GC
2 setlinecap
1 LJ
0.667 LW
N
1181.5 73 M
1181.5 76.32 L
S
GR
GS
[0.75 0 0 0.75 0 0.25] CT
0.149 GC
2 setlinecap
1 LJ
0.667 LW
N
1281.167 73 M
1281.167 76.32 L
S
GR
GS
[0.75 0 0 0.75 811.37503 308.00001] CT
0.149 GC
/Helvetica 13.333 F
GS
[1 0 0 1 0 0] CT
-18 14 moveto 
1 -1 scale
(SEEN) t 
GR
GR
GS
[0.75 0 0 0.75 886.125 308.00001] CT
0.149 GC
/Helvetica 13.333 F
GS
[1 0 0 1 0 0] CT
-38 14 moveto 
1 -1 scale
(UNCERTAIN) t 
GR
GR
GS
[0.75 0 0 0.75 960.87497 308.00001] CT
0.149 GC
/Helvetica 13.333 F
GS
[1 0 0 1 0 0] CT
-33.5 14 moveto 
1 -1 scale
(NOT SEEN) t 
GR
GR
GS
[0.75 0 0 0.75 0 0.25] CT
0.149 GC
2 setlinecap
1 LJ
0.667 LW
N
1032 405 M
1032 73 L
S
GR
GS
[0.75 0 0 0.75 0 0.25] CT
0.149 GC
2 setlinecap
1 LJ
0.667 LW
N
1331 405 M
1331 73 L
S
GR
GS
[0.75 0 0 0.75 0 0.25] CT
0.149 GC
2 setlinecap
1 LJ
0.667 LW
N
1032 405 M
1035.32 405 L
S
GR
GS
[0.75 0 0 0.75 0 0.25] CT
0.149 GC
2 setlinecap
1 LJ
0.667 LW
N
1032 368.111 M
1035.32 368.111 L
S
GR
GS
[0.75 0 0 0.75 0 0.25] CT
0.149 GC
2 setlinecap
1 LJ
0.667 LW
N
1032 331.222 M
1035.32 331.222 L
S
GR
GS
[0.75 0 0 0.75 0 0.25] CT
0.149 GC
2 setlinecap
1 LJ
0.667 LW
N
1032 294.333 M
1035.32 294.333 L
S
GR
GS
[0.75 0 0 0.75 0 0.25] CT
0.149 GC
2 setlinecap
1 LJ
0.667 LW
N
1032 257.444 M
1035.32 257.444 L
S
GR
GS
[0.75 0 0 0.75 0 0.25] CT
0.149 GC
2 setlinecap
1 LJ
0.667 LW
N
1032 220.556 M
1035.32 220.556 L
S
GR
GS
[0.75 0 0 0.75 0 0.25] CT
0.149 GC
2 setlinecap
1 LJ
0.667 LW
N
1032 183.667 M
1035.32 183.667 L
S
GR
GS
[0.75 0 0 0.75 0 0.25] CT
0.149 GC
2 setlinecap
1 LJ
0.667 LW
N
1032 146.778 M
1035.32 146.778 L
S
GR
GS
[0.75 0 0 0.75 0 0.25] CT
0.149 GC
2 setlinecap
1 LJ
0.667 LW
N
1032 109.889 M
1035.32 109.889 L
S
GR
GS
[0.75 0 0 0.75 0 0.25] CT
0.149 GC
2 setlinecap
1 LJ
0.667 LW
N
1032 73 M
1035.32 73 L
S
GR
GS
[0.75 0 0 0.75 0 0.25] CT
0.149 GC
2 setlinecap
1 LJ
0.667 LW
N
1331 405 M
1327.68 405 L
S
GR
GS
[0.75 0 0 0.75 0 0.25] CT
0.149 GC
2 setlinecap
1 LJ
0.667 LW
N
1331 368.111 M
1327.68 368.111 L
S
GR
GS
[0.75 0 0 0.75 0 0.25] CT
0.149 GC
2 setlinecap
1 LJ
0.667 LW
N
1331 331.222 M
1327.68 331.222 L
S
GR
GS
[0.75 0 0 0.75 0 0.25] CT
0.149 GC
2 setlinecap
1 LJ
0.667 LW
N
1331 294.333 M
1327.68 294.333 L
S
GR
GS
[0.75 0 0 0.75 0 0.25] CT
0.149 GC
2 setlinecap
1 LJ
0.667 LW
N
1331 257.444 M
1327.68 257.444 L
S
GR
GS
[0.75 0 0 0.75 0 0.25] CT
0.149 GC
2 setlinecap
1 LJ
0.667 LW
N
1331 220.556 M
1327.68 220.556 L
S
GR
GS
[0.75 0 0 0.75 0 0.25] CT
0.149 GC
2 setlinecap
1 LJ
0.667 LW
N
1331 183.667 M
1327.68 183.667 L
S
GR
GS
[0.75 0 0 0.75 0 0.25] CT
0.149 GC
2 setlinecap
1 LJ
0.667 LW
N
1331 146.778 M
1327.68 146.778 L
S
GR
GS
[0.75 0 0 0.75 0 0.25] CT
0.149 GC
2 setlinecap
1 LJ
0.667 LW
N
1331 109.889 M
1327.68 109.889 L
S
GR
GS
[0.75 0 0 0.75 0 0.25] CT
0.149 GC
2 setlinecap
1 LJ
0.667 LW
N
1331 73 M
1327.68 73 L
S
GR
GS
[0.75 0 0 0.75 769.99997 304] CT
0.149 GC
/Helvetica 13.333 F
GS
[1 0 0 1 0 0] CT
-8 5.5 moveto 
1 -1 scale
(0) t 
GR
GR
GS
[0.75 0 0 0.75 769.99997 276.33334] CT
0.149 GC
/Helvetica 13.333 F
GS
[1 0 0 1 0 0] CT
-26 5.5 moveto 
1 -1 scale
(0.02) t 
GR
GR
GS
[0.75 0 0 0.75 769.99997 248.66667] CT
0.149 GC
/Helvetica 13.333 F
GS
[1 0 0 1 0 0] CT
-26 5.5 moveto 
1 -1 scale
(0.04) t 
GR
GR
GS
[0.75 0 0 0.75 769.99997 221.00001] CT
0.149 GC
/Helvetica 13.333 F
GS
[1 0 0 1 0 0] CT
-26 5.5 moveto 
1 -1 scale
(0.06) t 
GR
GR
GS
[0.75 0 0 0.75 769.99997 193.33334] CT
0.149 GC
/Helvetica 13.333 F
GS
[1 0 0 1 0 0] CT
-26 5.5 moveto 
1 -1 scale
(0.08) t 
GR
GR
GS
[0.75 0 0 0.75 769.99997 165.66667] CT
0.149 GC
/Helvetica 13.333 F
GS
[1 0 0 1 0 0] CT
-19 5.5 moveto 
1 -1 scale
(0.1) t 
GR
GR
GS
[0.75 0 0 0.75 769.99997 138] CT
0.149 GC
/Helvetica 13.333 F
GS
[1 0 0 1 0 0] CT
-26 5.5 moveto 
1 -1 scale
(0.12) t 
GR
GR
GS
[0.75 0 0 0.75 769.99997 110.33333] CT
0.149 GC
/Helvetica 13.333 F
GS
[1 0 0 1 0 0] CT
-26 5.5 moveto 
1 -1 scale
(0.14) t 
GR
GR
GS
[0.75 0 0 0.75 769.99997 82.66667] CT
0.149 GC
/Helvetica 13.333 F
GS
[1 0 0 1 0 0] CT
-26 5.5 moveto 
1 -1 scale
(0.16) t 
GR
GR
GS
[0.75 0 0 0.75 769.99997 54.99999] CT
0.149 GC
/Helvetica 13.333 F
GS
[1 0 0 1 0 0] CT
-26 5.5 moveto 
1 -1 scale
(0.18) t 
GR
GR
GS
[0 -0.75 0.75 0 747.50002 179.49987] CT
0.149 GC
/Helvetica 14.667 F
GS
[1 0 0 1 0 0] CT
-70.5 -4 moveto 
1 -1 scale
(Average Path Length) t 
GR
GR
GS
[0.75 0 0 0.75 0 0.25] CT
1 GC
N
1425 405 M
1723 405 L
1723 73 L
1425 73 L
cp
f
GR
GS
[0.75 0 0 0.75 0 0.25] CT
0.873 GC
1 LJ
0.667 LW
N
1474.667 405 M
1474.667 73 L
S
GR
GS
[0.75 0 0 0.75 0 0.25] CT
0.873 GC
1 LJ
0.667 LW
N
1574 405 M
1574 73 L
S
GR
GS
[0.75 0 0 0.75 0 0.25] CT
0.873 GC
1 LJ
0.667 LW
N
1673.333 405 M
1673.333 73 L
S
GR
GS
[0.75 0 0 0.75 0 0.25] CT
0.873 GC
1 LJ
0.667 LW
N
1723 405 M
1425 405 L
S
GR
GS
[0.75 0 0 0.75 0 0.25] CT
0.873 GC
1 LJ
0.667 LW
N
1723 368.111 M
1425 368.111 L
S
GR
GS
[0.75 0 0 0.75 0 0.25] CT
0.873 GC
1 LJ
0.667 LW
N
1723 331.222 M
1425 331.222 L
S
GR
GS
[0.75 0 0 0.75 0 0.25] CT
0.873 GC
1 LJ
0.667 LW
N
1723 294.333 M
1425 294.333 L
S
GR
GS
[0.75 0 0 0.75 0 0.25] CT
0.873 GC
1 LJ
0.667 LW
N
1723 257.444 M
1425 257.444 L
S
GR
GS
[0.75 0 0 0.75 0 0.25] CT
0.873 GC
1 LJ
0.667 LW
N
1723 220.556 M
1425 220.556 L
S
GR
GS
[0.75 0 0 0.75 0 0.25] CT
0.873 GC
1 LJ
0.667 LW
N
1723 183.667 M
1425 183.667 L
S
GR
GS
[0.75 0 0 0.75 0 0.25] CT
0.873 GC
1 LJ
0.667 LW
N
1723 146.778 M
1425 146.778 L
S
GR
GS
[0.75 0 0 0.75 0 0.25] CT
0.873 GC
1 LJ
0.667 LW
N
1723 109.889 M
1425 109.889 L
S
GR
GS
[0.75 0 0 0.75 0 0.25] CT
0.873 GC
1 LJ
0.667 LW
N
1723 73 M
1425 73 L
S
GR
GS
[0.75 0 0 0.75 1180.5011 52.93749] CT
/Helvetica-Bold 14.667 F
GS
[1 0 0 1 0 0] CT
-31.5 -4 moveto 
1 -1 scale
(Subject4) t 
GR
GR
GS
[0.75 0 0 0.75 0 0.25] CT
0.149 GC
1 LJ
0.667 LW
N
1425 405 M
1723 405 L
S
GR
GS
[0.75 0 0 0.75 0 0.25] CT
1 0 0 RC
N
1449.833 405 M
1499.5 405 L
1499.5 141.86 L
1449.833 141.86 L
cp
f
GR
GS
[0.75 0 0 0.75 0 0.25] CT
1 0 0 RC
N
1549.167 405 M
1598.833 405 L
1598.833 180.794 L
1549.167 180.794 L
cp
f
GR
GS
[0.75 0 0 0.75 0 0.25] CT
1 0 0 RC
N
1648.5 405 M
1698.167 405 L
1698.167 131.098 L
1648.5 131.098 L
cp
f
GR
GS
[0.75 0 0 0.75 0 0.25] CT
10.0 ML
0.667 LW
N
1449.833 405 M
1449.833 141.86 L
1499.5 141.86 L
1499.5 405 L
cp
S
GR
GS
[0.75 0 0 0.75 0 0.25] CT
10.0 ML
0.667 LW
N
1549.167 405 M
1549.167 180.794 L
1598.833 180.794 L
1598.833 405 L
cp
S
GR
GS
[0.75 0 0 0.75 0 0.25] CT
10.0 ML
0.667 LW
N
1648.5 405 M
1648.5 131.098 L
1698.167 131.098 L
1698.167 405 L
cp
S
GR
GS
[0.75 0 0 0.75 0 0.25] CT
N
1459.767 405 M
1489.567 405 L
1489.567 124.844 L
1459.767 124.844 L
cp
f
GR
GS
[0.75 0 0 0.75 0 0.25] CT
N
1559.1 405 M
1588.9 405 L
1588.9 98.751 L
1559.1 98.751 L
cp
f
GR
GS
[0.75 0 0 0.75 0 0.25] CT
N
1658.433 405 M
1688.233 405 L
1688.233 112.987 L
1658.433 112.987 L
cp
f
GR
GS
[0.75 0 0 0.75 0 0.25] CT
10.0 ML
0.667 LW
N
1459.767 405 M
1459.767 124.844 L
1489.567 124.844 L
1489.567 405 L
cp
S
GR
GS
[0.75 0 0 0.75 0 0.25] CT
10.0 ML
0.667 LW
N
1559.1 405 M
1559.1 98.751 L
1588.9 98.751 L
1588.9 405 L
cp
S
GR
GS
[0.75 0 0 0.75 0 0.25] CT
10.0 ML
0.667 LW
N
1658.433 405 M
1658.433 112.987 L
1688.233 112.987 L
1688.233 405 L
cp
S
GR
GS
[0.75 0 0 0.75 0 0.25] CT
0.149 GC
2 setlinecap
1 LJ
0.667 LW
N
1425 405 M
1723 405 L
S
GR
GS
[0.75 0 0 0.75 0 0.25] CT
0.149 GC
2 setlinecap
1 LJ
0.667 LW
N
1425 73 M
1723 73 L
S
GR
GS
[0.75 0 0 0.75 0 0.25] CT
0.149 GC
2 setlinecap
1 LJ
0.667 LW
N
1474.667 405 M
1474.667 401.68 L
S
GR
GS
[0.75 0 0 0.75 0 0.25] CT
0.149 GC
2 setlinecap
1 LJ
0.667 LW
N
1574 405 M
1574 401.68 L
S
GR
GS
[0.75 0 0 0.75 0 0.25] CT
0.149 GC
2 setlinecap
1 LJ
0.667 LW
N
1673.333 405 M
1673.333 401.68 L
S
GR
GS
[0.75 0 0 0.75 0 0.25] CT
0.149 GC
2 setlinecap
1 LJ
0.667 LW
N
1474.667 73 M
1474.667 76.32 L
S
GR
GS
[0.75 0 0 0.75 0 0.25] CT
0.149 GC
2 setlinecap
1 LJ
0.667 LW
N
1574 73 M
1574 76.32 L
S
GR
GS
[0.75 0 0 0.75 0 0.25] CT
0.149 GC
2 setlinecap
1 LJ
0.667 LW
N
1673.333 73 M
1673.333 76.32 L
S
GR
GS
[0.75 0 0 0.75 1105.99997 308.00001] CT
0.149 GC
/Helvetica 13.333 F
GS
[1 0 0 1 0 0] CT
-18 14 moveto 
1 -1 scale
(SEEN) t 
GR
GR
GS
[0.75 0 0 0.75 1180.5 308.00001] CT
0.149 GC
/Helvetica 13.333 F
GS
[1 0 0 1 0 0] CT
-38 14 moveto 
1 -1 scale
(UNCERTAIN) t 
GR
GR
GS
[0.75 0 0 0.75 1255.00003 308.00001] CT
0.149 GC
/Helvetica 13.333 F
GS
[1 0 0 1 0 0] CT
-33.5 14 moveto 
1 -1 scale
(NOT SEEN) t 
GR
GR
GS
[0.75 0 0 0.75 0 0.25] CT
0.149 GC
2 setlinecap
1 LJ
0.667 LW
N
1425 405 M
1425 73 L
S
GR
GS
[0.75 0 0 0.75 0 0.25] CT
0.149 GC
2 setlinecap
1 LJ
0.667 LW
N
1723 405 M
1723 73 L
S
GR
GS
[0.75 0 0 0.75 0 0.25] CT
0.149 GC
2 setlinecap
1 LJ
0.667 LW
N
1425 405 M
1428.32 405 L
S
GR
GS
[0.75 0 0 0.75 0 0.25] CT
0.149 GC
2 setlinecap
1 LJ
0.667 LW
N
1425 368.111 M
1428.32 368.111 L
S
GR
GS
[0.75 0 0 0.75 0 0.25] CT
0.149 GC
2 setlinecap
1 LJ
0.667 LW
N
1425 331.222 M
1428.32 331.222 L
S
GR
GS
[0.75 0 0 0.75 0 0.25] CT
0.149 GC
2 setlinecap
1 LJ
0.667 LW
N
1425 294.333 M
1428.32 294.333 L
S
GR
GS
[0.75 0 0 0.75 0 0.25] CT
0.149 GC
2 setlinecap
1 LJ
0.667 LW
N
1425 257.444 M
1428.32 257.444 L
S
GR
GS
[0.75 0 0 0.75 0 0.25] CT
0.149 GC
2 setlinecap
1 LJ
0.667 LW
N
1425 220.556 M
1428.32 220.556 L
S
GR
GS
[0.75 0 0 0.75 0 0.25] CT
0.149 GC
2 setlinecap
1 LJ
0.667 LW
N
1425 183.667 M
1428.32 183.667 L
S
GR
GS
[0.75 0 0 0.75 0 0.25] CT
0.149 GC
2 setlinecap
1 LJ
0.667 LW
N
1425 146.778 M
1428.32 146.778 L
S
GR
GS
[0.75 0 0 0.75 0 0.25] CT
0.149 GC
2 setlinecap
1 LJ
0.667 LW
N
1425 109.889 M
1428.32 109.889 L
S
GR
GS
[0.75 0 0 0.75 0 0.25] CT
0.149 GC
2 setlinecap
1 LJ
0.667 LW
N
1425 73 M
1428.32 73 L
S
GR
GS
[0.75 0 0 0.75 0 0.25] CT
0.149 GC
2 setlinecap
1 LJ
0.667 LW
N
1723 405 M
1719.68 405 L
S
GR
GS
[0.75 0 0 0.75 0 0.25] CT
0.149 GC
2 setlinecap
1 LJ
0.667 LW
N
1723 368.111 M
1719.68 368.111 L
S
GR
GS
[0.75 0 0 0.75 0 0.25] CT
0.149 GC
2 setlinecap
1 LJ
0.667 LW
N
1723 331.222 M
1719.68 331.222 L
S
GR
GS
[0.75 0 0 0.75 0 0.25] CT
0.149 GC
2 setlinecap
1 LJ
0.667 LW
N
1723 294.333 M
1719.68 294.333 L
S
GR
GS
[0.75 0 0 0.75 0 0.25] CT
0.149 GC
2 setlinecap
1 LJ
0.667 LW
N
1723 257.444 M
1719.68 257.444 L
S
GR
GS
[0.75 0 0 0.75 0 0.25] CT
0.149 GC
2 setlinecap
1 LJ
0.667 LW
N
1723 220.556 M
1719.68 220.556 L
S
GR
GS
[0.75 0 0 0.75 0 0.25] CT
0.149 GC
2 setlinecap
1 LJ
0.667 LW
N
1723 183.667 M
1719.68 183.667 L
S
GR
GS
[0.75 0 0 0.75 0 0.25] CT
0.149 GC
2 setlinecap
1 LJ
0.667 LW
N
1723 146.778 M
1719.68 146.778 L
S
GR
GS
[0.75 0 0 0.75 0 0.25] CT
0.149 GC
2 setlinecap
1 LJ
0.667 LW
N
1723 109.889 M
1719.68 109.889 L
S
GR
GS
[0.75 0 0 0.75 0 0.25] CT
0.149 GC
2 setlinecap
1 LJ
0.667 LW
N
1723 73 M
1719.68 73 L
S
GR
GS
[0.75 0 0 0.75 1064.74997 304] CT
0.149 GC
/Helvetica 13.333 F
GS
[1 0 0 1 0 0] CT
-8 5.5 moveto 
1 -1 scale
(0) t 
GR
GR
GS
[0.75 0 0 0.75 1064.74997 276.33334] CT
0.149 GC
/Helvetica 13.333 F
GS
[1 0 0 1 0 0] CT
-26 5.5 moveto 
1 -1 scale
(0.02) t 
GR
GR
GS
[0.75 0 0 0.75 1064.74997 248.66667] CT
0.149 GC
/Helvetica 13.333 F
GS
[1 0 0 1 0 0] CT
-26 5.5 moveto 
1 -1 scale
(0.04) t 
GR
GR
GS
[0.75 0 0 0.75 1064.74997 221.00001] CT
0.149 GC
/Helvetica 13.333 F
GS
[1 0 0 1 0 0] CT
-26 5.5 moveto 
1 -1 scale
(0.06) t 
GR
GR
GS
[0.75 0 0 0.75 1064.74997 193.33334] CT
0.149 GC
/Helvetica 13.333 F
GS
[1 0 0 1 0 0] CT
-26 5.5 moveto 
1 -1 scale
(0.08) t 
GR
GR
GS
[0.75 0 0 0.75 1064.74997 165.66667] CT
0.149 GC
/Helvetica 13.333 F
GS
[1 0 0 1 0 0] CT
-19 5.5 moveto 
1 -1 scale
(0.1) t 
GR
GR
GS
[0.75 0 0 0.75 1064.74997 138] CT
0.149 GC
/Helvetica 13.333 F
GS
[1 0 0 1 0 0] CT
-26 5.5 moveto 
1 -1 scale
(0.12) t 
GR
GR
GS
[0.75 0 0 0.75 1064.74997 110.33333] CT
0.149 GC
/Helvetica 13.333 F
GS
[1 0 0 1 0 0] CT
-26 5.5 moveto 
1 -1 scale
(0.14) t 
GR
GR
GS
[0.75 0 0 0.75 1064.74997 82.66667] CT
0.149 GC
/Helvetica 13.333 F
GS
[1 0 0 1 0 0] CT
-26 5.5 moveto 
1 -1 scale
(0.16) t 
GR
GR
GS
[0.75 0 0 0.75 1064.74997 54.99999] CT
0.149 GC
/Helvetica 13.333 F
GS
[1 0 0 1 0 0] CT
-26 5.5 moveto 
1 -1 scale
(0.18) t 
GR
GR
GS
[0 -0.75 0.75 0 1042.24997 179.49987] CT
0.149 GC
/Helvetica 14.667 F
GS
[1 0 0 1 0 0] CT
-70.5 -4 moveto 
1 -1 scale
(Average Path Length) t 
GR
GR
GS
[0.75 0 0 0.75 0 0.25] CT
1 GC
N
248 866 M
546 866 L
546 534 L
248 534 L
cp
f
GR
GS
[0.75 0 0 0.75 0 0.25] CT
0.873 GC
1 LJ
0.667 LW
N
297.667 866 M
297.667 534 L
S
GR
GS
[0.75 0 0 0.75 0 0.25] CT
0.873 GC
1 LJ
0.667 LW
N
397 866 M
397 534 L
S
GR
GS
[0.75 0 0 0.75 0 0.25] CT
0.873 GC
1 LJ
0.667 LW
N
496.333 866 M
496.333 534 L
S
GR
GS
[0.75 0 0 0.75 0 0.25] CT
0.873 GC
1 LJ
0.667 LW
N
546 866 M
248 866 L
S
GR
GS
[0.75 0 0 0.75 0 0.25] CT
0.873 GC
1 LJ
0.667 LW
N
546 799.6 M
248 799.6 L
S
GR
GS
[0.75 0 0 0.75 0 0.25] CT
0.873 GC
1 LJ
0.667 LW
N
546 733.2 M
248 733.2 L
S
GR
GS
[0.75 0 0 0.75 0 0.25] CT
0.873 GC
1 LJ
0.667 LW
N
546 666.8 M
248 666.8 L
S
GR
GS
[0.75 0 0 0.75 0 0.25] CT
0.873 GC
1 LJ
0.667 LW
N
546 600.4 M
248 600.4 L
S
GR
GS
[0.75 0 0 0.75 0 0.25] CT
0.873 GC
1 LJ
0.667 LW
N
546 534 M
248 534 L
S
GR
GS
[0.75 0 0 0.75 297.75027 398.6875] CT
/Helvetica-Bold 14.667 F
GS
[1 0 0 1 0 0] CT
-31.5 -4 moveto 
1 -1 scale
(Subject1) t 
GR
GR
GS
[0.75 0 0 0.75 0 0.25] CT
0.149 GC
1 LJ
0.667 LW
N
248 866 M
546 866 L
S
GR
GS
[0.75 0 0 0.75 0 0.25] CT
1 0 0 RC
N
272.833 866 M
322.5 866 L
322.5 683.169 L
272.833 683.169 L
cp
f
GR
GS
[0.75 0 0 0.75 0 0.25] CT
1 0 0 RC
N
372.167 866 M
421.833 866 L
421.833 725.385 L
372.167 725.385 L
cp
f
GR
GS
[0.75 0 0 0.75 0 0.25] CT
1 0 0 RC
N
471.5 866 M
521.167 866 L
521.167 706.881 L
471.5 706.881 L
cp
f
GR
GS
[0.75 0 0 0.75 0 0.25] CT
10.0 ML
0.667 LW
N
272.833 866 M
272.833 683.169 L
322.5 683.169 L
322.5 866 L
cp
S
GR
GS
[0.75 0 0 0.75 0 0.25] CT
10.0 ML
0.667 LW
N
372.167 866 M
372.167 725.385 L
421.833 725.385 L
421.833 866 L
cp
S
GR
GS
[0.75 0 0 0.75 0 0.25] CT
10.0 ML
0.667 LW
N
471.5 866 M
471.5 706.881 L
521.167 706.881 L
521.167 866 L
cp
S
GR
GS
[0.75 0 0 0.75 0 0.25] CT
N
282.767 866 M
312.567 866 L
312.567 585.905 L
282.767 585.905 L
cp
f
GR
GS
[0.75 0 0 0.75 0 0.25] CT
N
382.1 866 M
411.9 866 L
411.9 587.176 L
382.1 587.176 L
cp
f
GR
GS
[0.75 0 0 0.75 0 0.25] CT
N
481.433 866 M
511.233 866 L
511.233 571.61 L
481.433 571.61 L
cp
f
GR
GS
[0.75 0 0 0.75 0 0.25] CT
10.0 ML
0.667 LW
N
282.767 866 M
282.767 585.905 L
312.567 585.905 L
312.567 866 L
cp
S
GR
GS
[0.75 0 0 0.75 0 0.25] CT
10.0 ML
0.667 LW
N
382.1 866 M
382.1 587.176 L
411.9 587.176 L
411.9 866 L
cp
S
GR
GS
[0.75 0 0 0.75 0 0.25] CT
10.0 ML
0.667 LW
N
481.433 866 M
481.433 571.61 L
511.233 571.61 L
511.233 866 L
cp
S
GR
GS
[0.75 0 0 0.75 0 0.25] CT
0.149 GC
2 setlinecap
1 LJ
0.667 LW
N
248 866 M
546 866 L
S
GR
GS
[0.75 0 0 0.75 0 0.25] CT
0.149 GC
2 setlinecap
1 LJ
0.667 LW
N
248 534 M
546 534 L
S
GR
GS
[0.75 0 0 0.75 0 0.25] CT
0.149 GC
2 setlinecap
1 LJ
0.667 LW
N
297.667 866 M
297.667 862.68 L
S
GR
GS
[0.75 0 0 0.75 0 0.25] CT
0.149 GC
2 setlinecap
1 LJ
0.667 LW
N
397 866 M
397 862.68 L
S
GR
GS
[0.75 0 0 0.75 0 0.25] CT
0.149 GC
2 setlinecap
1 LJ
0.667 LW
N
496.333 866 M
496.333 862.68 L
S
GR
GS
[0.75 0 0 0.75 0 0.25] CT
0.149 GC
2 setlinecap
1 LJ
0.667 LW
N
297.667 534 M
297.667 537.32 L
S
GR
GS
[0.75 0 0 0.75 0 0.25] CT
0.149 GC
2 setlinecap
1 LJ
0.667 LW
N
397 534 M
397 537.32 L
S
GR
GS
[0.75 0 0 0.75 0 0.25] CT
0.149 GC
2 setlinecap
1 LJ
0.667 LW
N
496.333 534 M
496.333 537.32 L
S
GR
GS
[0.75 0 0 0.75 223.24999 653.74998] CT
0.149 GC
/Helvetica 13.333 F
GS
[1 0 0 1 0 0] CT
-18 14 moveto 
1 -1 scale
(SEEN) t 
GR
GR
GS
[0.75 0 0 0.75 297.75 653.74998] CT
0.149 GC
/Helvetica 13.333 F
GS
[1 0 0 1 0 0] CT
-38 14 moveto 
1 -1 scale
(UNCERTAIN) t 
GR
GR
GS
[0.75 0 0 0.75 372.25001 653.74998] CT
0.149 GC
/Helvetica 13.333 F
GS
[1 0 0 1 0 0] CT
-33.5 14 moveto 
1 -1 scale
(NOT SEEN) t 
GR
GR
GS
[0.75 0 0 0.75 0 0.25] CT
0.149 GC
2 setlinecap
1 LJ
0.667 LW
N
248 866 M
248 534 L
S
GR
GS
[0.75 0 0 0.75 0 0.25] CT
0.149 GC
2 setlinecap
1 LJ
0.667 LW
N
546 866 M
546 534 L
S
GR
GS
[0.75 0 0 0.75 0 0.25] CT
0.149 GC
2 setlinecap
1 LJ
0.667 LW
N
248 866 M
251.32 866 L
S
GR
GS
[0.75 0 0 0.75 0 0.25] CT
0.149 GC
2 setlinecap
1 LJ
0.667 LW
N
248 799.6 M
251.32 799.6 L
S
GR
GS
[0.75 0 0 0.75 0 0.25] CT
0.149 GC
2 setlinecap
1 LJ
0.667 LW
N
248 733.2 M
251.32 733.2 L
S
GR
GS
[0.75 0 0 0.75 0 0.25] CT
0.149 GC
2 setlinecap
1 LJ
0.667 LW
N
248 666.8 M
251.32 666.8 L
S
GR
GS
[0.75 0 0 0.75 0 0.25] CT
0.149 GC
2 setlinecap
1 LJ
0.667 LW
N
248 600.4 M
251.32 600.4 L
S
GR
GS
[0.75 0 0 0.75 0 0.25] CT
0.149 GC
2 setlinecap
1 LJ
0.667 LW
N
248 534 M
251.32 534 L
S
GR
GS
[0.75 0 0 0.75 0 0.25] CT
0.149 GC
2 setlinecap
1 LJ
0.667 LW
N
546 866 M
542.68 866 L
S
GR
GS
[0.75 0 0 0.75 0 0.25] CT
0.149 GC
2 setlinecap
1 LJ
0.667 LW
N
546 799.6 M
542.68 799.6 L
S
GR
GS
[0.75 0 0 0.75 0 0.25] CT
0.149 GC
2 setlinecap
1 LJ
0.667 LW
N
546 733.2 M
542.68 733.2 L
S
GR
GS
[0.75 0 0 0.75 0 0.25] CT
0.149 GC
2 setlinecap
1 LJ
0.667 LW
N
546 666.8 M
542.68 666.8 L
S
GR
GS
[0.75 0 0 0.75 0 0.25] CT
0.149 GC
2 setlinecap
1 LJ
0.667 LW
N
546 600.4 M
542.68 600.4 L
S
GR
GS
[0.75 0 0 0.75 0 0.25] CT
0.149 GC
2 setlinecap
1 LJ
0.667 LW
N
546 534 M
542.68 534 L
S
GR
GS
[0.75 0 0 0.75 182 649.75] CT
0.149 GC
/Helvetica 13.333 F
GS
[1 0 0 1 0 0] CT
-8 5.5 moveto 
1 -1 scale
(0) t 
GR
GR
GS
[0.75 0 0 0.75 182 599.94998] CT
0.149 GC
/Helvetica 13.333 F
GS
[1 0 0 1 0 0] CT
-26 5.5 moveto 
1 -1 scale
(0.05) t 
GR
GR
GS
[0.75 0 0 0.75 182 550.15001] CT
0.149 GC
/Helvetica 13.333 F
GS
[1 0 0 1 0 0] CT
-19 5.5 moveto 
1 -1 scale
(0.1) t 
GR
GR
GS
[0.75 0 0 0.75 182 500.34999] CT
0.149 GC
/Helvetica 13.333 F
GS
[1 0 0 1 0 0] CT
-26 5.5 moveto 
1 -1 scale
(0.15) t 
GR
GR
GS
[0.75 0 0 0.75 182 450.55002] CT
0.149 GC
/Helvetica 13.333 F
GS
[1 0 0 1 0 0] CT
-19 5.5 moveto 
1 -1 scale
(0.2) t 
GR
GR
GS
[0.75 0 0 0.75 182 400.75] CT
0.149 GC
/Helvetica 13.333 F
GS
[1 0 0 1 0 0] CT
-26 5.5 moveto 
1 -1 scale
(0.25) t 
GR
GR
GS
[0 -0.75 0.75 0 159.5 525.24986] CT
0.149 GC
/Helvetica 14.667 F
GS
[1 0 0 1 0 0] CT
-70.5 -4 moveto 
1 -1 scale
(Average Path Length) t 
GR
GR
GS
[0.75 0 0 0.75 0 0.25] CT
1 GC
N
640 866 M
938 866 L
938 534 L
640 534 L
cp
f
GR
GS
[0.75 0 0 0.75 0 0.25] CT
0.873 GC
1 LJ
0.667 LW
N
689.667 866 M
689.667 534 L
S
GR
GS
[0.75 0 0 0.75 0 0.25] CT
0.873 GC
1 LJ
0.667 LW
N
789 866 M
789 534 L
S
GR
GS
[0.75 0 0 0.75 0 0.25] CT
0.873 GC
1 LJ
0.667 LW
N
888.333 866 M
888.333 534 L
S
GR
GS
[0.75 0 0 0.75 0 0.25] CT
0.873 GC
1 LJ
0.667 LW
N
938 866 M
640 866 L
S
GR
GS
[0.75 0 0 0.75 0 0.25] CT
0.873 GC
1 LJ
0.667 LW
N
938 799.6 M
640 799.6 L
S
GR
GS
[0.75 0 0 0.75 0 0.25] CT
0.873 GC
1 LJ
0.667 LW
N
938 733.2 M
640 733.2 L
S
GR
GS
[0.75 0 0 0.75 0 0.25] CT
0.873 GC
1 LJ
0.667 LW
N
938 666.8 M
640 666.8 L
S
GR
GS
[0.75 0 0 0.75 0 0.25] CT
0.873 GC
1 LJ
0.667 LW
N
938 600.4 M
640 600.4 L
S
GR
GS
[0.75 0 0 0.75 0 0.25] CT
0.873 GC
1 LJ
0.667 LW
N
938 534 M
640 534 L
S
GR
GS
[0.75 0 0 0.75 591.75055 398.6875] CT
/Helvetica-Bold 14.667 F
GS
[1 0 0 1 0 0] CT
-31.5 -4 moveto 
1 -1 scale
(Subject2) t 
GR
GR
GS
[0.75 0 0 0.75 0 0.25] CT
0.149 GC
1 LJ
0.667 LW
N
640 866 M
938 866 L
S
GR
GS
[0.75 0 0 0.75 0 0.25] CT
1 0 0 RC
N
664.833 866 M
714.5 866 L
714.5 665.607 L
664.833 665.607 L
cp
f
GR
GS
[0.75 0 0 0.75 0 0.25] CT
1 0 0 RC
N
764.167 866 M
813.833 866 L
813.833 741.316 L
764.167 741.316 L
cp
f
GR
GS
[0.75 0 0 0.75 0 0.25] CT
1 0 0 RC
N
863.5 866 M
913.167 866 L
913.167 713.734 L
863.5 713.734 L
cp
f
GR
GS
[0.75 0 0 0.75 0 0.25] CT
10.0 ML
0.667 LW
N
664.833 866 M
664.833 665.607 L
714.5 665.607 L
714.5 866 L
cp
S
GR
GS
[0.75 0 0 0.75 0 0.25] CT
10.0 ML
0.667 LW
N
764.167 866 M
764.167 741.316 L
813.833 741.316 L
813.833 866 L
cp
S
GR
GS
[0.75 0 0 0.75 0 0.25] CT
10.0 ML
0.667 LW
N
863.5 866 M
863.5 713.734 L
913.167 713.734 L
913.167 866 L
cp
S
GR
GS
[0.75 0 0 0.75 0 0.25] CT
N
674.767 866 M
704.567 866 L
704.567 589.615 L
674.767 589.615 L
cp
f
GR
GS
[0.75 0 0 0.75 0 0.25] CT
N
774.1 866 M
803.9 866 L
803.9 610.525 L
774.1 610.525 L
cp
f
GR
GS
[0.75 0 0 0.75 0 0.25] CT
N
873.433 866 M
903.233 866 L
903.233 589.692 L
873.433 589.692 L
cp
f
GR
GS
[0.75 0 0 0.75 0 0.25] CT
10.0 ML
0.667 LW
N
674.767 866 M
674.767 589.615 L
704.567 589.615 L
704.567 866 L
cp
S
GR
GS
[0.75 0 0 0.75 0 0.25] CT
10.0 ML
0.667 LW
N
774.1 866 M
774.1 610.525 L
803.9 610.525 L
803.9 866 L
cp
S
GR
GS
[0.75 0 0 0.75 0 0.25] CT
10.0 ML
0.667 LW
N
873.433 866 M
873.433 589.692 L
903.233 589.692 L
903.233 866 L
cp
S
GR
GS
[0.75 0 0 0.75 0 0.25] CT
0.149 GC
2 setlinecap
1 LJ
0.667 LW
N
640 866 M
938 866 L
S
GR
GS
[0.75 0 0 0.75 0 0.25] CT
0.149 GC
2 setlinecap
1 LJ
0.667 LW
N
640 534 M
938 534 L
S
GR
GS
[0.75 0 0 0.75 0 0.25] CT
0.149 GC
2 setlinecap
1 LJ
0.667 LW
N
689.667 866 M
689.667 862.68 L
S
GR
GS
[0.75 0 0 0.75 0 0.25] CT
0.149 GC
2 setlinecap
1 LJ
0.667 LW
N
789 866 M
789 862.68 L
S
GR
GS
[0.75 0 0 0.75 0 0.25] CT
0.149 GC
2 setlinecap
1 LJ
0.667 LW
N
888.333 866 M
888.333 862.68 L
S
GR
GS
[0.75 0 0 0.75 0 0.25] CT
0.149 GC
2 setlinecap
1 LJ
0.667 LW
N
689.667 534 M
689.667 537.32 L
S
GR
GS
[0.75 0 0 0.75 0 0.25] CT
0.149 GC
2 setlinecap
1 LJ
0.667 LW
N
789 534 M
789 537.32 L
S
GR
GS
[0.75 0 0 0.75 0 0.25] CT
0.149 GC
2 setlinecap
1 LJ
0.667 LW
N
888.333 534 M
888.333 537.32 L
S
GR
GS
[0.75 0 0 0.75 517.25002 653.74998] CT
0.149 GC
/Helvetica 13.333 F
GS
[1 0 0 1 0 0] CT
-18 14 moveto 
1 -1 scale
(SEEN) t 
GR
GR
GS
[0.75 0 0 0.75 591.75 653.74998] CT
0.149 GC
/Helvetica 13.333 F
GS
[1 0 0 1 0 0] CT
-38 14 moveto 
1 -1 scale
(UNCERTAIN) t 
GR
GR
GS
[0.75 0 0 0.75 666.24998 653.74998] CT
0.149 GC
/Helvetica 13.333 F
GS
[1 0 0 1 0 0] CT
-33.5 14 moveto 
1 -1 scale
(NOT SEEN) t 
GR
GR
GS
[0.75 0 0 0.75 0 0.25] CT
0.149 GC
2 setlinecap
1 LJ
0.667 LW
N
640 866 M
640 534 L
S
GR
GS
[0.75 0 0 0.75 0 0.25] CT
0.149 GC
2 setlinecap
1 LJ
0.667 LW
N
938 866 M
938 534 L
S
GR
GS
[0.75 0 0 0.75 0 0.25] CT
0.149 GC
2 setlinecap
1 LJ
0.667 LW
N
640 866 M
643.32 866 L
S
GR
GS
[0.75 0 0 0.75 0 0.25] CT
0.149 GC
2 setlinecap
1 LJ
0.667 LW
N
640 799.6 M
643.32 799.6 L
S
GR
GS
[0.75 0 0 0.75 0 0.25] CT
0.149 GC
2 setlinecap
1 LJ
0.667 LW
N
640 733.2 M
643.32 733.2 L
S
GR
GS
[0.75 0 0 0.75 0 0.25] CT
0.149 GC
2 setlinecap
1 LJ
0.667 LW
N
640 666.8 M
643.32 666.8 L
S
GR
GS
[0.75 0 0 0.75 0 0.25] CT
0.149 GC
2 setlinecap
1 LJ
0.667 LW
N
640 600.4 M
643.32 600.4 L
S
GR
GS
[0.75 0 0 0.75 0 0.25] CT
0.149 GC
2 setlinecap
1 LJ
0.667 LW
N
640 534 M
643.32 534 L
S
GR
GS
[0.75 0 0 0.75 0 0.25] CT
0.149 GC
2 setlinecap
1 LJ
0.667 LW
N
938 866 M
934.68 866 L
S
GR
GS
[0.75 0 0 0.75 0 0.25] CT
0.149 GC
2 setlinecap
1 LJ
0.667 LW
N
938 799.6 M
934.68 799.6 L
S
GR
GS
[0.75 0 0 0.75 0 0.25] CT
0.149 GC
2 setlinecap
1 LJ
0.667 LW
N
938 733.2 M
934.68 733.2 L
S
GR
GS
[0.75 0 0 0.75 0 0.25] CT
0.149 GC
2 setlinecap
1 LJ
0.667 LW
N
938 666.8 M
934.68 666.8 L
S
GR
GS
[0.75 0 0 0.75 0 0.25] CT
0.149 GC
2 setlinecap
1 LJ
0.667 LW
N
938 600.4 M
934.68 600.4 L
S
GR
GS
[0.75 0 0 0.75 0 0.25] CT
0.149 GC
2 setlinecap
1 LJ
0.667 LW
N
938 534 M
934.68 534 L
S
GR
GS
[0.75 0 0 0.75 476.00002 649.75] CT
0.149 GC
/Helvetica 13.333 F
GS
[1 0 0 1 0 0] CT
-8 5.5 moveto 
1 -1 scale
(0) t 
GR
GR
GS
[0.75 0 0 0.75 476.00002 599.94998] CT
0.149 GC
/Helvetica 13.333 F
GS
[1 0 0 1 0 0] CT
-26 5.5 moveto 
1 -1 scale
(0.05) t 
GR
GR
GS
[0.75 0 0 0.75 476.00002 550.15001] CT
0.149 GC
/Helvetica 13.333 F
GS
[1 0 0 1 0 0] CT
-19 5.5 moveto 
1 -1 scale
(0.1) t 
GR
GR
GS
[0.75 0 0 0.75 476.00002 500.34999] CT
0.149 GC
/Helvetica 13.333 F
GS
[1 0 0 1 0 0] CT
-26 5.5 moveto 
1 -1 scale
(0.15) t 
GR
GR
GS
[0.75 0 0 0.75 476.00002 450.55002] CT
0.149 GC
/Helvetica 13.333 F
GS
[1 0 0 1 0 0] CT
-19 5.5 moveto 
1 -1 scale
(0.2) t 
GR
GR
GS
[0.75 0 0 0.75 476.00002 400.75] CT
0.149 GC
/Helvetica 13.333 F
GS
[1 0 0 1 0 0] CT
-26 5.5 moveto 
1 -1 scale
(0.25) t 
GR
GR
GS
[0 -0.75 0.75 0 453.50002 525.24986] CT
0.149 GC
/Helvetica 14.667 F
GS
[1 0 0 1 0 0] CT
-70.5 -4 moveto 
1 -1 scale
(Average Path Length) t 
GR
GR
GS
[0.75 0 0 0.75 0 0.25] CT
1 GC
N
1032 866 M
1331 866 L
1331 534 L
1032 534 L
cp
f
GR
GS
[0.75 0 0 0.75 0 0.25] CT
0.873 GC
1 LJ
0.667 LW
N
1081.833 866 M
1081.833 534 L
S
GR
GS
[0.75 0 0 0.75 0 0.25] CT
0.873 GC
1 LJ
0.667 LW
N
1181.5 866 M
1181.5 534 L
S
GR
GS
[0.75 0 0 0.75 0 0.25] CT
0.873 GC
1 LJ
0.667 LW
N
1281.167 866 M
1281.167 534 L
S
GR
GS
[0.75 0 0 0.75 0 0.25] CT
0.873 GC
1 LJ
0.667 LW
N
1331 866 M
1032 866 L
S
GR
GS
[0.75 0 0 0.75 0 0.25] CT
0.873 GC
1 LJ
0.667 LW
N
1331 799.6 M
1032 799.6 L
S
GR
GS
[0.75 0 0 0.75 0 0.25] CT
0.873 GC
1 LJ
0.667 LW
N
1331 733.2 M
1032 733.2 L
S
GR
GS
[0.75 0 0 0.75 0 0.25] CT
0.873 GC
1 LJ
0.667 LW
N
1331 666.8 M
1032 666.8 L
S
GR
GS
[0.75 0 0 0.75 0 0.25] CT
0.873 GC
1 LJ
0.667 LW
N
1331 600.4 M
1032 600.4 L
S
GR
GS
[0.75 0 0 0.75 0 0.25] CT
0.873 GC
1 LJ
0.667 LW
N
1331 534 M
1032 534 L
S
GR
GS
[0.75 0 0 0.75 886.12582 398.6875] CT
/Helvetica-Bold 14.667 F
GS
[1 0 0 1 0 0] CT
-31.5 -4 moveto 
1 -1 scale
(Subject3) t 
GR
GR
GS
[0.75 0 0 0.75 0 0.25] CT
0.149 GC
1 LJ
0.667 LW
N
1032 866 M
1331 866 L
S
GR
GS
[0.75 0 0 0.75 0 0.25] CT
1 0 0 RC
N
1056.917 866 M
1106.75 866 L
1106.75 641.791 L
1056.917 641.791 L
cp
f
GR
GS
[0.75 0 0 0.75 0 0.25] CT
1 0 0 RC
N
1156.583 866 M
1206.417 866 L
1206.417 789.991 L
1156.583 789.991 L
cp
f
GR
GS
[0.75 0 0 0.75 0 0.25] CT
1 0 0 RC
N
1256.25 866 M
1306.083 866 L
1306.083 696.462 L
1256.25 696.462 L
cp
f
GR
GS
[0.75 0 0 0.75 0 0.25] CT
10.0 ML
0.667 LW
N
1056.917 866 M
1056.917 641.791 L
1106.75 641.791 L
1106.75 866 L
cp
S
GR
GS
[0.75 0 0 0.75 0 0.25] CT
10.0 ML
0.667 LW
N
1156.583 866 M
1156.583 789.991 L
1206.417 789.991 L
1206.417 866 L
cp
S
GR
GS
[0.75 0 0 0.75 0 0.25] CT
10.0 ML
0.667 LW
N
1256.25 866 M
1256.25 696.462 L
1306.083 696.462 L
1306.083 866 L
cp
S
GR
GS
[0.75 0 0 0.75 0 0.25] CT
N
1066.883 866 M
1096.783 866 L
1096.783 562.514 L
1066.883 562.514 L
cp
f
GR
GS
[0.75 0 0 0.75 0 0.25] CT
N
1166.55 866 M
1196.45 866 L
1196.45 644.268 L
1166.55 644.268 L
cp
f
GR
GS
[0.75 0 0 0.75 0 0.25] CT
N
1266.217 866 M
1296.117 866 L
1296.117 563.03 L
1266.217 563.03 L
cp
f
GR
GS
[0.75 0 0 0.75 0 0.25] CT
10.0 ML
0.667 LW
N
1066.883 866 M
1066.883 562.514 L
1096.783 562.514 L
1096.783 866 L
cp
S
GR
GS
[0.75 0 0 0.75 0 0.25] CT
10.0 ML
0.667 LW
N
1166.55 866 M
1166.55 644.268 L
1196.45 644.268 L
1196.45 866 L
cp
S
GR
GS
[0.75 0 0 0.75 0 0.25] CT
10.0 ML
0.667 LW
N
1266.217 866 M
1266.217 563.03 L
1296.117 563.03 L
1296.117 866 L
cp
S
GR
GS
[0.75 0 0 0.75 0 0.25] CT
0.149 GC
2 setlinecap
1 LJ
0.667 LW
N
1032 866 M
1331 866 L
S
GR
GS
[0.75 0 0 0.75 0 0.25] CT
0.149 GC
2 setlinecap
1 LJ
0.667 LW
N
1032 534 M
1331 534 L
S
GR
GS
[0.75 0 0 0.75 0 0.25] CT
0.149 GC
2 setlinecap
1 LJ
0.667 LW
N
1081.833 866 M
1081.833 862.68 L
S
GR
GS
[0.75 0 0 0.75 0 0.25] CT
0.149 GC
2 setlinecap
1 LJ
0.667 LW
N
1181.5 866 M
1181.5 862.68 L
S
GR
GS
[0.75 0 0 0.75 0 0.25] CT
0.149 GC
2 setlinecap
1 LJ
0.667 LW
N
1281.167 866 M
1281.167 862.68 L
S
GR
GS
[0.75 0 0 0.75 0 0.25] CT
0.149 GC
2 setlinecap
1 LJ
0.667 LW
N
1081.833 534 M
1081.833 537.32 L
S
GR
GS
[0.75 0 0 0.75 0 0.25] CT
0.149 GC
2 setlinecap
1 LJ
0.667 LW
N
1181.5 534 M
1181.5 537.32 L
S
GR
GS
[0.75 0 0 0.75 0 0.25] CT
0.149 GC
2 setlinecap
1 LJ
0.667 LW
N
1281.167 534 M
1281.167 537.32 L
S
GR
GS
[0.75 0 0 0.75 811.37503 653.74998] CT
0.149 GC
/Helvetica 13.333 F
GS
[1 0 0 1 0 0] CT
-18 14 moveto 
1 -1 scale
(SEEN) t 
GR
GR
GS
[0.75 0 0 0.75 886.125 653.74998] CT
0.149 GC
/Helvetica 13.333 F
GS
[1 0 0 1 0 0] CT
-38 14 moveto 
1 -1 scale
(UNCERTAIN) t 
GR
GR
GS
[0.75 0 0 0.75 960.87497 653.74998] CT
0.149 GC
/Helvetica 13.333 F
GS
[1 0 0 1 0 0] CT
-33.5 14 moveto 
1 -1 scale
(NOT SEEN) t 
GR
GR
GS
[0.75 0 0 0.75 0 0.25] CT
0.149 GC
2 setlinecap
1 LJ
0.667 LW
N
1032 866 M
1032 534 L
S
GR
GS
[0.75 0 0 0.75 0 0.25] CT
0.149 GC
2 setlinecap
1 LJ
0.667 LW
N
1331 866 M
1331 534 L
S
GR
GS
[0.75 0 0 0.75 0 0.25] CT
0.149 GC
2 setlinecap
1 LJ
0.667 LW
N
1032 866 M
1035.32 866 L
S
GR
GS
[0.75 0 0 0.75 0 0.25] CT
0.149 GC
2 setlinecap
1 LJ
0.667 LW
N
1032 799.6 M
1035.32 799.6 L
S
GR
GS
[0.75 0 0 0.75 0 0.25] CT
0.149 GC
2 setlinecap
1 LJ
0.667 LW
N
1032 733.2 M
1035.32 733.2 L
S
GR
GS
[0.75 0 0 0.75 0 0.25] CT
0.149 GC
2 setlinecap
1 LJ
0.667 LW
N
1032 666.8 M
1035.32 666.8 L
S
GR
GS
[0.75 0 0 0.75 0 0.25] CT
0.149 GC
2 setlinecap
1 LJ
0.667 LW
N
1032 600.4 M
1035.32 600.4 L
S
GR
GS
[0.75 0 0 0.75 0 0.25] CT
0.149 GC
2 setlinecap
1 LJ
0.667 LW
N
1032 534 M
1035.32 534 L
S
GR
GS
[0.75 0 0 0.75 0 0.25] CT
0.149 GC
2 setlinecap
1 LJ
0.667 LW
N
1331 866 M
1327.68 866 L
S
GR
GS
[0.75 0 0 0.75 0 0.25] CT
0.149 GC
2 setlinecap
1 LJ
0.667 LW
N
1331 799.6 M
1327.68 799.6 L
S
GR
GS
[0.75 0 0 0.75 0 0.25] CT
0.149 GC
2 setlinecap
1 LJ
0.667 LW
N
1331 733.2 M
1327.68 733.2 L
S
GR
GS
[0.75 0 0 0.75 0 0.25] CT
0.149 GC
2 setlinecap
1 LJ
0.667 LW
N
1331 666.8 M
1327.68 666.8 L
S
GR
GS
[0.75 0 0 0.75 0 0.25] CT
0.149 GC
2 setlinecap
1 LJ
0.667 LW
N
1331 600.4 M
1327.68 600.4 L
S
GR
GS
[0.75 0 0 0.75 0 0.25] CT
0.149 GC
2 setlinecap
1 LJ
0.667 LW
N
1331 534 M
1327.68 534 L
S
GR
GS
[0.75 0 0 0.75 769.99997 649.75] CT
0.149 GC
/Helvetica 13.333 F
GS
[1 0 0 1 0 0] CT
-8 5.5 moveto 
1 -1 scale
(0) t 
GR
GR
GS
[0.75 0 0 0.75 769.99997 599.94998] CT
0.149 GC
/Helvetica 13.333 F
GS
[1 0 0 1 0 0] CT
-26 5.5 moveto 
1 -1 scale
(0.05) t 
GR
GR
GS
[0.75 0 0 0.75 769.99997 550.15001] CT
0.149 GC
/Helvetica 13.333 F
GS
[1 0 0 1 0 0] CT
-19 5.5 moveto 
1 -1 scale
(0.1) t 
GR
GR
GS
[0.75 0 0 0.75 769.99997 500.34999] CT
0.149 GC
/Helvetica 13.333 F
GS
[1 0 0 1 0 0] CT
-26 5.5 moveto 
1 -1 scale
(0.15) t 
GR
GR
GS
[0.75 0 0 0.75 769.99997 450.55002] CT
0.149 GC
/Helvetica 13.333 F
GS
[1 0 0 1 0 0] CT
-19 5.5 moveto 
1 -1 scale
(0.2) t 
GR
GR
GS
[0.75 0 0 0.75 769.99997 400.75] CT
0.149 GC
/Helvetica 13.333 F
GS
[1 0 0 1 0 0] CT
-26 5.5 moveto 
1 -1 scale
(0.25) t 
GR
GR
GS
[0 -0.75 0.75 0 747.50002 525.24986] CT
0.149 GC
/Helvetica 14.667 F
GS
[1 0 0 1 0 0] CT
-70.5 -4 moveto 
1 -1 scale
(Average Path Length) t 
GR
GR
GS
[0.75 0 0 0.75 0 0.25] CT
1 GC
N
1425 866 M
1723 866 L
1723 534 L
1425 534 L
cp
f
GR
GS
[0.75 0 0 0.75 0 0.25] CT
0.873 GC
1 LJ
0.667 LW
N
1474.667 866 M
1474.667 534 L
S
GR
GS
[0.75 0 0 0.75 0 0.25] CT
0.873 GC
1 LJ
0.667 LW
N
1574 866 M
1574 534 L
S
GR
GS
[0.75 0 0 0.75 0 0.25] CT
0.873 GC
1 LJ
0.667 LW
N
1673.333 866 M
1673.333 534 L
S
GR
GS
[0.75 0 0 0.75 0 0.25] CT
0.873 GC
1 LJ
0.667 LW
N
1723 866 M
1425 866 L
S
GR
GS
[0.75 0 0 0.75 0 0.25] CT
0.873 GC
1 LJ
0.667 LW
N
1723 799.6 M
1425 799.6 L
S
GR
GS
[0.75 0 0 0.75 0 0.25] CT
0.873 GC
1 LJ
0.667 LW
N
1723 733.2 M
1425 733.2 L
S
GR
GS
[0.75 0 0 0.75 0 0.25] CT
0.873 GC
1 LJ
0.667 LW
N
1723 666.8 M
1425 666.8 L
S
GR
GS
[0.75 0 0 0.75 0 0.25] CT
0.873 GC
1 LJ
0.667 LW
N
1723 600.4 M
1425 600.4 L
S
GR
GS
[0.75 0 0 0.75 0 0.25] CT
0.873 GC
1 LJ
0.667 LW
N
1723 534 M
1425 534 L
S
GR
GS
[0.75 0 0 0.75 1180.5011 398.6875] CT
/Helvetica-Bold 14.667 F
GS
[1 0 0 1 0 0] CT
-31.5 -4 moveto 
1 -1 scale
(Subject4) t 
GR
GR
GS
[0.75 0 0 0.75 0 0.25] CT
0.149 GC
1 LJ
0.667 LW
N
1425 866 M
1723 866 L
S
GR
GS
[0.75 0 0 0.75 0 0.25] CT
1 0 0 RC
N
1449.833 866 M
1499.5 866 L
1499.5 687.725 L
1449.833 687.725 L
cp
f
GR
GS
[0.75 0 0 0.75 0 0.25] CT
1 0 0 RC
N
1549.167 866 M
1598.833 866 L
1598.833 765.686 L
1549.167 765.686 L
cp
f
GR
GS
[0.75 0 0 0.75 0 0.25] CT
1 0 0 RC
N
1648.5 866 M
1698.167 866 L
1698.167 665.826 L
1648.5 665.826 L
cp
f
GR
GS
[0.75 0 0 0.75 0 0.25] CT
10.0 ML
0.667 LW
N
1449.833 866 M
1449.833 687.725 L
1499.5 687.725 L
1499.5 866 L
cp
S
GR
GS
[0.75 0 0 0.75 0 0.25] CT
10.0 ML
0.667 LW
N
1549.167 866 M
1549.167 765.686 L
1598.833 765.686 L
1598.833 866 L
cp
S
GR
GS
[0.75 0 0 0.75 0 0.25] CT
10.0 ML
0.667 LW
N
1648.5 866 M
1648.5 665.826 L
1698.167 665.826 L
1698.167 866 L
cp
S
GR
GS
[0.75 0 0 0.75 0 0.25] CT
N
1459.767 866 M
1489.567 866 L
1489.567 559.769 L
1459.767 559.769 L
cp
f
GR
GS
[0.75 0 0 0.75 0 0.25] CT
N
1559.1 866 M
1588.9 866 L
1588.9 593.665 L
1559.1 593.665 L
cp
f
GR
GS
[0.75 0 0 0.75 0 0.25] CT
N
1658.433 866 M
1688.233 866 L
1688.233 556.304 L
1658.433 556.304 L
cp
f
GR
GS
[0.75 0 0 0.75 0 0.25] CT
10.0 ML
0.667 LW
N
1459.767 866 M
1459.767 559.769 L
1489.567 559.769 L
1489.567 866 L
cp
S
GR
GS
[0.75 0 0 0.75 0 0.25] CT
10.0 ML
0.667 LW
N
1559.1 866 M
1559.1 593.665 L
1588.9 593.665 L
1588.9 866 L
cp
S
GR
GS
[0.75 0 0 0.75 0 0.25] CT
10.0 ML
0.667 LW
N
1658.433 866 M
1658.433 556.304 L
1688.233 556.304 L
1688.233 866 L
cp
S
GR
GS
[0.75 0 0 0.75 0 0.25] CT
0.149 GC
2 setlinecap
1 LJ
0.667 LW
N
1425 866 M
1723 866 L
S
GR
GS
[0.75 0 0 0.75 0 0.25] CT
0.149 GC
2 setlinecap
1 LJ
0.667 LW
N
1425 534 M
1723 534 L
S
GR
GS
[0.75 0 0 0.75 0 0.25] CT
0.149 GC
2 setlinecap
1 LJ
0.667 LW
N
1474.667 866 M
1474.667 862.68 L
S
GR
GS
[0.75 0 0 0.75 0 0.25] CT
0.149 GC
2 setlinecap
1 LJ
0.667 LW
N
1574 866 M
1574 862.68 L
S
GR
GS
[0.75 0 0 0.75 0 0.25] CT
0.149 GC
2 setlinecap
1 LJ
0.667 LW
N
1673.333 866 M
1673.333 862.68 L
S
GR
GS
[0.75 0 0 0.75 0 0.25] CT
0.149 GC
2 setlinecap
1 LJ
0.667 LW
N
1474.667 534 M
1474.667 537.32 L
S
GR
GS
[0.75 0 0 0.75 0 0.25] CT
0.149 GC
2 setlinecap
1 LJ
0.667 LW
N
1574 534 M
1574 537.32 L
S
GR
GS
[0.75 0 0 0.75 0 0.25] CT
0.149 GC
2 setlinecap
1 LJ
0.667 LW
N
1673.333 534 M
1673.333 537.32 L
S
GR
GS
[0.75 0 0 0.75 1105.99997 653.74998] CT
0.149 GC
/Helvetica 13.333 F
GS
[1 0 0 1 0 0] CT
-18 14 moveto 
1 -1 scale
(SEEN) t 
GR
GR
GS
[0.75 0 0 0.75 1180.5 653.74998] CT
0.149 GC
/Helvetica 13.333 F
GS
[1 0 0 1 0 0] CT
-38 14 moveto 
1 -1 scale
(UNCERTAIN) t 
GR
GR
GS
[0.75 0 0 0.75 1255.00003 653.74998] CT
0.149 GC
/Helvetica 13.333 F
GS
[1 0 0 1 0 0] CT
-33.5 14 moveto 
1 -1 scale
(NOT SEEN) t 
GR
GR
GS
[0.75 0 0 0.75 0 0.25] CT
0.149 GC
2 setlinecap
1 LJ
0.667 LW
N
1425 866 M
1425 534 L
S
GR
GS
[0.75 0 0 0.75 0 0.25] CT
0.149 GC
2 setlinecap
1 LJ
0.667 LW
N
1723 866 M
1723 534 L
S
GR
GS
[0.75 0 0 0.75 0 0.25] CT
0.149 GC
2 setlinecap
1 LJ
0.667 LW
N
1425 866 M
1428.32 866 L
S
GR
GS
[0.75 0 0 0.75 0 0.25] CT
0.149 GC
2 setlinecap
1 LJ
0.667 LW
N
1425 799.6 M
1428.32 799.6 L
S
GR
GS
[0.75 0 0 0.75 0 0.25] CT
0.149 GC
2 setlinecap
1 LJ
0.667 LW
N
1425 733.2 M
1428.32 733.2 L
S
GR
GS
[0.75 0 0 0.75 0 0.25] CT
0.149 GC
2 setlinecap
1 LJ
0.667 LW
N
1425 666.8 M
1428.32 666.8 L
S
GR
GS
[0.75 0 0 0.75 0 0.25] CT
0.149 GC
2 setlinecap
1 LJ
0.667 LW
N
1425 600.4 M
1428.32 600.4 L
S
GR
GS
[0.75 0 0 0.75 0 0.25] CT
0.149 GC
2 setlinecap
1 LJ
0.667 LW
N
1425 534 M
1428.32 534 L
S
GR
GS
[0.75 0 0 0.75 0 0.25] CT
0.149 GC
2 setlinecap
1 LJ
0.667 LW
N
1723 866 M
1719.68 866 L
S
GR
GS
[0.75 0 0 0.75 0 0.25] CT
0.149 GC
2 setlinecap
1 LJ
0.667 LW
N
1723 799.6 M
1719.68 799.6 L
S
GR
GS
[0.75 0 0 0.75 0 0.25] CT
0.149 GC
2 setlinecap
1 LJ
0.667 LW
N
1723 733.2 M
1719.68 733.2 L
S
GR
GS
[0.75 0 0 0.75 0 0.25] CT
0.149 GC
2 setlinecap
1 LJ
0.667 LW
N
1723 666.8 M
1719.68 666.8 L
S
GR
GS
[0.75 0 0 0.75 0 0.25] CT
0.149 GC
2 setlinecap
1 LJ
0.667 LW
N
1723 600.4 M
1719.68 600.4 L
S
GR
GS
[0.75 0 0 0.75 0 0.25] CT
0.149 GC
2 setlinecap
1 LJ
0.667 LW
N
1723 534 M
1719.68 534 L
S
GR
GS
[0.75 0 0 0.75 1064.74997 649.75] CT
0.149 GC
/Helvetica 13.333 F
GS
[1 0 0 1 0 0] CT
-8 5.5 moveto 
1 -1 scale
(0) t 
GR
GR
GS
[0.75 0 0 0.75 1064.74997 599.94998] CT
0.149 GC
/Helvetica 13.333 F
GS
[1 0 0 1 0 0] CT
-26 5.5 moveto 
1 -1 scale
(0.05) t 
GR
GR
GS
[0.75 0 0 0.75 1064.74997 550.15001] CT
0.149 GC
/Helvetica 13.333 F
GS
[1 0 0 1 0 0] CT
-19 5.5 moveto 
1 -1 scale
(0.1) t 
GR
GR
GS
[0.75 0 0 0.75 1064.74997 500.34999] CT
0.149 GC
/Helvetica 13.333 F
GS
[1 0 0 1 0 0] CT
-26 5.5 moveto 
1 -1 scale
(0.15) t 
GR
GR
GS
[0.75 0 0 0.75 1064.74997 450.55002] CT
0.149 GC
/Helvetica 13.333 F
GS
[1 0 0 1 0 0] CT
-19 5.5 moveto 
1 -1 scale
(0.2) t 
GR
GR
GS
[0.75 0 0 0.75 1064.74997 400.75] CT
0.149 GC
/Helvetica 13.333 F
GS
[1 0 0 1 0 0] CT
-26 5.5 moveto 
1 -1 scale
(0.25) t 
GR
GR
GS
[0 -0.75 0.75 0 1042.24997 525.24986] CT
0.149 GC
/Helvetica 14.667 F
GS
[1 0 0 1 0 0] CT
-70.5 -4 moveto 
1 -1 scale
(Average Path Length) t 
GR
GR
GS
[0.75 0 0 0.75 0 0.25] CT
10.0 ML
0.667 LW
N
13.804 251 M
13.804 207 L
182.467 207 L
182.467 251 L
cp
S
GR
GS
[0.75 0 0 0.75 15.353 158.50001] CT
/Helvetica 13.333 F
GS
[1 0 0 1 0 0] CT
0 14 moveto 
1 -1 scale
(PEARSON COEFFICIENT) t 
GR
GR
GS
[0.75 0 0 0.75 15.353 158.50001] CT
/Helvetica 13.333 F
GS
[1 0 0 1 0 0] CT
0 31 moveto 
1 -1 scale
(          WEIGHTED) t 
GR
GR
GS
[0.75 0 0 0.75 0 0.25] CT
10.0 ML
0.667 LW
N
13.804 717 M
13.804 673 L
182.467 673 L
182.467 717 L
cp
S
GR
GS
[0.75 0 0 0.75 15.353 508] CT
/Helvetica 13.333 F
GS
[1 0 0 1 0 0] CT
0 14 moveto 
1 -1 scale
(SCALED-CORRELATION) t 
GR
GR
GS
[0.75 0 0 0.75 15.353 508] CT
/Helvetica 13.333 F
GS
[1 0 0 1 0 0] CT
0 31 moveto 
1 -1 scale
(    PEAKS WEIGHTED) t 
GR
GR
%%Trailer
%%Pages: 1
%%EOF
